{"content":[{"id":1109867,"mrr":false,"numeroConvocatoria":"908306","descripcion":"ORDEN del 15 de mayo de 2026 por la que se aprueban las bases y se anuncia la convocatoria pública de becas de formación en los lectorados de lengua, literatura y cultura gallegas para el 2026 (código de procedimiento PL500E)","descripcionLeng":null,"fechaRecepcion":"2026-05-27","nivel1":"AUTONOMICA","nivel2":"GALICIA","nivel3":"CONSELLERÍA DE CULTURA, LENGUA Y JUVENTUD","codigoInvente":null},{"id":1109860,"mrr":false,"numeroConvocatoria":"908299","descripcion":"SUBVENCIONES DESTINADAS A PERSONAS TRABAJADORAS AUTÓNOMAS Y MICROEMPRESAS DE MUNICIPIOS DE LA PROVINCIA DE CUENCA DE MENOS DE 5.000 HABITANTES, PARA SUBVENCIONAR LA REALIZACIÓN DE ACTUACIONES DE INVERSIÓN. EJERCICIO 2026","descripcionLeng":null,"fechaRecepcion":"2026-05-27","nivel1":"LOCAL","nivel2":"DIPUTACIÓN PROV. DE CUENCA","nivel3":"DIPUTACIÓN PROVINCIAL DE CUENCA","codigoInvente":null},{"id":1109859,"mrr":false,"numeroConvocatoria":"908298","descripcion":"RESOLUCIÓN DE LA PRESIDENTA DE TURISME COMUNITAT VALENCIANA, POR LA QUE SE CONVOCAN LAS AYUDAS DEL PROGRAMA \"BONO VIAJE RECUPEREM TURISME 2026\"","descripcionLeng":"RESOLUCIÓ DE LA PRESIDENTA DE *TURISME COMUNITAT VALENCIANA, PER LA QUAL ES CONVOQUEN LES AJUDES DEL PROGRAMA \"BONO VIATGE *RECUPEREM *TURISME 2026\"","fechaRecepcion":"2026-05-27","nivel1":"AUTONOMICA","nivel2":"COMUNITAT VALENCIANA","nivel3":"TURISME COMUNITAT VALENCIANA","codigoInvente":"INV00005276"},{"id":1109856,"mrr":false,"numeroConvocatoria":"908295","descripcion":"Procedimiento de concesión de subvenciones económicas individuales para personas con discapacidad año 2026","descripcionLeng":null,"fechaRecepcion":"2026-05-27","nivel1":"LOCAL","nivel2":"SANTA ÚRSULA","nivel3":"AYUNTAMIENTO DE SANTA ÚRSULA","codigoInvente":null},{"id":1109847,"mrr":false,"numeroConvocatoria":"908286","descripcion":"Decreto de alcaldía 332/2026, por el que se aprueban las bases reguladoras de las subvenciones que concederá el Ayuntamiento de\nIbarra en materia de programas de actividades deportivas en el año 2026.","descripcionLeng":"332/2026 Alkate Dekretua, Ibarrako Udalak 2026 urtean kirol jarduerak laguntzeko emango dituen dirulaguntzen oinarri arautzaileak\nonartzen dituena.","fechaRecepcion":"2026-05-27","nivel1":"LOCAL","nivel2":"IBARRA","nivel3":"AYUNTAMIENTO DE IBARRA","codigoInvente":null},{"id":1109846,"mrr":false,"numeroConvocatoria":"908285","descripcion":"Subvenciones para el mejoramiento urbano, ambiental y social de los barrios y villas de atención especial, financiadas por el Fondo de Recuperación Urbana, Ambiental y Social de Barrios y Villas de Atención Especial, para el año 2026.","descripcionLeng":"Subvencions per al millorament urbà, ambiental i social dels barris i viles d’atenció especial, finançades pel Fons de Recuperació Urbana, Ambiental i Social de Barris i Viles d’Atenció Especial, per a l’any 2026.","fechaRecepcion":"2026-05-27","nivel1":"AUTONOMICA","nivel2":"CATALUÑA","nivel3":"DEPARTAMENT DE TERRITORI, HABITATGE I TRANSICIÓ ECOLÒGICA","codigoInvente":null},{"id":1109842,"mrr":false,"numeroConvocatoria":"908281","descripcion":"Subvenciones en materia de Ayudas extraordinarias de apoyo social para contingencias para el año 2026,","descripcionLeng":null,"fechaRecepcion":"2026-05-26","nivel1":"LOCAL","nivel2":"FUENLABRADA DE LOS MONTES","nivel3":"AYUNTAMIENTO DE FUENLABRADA DE LOS MONTES","codigoInvente":null},{"id":1109836,"mrr":false,"numeroConvocatoria":"908275","descripcion":"CONVOCATORIA DE SUBVENCIONES PARA EL FOMENTO DE LA CONCERTACIÓN DE SERVICIOS DE TAXI ACCESIBLE POR EMISORA O SISTEMA TECNOLÓGICO ALTERNATIVO DETERMINADO POR EL AYUNTAMIENTO","descripcionLeng":null,"fechaRecepcion":"2026-05-26","nivel1":"LOCAL","nivel2":"MÁLAGA","nivel3":"AYUNTAMIENTO DE MÁLAGA","codigoInvente":null},{"id":1109826,"mrr":false,"numeroConvocatoria":"908265","descripcion":"Convocatoria 2026 subvenciones en AIS de PPNN","descripcionLeng":null,"fechaRecepcion":"2026-05-26","nivel1":"AUTONOMICA","nivel2":"CANARIAS","nivel3":"CONSEJERÍA DE TRANSICIÓN ECOLÓGICA Y ENERGÍA","codigoInvente":null},{"id":1109825,"mrr":false,"numeroConvocatoria":"908264","descripcion":"CONVOCATORIA PREMIOS DE EDUACIÓN “CIUDAD DE MÁLAGA” 2026","descripcionLeng":null,"fechaRecepcion":"2026-05-26","nivel1":"LOCAL","nivel2":"MÁLAGA","nivel3":"AYUNTAMIENTO DE MÁLAGA","codigoInvente":null},{"id":1109824,"mrr":false,"numeroConvocatoria":"908263","descripcion":"Aprobación de la convocatoria para el otorgamiento de ayudas para la adquisición de libros de texto y material escolar para el curso 2026-2027, a favor de personas (alumnos) de familias con una situación económica y social de vulnerabilidad.","descripcionLeng":"Aprovació de la convocatòria per a l’atorgament d’ajuts per a l’adquisició de llibres de text i material escolar per al curs 2026-2027, a favor de persones (alumnes) de famílies amb una situació econòmica i social de vulnerabilitat.\n","fechaRecepcion":"2026-05-26","nivel1":"LOCAL","nivel2":"VIDRERES","nivel3":"AYUNTAMIENTO DE VIDRERES","codigoInvente":null},{"id":1109823,"mrr":false,"numeroConvocatoria":"908262","descripcion":"Decreto aprobación CONVOCATORIA PARA LA CONCESIÓN DE SUBVENCIONES A INQUILINOS DE VIVIENDAS DE TITULARIDAD PÚBLICA EN RÉGIMEN DE ALQUILER CON OPCIÓN A COMPRA EJERCICIO 2026","descripcionLeng":null,"fechaRecepcion":"2026-05-26","nivel1":"LOCAL","nivel2":"LUCENA","nivel3":"AYUNTAMIENTO DE LUCENA","codigoInvente":null},{"id":1109819,"mrr":false,"numeroConvocatoria":"908258","descripcion":"SUBVENCIONES EN RÉGIMEN DE CONCURRENCIA COMPETITIVA PARA ASOCIACIONES DEL ÁMBITO DE LA PARTICIPACIÓN CIUDADANA EN EL EJERCICIO 2026","descripcionLeng":null,"fechaRecepcion":"2026-05-26","nivel1":"LOCAL","nivel2":"ALCOBENDAS","nivel3":"AYUNTAMIENTO DE ALCOBENDAS","codigoInvente":null},{"id":1109808,"mrr":false,"numeroConvocatoria":"908247","descripcion":"CONVOCATÒRIA SUBVENCIONS A ENTITATS SENSE ÀNIM DE LUCRE. EXERCICI 2026","descripcionLeng":null,"fechaRecepcion":"2026-05-26","nivel1":"LOCAL","nivel2":"MOIÀ","nivel3":"AYUNTAMIENTO DE MOIÀ","codigoInvente":null},{"id":1109790,"mrr":false,"numeroConvocatoria":"908229","descripcion":"CONVOCATÒRIA DE SUBVENCIONS, EN RÈGIM DE CONCURRÈNCIA COMPETITIVA - ESPORTS","descripcionLeng":null,"fechaRecepcion":"2026-05-26","nivel1":"LOCAL","nivel2":"VACARISSES","nivel3":"AYUNTAMIENTO DE VACARISSES","codigoInvente":null},{"id":1109789,"mrr":false,"numeroConvocatoria":"908228","descripcion":"EXTRACTE CONVOCATÒRIA DE SUBVENCIONS, EN RÈGIM DE CONCURRÈNCIA  COMPETITIVA DESTINADES A ENTITATS DE PARTICIPACIO CIUTADANA","descripcionLeng":null,"fechaRecepcion":"2026-05-26","nivel1":"LOCAL","nivel2":"VACARISSES","nivel3":"AYUNTAMIENTO DE VACARISSES","codigoInvente":null},{"id":1109788,"mrr":false,"numeroConvocatoria":"908227","descripcion":"EXTRACTE CONVOCATÒRIA DE SUBVENCIONS, EN RÈGIM DE CONCURRÈNCIA COMPETITIVA DESTINADES A ENTITATS DE COOPERACIÓ I SOLIDARITAT","descripcionLeng":null,"fechaRecepcion":"2026-05-26","nivel1":"LOCAL","nivel2":"VACARISSES","nivel3":"AYUNTAMIENTO DE VACARISSES","codigoInvente":null},{"id":1109787,"mrr":false,"numeroConvocatoria":"908226","descripcion":"EXTRACTE CONVOCATÒRIA DE SUBVENCIONS, EN RÈGIM DE CONCURRÈNCIA COMPETITIVA DESTINADES A ENTITATS DE CULTURA, FESTES, PATRIMONI I ARXIU HISTORIC","descripcionLeng":null,"fechaRecepcion":"2026-05-26","nivel1":"LOCAL","nivel2":"VACARISSES","nivel3":"AYUNTAMIENTO DE VACARISSES","codigoInvente":null},{"id":1109786,"mrr":false,"numeroConvocatoria":"908225","descripcion":"CONVOCATÒRIA DE SUBVENCIONS, EN RÈGIM DE CONCURRÈNCIA COMPETITIVA DESTINADES A ENTITATS D`ENSENYAMENT","descripcionLeng":null,"fechaRecepcion":"2026-05-26","nivel1":"LOCAL","nivel2":"VACARISSES","nivel3":"AYUNTAMIENTO DE VACARISSES","codigoInvente":null},{"id":1109785,"mrr":false,"numeroConvocatoria":"908224","descripcion":"EXTRACTE CONVOCATÒRIA DE SUBVENCIONS, EN RÈGIM DE CONCURRÈNCIA COMPETITIVA DESTINADES A ENTITATS DE JOVENTUT","descripcionLeng":null,"fechaRecepcion":"2026-05-26","nivel1":"LOCAL","nivel2":"VACARISSES","nivel3":"AYUNTAMIENTO DE VACARISSES","codigoInvente":null},{"id":1109784,"mrr":false,"numeroConvocatoria":"908223","descripcion":"Ayudas para la realización de cursos tutorizados en línea para la formación permanente del profesorado de niveles no universitarios. Segunda convocatoria de 2026.","descripcionLeng":null,"fechaRecepcion":"2026-05-26","nivel1":"ESTADO","nivel2":"MINISTERIO DE EDUCACIÓN, FORMACIÓN PROFESIONAL Y DEPORTES","nivel3":"DIRECCIÓN GENERAL DE EVALUACIÓN Y COOPERACIÓN TERRITORIAL","codigoInvente":null},{"id":1109777,"mrr":false,"numeroConvocatoria":"908216","descripcion":"Resolución  de  26  de  mayo  de  2026  de  la  Dirección  General  del  Instituto  de  la Cinematografía y de las Artes Audiovisuales, por la que se convocan para el año 2026 ayudas para la escritura de guiones de largometrajes cinematográficos.","descripcionLeng":null,"fechaRecepcion":"2026-05-26","nivel1":"ESTADO","nivel2":"MINISTERIO DE CULTURA","nivel3":"INSTITUTO DE LA CINEMATOGRAFÍA Y DE LAS ARTES AUDIOVISUALES","codigoInvente":"INV00003693"},{"id":1109775,"mrr":false,"numeroConvocatoria":"908214","descripcion":"ORDEN de 11 de mayo de 2026 por la que se establecen las bases reguladoras de las ayudas destinadas a fomentar el asociacionismo y la participación de las mujeres, y se convocan para el año 2026 (código de procedimiento SI437A)","descripcionLeng":null,"fechaRecepcion":"2026-05-26","nivel1":"AUTONOMICA","nivel2":"GALICIA","nivel3":"CONSELLERÍA DE POLÍTICA SOCIAL E IGUALDAD","codigoInvente":null},{"id":1109774,"mrr":false,"numeroConvocatoria":"908213","descripcion":"ORDEN de la Consejería de Agricultura, Ganadería, Pesca y Soberanía Alimentaria por la que se convoca para la campaña 2026, la ayuda por superficie a los productores de Aloe Vera y Olivo","descripcionLeng":null,"fechaRecepcion":"2026-05-26","nivel1":"AUTONOMICA","nivel2":"CANARIAS","nivel3":"CONSEJERÍA DE AGRICULTURA, GANADERÍA, PESCA Y AGUAS","codigoInvente":null},{"id":1109773,"mrr":false,"numeroConvocatoria":"908212","descripcion":"Convocatoria de Ayudas económicas Programa Talento Joven 2026 - Cámara de Comecio de Jerez","descripcionLeng":null,"fechaRecepcion":"2026-05-26","nivel1":"OTROS","nivel2":"CÁMARA DE COMERCIO DE JEREZ","nivel3":null,"codigoInvente":null},{"id":1109768,"mrr":false,"numeroConvocatoria":"908207","descripcion":"SUBVENCIONES EN RÉGIMEN DE CONCURRENCIA COMPETITIVA del AÑO 2026 PARA CURSOS DE EUSKERA","descripcionLeng":"EUSKARA IKASTAROAK EGITEKO DIRULAGUNTZAK NORGEHIAGOKA ARAUBIDEZ EMATEKO 2026. URTEKO DEIALDIA","fechaRecepcion":"2026-05-26","nivel1":"LOCAL","nivel2":"ZARAUTZ","nivel3":"AYUNTAMIENTO DE ZARAUTZ","codigoInvente":null},{"id":1109767,"mrr":false,"numeroConvocatoria":"908206","descripcion":"CONVOCATORIA PARA LA CONCESIÓN DE SUBVENCIONES EN MATERIA DE  FINALIDADES CULTURALES, EDUCATIVAS, DEPORTIVAS, ASISTENCIALES, HUMANITARIAS Y SOCIALES. AÑO 2026","descripcionLeng":null,"fechaRecepcion":"2026-05-26","nivel1":"LOCAL","nivel2":"UNZUÉ/UNTZUE","nivel3":"AYUNTAMIENTO DE UNZUÉ/UNTZUE","codigoInvente":null},{"id":1109764,"mrr":false,"numeroConvocatoria":"908203","descripcion":"Convocatoria de subvenciones de concurrencia competitiva destinada a entidades SIN ÁNIMO DE LUCRO. Proyectos de dinamización socioeconómica. 2026","descripcionLeng":"Convocatòria de subvencions de concurrència competitiva destinada a entitats SENSE ÀNIM DE LUCRE. Projectes de dinamització socioeconòmica. 2026","fechaRecepcion":"2026-05-26","nivel1":"LOCAL","nivel2":"DIPUTACIÓN PROV. DE VALENCIA","nivel3":"DIPUTACIÓN PROVINCIAL DE VALENCIA","codigoInvente":null},{"id":1109762,"mrr":false,"numeroConvocatoria":"908201","descripcion":"SUBVENCIONES A ENTIDADES LOCALES DE LA PROVINCIA DE SEGOVIA PARA LA REALIZACIÓN DE ACTIVIDADES DE DIFUSIÓN DE LA DANZA TRADICIONAL SEGOVIANA, CON LA DENOMINACIÓN “IDENTIDANZA”","descripcionLeng":null,"fechaRecepcion":"2026-05-26","nivel1":"LOCAL","nivel2":"DIPUTACIÓN PROV. DE SEGOVIA","nivel3":"DIPUTACIÓN PROVINCIAL DE SEGOVIA","codigoInvente":null},{"id":1109759,"mrr":false,"numeroConvocatoria":"908198","descripcion":"CONVOCATORIA DE SUBVENCIONES PARA GASTOS DE LAS COLLAS DE LAS FIESTAS DEL REI EN JAUME 2026","descripcionLeng":"CONVOCATÒRIA DE SUBVENCIONS PER A DESPESES DE LES COLLES DE LES FESTES REI EN JAUME 2026","fechaRecepcion":"2026-05-26","nivel1":"LOCAL","nivel2":"CALVIÀ","nivel3":"AYUNTAMIENTO DE CALVIÀ","codigoInvente":null},{"id":1109758,"mrr":false,"numeroConvocatoria":"908197","descripcion":"Convocatoria para la concesión de ayudas individuales para gastos de escolaridad y/o servicio de comedor escolar, dirigido a alumnado de enseñanza obligatoria y de segundo ciclo de educación infantil, primaria y secundaria para el curso 2026-2027","descripcionLeng":"Convocatòria per a la concessió d’ajuts individuals per a despeses d'escolaritat i/o servei de menjador escolar per a alumnes d'ensenyament obligatori i de segon cicle d'educació infantil, primària i secundària per al curs 2026-2027 ","fechaRecepcion":"2026-05-26","nivel1":"LOCAL","nivel2":"SANT CUGAT DEL VALLÈS","nivel3":"AYUNTAMIENTO DE SANT CUGAT DEL VALLÈS","codigoInvente":null},{"id":1109757,"mrr":false,"numeroConvocatoria":"908196","descripcion":"SUBVENCIONES A AYUNTAMIENTOS, ASOCIACIONES U OTRAS ENTIDADES CARENTES DE ÁNIMO DE LUCRO DE LA PROVINCIA DE SEGOVIA QUE SOSTENGAN ESCUELAS DE MÚSICA EN LAS QUE SE IMPARTAN ENSEÑANZAS DE MÚSICA TRADICIONAL SEGOVIANA.","descripcionLeng":null,"fechaRecepcion":"2026-05-26","nivel1":"LOCAL","nivel2":"DIPUTACIÓN PROV. DE SEGOVIA","nivel3":"DIPUTACIÓN PROVINCIAL DE SEGOVIA","codigoInvente":null},{"id":1109754,"mrr":false,"numeroConvocatoria":"908193","descripcion":"Convocatoria para el año 2026 para la concesión de subvenciones para el acompañamiento de las personas en riesgo de exclusión o situación de exclusión social por parte de las empresas de inserción - L1","descripcionLeng":"Convocatòria per a l'any 2026 per a la concessió de subvencions per a l'acompanyament de les persones en risc d'exclusió o situació d'exclusió social per part de les empreses d'inserció - L1","fechaRecepcion":"2026-05-26","nivel1":"AUTONOMICA","nivel2":"CATALUÑA","nivel3":"DEPARTAMENT D'EMPRESA I TREBALL  ","codigoInvente":null},{"id":1109750,"mrr":false,"numeroConvocatoria":"908189","descripcion":"Acuerdo de Junta de Gobierno Local 15-05-2026, por el que se convoca la XXVI Edición (Año 2026) del Premio de Investigación María Isidra de Guzmán.","descripcionLeng":null,"fechaRecepcion":"2026-05-26","nivel1":"LOCAL","nivel2":"ALCALÁ DE HENARES","nivel3":"AYUNTAMIENTO DE ALCALÁ DE HENARES","codigoInvente":null},{"id":1109748,"mrr":false,"numeroConvocatoria":"908187","descripcion":"Convocatoria para la concesión de subvenciones para financiar la mejora del servicio de TRANSPORTE PÚBLICO en municipios de menos de 10.000 habitantes con marcada ruralidad o con pequeños núcleos diferenciados. 2026","descripcionLeng":"Convocatòria per a la concessió de subvencions per a finançar la millora del servici de TRANSPORT PÚBLIC en municipis de menys de 10.000 habitants amb marcada ruralitat o amb xicotets nuclis diferenciats. 2026","fechaRecepcion":"2026-05-26","nivel1":"LOCAL","nivel2":"DIPUTACIÓN PROV. DE VALENCIA","nivel3":"DIPUTACIÓN PROVINCIAL DE VALENCIA","codigoInvente":null},{"id":1109746,"mrr":false,"numeroConvocatoria":"908185","descripcion":"SUBVENCIONES EN CONCURRENCIA COMPETITIVA DIRIGIDAS A LOS AYUNTAMIENTOS DE LA PROVINCIA DE SEGOVIA PARA LA REALIZACIÓN DE TALLERES DE ASTRONOMÍA PARA JÓVENES","descripcionLeng":null,"fechaRecepcion":"2026-05-26","nivel1":"LOCAL","nivel2":"DIPUTACIÓN PROV. DE SEGOVIA","nivel3":"DIPUTACIÓN PROVINCIAL DE SEGOVIA","codigoInvente":null},{"id":1109740,"mrr":false,"numeroConvocatoria":"908179","descripcion":"BASES IX CERTAMEN DE TEATRO AFICIONADO LA ALGABA 2026","descripcionLeng":null,"fechaRecepcion":"2026-05-26","nivel1":"LOCAL","nivel2":"ALGABA, LA","nivel3":"AYUNTAMIENTO DE ALGABA, LA","codigoInvente":null},{"id":1109737,"mrr":false,"numeroConvocatoria":"908176","descripcion":"Convocatoria de subvenciones para el fomento del empleo y la contratación laboral del Ayuntamiento de Albacete 2026.","descripcionLeng":null,"fechaRecepcion":"2026-05-26","nivel1":"LOCAL","nivel2":"ALBACETE","nivel3":"AYUNTAMIENTO DE ALBACETE","codigoInvente":null},{"id":1109733,"mrr":false,"numeroConvocatoria":"908172","descripcion":"Resolución Vic. Política Científica de 26/05/2026, por la que se aprueba la convocatoria de subvenciones en concurrencia competitiva para 2026 de la Modalidad 3.Acciones complementarias. Submod. 3.1.Estancias breves en centros de investigación extranjeros","descripcionLeng":null,"fechaRecepcion":"2026-05-26","nivel1":"OTROS","nivel2":"UNIVERSIDAD DE CÓRDOBA","nivel3":null,"codigoInvente":"INV00005335"},{"id":1109732,"mrr":false,"numeroConvocatoria":"908171","descripcion":"Ayudas a la organización de congresos y eventos en Vitoria-Gasteiz, y a la creación y promoción de nuevos productos y experiencias turísticas que promuevan la imagen de la ciudad como destino turístico sostenible para el año 2026","descripcionLeng":"Gasteizen biltzarrak eta ekitaldiak antolatzeko eta hiriaren irudia turismo-helmuga jasangarri gisa sustatuko duten turismo-produktu eta esperientzia berriak sortzeko eta sustatzeko laguntzen 2026. urterako","fechaRecepcion":"2026-05-26","nivel1":"LOCAL","nivel2":"VITORIA-GASTEIZ","nivel3":"AYUNTAMIENTO DE VITORIA-GASTEIZ","codigoInvente":null},{"id":1109731,"mrr":false,"numeroConvocatoria":"908170","descripcion":"CONVOCATORIA DE SUBVENCIONES PARA LA PROMOCIÓN DEPORTIVA Y REALIZACIÓN DE ACTIVIDADES DEPORTIVAS EN EL MUNICIPIO DE AGUILAR DE CAMPOO 2026","descripcionLeng":null,"fechaRecepcion":"2026-05-26","nivel1":"LOCAL","nivel2":"AGUILAR DE CAMPOO","nivel3":"AYUNTAMIENTO DE AGUILAR DE CAMPOO","codigoInvente":null},{"id":1109714,"mrr":false,"numeroConvocatoria":"908153","descripcion":"CONVOCATORIA PARA LA CONCESIÓN DE SUBVENCIONES DIRIGIDAS A ENTIDADES SIN ÁNIMO DE LUCRO Y AGRUPACIONES DE PERSONAS FÍSICAS PARA FINANCIAR GASTOS LLEVADOS A CABO EN ACTIVIDADES MEDIOAMBIENTALES Y DE BIENESTAR ANIMAL PARA 2026","descripcionLeng":null,"fechaRecepcion":"2026-05-26","nivel1":"LOCAL","nivel2":"GETAFE","nivel3":"AYUNTAMIENTO DE GETAFE","codigoInvente":null},{"id":1109708,"mrr":false,"numeroConvocatoria":"908147","descripcion":"Convocatoria del V Maratón Fotográfico AFN: Modernismo en Novelda","descripcionLeng":null,"fechaRecepcion":"2026-05-26","nivel1":"LOCAL","nivel2":"NOVELDA","nivel3":"AYUNTAMIENTO DE NOVELDA","codigoInvente":null},{"id":1109700,"mrr":false,"numeroConvocatoria":"908139","descripcion":"RESOLUCIÓN DEL VICERRECTOR DE ESTUDIANTES 19-5-26 CONVOCANDO AYUDAS PARA EL FOMENTO DE LA ADQUISICIÓN Y ACREDITACIÓN DE COMPETENCIAS LINGÜÍSTICAS EXIGIDAS PARA LA OBTENCIÓN DEL TÍTULO DE GRADO. Curso 25-26 (Ayuda competencias lingüísticas Junta Andalucía)","descripcionLeng":null,"fechaRecepcion":"2026-05-26","nivel1":"OTROS","nivel2":"UNIVERSIDAD DE GRANADA","nivel3":null,"codigoInvente":"INV00005337"},{"id":1109699,"mrr":false,"numeroConvocatoria":"908138","descripcion":"Pla ajuntaments per actuacions lleure educatiu i educació temps complet, 1 juliol 2026 a 30 juny 2027","descripcionLeng":null,"fechaRecepcion":"2026-05-26","nivel1":"LOCAL","nivel2":"DIPUTACIÓN PROV. DE LLEIDA","nivel3":"DIPUTACIÓN PROVINCIAL DE LLEIDA","codigoInvente":null},{"id":1109692,"mrr":false,"numeroConvocatoria":"908131","descripcion":"CONVOCATORIA DEL PROGRAMA DE COLABORACIÓN\nECONÓMICA MUNICIPAL DEL SERVICIO RESPIRO FAMILIAR A PERSONAS\nCUIDADORAS HABITUALES NO PROFESIONALES EN LA MANCOMUNIDAD INTEGRAL\nDE LA COMARCA DE OLIVENZA, 2026.","descripcionLeng":null,"fechaRecepcion":"2026-05-26","nivel1":"LOCAL","nivel2":"MANCOMUNIDAD INTEGRAL DE LA COMARCA DE OLIVENZA","nivel3":"MANCOMUNIDAD INTEGRAL DE LA COMARCA DE OLIVENZA","codigoInvente":null},{"id":1109688,"mrr":false,"numeroConvocatoria":"908127","descripcion":"DECRETO DE ALCALDIA 2026-206 DE FECHA 26 DE MAYO DE 2026 DE CONVOCATORIA PARA LA CONCESIÓN DE PRESTACIONES SOCIALES DE CARÁCTER ECONÓMICO EN RÉGIMEN DE CONCURRENCIA COMPETITIVA LA ESCOLARIDAD EL CURSO ESCOLAR 2026-2027","descripcionLeng":"DECRET D'ALCALDIA 2026-206 DE DATA 26 DE MAIG DE 2026 DE CONVOCATÒRIA PER A LA CONCESSIÓ DE PRESTACIONS SOCIALS DE CARÀCTER ECONÒMIC EN RÈGIM DE CONCURRÈNCIA COMPETITIVA A L’ ESCOLARITAT PEL CURS ESCOLAR 2026-2027","fechaRecepcion":"2026-05-26","nivel1":"LOCAL","nivel2":"VILALBA SASSERRA","nivel3":"AYUNTAMIENTO DE VILALBA SASSERRA","codigoInvente":null},{"id":1109685,"mrr":false,"numeroConvocatoria":"908124","descripcion":"Decreto del 18 de mayo de 2026 del Alcalde del Ayuntamiento de Badajoz, por el que se convoca el 30 Premio de Novela Ciudad de Badajoz 2026.","descripcionLeng":null,"fechaRecepcion":"2026-05-26","nivel1":"LOCAL","nivel2":"BADAJOZ","nivel3":"AYUNTAMIENTO DE BADAJOZ","codigoInvente":null},{"id":1109683,"mrr":false,"numeroConvocatoria":"908122","descripcion":"CORRECCIÓN DE ERRORES RESOLUCIÓN 23 ENERO 2026 PREMIOS TFM DISEÑO MICROELECTRÓNICO","descripcionLeng":null,"fechaRecepcion":"2026-05-26","nivel1":"OTROS","nivel2":"UNIVERSITAT POLITÈCNICA DE VALÈNCIA","nivel3":null,"codigoInvente":"INV00005383"},{"id":1109680,"mrr":false,"numeroConvocatoria":"908119","descripcion":"Decreto del 18 de mayo de 2026 del Alcalde del Ayuntamiento de Badajoz por el que se convoca el 23 Premio de Periodismo Ciudad de Badajoz 2026 “Francisco Rodríguez Arias”.","descripcionLeng":null,"fechaRecepcion":"2026-05-26","nivel1":"LOCAL","nivel2":"BADAJOZ","nivel3":"AYUNTAMIENTO DE BADAJOZ","codigoInvente":null}],"pageable":{"sort":{"sorted":true,"unsorted":false,"empty":false},"pageNumber":17,"pageSize":50,"offset":850,"unpaged":false,"paged":true},"last":false,"totalElements":10000,"totalPages":200,"sort":{"sorted":true,"unsorted":false,"empty":false},"first":false,"numberOfElements":50,"size":50,"number":17,"empty":false,"advertencia":"La reutilización de los datos del Sistema Nacional de Publicidad de Subvenciones y Ayudas Públicas está sujeta a una serie de restricciones y consideraciones legales. Consulte el aviso legal en https://www.infosubvenciones.es/bdnstrans/GE/es/avisolegal.Además, el usuario debe ser consciente que la información presentada es de naturaleza dinámica, y que los datos pueden ser sometidos a correcciones, inserciones, modificaciones y eliminaciones en momentos posteriores a su extracción. Accesos al API del sistema Nacional de Publicidad de Subvenciones y Ayudas Públicas. La Administración Presupuestaria, para salvaguardar la protección del acceso libre e irrestricto de los ciudadanos a este Portal y a su información podrá adoptar medidas restrictivas de acceso al API ante situaciones de manifiesto abuso del servicio, riesgos de seguridad, o uso fraudulento de la información descargada, de acuerdo con las buenas prácticas de gestión de datos abiertos (https://datos.gob.es/es/blog/limitaciones-la-consulta-de-una-api) establecidas por el Ministerio para la Transformación Digital y de la Función Pública."}