{"content":[{"id":1121869,"mrr":false,"numeroConvocatoria":"920308","descripcion":"JG DE 14/07/2026 QUE APRUEBA LA CONVOCATORIA DE SUBVENCIONES A DEPORTISTAS DESTACADOS DE LA PROVINCIA DE GUADALAJARA, AÑO 2026","descripcionLeng":null,"fechaRecepcion":"2026-07-20","nivel1":"LOCAL","nivel2":"DIPUTACIÓN PROV. DE GUADALAJARA","nivel3":"DIPUTACIÓN PROVINCIAL DE GUADALAJARA","codigoInvente":null},{"id":1121866,"mrr":false,"numeroConvocatoria":"920305","descripcion":"Convocatoria de subvenciones al sector cultural para el servicio de acompañamiento y asesoramiento en la gestión de casos de violencias machistas y por razón de orientación sexual, identidad de género y expresión de género","descripcionLeng":"Convocatòria de subvencions al sector cultural per al servei d'acompanyament i assessorament en la gestió de casos de violències masclistes i per raó d'orientació sexual, identitat de gènere i expressió de gènere","fechaRecepcion":"2026-07-20","nivel1":"AUTONOMICA","nivel2":"CATALUÑA","nivel3":"OFICINA DE SUPORT A LA INICIATIVA CULTURAL","codigoInvente":null},{"id":1121864,"mrr":false,"numeroConvocatoria":"920303","descripcion":"BASES REGULADORAS DE LA CONVOCATORIA DE SUBVENCIONES PARA APOYAR LOS GASTOS DERIVADOS DE LA INSTALACIÓN Y MONTAJE DE CASETAS A CARGO DE ASOCIACIONES, ENTIDADES Y COLECTIVOS EN EL RECINTO FERIAL CON MOTIVO DE LA CELEBRACIÓN DE LA FERIA 2026.","descripcionLeng":null,"fechaRecepcion":"2026-07-20","nivel1":"LOCAL","nivel2":"CÓRDOBA","nivel3":"AYUNTAMIENTO DE CÓRDOBA","codigoInvente":null},{"id":1121862,"mrr":false,"numeroConvocatoria":"920301","descripcion":"CONVOCATORIA PARA 2027 LAS AYUDAS A LA TRANSFORMACIÓN Y COMERCIALIZACIÓN DE PRODUCTOS DE LA PESCA Y DE LA ACUICULTURA COFINANCIADAS POR EL FONDO EUROPEO MARÍTIMO, DE PESCA Y DE ACUICULTURA (FEMPA).","descripcionLeng":null,"fechaRecepcion":"2026-07-20","nivel1":"AUTONOMICA","nivel2":"CANTABRIA","nivel3":"CONSEJERÍA DE DESARROLLO RURAL, GANADERÍA, PESCA Y ALIMENTACIÓN","codigoInvente":null},{"id":1121852,"mrr":false,"numeroConvocatoria":"920291","descripcion":"II Edición de la Convocatoria de “Premios a los Mejores Proyectos Educativos, correspondientes al curso escolar 2025/2026, aprobada por Acuerdo de la Junta de Gobierno de la Ciudad de Sevilla en su sesión celebrada el día 10 de julio de 2026.","descripcionLeng":null,"fechaRecepcion":"2026-07-20","nivel1":"LOCAL","nivel2":"SEVILLA","nivel3":"AYUNTAMIENTO DE SEVILLA","codigoInvente":null},{"id":1121850,"mrr":false,"numeroConvocatoria":"920289","descripcion":"BASES DE LA CONVOCATORIA DE LA CAMPAÑA BARRIVAL SALADAR/DIANA DEL MUNICIPIO DE DÉNIA EJERCICIO 2026","descripcionLeng":null,"fechaRecepcion":"2026-07-20","nivel1":"LOCAL","nivel2":"DÉNIA","nivel3":"AYUNTAMIENTO DE DÉNIA","codigoInvente":null},{"id":1121847,"mrr":false,"numeroConvocatoria":"920286","descripcion":"CONVOCATORIA REALIZACIÓN DE PRÁCTICAS EN LA DG COOP.ESTADO Y UE 2027-2028","descripcionLeng":null,"fechaRecepcion":"2026-07-20","nivel1":"AUTONOMICA","nivel2":"COMUNIDAD DE MADRID","nivel3":"CONSEJERÍA DE PRESIDENCIA, JUSTICIA Y ADMINISTRACIÓN LOCAL","codigoInvente":null},{"id":1121846,"mrr":false,"numeroConvocatoria":"920285","descripcion":"SUBVENCIÓN APOYO EMIGRACIÓN MADRILEÑA. SITUACIÓN DE NECESIDAD 2026","descripcionLeng":null,"fechaRecepcion":"2026-07-20","nivel1":"AUTONOMICA","nivel2":"COMUNIDAD DE MADRID","nivel3":"CONSEJERÍA DE PRESIDENCIA, JUSTICIA Y ADMINISTRACIÓN LOCAL","codigoInvente":null},{"id":1121843,"mrr":false,"numeroConvocatoria":"920282","descripcion":"JG DE 14/07/2026 QUE APRUEBA LA CONVOCATORIA DE SUBVENCIONES DIRIGIDA A EXPLOTACIONES DE GANADO VACUNO DE LA PROVINCIA DE GUADALAJARA, PARA LA ADQUISICIÓN DE COLLARES CON FUNCIÓN “VALLADO VIRTUAL”, COMO MEDIDA DE PROTECCIÓN FRENTE A ATAQUES DE LOBO IBÉRIC","descripcionLeng":null,"fechaRecepcion":"2026-07-20","nivel1":"LOCAL","nivel2":"DIPUTACIÓN PROV. DE GUADALAJARA","nivel3":"DIPUTACIÓN PROVINCIAL DE GUADALAJARA","codigoInvente":null},{"id":1121837,"mrr":false,"numeroConvocatoria":"920276","descripcion":"Resolución por la que se aprueba y se hace pública la convocatoria para la concesión de ayudas al estudio, financiadas por INECO, dirigidas a estudiantes de la ETSII de la URJC en el curso académico 2026 - 2027","descripcionLeng":null,"fechaRecepcion":"2026-07-20","nivel1":"OTROS","nivel2":"UNIVERSIDAD REY JUAN CARLOS","nivel3":null,"codigoInvente":"INV00005374"},{"id":1121834,"mrr":false,"numeroConvocatoria":"920273","descripcion":"Convocatoria para las ayudas a la formación musical, danza y artes escénicas, curso 2024-2025","descripcionLeng":null,"fechaRecepcion":"2026-07-20","nivel1":"LOCAL","nivel2":"CREVILLENT","nivel3":"AYUNTAMIENTO DE CREVILLENT","codigoInvente":null},{"id":1121829,"mrr":false,"numeroConvocatoria":"920268","descripcion":"Acuerdo de la Junta de Gobierno de la Ciudad de Sevilla, en sesión celebrada el día 3 de julio de 2026 por la que se aprueba CONVOCATORIA PÚBLICA, en régimen de concurrencia competitiva, “QUINTA LIGA DE DEBATE CIUDAD DE SEVILLA 2026-2027)","descripcionLeng":null,"fechaRecepcion":"2026-07-20","nivel1":"LOCAL","nivel2":"SEVILLA","nivel3":"AYUNTAMIENTO DE SEVILLA","codigoInvente":null},{"id":1121826,"mrr":false,"numeroConvocatoria":"920265","descripcion":"CONVOCATORIA PÚBLICA DE SUBVENCIONES PARA EL DESARROLLO EL PROYECTO DE COOPERACIÓN INTERNACIONAL/2026. JGL17/07/2026 PTO 20","descripcionLeng":null,"fechaRecepcion":"2026-07-20","nivel1":"LOCAL","nivel2":"FUENLABRADA","nivel3":"AYUNTAMIENTO DE FUENLABRADA","codigoInvente":null},{"id":1121823,"mrr":false,"numeroConvocatoria":"920262","descripcion":"CONVOCATORIA SUBVENCIONES EMPRENDE Y CONCILIA 2026 REGLAMENTO PESCA","descripcionLeng":null,"fechaRecepcion":"2026-07-20","nivel1":"LOCAL","nivel2":"VALENCIA","nivel3":"AYUNTAMIENTO DE VALENCIA","codigoInvente":null},{"id":1121821,"mrr":false,"numeroConvocatoria":"920260","descripcion":"(4038/2026) CONVOCATORIA CONCESIÓN AYUDAS FINANCIACIÓN REALIZACIÓN ACTIVIDADES O SERVICIOS PARA ATENCIÓN A PERSONAS Y COLECTIVOS CON NECESIDADES SOCIOSANITARIAS A DESARROLLAR EN FRAGA POR ASOCIACIONES Y ENT. PRIVADAS SIN ÁNIMO DE LUCRO, AÑO 2026.","descripcionLeng":null,"fechaRecepcion":"2026-07-20","nivel1":"LOCAL","nivel2":"FRAGA","nivel3":"AYUNTAMIENTO DE FRAGA","codigoInvente":null},{"id":1121818,"mrr":false,"numeroConvocatoria":"920257","descripcion":"CONVOCATORIA DE SUBVENCIONS EN RÉGIMEN DE CONCURRENCIA COMPETITIVA EN MATERIA DE PROMOCIÓN ECONÒMICA DESTINADAS A FOMENTAR EMPRENDIMIENTO, CREACIÓN DE NUEVA ACTIVIDAD ECONÒMICA Y LA MEJORA ESTABLECIMIENTOS DE COMERCIO, SERVICIOS PERSONALES Y RESTAURACIÓN","descripcionLeng":null,"fechaRecepcion":"2026-07-20","nivel1":"LOCAL","nivel2":"OLESA DE MONTSERRAT","nivel3":"AYUNTAMIENTO DE OLESA DE MONTSERRAT","codigoInvente":null},{"id":1121816,"mrr":false,"numeroConvocatoria":"920255","descripcion":"XIII CONCURSO DE PINTURA RÁPIDA AL AIRE LIBRE SAN LICER 2026","descripcionLeng":"XIII concurso de pintura rápida al aire libre San Licer 2026","fechaRecepcion":"2026-07-20","nivel1":"LOCAL","nivel2":"ZUERA","nivel3":"AYUNTAMIENTO DE ZUERA","codigoInvente":null},{"id":1121815,"mrr":false,"numeroConvocatoria":"920254","descripcion":"CONVOCATORIA SUBVENCIONES EMPRENDE Y CONCILIA 2026 REGLAMENTO AGRÍCOLA","descripcionLeng":null,"fechaRecepcion":"2026-07-20","nivel1":"LOCAL","nivel2":"VALENCIA","nivel3":"AYUNTAMIENTO DE VALENCIA","codigoInvente":null},{"id":1121809,"mrr":false,"numeroConvocatoria":"920248","descripcion":"CONVOCATORIA SUBVENCIONES EMPRENDE Y CONCILIA 2026","descripcionLeng":null,"fechaRecepcion":"2026-07-20","nivel1":"LOCAL","nivel2":"VALENCIA","nivel3":"AYUNTAMIENTO DE VALENCIA","codigoInvente":null},{"id":1121806,"mrr":false,"numeroConvocatoria":"920245","descripcion":"S0211 - PROYECTO VIDA INDEPEDIENTE ITINERARIOS INDIVIDUALES - 2026","descripcionLeng":"S0211 - PROJECTES DE VIDA INDEPENDENT ITINERARIS INDIVIDUALITZATS - 2026","fechaRecepcion":"2026-07-20","nivel1":"AUTONOMICA","nivel2":"COMUNITAT VALENCIANA","nivel3":"SECRETARÍA AUTONÓMICA DE  FAMILIA Y SERVICIOS SOCIALES","codigoInvente":null},{"id":1121802,"mrr":false,"numeroConvocatoria":"920241","descripcion":"BASES REGULADORAS ESPECÍFICAS Y CONVOCATORIA DE BECAS DE ALOJAMIENTO DEL ÁREA DE CULTURA Y CIUDADANÍA EN RÉGIMEN DE CONCURRENCIA COMPETITIVA DESTINADAS A ESTUDIANTES DE LA PROVINCIA DE SEVILLA PARA EL CURSO ACADÉMICO 2026-2027.","descripcionLeng":null,"fechaRecepcion":"2026-07-20","nivel1":"LOCAL","nivel2":"DIPUTACIÓN PROV. DE SEVILLA","nivel3":"DIPUTACIÓN PROVINCIAL DE SEVILLA","codigoInvente":null},{"id":1121799,"mrr":false,"numeroConvocatoria":"920238","descripcion":"APROBANDO LAS BASES Y LA CONVOCATORIA DEL PREMIO INTERNACIONAL DE PERIODISMO “MANUEL CHAVES NOGALES”, EDICIÓN 2026.","descripcionLeng":null,"fechaRecepcion":"2026-07-20","nivel1":"LOCAL","nivel2":"DIPUTACIÓN PROV. DE SEVILLA","nivel3":"DIPUTACIÓN PROVINCIAL DE SEVILLA","codigoInvente":null},{"id":1121798,"mrr":false,"numeroConvocatoria":"920237","descripcion":"Convocatoria y bases que rigen las AYUDAS PARA EL PAGO DE ALQUILER O HIPOTECA DE VIVIENDA A MUJERES VÍCTIMAS DE VIOLENCIA CONTRA LAS MUJERES (VIOLENCIA EJERCIDA POR SU PAREJA O EX-PAREJA DE ACUERDO A LA LEY 1/2004), AÑO 2026","descripcionLeng":null,"fechaRecepcion":"2026-07-20","nivel1":"LOCAL","nivel2":"ZARAGOZA","nivel3":"AYUNTAMIENTO DE ZARAGOZA","codigoInvente":null},{"id":1121795,"mrr":false,"numeroConvocatoria":"920234","descripcion":"CONVOCATORIA DE SUBVENCIONES PARA El OTORGAMIENTO DE AYUDAS POR LA MATRICULACIÓN A LAS GUARDERÍAS PRIVADAS DE MOLLET A LA ESCOLARIZACIÓN I2 (2 AÑOS) PARA EL CURSO ESCOLAR 2026-2027","descripcionLeng":"CONVOCATORIA DE SUBVENCIONS PER L`ATORGAMENT D`AJUTS PER LA MATRICULACIÓ A LES LLARS D`INFANTS PRIVADES DE MOLLET A L`ESCOLARITZACIÓ I2 (2 AÑOS) PEL CURS ESCOLAR 2026-2027","fechaRecepcion":"2026-07-20","nivel1":"LOCAL","nivel2":"MOLLET DEL VALLÈS","nivel3":"AYUNTAMIENTO DE MOLLET DEL VALLÈS","codigoInvente":null},{"id":1121793,"mrr":false,"numeroConvocatoria":"920232","descripcion":"CONVOCATORIA DE SUBVENCIONES PARA EL OTORGAMIENTO DE AYUDAS DE COMEDOR ESCOLAR A LAS GUARDERÍAS MUNICIPALES PARA EL CURSO 2026-2027","descripcionLeng":"CONVOCATORIA DE SUBVENCIONS PER L`ATORGAMENT D`AJUTS DE MENJADOR ESCOLAR A LES ESCOLES BRESSOL MUNICIPALS PEL CURS 2026-2027","fechaRecepcion":"2026-07-20","nivel1":"LOCAL","nivel2":"MOLLET DEL VALLÈS","nivel3":"AYUNTAMIENTO DE MOLLET DEL VALLÈS","codigoInvente":null},{"id":1121790,"mrr":false,"numeroConvocatoria":"920229","descripcion":"CONVOCATORIA PARA LA CONCESIÓN DE SUBVENCIONES EN RÉGIMEN DE CONCURRENCIA COMPETITIVA PARA LA REALIZACIÓN DE ACTIVIDADES Y PROYECTOS DEL ÁMBITO CULTURA PARA EL AÑO 2026.","descripcionLeng":null,"fechaRecepcion":"2026-07-20","nivel1":"LOCAL","nivel2":"ROCA DEL VALLÈS, LA","nivel3":"AYUNTAMIENTO DE ROCA DEL VALLÈS, LA","codigoInvente":null},{"id":1121775,"mrr":false,"numeroConvocatoria":"920214","descripcion":"RESOLUCIÓN de la Conselleria de Educación, Cultura y Universidades, por la que se aprueban las bases reguladoras y se convocan ayudas económicas, en concepto de subvención, para contribuir a la financiación de los gastos de ejecución de acciones y program","descripcionLeng":"RESOLUCIÓ de la Conselleria d’Educació, Cultura i Universitats per la qual s’aproven les bases reguladores i es convoquen ajudes econòmiques, en concepte de subvenció, per a contribuir al finançament dels gastos d’execució d’accions i program","fechaRecepcion":"2026-07-20","nivel1":"AUTONOMICA","nivel2":"COMUNITAT VALENCIANA","nivel3":"SECRETARÍA AUTONÓMICA DE EDUCACIÓN","codigoInvente":null},{"id":1121771,"mrr":false,"numeroConvocatoria":"920210","descripcion":"XX Edición Premios IDEAS UPV 2026","descripcionLeng":null,"fechaRecepcion":"2026-07-20","nivel1":"OTROS","nivel2":"UNIVERSITAT POLITÈCNICA DE VALÈNCIA","nivel3":null,"codigoInvente":"INV00005383"},{"id":1121767,"mrr":false,"numeroConvocatoria":"920206","descripcion":"CONVOCATORIA PREMIOS XIV TROFEO D. MANUEL GONZÁLEZ FERNÁNDEZ","descripcionLeng":null,"fechaRecepcion":"2026-07-20","nivel1":"LOCAL","nivel2":"XERMADE","nivel3":"AYUNTAMIENTO DE XERMADE","codigoInvente":null},{"id":1121765,"mrr":false,"numeroConvocatoria":"920204","descripcion":"Bases la convocatoria del XVII Concurso de Tarjetas de Nadal Solidari UJI 2026","descripcionLeng":"Bases de la convocatòria del XVII Concurs de Targetes de Nadal Solidari UJI 2026","fechaRecepcion":"2026-07-20","nivel1":"OTROS","nivel2":"UNIVERSIDAD JAUME I DE CASTELLÓN","nivel3":null,"codigoInvente":"INV00005381"},{"id":1121764,"mrr":false,"numeroConvocatoria":"920203","descripcion":"PREMIOS A TESIS DOCTORAL Y TRABAJO FIN DE MÁSTER. CÁTEDRA DEL AGUA DIPUTACIÓN DE ALICANTE–UNIVERSIDAD DE ALICANTE","descripcionLeng":null,"fechaRecepcion":"2026-07-20","nivel1":"OTROS","nivel2":"UNIVERSIDAD DE ALICANTE","nivel3":null,"codigoInvente":"INV00005329"},{"id":1121763,"mrr":false,"numeroConvocatoria":"920202","descripcion":"BASES Y ANEXOS QUE HAN DE REGIR LA CONVOCATORIA PARA LA CONCESIÓN DE AYUDAS MUNICIPALES PARA APOYAR A CLUBES DEPORTIVOS Y DEPORTISTAS FEDERADOS DEL MUNICIPIO DE GÜÍMAR PARA LA TEMPORADA 2025 - 2026","descripcionLeng":null,"fechaRecepcion":"2026-07-20","nivel1":"LOCAL","nivel2":"GÜÍMAR","nivel3":"AYUNTAMIENTO DE GÜÍMAR","codigoInvente":null},{"id":1121758,"mrr":false,"numeroConvocatoria":"920197","descripcion":"Convocatoria Pyme Global 2026, Visita a la feria internacional World Travel Market London, que tendrá lugar del 3 al 5 de noviembre del 2026 en Londres, Reino Unido, para las empresas de Gran Canaria.","descripcionLeng":null,"fechaRecepcion":"2026-07-20","nivel1":"OTROS","nivel2":"CÁMARA DE COMERCIO DE GRAN CANARIA","nivel3":null,"codigoInvente":null},{"id":1121757,"mrr":false,"numeroConvocatoria":"920196","descripcion":"Resolución EMT/2761/2025, de 8 de julio, por la que se abre la convocatoria para el año 2025 para la concesión de subvenciones destinadas al Programa de apoyo a los territorios con mayores necesidades de reequilibrio territorial y social","descripcionLeng":"Resolució EMT/   /2026, de    de   , per la qual sobre la convocatòria de subvencions per a lany 2026 en relació amb les actuacions del Programa de suport als territoris amb majors necessitats de reequilibri territorial i social","fechaRecepcion":"2026-07-20","nivel1":"AUTONOMICA","nivel2":"CATALUÑA","nivel3":"SERVICIO PÚBLICO DE EMPLEO DE CATALUÑA","codigoInvente":"INV00005019"},{"id":1121756,"mrr":false,"numeroConvocatoria":"920195","descripcion":"Convocatoria de subvenciones para intervenciones arqueológicas y paleontológicas preventivas","descripcionLeng":"Convocatòria de subvencions per a intervencions arqueològiques i paleontològiques preventives","fechaRecepcion":"2026-07-20","nivel1":"AUTONOMICA","nivel2":"CATALUÑA","nivel3":"OFICINA DE SUPORT A LA INICIATIVA CULTURAL","codigoInvente":null},{"id":1121755,"mrr":false,"numeroConvocatoria":"920194","descripcion":"Convocatoria Pyme Global 2026, Visita a la feria internacional Metstrade, que tendrá lugar del 17 al 19 de noviembre del 2026 en Ámsterdam, Países Bajos, para las empresas de Gran Canaria.","descripcionLeng":null,"fechaRecepcion":"2026-07-20","nivel1":"OTROS","nivel2":"CÁMARA DE COMERCIO DE GRAN CANARIA","nivel3":null,"codigoInvente":null},{"id":1121752,"mrr":false,"numeroConvocatoria":"920191","descripcion":"Convocatoria de concesión de subvención en régimen de concurrencia competitiva, año 2026, destinada a deportistas de élite, de alta competición y de promoción, y deportistas de alto nivel","descripcionLeng":null,"fechaRecepcion":"2026-07-20","nivel1":"LOCAL","nivel2":"CULLERA","nivel3":"AYUNTAMIENTO DE CULLERA","codigoInvente":null},{"id":1121749,"mrr":false,"numeroConvocatoria":"920188","descripcion":"ORDE do 7 de xullo  de 2026, pola que se establecen as bases que regulan as axudas e subvencións para o fomento do emprego a través dos programas de cooperación no ámbito de colaboración coas entidades sen ánimo de lucro","descripcionLeng":"Galego","fechaRecepcion":"2026-07-20","nivel1":"AUTONOMICA","nivel2":"GALICIA","nivel3":"CONSELLERÍA DE EMPLEO, COMERCIO Y EMIGRACIÓN","codigoInvente":null},{"id":1121747,"mrr":false,"numeroConvocatoria":"920186","descripcion":"JG DE 14/07/2026 QUE APRUEBA LA CONVOCATORIA DE SUBVENCIONES PARA EL FOMENTO DEL EMPLEO Y LA INICIATIVA EMPRENDEDORA EN LA PROVINCIA DE GUADALAJARA, AÑO 2026","descripcionLeng":null,"fechaRecepcion":"2026-07-20","nivel1":"LOCAL","nivel2":"DIPUTACIÓN PROV. DE GUADALAJARA","nivel3":"DIPUTACIÓN PROVINCIAL DE GUADALAJARA","codigoInvente":null},{"id":1121745,"mrr":false,"numeroConvocatoria":"920184","descripcion":"CONVOCATORIA DE LA SUBVENCIÓN PARA ASOCIACIONES CULTURALESREGISTRADAS COMO PEÑAS PÚBLICAS Y COMO FEDERACIONES DE PEÑAS PÚBLICASDEL MUNICIPIO DE AZUQUECA DE HENARES PARA EL AÑO 2026","descripcionLeng":null,"fechaRecepcion":"2026-07-20","nivel1":"LOCAL","nivel2":"AZUQUECA DE HENARES","nivel3":"AYUNTAMIENTO DE AZUQUECA DE HENARES","codigoInvente":null},{"id":1121743,"mrr":false,"numeroConvocatoria":"920182","descripcion":"Convocatoria y bases que rigen las SUBVENCIONES EN MATERIA DE ACCIÓN SOCIAL 2026-2027.","descripcionLeng":null,"fechaRecepcion":"2026-07-20","nivel1":"LOCAL","nivel2":"ZARAGOZA","nivel3":"AYUNTAMIENTO DE ZARAGOZA","codigoInvente":null},{"id":1121739,"mrr":false,"numeroConvocatoria":"920178","descripcion":"RESOLUCIÓN DE LA VICERRECTORA DE INVESTIGACIÓN DE LA UNIVERSIDAD DE OVIEDO, PARA LA CONTRATACIÓN DE PERSONAL INVESTIGADOR Y TÉCNICO DE APOYO, SEGÚN ARTÍCULO 23.bis DE LA LEY 14/2011 DE LA CIENCIA, LA TECNOLOGÍA Y LA INNOVACIÓN (JULIO EXTRA 6)","descripcionLeng":null,"fechaRecepcion":"2026-07-20","nivel1":"OTROS","nivel2":"UNIVERSIDAD DE OVIEDO","nivel3":null,"codigoInvente":"INV00005347"},{"id":1121728,"mrr":false,"numeroConvocatoria":"920167","descripcion":"BASES REGULADORAS Y CONVOCATORIA DE AYUDAS POR NACIMIENTO Y/O ADOPCIÓN DE HIJOS/AS EN LA CIUDAD DE TORREVIEJA. CONVOCATORIA 2025.","descripcionLeng":null,"fechaRecepcion":"2026-07-20","nivel1":"LOCAL","nivel2":"TORREVIEJA","nivel3":"AYUNTAMIENTO DE TORREVIEJA","codigoInvente":null},{"id":1121718,"mrr":false,"numeroConvocatoria":"920157","descripcion":"Convocatoria para subvencionar el transporte en línea regular al alumnado de bachillerato y ciclos formativos residente en pedanías del municipio de Lorca, correspondiente al período comprendido entre octubre a diciembre de 2026.","descripcionLeng":null,"fechaRecepcion":"2026-07-20","nivel1":"LOCAL","nivel2":"LORCA","nivel3":"AYUNTAMIENTO DE LORCA","codigoInvente":null},{"id":1121714,"mrr":false,"numeroConvocatoria":"920153","descripcion":"PRIMERA CONVOCATORIA DEL PROGRAMA DE INCENTIVOS A PROYECTOS SINGULARES INNOVADORES DE AHORRO Y EFICIENCIA ENERGÉTICA (INNOVAE)","descripcionLeng":null,"fechaRecepcion":"2026-07-20","nivel1":"ESTADO","nivel2":"MINISTERIO PARA LA TRANSICIÓN ECOLÓGICA Y EL RETO DEMOGRÁFICO","nivel3":"INSTITUTO PARA LA DIVERSIFICACIÓN Y AHORRO DE LA ENERGÍA (IDAE)","codigoInvente":"INV00001947"},{"id":1121711,"mrr":false,"numeroConvocatoria":"920150","descripcion":"Convocatoria becas MHESTE y DESEEEA curso 26-27","descripcionLeng":null,"fechaRecepcion":"2026-07-20","nivel1":"OTROS","nivel2":"UNIVERSITAT POLITÈCNICA DE VALÈNCIA","nivel3":null,"codigoInvente":"INV00005383"},{"id":1121710,"mrr":false,"numeroConvocatoria":"920149","descripcion":"IX Edición premio mejor tesis doctoral Cambio Climático.","descripcionLeng":null,"fechaRecepcion":"2026-07-20","nivel1":"OTROS","nivel2":"UNIVERSITAT POLITÈCNICA DE VALÈNCIA","nivel3":null,"codigoInvente":"INV00005383"},{"id":1121696,"mrr":false,"numeroConvocatoria":"920135","descripcion":"Subvenciones 2026 de la Modalidad A, Proyectos de Sensibilización y Prevención de la Violencia de Género, en el marco del Pacto de Estado contra la Violencia de Género, s/ Resolución de 8 de julio de 2026 de la Secretaria General que convoca","descripcionLeng":null,"fechaRecepcion":"2026-07-20","nivel1":"AUTONOMICA","nivel2":"EXTREMADURA","nivel3":"SECRETARÍA GENERAL DE IGUALDAD Y CONCILIACIÓN","codigoInvente":null},{"id":1121693,"mrr":false,"numeroConvocatoria":"920132","descripcion":"DECRETO FORAL 72/2026 de 16 de julio, de la Diputación Foral de Bizkaia, que aprueba las bases reguladoras y la convocatoria de subvenciones para la organización de colonias, campamentos y campos de trabajo durante el verano de 2026.","descripcionLeng":"Bizkaiko Foru Aldundiaren 72/2026 FORU DEKRETUA, uztailaren 16koa, oinarri arautzaileak eta dirulaguntzen deialdia onesten dituena. Udalekuak, kanpamenduak eta auzolandegiak antolatzeko 2026ko udan.","fechaRecepcion":"2026-07-20","nivel1":"LOCAL","nivel2":"DIPUTACIÓN FORAL DE BIZKAIA","nivel3":"DIPUTACIÓN FORAL DE BIZKAIA","codigoInvente":null},{"id":1121691,"mrr":false,"numeroConvocatoria":"920130","descripcion":"Subvenciones para entidades locales para el desarrollo de programas de formación profesional básica en la modalidad de aula profesional básica en la Comunidad Autónoma de Cantabria 2026/2027","descripcionLeng":null,"fechaRecepcion":"2026-07-20","nivel1":"AUTONOMICA","nivel2":"CANTABRIA","nivel3":"CONSEJERÍA DE EDUCACIÓN, FORMACIÓN PROFESIONAL Y UNIVERSIDADES","codigoInvente":null}],"pageable":{"sort":{"sorted":true,"unsorted":false,"empty":false},"pageNumber":2,"pageSize":50,"offset":100,"paged":true,"unpaged":false},"last":false,"totalPages":200,"totalElements":10000,"first":false,"sort":{"sorted":true,"unsorted":false,"empty":false},"numberOfElements":50,"size":50,"number":2,"empty":false,"advertencia":"La reutilización de los datos del Sistema Nacional de Publicidad de Subvenciones y Ayudas Públicas está sujeta a una serie de restricciones y consideraciones legales. Consulte el aviso legal en https://www.infosubvenciones.es/bdnstrans/GE/es/avisolegal.Además, el usuario debe ser consciente que la información presentada es de naturaleza dinámica, y que los datos pueden ser sometidos a correcciones, inserciones, modificaciones y eliminaciones en momentos posteriores a su extracción. Accesos al API del sistema Nacional de Publicidad de Subvenciones y Ayudas Públicas. La Administración Presupuestaria, para salvaguardar la protección del acceso libre e irrestricto de los ciudadanos a este Portal y a su información podrá adoptar medidas restrictivas de acceso al API ante situaciones de manifiesto abuso del servicio, riesgos de seguridad, o uso fraudulento de la información descargada, de acuerdo con las buenas prácticas de gestión de datos abiertos (https://datos.gob.es/es/blog/limitaciones-la-consulta-de-una-api) establecidas por el Ministerio para la Transformación Digital y de la Función Pública."}