{"content":[{"id":1107453,"mrr":false,"numeroConvocatoria":"905892","descripcion":"CONVOCATORIA SUBVENCIONS EFICIENCIA ENERGETICA 2026","descripcionLeng":null,"fechaRecepcion":"2026-05-15","nivel1":"LOCAL","nivel2":"GURB","nivel3":"AYUNTAMIENTO DE GURB","codigoInvente":null},{"id":1107451,"mrr":false,"numeroConvocatoria":"905890","descripcion":"Convocatoria 2026 de ayudas para el pago de trámites administrativos por la realización de obras en viviendas como consecuencia de las inundaciones del 29 de octubre de 2024.","descripcionLeng":"Convocatòria 2026  d'ajudes  per  al  pagament  de  tràmits  administratius  per  la  realització  d’obres  en  habitatges  com  a  conseqüència de les inundacions del 29 d’octubre de 2024.","fechaRecepcion":"2026-05-15","nivel1":"LOCAL","nivel2":"PICANYA","nivel3":"AYUNTAMIENTO DE PICANYA","codigoInvente":null},{"id":1107450,"mrr":false,"numeroConvocatoria":"905889","descripcion":"CONVOCATORIA SUBVENCIONS ASFALT DE CAMINS 2026","descripcionLeng":null,"fechaRecepcion":"2026-05-15","nivel1":"LOCAL","nivel2":"GURB","nivel3":"AYUNTAMIENTO DE GURB","codigoInvente":null},{"id":1107448,"mrr":false,"numeroConvocatoria":"905887","descripcion":"AYUDA COMPLEMENTARIA PARA LIBROS O MATERIAL DIDÁCTICO PARA ALUMNOS Y ALUMNAS DE 2.º CICLO DE EDUCACIÓN INFANTIL DEL MUNICIPIO DE ÁGUILAS. CURSO 2026-2027","descripcionLeng":null,"fechaRecepcion":"2026-05-15","nivel1":"LOCAL","nivel2":"ÁGUILAS","nivel3":"AYUNTAMIENTO DE ÁGUILAS","codigoInvente":null},{"id":1107447,"mrr":false,"numeroConvocatoria":"905886","descripcion":"ORDEN de 11 de mayo de 2026 por la que se establecen las bases reguladoras generales y se convocan para el año 2026, en régimen de concurrencia competitiva, ayudas a proyectos colectivos, cofinanciados por el FEMPA (cód proc. PE209P)","descripcionLeng":"ORDE do 11 de maio de 2026 pola que se establecen as bases reguladoras xerais e se convocan para o ano 2026, en réxime de concorrencia competitiva, axudas a proxectos colectivos, cofinanciados polo FEMPA  (cód proc. PE209P)","fechaRecepcion":"2026-05-15","nivel1":"AUTONOMICA","nivel2":"GALICIA","nivel3":"CONSELLERÍA DEL MAR","codigoInvente":null},{"id":1107446,"mrr":false,"numeroConvocatoria":"905885","descripcion":"Convocatoria de becas para la formación y perfeccionamiento de músicos y bailarines en centros de formación en el ámbito de la música i la danza de raíz tradicional","descripcionLeng":"Convocatòria de beques per a la formació i perfeccionament de músics i dansaires en centres de formació en l'àmbit de la música i la dansa d'arrel tradicional","fechaRecepcion":"2026-05-15","nivel1":"AUTONOMICA","nivel2":"CATALUÑA","nivel3":"OFICINA DE SUPORT A LA INICIATIVA CULTURAL","codigoInvente":null},{"id":1107444,"mrr":false,"numeroConvocatoria":"905883","descripcion":"LÍNEA S0146. Resolución del Conseller de Sanidad, por la que efectúa la convocatoria de las ayudas destinadas a promover proyectos de promoción de la salud perinatal y primera infancia","descripcionLeng":"RESOLUCIÓ  del conseller de Sanitat, per la qual s'efectua la convocatòria de les ajudes destinades a promoure projectes de promoció  de la  salut perinatal i primera infància.","fechaRecepcion":"2026-05-15","nivel1":"AUTONOMICA","nivel2":"COMUNITAT VALENCIANA","nivel3":"SECRETARÍA AUTONÓMICA DE SALUD PÚBLICA Y DEL SISTEMA SANITARIO PÚBLICO","codigoInvente":null},{"id":1107431,"mrr":false,"numeroConvocatoria":"905870","descripcion":"Convocatoria de becas de colaboración para realización de tareas de apoyo a la Cátedra participativa de cambio climático y sostenibilidad del sector primario de la universidad de Castilla-La Mancha. Año 2026","descripcionLeng":null,"fechaRecepcion":"2026-05-15","nivel1":"OTROS","nivel2":"UNIVERSIDAD DE CASTILLA-LA MANCHA","nivel3":null,"codigoInvente":"INV00005334"},{"id":1107429,"mrr":false,"numeroConvocatoria":"905868","descripcion":"CONVOCATORIA DE SUBVENCION PARA LAS ASOCIACIONES MUNICIPALES DE BOECILLO PARA EL EJERCICIO DEL 2026","descripcionLeng":null,"fechaRecepcion":"2026-05-15","nivel1":"LOCAL","nivel2":"BOECILLO","nivel3":"AYUNTAMIENTO DE BOECILLO","codigoInvente":null},{"id":1107412,"mrr":false,"numeroConvocatoria":"905851","descripcion":"ACUERDO DE JUNTA DE GOBIERNO LOCAL DE 8 DE MAYO DE 2026 APRUEBA CONVOCATORIA SUBVENCIONES A PROFESIONALES DEL TAXI POR LA ADQUISICIÓN DE VEHÍCULOS CON DISTINTIVO ECO Y CERO EMISIONES ADQUIRIDOS EN 2025","descripcionLeng":null,"fechaRecepcion":"2026-05-15","nivel1":"LOCAL","nivel2":"ALMERÍA","nivel3":"AYUNTAMIENTO DE ALMERÍA","codigoInvente":null},{"id":1107411,"mrr":false,"numeroConvocatoria":"905850","descripcion":"Resolución Alcaldia nºº 814/2026 aprobación  de les bases de la convocatoria dels I Premis a l'Ús del Valencià en el comerCIO","descripcionLeng":"Resolució Alcaldia n´º 814/2026 aprobació  de les bases de la convocatòria dels I Premis a l'Ús del Valencià en el comerç","fechaRecepcion":"2026-05-15","nivel1":"LOCAL","nivel2":"ALGINET","nivel3":"AYUNTAMIENTO DE ALGINET","codigoInvente":null},{"id":1107410,"mrr":false,"numeroConvocatoria":"905849","descripcion":"Convocatoria Pyme Global 2026 de Misión Comercial a Angola, Sudáfrica, Mauricio, Reunión y Comores para empresas de Castilla-La Mancha","descripcionLeng":null,"fechaRecepcion":"2026-05-15","nivel1":"OTROS","nivel2":"CÁMARA DE COMERCIO DE CIUDAD REAL","nivel3":null,"codigoInvente":null},{"id":1107409,"mrr":true,"numeroConvocatoria":"905848","descripcion":"Convocatoria de ayudas directas a personas pertenecientes a colectivos vulnerables para la realización de Microcredenciales Universitarias en el marco del Plan Microcreds (PRTR).","descripcionLeng":null,"fechaRecepcion":"2026-05-14","nivel1":"OTROS","nivel2":"UNIVERSIDAD DE OVIEDO","nivel3":null,"codigoInvente":"INV00005347"},{"id":1107408,"mrr":false,"numeroConvocatoria":"905847","descripcion":"SUBV. PROYECTOS GENERACIÓN CONOCIMIENTO CONSERVACIÓN PATRIMONIO","descripcionLeng":"2026an natura-ondarearen kontserbazioan ezagutza sortzeko proiektuak dirul.","fechaRecepcion":"2026-05-14","nivel1":"AUTONOMICA","nivel2":"PAÍS VASCO","nivel3":"DEPARTAMENTO DE INDUSTRIA, TRANSICIÓN ENERGÉTICA Y SOSTENIBILIDAD","codigoInvente":null},{"id":1107397,"mrr":false,"numeroConvocatoria":"905836","descripcion":"Orden por la que se convocan para 2026, subvenciones destinadas a apoyar a Asociaciones Profesionales Agrarias - Sin Ánimo de Lucro","descripcionLeng":null,"fechaRecepcion":"2026-05-14","nivel1":"AUTONOMICA","nivel2":"CANARIAS","nivel3":"CONSEJERÍA DE AGRICULTURA, GANADERÍA, PESCA Y SOBERANÍA ALIMENTARIA","codigoInvente":null},{"id":1107396,"mrr":false,"numeroConvocatoria":"905835","descripcion":"SUBVENCIONES PARA LA CONTRATACIÓN LABORAL DE PERSONAS JÓVENES DESEMPLEADAS","descripcionLeng":null,"fechaRecepcion":"2026-05-14","nivel1":"AUTONOMICA","nivel2":"CANARIAS","nivel3":"CONSEJERÍA DE BIENESTAR SOCIAL, IGUALDAD, JUVENTUD, INFANCIA Y FAMILIAS","codigoInvente":null},{"id":1107389,"mrr":false,"numeroConvocatoria":"905828","descripcion":"PRIMERA EDICIÓN DEL“PREMIO PARA LAS PRÁCTICAS LOCALES DE ABORDAJE DEL EDADISMO\nHACIA LAS PERSONAS MAYORES: PREMIO EDADISMO CERO”","descripcionLeng":"PRIMERA EDICIÓ DEL “PREMI PER A PRÀCTIQUES LOCALS D’ABORDATGE DE L’EDATISME\nENVERS LES PERSONES GRANS: PREMI EDATISME ZERO\"","fechaRecepcion":"2026-05-14","nivel1":"LOCAL","nivel2":"DIPUTACIÓN PROV. DE BARCELONA","nivel3":"DIPUTACIÓN PROVINCIAL DE BARCELONA","codigoInvente":null},{"id":1107383,"mrr":false,"numeroConvocatoria":"905822","descripcion":"Resolución de 29 de mayo de 2026 de la Presidencia de la Agencia Estatal de Investigación, por la que se aprueba la convocatoria del año 2026 de las ayudas a redes de investigación.","descripcionLeng":null,"fechaRecepcion":"2026-05-14","nivel1":"ESTADO","nivel2":"MINISTERIO DE CIENCIA, INNOVACIÓN Y UNIVERSIDADES","nivel3":"AGENCIA ESTATAL DE INVESTIGACIÓN","codigoInvente":"INV00000101"},{"id":1107382,"mrr":false,"numeroConvocatoria":"905821","descripcion":"Convocatoria de subvenciones para salas comerciales de exhibición cinematográfica que subtitulen largometrajes en lengua catalana para el año 2026","descripcionLeng":"Convocatòria de subvencions per a sales comercials d'exhibició cinematogràfica que subtitulin llargmetratges en llengua catalana per a l'any 2026","fechaRecepcion":"2026-05-14","nivel1":"AUTONOMICA","nivel2":"CATALUÑA","nivel3":"OFICINA DE SUPORT A LA INICIATIVA CULTURAL","codigoInvente":null},{"id":1107381,"mrr":false,"numeroConvocatoria":"905820","descripcion":"Convocatoria de subvenciones para proyectos de apoyo a la investigación y la creación de artes escénicas y artes visuales de carácter profesional","descripcionLeng":"Convocatòria de subvencions per a projectes de suport a la recerca i la creació d'arts escèniques i arts visuals de caràcter professional","fechaRecepcion":"2026-05-14","nivel1":"AUTONOMICA","nivel2":"CATALUÑA","nivel3":"OFICINA DE SUPORT A LA INICIATIVA CULTURAL","codigoInvente":null},{"id":1107380,"mrr":false,"numeroConvocatoria":"905819","descripcion":"FINANCIACION ESTATAL - AYUDAS UNIDADES APOYO ACTIVIDAD PROFESIONAL_CEE","descripcionLeng":null,"fechaRecepcion":"2026-05-14","nivel1":"AUTONOMICA","nivel2":"COMUNIDAD DE MADRID","nivel3":"CONSEJERÍA ECONOMÍA, HACIENDA Y EMPLEO","codigoInvente":null},{"id":1107379,"mrr":false,"numeroConvocatoria":"905818","descripcion":"Prestaciones económicas para el apoyo a la familia e infancia en el periodo estival en el ejercicio 2026","descripcionLeng":null,"fechaRecepcion":"2026-05-14","nivel1":"LOCAL","nivel2":"ALCORA, L'","nivel3":"AYUNTAMIENTO DE ALCORA, L'","codigoInvente":null},{"id":1107378,"mrr":false,"numeroConvocatoria":"905817","descripcion":"Subvención para proyectos comunitarios de interés social, AUZOLAN","descripcionLeng":null,"fechaRecepcion":"2026-05-14","nivel1":"AUTONOMICA","nivel2":"COMUNIDAD FORAL DE NAVARRA","nivel3":"INSTITUTO NAVARRO DE JUVENTUD","codigoInvente":null},{"id":1107373,"mrr":false,"numeroConvocatoria":"905812","descripcion":"CONCESIÓN DE AYUDAS EN ESPECIE DESTINADAS A PERSONAS EN SITUACIÓN DE DEPENDENCIA MEDIANTE EL PROGRAMA DE RESPIRO FAMILIAR EN EL HOGAR “ZAINDUZ” Y CONVOCATORIA PARA EL EJERCICIO 2026","descripcionLeng":"\"ZAINDUZ\" ETXEAN ATSEDEN HARTZEKO PROGRAMAREN BIDEZ MENDEKOTASUNA DUTEN PERTSONEI GAUZAZKO LAGUNTZAK 2026. EKITALDIRAKO DEIALDIA","fechaRecepcion":"2026-05-14","nivel1":"LOCAL","nivel2":"URDUÑA/ORDUÑA","nivel3":"AYUNTAMIENTO DE URDUÑA/ORDUÑA","codigoInvente":null},{"id":1107372,"mrr":false,"numeroConvocatoria":"905811","descripcion":"CONVOCATORIA PÚBLICA PARA LA  CONCESIÓN DE SUBVENCIONES A LAS ASOCIACIONES DE COMERCIANTES Y HOSTELEROS DEL MUNICIPIO DE XÀTIVA. EJERCICIO 2026","descripcionLeng":"CONVOCATÒRIA PÚBLICA PER A LA  CONCESSIÓ DE SUBVENCIONS A LES ASSOCIACIONS DE COMERCIANTS I HOSTALERS DEL MUNICIPI DE XÀTIVA. EXERCICI 2026","fechaRecepcion":"2026-05-14","nivel1":"LOCAL","nivel2":"XÀTIVA","nivel3":"AYUNTAMIENTO DE XÀTIVA","codigoInvente":null},{"id":1107361,"mrr":false,"numeroConvocatoria":"905800","descripcion":"CONVOCATORIA DEL CONCURSO EN LA X RUTA DE LA TAPA DE AYORA","descripcionLeng":null,"fechaRecepcion":"2026-05-14","nivel1":"LOCAL","nivel2":"AYORA","nivel3":"AYUNTAMIENTO DE AYORA","codigoInvente":null},{"id":1107359,"mrr":false,"numeroConvocatoria":"905798","descripcion":"Convocatoria de Subvenciones en Régimen de Concurrencia Competitiva destinadas a la realización de proyectos de Educación para el Desarrollo y la Ciudadanía Global","descripcionLeng":null,"fechaRecepcion":"2026-05-14","nivel1":"LOCAL","nivel2":"PAMPLONA/IRUÑA","nivel3":"AYUNTAMIENTO DE PAMPLONA/IRUÑA","codigoInvente":null},{"id":1107357,"mrr":false,"numeroConvocatoria":"905796","descripcion":"Convocatoria de las ayudas destinadas a la realización de prácticas formativas por jóvenes estudiantes \"La Pobla te Beca\" ejercicio 2026","descripcionLeng":"Convocatòria de les ajudes destinades a la realització de pràctiques formatives per jóvens estudiants \"la Pobla et Beca\" exercici 2026","fechaRecepcion":"2026-05-14","nivel1":"LOCAL","nivel2":"POBLA DE VALLBONA, LA","nivel3":"AYUNTAMIENTO DE POBLA DE VALLBONA, LA","codigoInvente":null},{"id":1107354,"mrr":false,"numeroConvocatoria":"905793","descripcion":"CONVOCATORIA CONCESIÓN SUBVENCIÓN JÓVENES PARTICIPANTES VIAJE PORT AVENTURA","descripcionLeng":null,"fechaRecepcion":"2026-05-14","nivel1":"LOCAL","nivel2":"PATERNA","nivel3":"AYUNTAMIENTO DE PATERNA","codigoInvente":null},{"id":1107342,"mrr":false,"numeroConvocatoria":"905781","descripcion":"Convocatoria de subvenciones para la realización de actos y actividades complementarias en las fiestas de los barrios de la ciudad de Burgos 2026","descripcionLeng":"Convocatoria de subvenciones para la realización de actos y actividades complementarias en las fiestas de los barrios de la ciudad de Burgos 2026","fechaRecepcion":"2026-05-14","nivel1":"LOCAL","nivel2":"BURGOS","nivel3":"AYUNTAMIENTO DE BURGOS","codigoInvente":null},{"id":1107338,"mrr":false,"numeroConvocatoria":"905777","descripcion":"Programa de subvenciones Transición Verde para el año 2026 - Línea 2: Inversiones verdes","descripcionLeng":"Trantsizio Berdea dirulaguntza programa, 2026 urterako - 2. ildoa: Inbertsio berdeak","fechaRecepcion":"2026-05-14","nivel1":"LOCAL","nivel2":"DIPUTACIÓN FORAL DE BIZKAIA","nivel3":"DIPUTACIÓN FORAL DE BIZKAIA","codigoInvente":null},{"id":1107335,"mrr":false,"numeroConvocatoria":"905774","descripcion":"Programa de subvenciones Transición Verde para el año 2026 - Línea 1: Medición del impacto ambiental","descripcionLeng":"Trantsizio Berdea dirulaguntza programa, 2026 urterako - 1. ildoa: Ingurumen-eraginaren neurketa","fechaRecepcion":"2026-05-14","nivel1":"LOCAL","nivel2":"DIPUTACIÓN FORAL DE BIZKAIA","nivel3":"DIPUTACIÓN FORAL DE BIZKAIA","codigoInvente":null},{"id":1107333,"mrr":false,"numeroConvocatoria":"905772","descripcion":"Beca d 'iniciació a la investigació (Projecte «MODALITAT B: AJUDES PONT PER A LA MILLORA DE LES SOL·LICITUDS PRESENTADES A LA CONVOCATÒRIA DE PROJECTES DE GENERACIÓ DE CONEIXEMENT DEL PEICTI» – Codi 25I586 – Dirigit per: Sergio Gonell Gómez","descripcionLeng":"Beca d 'iniciació a la investigació (Projecte «MODALITAT B: AJUDES PONT PER A LA MILLORA DE LES SOL·LICITUDS PRESENTADES A LA CONVOCATÒRIA DE PROJECTES DE GENERACIÓ DE CONEIXEMENT DEL PEICTI» – Codi 25I586 – Dirigit per: Sergio Gonell Gómez","fechaRecepcion":"2026-05-14","nivel1":"OTROS","nivel2":"UNIVERSIDAD JAUME I DE CASTELLÓN","nivel3":null,"codigoInvente":"INV00005381"},{"id":1107331,"mrr":false,"numeroConvocatoria":"905770","descripcion":"SUBVENCIONES A AYUNTAMIENTOS DE MENOS DE 300 HABITANTES PARA CINE DE VERANO 2026","descripcionLeng":null,"fechaRecepcion":"2026-05-14","nivel1":"LOCAL","nivel2":"DIPUTACIÓN PROV. DE CASTELLÓN","nivel3":"DIPUTACIÓN PROVINCIAL DE CASTELLÓ/CASTELLÓN","codigoInvente":null},{"id":1107330,"mrr":false,"numeroConvocatoria":"905769","descripcion":"Programa de subvenciones \"Busot Emprende\", anualidad 2026.","descripcionLeng":null,"fechaRecepcion":"2026-05-14","nivel1":"LOCAL","nivel2":"BUSOT","nivel3":"AYUNTAMIENTO DE BUSOT","codigoInvente":null},{"id":1107329,"mrr":false,"numeroConvocatoria":"905768","descripcion":"SUBVENCIÓN A MEDIOS DE COMUNICACIÓN ESCRITOS LOCALES Y/O COMARCALES EN EUSKERA PRA EL EJERCICIO 2026","descripcionLeng":"2026KO EKITALDIAN BERTON EDO ESKUALDEAN DIHARDUTEN EUSKARAZKO TOKIKO HEDABIDE IDATZIENTZAKO DIRULAGUNTZAK","fechaRecepcion":"2026-05-14","nivel1":"LOCAL","nivel2":"LEIOA","nivel3":"AYUNTAMIENTO DE LEIOA","codigoInvente":null},{"id":1107328,"mrr":false,"numeroConvocatoria":"905767","descripcion":"CONVOCATORIA DE SUBVENCIONES A EMPRESAS DE GETXO:  L1. INNOVACIÓN Y L2. ACTIVIDADES TURÍSTICAS GARANTIZADAS. AÑO 2026","descripcionLeng":"GETXOKO ENPRESENTZAKO DIRU-LAGUNTZEN DEIALDIA: L1. BERRIKUNTZA ETA L2. JARDUERA TURISTIKO BERMATUAK. 2026. URTEA\n","fechaRecepcion":"2026-05-14","nivel1":"LOCAL","nivel2":"GETXO","nivel3":"AYUNTAMIENTO DE GETXO","codigoInvente":null},{"id":1107326,"mrr":false,"numeroConvocatoria":"905765","descripcion":"Programa de subvenciones Transición Verde para el año 2026 - Línea 3: Proyectos de innovación ambiental y economía circular","descripcionLeng":"Trantsizio Berdea dirulaguntza programa, 2026 urterako - 3. ildoa: Ingurumen-berrikuntzako eta ekonomia zirkularreko proiektuak","fechaRecepcion":"2026-05-14","nivel1":"LOCAL","nivel2":"DIPUTACIÓN FORAL DE BIZKAIA","nivel3":"DIPUTACIÓN FORAL DE BIZKAIA","codigoInvente":null},{"id":1107319,"mrr":false,"numeroConvocatoria":"905758","descripcion":"AYUDAS ECONÓMICAS DIRIGIDAS A LA PROMOCIÓN DE LA INICIATIVA EMPRESARIAL DEL MUNICIPIO DE BERRIZ","descripcionLeng":"BERRIZKO UDALERRIKO ENPRESA-EKIMENA SUSTATZEKO DIRULAGUNTZAK EMATEKO OINARRI ARAUTZAILEAK","fechaRecepcion":"2026-05-14","nivel1":"LOCAL","nivel2":"BERRIZ","nivel3":"AYUNTAMIENTO DE BERRIZ","codigoInvente":null},{"id":1107303,"mrr":false,"numeroConvocatoria":"905742","descripcion":"VI Certamen de Arte Urbano de Eco-Escultura","descripcionLeng":"VI Certamen d'Art Urbà d'Eco-Escultura","fechaRecepcion":"2026-05-14","nivel1":"OTROS","nivel2":"UNIVERSITAT DE VALÈNCIA (ESTUDI GENERAL)","nivel3":null,"codigoInvente":"INV00005380"},{"id":1107296,"mrr":false,"numeroConvocatoria":"905735","descripcion":"beca d'iniciació a la investigació (Projecte «STEREOLITHOGRAPHY 3D PRINTED DENTURE BASE PHOTOPOLYMERS FUNCTIONALIZED WITH LASER GENERATED ANTIMICROBIAL NANOPARTICLES» Codi 24I476 – Dirigit per Carlos Doñate Buendía","descripcionLeng":"beca d'iniciació a la investigació (Projecte «STEREOLITHOGRAPHY 3D PRINTED DENTURE BASE PHOTOPOLYMERS FUNCTIONALIZED WITH LASER GENERATED ANTIMICROBIAL NANOPARTICLES» Codi 24I476 – Dirigit per Carlos Doñate Buendía","fechaRecepcion":"2026-05-14","nivel1":"OTROS","nivel2":"UNIVERSIDAD JAUME I DE CASTELLÓN","nivel3":null,"codigoInvente":"INV00005381"},{"id":1107291,"mrr":false,"numeroConvocatoria":"905730","descripcion":"Procedimiento de selección de ayuntamientos, asociaciones y agrupaciones para su participación en el proyecto \"Cine Vecino”","descripcionLeng":null,"fechaRecepcion":"2026-05-14","nivel1":"ESTADO","nivel2":"MINISTERIO DE CULTURA","nivel3":"DIRECCIÓN GENERAL DE DERECHOS CULTURALES","codigoInvente":null},{"id":1107290,"mrr":false,"numeroConvocatoria":"905729","descripcion":"BASES IGARTZA MUSIKA BEKA. CONVOCATORIA CURSO ACADÉMICO 2026-2027","descripcionLeng":"IGARTZA MUSIKA BEKAREN OINARRIAK. 2026-2027 IKASTURTERAKO DEIALDIA\n","fechaRecepcion":"2026-05-14","nivel1":"LOCAL","nivel2":"BEASAIN","nivel3":"AYUNTAMIENTO DE BEASAIN","codigoInvente":null},{"id":1107288,"mrr":false,"numeroConvocatoria":"905727","descripcion":"Convocatoria de subvenciones en régimen de concurrencia competitiva para la Promoción del Deporte Federado en Categoria Senior para 2026","descripcionLeng":null,"fechaRecepcion":"2026-05-14","nivel1":"LOCAL","nivel2":"SANTOMERA","nivel3":"AYUNTAMIENTO DE SANTOMERA","codigoInvente":null},{"id":1107285,"mrr":false,"numeroConvocatoria":"905724","descripcion":"CONVOCATORIA DEL XXVII PREMIO DE ENSAYO “CARMEN DE BURGOS”.","descripcionLeng":null,"fechaRecepcion":"2026-05-14","nivel1":"LOCAL","nivel2":"DIPUTACIÓN PROV. DE ALMERÍA","nivel3":"DIPUTACIÓN PROVINCIAL DE ALMERÍA","codigoInvente":null},{"id":1107281,"mrr":false,"numeroConvocatoria":"905720","descripcion":"CONVOCATORIA DE SUBVENCIONES EN MATERIA DE AYUDAS A LA NATALIDAD DE SANT JOSEP DE SA TALAIA “SANT JOSEP CRECE”","descripcionLeng":"CONVOCATÒRIA DE SUBVENCIONS EN MATÈRIA D'AJUDES A LA NATALITAT DE SANT JOSEP DE SA TALAIA “SANT JOSEP CREIX”","fechaRecepcion":"2026-05-14","nivel1":"LOCAL","nivel2":"SANT JOSEP DE SA TALAIA","nivel3":"AYUNTAMIENTO DE SANT JOSEP DE SA TALAIA","codigoInvente":null},{"id":1107274,"mrr":false,"numeroConvocatoria":"905713","descripcion":"Convocatoria concurso de escaparates Fogueres de Sant Joan 2026","descripcionLeng":null,"fechaRecepcion":"2026-05-14","nivel1":"LOCAL","nivel2":"ALICANTE/ALACANT","nivel3":"AYUNTAMIENTO DE ALICANTE/ALACANT","codigoInvente":null},{"id":1107271,"mrr":false,"numeroConvocatoria":"905710","descripcion":"SUBVENCIONES DE CONCURRENCIA COMPETITIVA EN MATERIA DE ACCIÓN SOCIAL 2026","descripcionLeng":null,"fechaRecepcion":"2026-05-14","nivel1":"LOCAL","nivel2":"TORRES DE COTILLAS, LAS","nivel3":"AYUNTAMIENTO DE TORRES DE COTILLAS, LAS","codigoInvente":null},{"id":1107270,"mrr":false,"numeroConvocatoria":"905709","descripcion":"PROGRAMA DE FOMENTO DE EMPLEO AGRARIO 2026","descripcionLeng":null,"fechaRecepcion":"2026-05-14","nivel1":"ESTADO","nivel2":"MINISTERIO DE TRABAJO Y ECONOMÍA SOCIAL","nivel3":"DIRECCIÓN PROVINCIAL DEL SEPE DE VALLADOLID","codigoInvente":null},{"id":1107259,"mrr":false,"numeroConvocatoria":"905698","descripcion":"Convocatoria 2026 de Ayudas para la Creación de Empresas de Base Tecnológica-UAH","descripcionLeng":null,"fechaRecepcion":"2026-05-14","nivel1":"OTROS","nivel2":"UNIVERSIDAD DE ALCALÁ","nivel3":null,"codigoInvente":"INV00005328"}],"pageable":{"sort":{"sorted":true,"unsorted":false,"empty":false},"pageNumber":45,"pageSize":50,"offset":2250,"unpaged":false,"paged":true},"last":false,"totalPages":200,"totalElements":10000,"sort":{"sorted":true,"unsorted":false,"empty":false},"first":false,"numberOfElements":50,"size":50,"number":45,"empty":false,"advertencia":"La reutilización de los datos del Sistema Nacional de Publicidad de Subvenciones y Ayudas Públicas está sujeta a una serie de restricciones y consideraciones legales. Consulte el aviso legal en https://www.infosubvenciones.es/bdnstrans/GE/es/avisolegal.Además, el usuario debe ser consciente que la información presentada es de naturaleza dinámica, y que los datos pueden ser sometidos a correcciones, inserciones, modificaciones y eliminaciones en momentos posteriores a su extracción. Accesos al API del sistema Nacional de Publicidad de Subvenciones y Ayudas Públicas. La Administración Presupuestaria, para salvaguardar la protección del acceso libre e irrestricto de los ciudadanos a este Portal y a su información podrá adoptar medidas restrictivas de acceso al API ante situaciones de manifiesto abuso del servicio, riesgos de seguridad, o uso fraudulento de la información descargada, de acuerdo con las buenas prácticas de gestión de datos abiertos (https://datos.gob.es/es/blog/limitaciones-la-consulta-de-una-api) establecidas por el Ministerio para la Transformación Digital y de la Función Pública."}