{"content":[{"id":1102145,"mrr":false,"numeroConvocatoria":"900584","descripcion":"Acuerdo de Junta Rectora de 21 de abril de 2026 de la FMCEYUP por la que se convocan subvenciones para PRODUCCIONES ARTÍSTICAS 2026","descripcionLeng":null,"fechaRecepcion":"2026-04-22","nivel1":"LOCAL","nivel2":"GIJÓN","nivel3":"AYUNTAMIENTO DE GIJÓN","codigoInvente":null},{"id":1102143,"mrr":false,"numeroConvocatoria":"900582","descripcion":"TERMALISMO PROVINCIAL 2026","descripcionLeng":null,"fechaRecepcion":"2026-04-22","nivel1":"LOCAL","nivel2":"DIPUTACIÓN PROV. DE ZARAGOZA","nivel3":"DIPUTACIÓN PROVINCIAL DE ZARAGOZA","codigoInvente":null},{"id":1102139,"mrr":false,"numeroConvocatoria":"900578","descripcion":"convocatoria de subvenciones artes escenicas 2026","descripcionLeng":"convocatòria de subvencions arts escèniques 2026","fechaRecepcion":"2026-04-22","nivel1":"LOCAL","nivel2":"CONSEJO INSULAR DE MALLORCA","nivel3":"CONSELL INSULAR DE MALLORCA","codigoInvente":null},{"id":1102137,"mrr":false,"numeroConvocatoria":"900576","descripcion":"Convocatoria de ayudas del Ayuntamiento de Majadahonda a familias empadronadas y residentes en la localidad por nacimiento de hijo o adopción en el año 2025.","descripcionLeng":null,"fechaRecepcion":"2026-04-22","nivel1":"LOCAL","nivel2":"MAJADAHONDA","nivel3":"AYUNTAMIENTO DE MAJADAHONDA","codigoInvente":null},{"id":1102136,"mrr":false,"numeroConvocatoria":"900575","descripcion":"Acuerdo de Junta Rectora de 21 de abril de 2026 de la FMCEYUP por la que se convocan subvenciones para ASOCIACIONES CULTURALES 2026","descripcionLeng":null,"fechaRecepcion":"2026-04-22","nivel1":"LOCAL","nivel2":"GIJÓN","nivel3":"AYUNTAMIENTO DE GIJÓN","codigoInvente":null},{"id":1102133,"mrr":false,"numeroConvocatoria":"900572","descripcion":"CONVOCATORIA DE AYUDAS A LA ADQUISICIÓN DE VIVIENDAS Y SOLARES Y CONSTRUCCIÓN Y REHABILITACIÓN DE VIVIENDAS EN EL CASCO HISTÓRICO DE PETRER DURANTE EL EJERCICIO 2026","descripcionLeng":null,"fechaRecepcion":"2026-04-22","nivel1":"LOCAL","nivel2":"PETRER","nivel3":"AYUNTAMIENTO DE PETRER","codigoInvente":null},{"id":1102127,"mrr":false,"numeroConvocatoria":"900566","descripcion":"Decreto de Alcaldía nº 1706/2026 del 17 de abril de 2026 por el se aprueba la “convocatoria para la concesión de subvenciones municipales de concurrencia competitiva en el ámbito de Igualdad para la Promoción de la Igualdad de Oportunidades entre mujeres","descripcionLeng":"2026ko apirilaren 17ko 1706/2026 Alkatetza Dekretua, Berdintasuneko 2026ko emakumeen eta gizonen arteko aukera berdintasuna sustatzeko lehiarako dirulaguntzak emateko deialdia”.","fechaRecepcion":"2026-04-22","nivel1":"LOCAL","nivel2":"BASAURI","nivel3":"AYUNTAMIENTO DE BASAURI","codigoInvente":null},{"id":1102126,"mrr":false,"numeroConvocatoria":"900565","descripcion":"CONVOCATORIA PARA LA SOLICITUD Y OTORGAMIENTO DE SUBVENCIONES A ENTIDADES PARA EL DESARROLLO DE ACTIVIDADES Y SERVICIOS EN LA CIUDAD DE GAVÀ, EN RÉGIMEN DE CONCURRENCIA COMPETITIVA-LINIA 4 RELACIONES CIUDADANAS. EJERCICIO 2026","descripcionLeng":"CONVOCATÒRIA PER A LA SOL·LICITUD I ATORGAMENT DE SUBVENCIONS A ENTITATS PEL DESENVOLUPAMENT D’ACTIVITATS I SERVEIS A LA CIUTAT DE GAVÀ, EN RÈGIM DE CONCURRÈNCIA COMPETITIVA-LINIA 4. RELACIONS CIUTADANES. EXERCICI 2026","fechaRecepcion":"2026-04-22","nivel1":"LOCAL","nivel2":"GAVÀ","nivel3":"AYUNTAMIENTO DE GAVÀ","codigoInvente":null},{"id":1102123,"mrr":false,"numeroConvocatoria":"900562","descripcion":"Bases del concurso de pintura Premio Nacional de Pintura Juan Francés. Feria de Agosto 2026","descripcionLeng":"Bases del concurs de pintura Premi Nacional de Pintura Juan Francés. Fira d'Agost 2026","fechaRecepcion":"2026-04-22","nivel1":"LOCAL","nivel2":"XÀTIVA","nivel3":"AYUNTAMIENTO DE XÀTIVA","codigoInvente":null},{"id":1102122,"mrr":false,"numeroConvocatoria":"900561","descripcion":"Ayudas al desarrollo de proyectos de economía circular para el año 2026","descripcionLeng":"2026. urterako ekonomia zirkularreko proiektuak garatzeko laguntzak.","fechaRecepcion":"2026-04-22","nivel1":"LOCAL","nivel2":"VITORIA-GASTEIZ","nivel3":"AYUNTAMIENTO DE VITORIA-GASTEIZ","codigoInvente":null},{"id":1102121,"mrr":false,"numeroConvocatoria":"900560","descripcion":"Acuerdo de Junta Rectora de 21 de abril de 2026 de la FMCEYUP por la que se convocan subvenciones para Centros de Enseñanza y Entidades Educativas curso 2026-2027","descripcionLeng":null,"fechaRecepcion":"2026-04-22","nivel1":"LOCAL","nivel2":"GIJÓN","nivel3":"AYUNTAMIENTO DE GIJÓN","codigoInvente":null},{"id":1102117,"mrr":false,"numeroConvocatoria":"900556","descripcion":"PREMIOS DEL AYUNTAMIENTO DE BOECILLO A DEPORTISTAS INDIVIDUALES DEL MUNICIPIO POR COMPETICIONES OFICIALES DURANTE LA TEMPORADA 2025.","descripcionLeng":null,"fechaRecepcion":"2026-04-22","nivel1":"LOCAL","nivel2":"BOECILLO","nivel3":"AYUNTAMIENTO DE BOECILLO","codigoInvente":null},{"id":1102116,"mrr":false,"numeroConvocatoria":"900555","descripcion":"Subvenciones a entidades sociales destinadas al fomento de programas de acción social año 2026.","descripcionLeng":null,"fechaRecepcion":"2026-04-22","nivel1":"LOCAL","nivel2":"BENICARLÓ","nivel3":"AYUNTAMIENTO DE BENICARLÓ","codigoInvente":null},{"id":1102115,"mrr":false,"numeroConvocatoria":"900554","descripcion":"Ayudas 2026 a Artistas Visuales s/ Resolución de 30 de marzo de 2026 que la convoca","descripcionLeng":null,"fechaRecepcion":"2026-04-22","nivel1":"AUTONOMICA","nivel2":"EXTREMADURA","nivel3":"SECRETARÍA GENERAL DE CULTURA","codigoInvente":null},{"id":1102114,"mrr":false,"numeroConvocatoria":"900553","descripcion":"CONVOCATORIA DE LOS PREMIOS DEL V CONCURSO DE FOTOGRAFÍA DEL DÍA MUNDIAL DEL MEDIO AMBIENTE 2026","descripcionLeng":"CONVOCATORIA DOS PREMIOS DO V CONCURSO DE FOTOGRAFÍA DO DÍA MUNDIAL DO MEDIO AMBIENTE 2026","fechaRecepcion":"2026-04-22","nivel1":"LOCAL","nivel2":"XOVE","nivel3":"AYUNTAMIENTO DE XOVE","codigoInvente":null},{"id":1102113,"mrr":false,"numeroConvocatoria":"900552","descripcion":"Premio \"Joaquín Sama\", curso 2025/2026,  a la innovación educativa en Extremadura s/ Resolución de 16 de abril de 2026 que las convoca.","descripcionLeng":null,"fechaRecepcion":"2026-04-22","nivel1":"AUTONOMICA","nivel2":"EXTREMADURA","nivel3":"SECRETARÍA GENERAL DE EDUCACIÓN Y FORMACIÓN PROFESIONAL","codigoInvente":null},{"id":1102112,"mrr":false,"numeroConvocatoria":"900551","descripcion":"Premios extraordinarios curso 2024/25 de Formación Profesional de Grado Superior,  s/ Resolución de 17 de abril de 2026 que los convoca","descripcionLeng":null,"fechaRecepcion":"2026-04-22","nivel1":"AUTONOMICA","nivel2":"EXTREMADURA","nivel3":"SECRETARÍA GENERAL DE EDUCACIÓN Y FORMACIÓN PROFESIONAL","codigoInvente":null},{"id":1102111,"mrr":false,"numeroConvocatoria":"900550","descripcion":"CONVOCATORIA DE SUBVENCIONES DESTINADAS A ASOCIACIONES DEPORTIVAS PARA LA REALIZACIÓN DE ACTIVIDADES Y PROMOCIÓN DEPORTIVA PARA EL EJERCICIO 2026","descripcionLeng":null,"fechaRecepcion":"2026-04-22","nivel1":"LOCAL","nivel2":"GUADIX","nivel3":"AYUNTAMIENTO DE GUADIX","codigoInvente":null},{"id":1102110,"mrr":false,"numeroConvocatoria":"900549","descripcion":"ACUERDO JGL DE FECHA 10/04/2026 APROBACION BASES REGULADORAS PARA PROYECTOS E INSTALACIONES DE ASCENSORES EN MEJORA DE ACCEIBILIDAD EN EDIFICIOS PARA SUPRIMIR BARRERAS ARQUITECTONICAS","descripcionLeng":null,"fechaRecepcion":"2026-04-22","nivel1":"LOCAL","nivel2":"CORNELLÀ DE LLOBREGAT","nivel3":"AYUNTAMIENTO DE CORNELLÀ DE LLOBREGAT","codigoInvente":null},{"id":1102109,"mrr":false,"numeroConvocatoria":"900548","descripcion":"ACUERDO JGL DE 20/03/2026 DE APROBACIÓN BASE XXII CONCURSO FOTOGRAFIA AMATEUR","descripcionLeng":null,"fechaRecepcion":"2026-04-22","nivel1":"LOCAL","nivel2":"CORNELLÀ DE LLOBREGAT","nivel3":"AYUNTAMIENTO DE CORNELLÀ DE LLOBREGAT","codigoInvente":null},{"id":1102108,"mrr":false,"numeroConvocatoria":"900547","descripcion":"Concurso de Carretas, Carromatos y Carritos para la Romería 2026","descripcionLeng":null,"fechaRecepcion":"2026-04-22","nivel1":"LOCAL","nivel2":"CORONIL, EL","nivel3":"AYUNTAMIENTO DE CORONIL, EL","codigoInvente":null},{"id":1102107,"mrr":false,"numeroConvocatoria":"900546","descripcion":"XI CONCURSO NACIONAL DE PINTURA RAPIDA \"ANTONIO CARRILERO\"","descripcionLeng":null,"fechaRecepcion":"2026-04-21","nivel1":"LOCAL","nivel2":"RODA, LA","nivel3":"AYUNTAMIENTO DE RODA, LA","codigoInvente":null},{"id":1102105,"mrr":false,"numeroConvocatoria":"900544","descripcion":"Fomento PYME pesca (IP) Reg.exención pesca","descripcionLeng":null,"fechaRecepcion":"2026-04-21","nivel1":"AUTONOMICA","nivel2":"LA RIOJA","nivel3":"AGENCIA DE DESARROLLO ECONÓMICO DE LA RIOJA","codigoInvente":"INV00000065"},{"id":1102103,"mrr":false,"numeroConvocatoria":"900542","descripcion":"Fomento PYME agroalimentaria (PAL) Reg.exención 2022/2472","descripcionLeng":null,"fechaRecepcion":"2026-04-21","nivel1":"AUTONOMICA","nivel2":"LA RIOJA","nivel3":"AGENCIA DE DESARROLLO ECONÓMICO DE LA RIOJA","codigoInvente":"INV00000065"},{"id":1102102,"mrr":false,"numeroConvocatoria":"900541","descripcion":"Convocatoria de subvenciones en materia de deporte del ayuntamiento de Calatorao para 2026","descripcionLeng":null,"fechaRecepcion":"2026-04-21","nivel1":"LOCAL","nivel2":"CALATORAO","nivel3":"AYUNTAMIENTO DE CALATORAO","codigoInvente":null},{"id":1102101,"mrr":false,"numeroConvocatoria":"900540","descripcion":"Subvenciones en materia de juventud y bienestar social 2026","descripcionLeng":null,"fechaRecepcion":"2026-04-21","nivel1":"LOCAL","nivel2":"CALATORAO","nivel3":"AYUNTAMIENTO DE CALATORAO","codigoInvente":null},{"id":1102099,"mrr":false,"numeroConvocatoria":"900538","descripcion":"Convocatoria de “Becas Santander Estudios | Ayuda Económica” 2026/2027","descripcionLeng":null,"fechaRecepcion":"2026-04-21","nivel1":"OTROS","nivel2":"UNIVERSIDAD DE CÁDIZ","nivel3":null,"codigoInvente":"INV00005332"},{"id":1102098,"mrr":false,"numeroConvocatoria":"900537","descripcion":"Convocatoria y Bases del Concurso de paellas de \"Habas y Alcachofas de Dolores\", 2026.","descripcionLeng":null,"fechaRecepcion":"2026-04-21","nivel1":"LOCAL","nivel2":"DOLORES","nivel3":"AYUNTAMIENTO DE DOLORES","codigoInvente":null},{"id":1102097,"mrr":false,"numeroConvocatoria":"900536","descripcion":"Convocatoria y Bases del Concurso Quién la tiene más grande ........ \"La Alcachofa de Dolores\", 2026.","descripcionLeng":null,"fechaRecepcion":"2026-04-21","nivel1":"LOCAL","nivel2":"DOLORES","nivel3":"AYUNTAMIENTO DE DOLORES","codigoInvente":null},{"id":1102096,"mrr":false,"numeroConvocatoria":"900535","descripcion":"Convocatoria y Bases del Concurso de alcachofa de Dolores en conserva, 2026.","descripcionLeng":null,"fechaRecepcion":"2026-04-21","nivel1":"LOCAL","nivel2":"DOLORES","nivel3":"AYUNTAMIENTO DE DOLORES","codigoInvente":null},{"id":1102093,"mrr":false,"numeroConvocatoria":"900532","descripcion":"CONVOCATORIA AYUDAS EN MATERIA DE CULTURA Y CONCURRENCIA COMPETITIVA PARA 2026 DEL AYUNTAMIENTO DE CALATORAO","descripcionLeng":null,"fechaRecepcion":"2026-04-21","nivel1":"LOCAL","nivel2":"CALATORAO","nivel3":"AYUNTAMIENTO DE CALATORAO","codigoInvente":null},{"id":1102092,"mrr":false,"numeroConvocatoria":"900531","descripcion":"Convocatoria y Bases del Concurso de pelar alcachofas de Dolores, 2026.","descripcionLeng":null,"fechaRecepcion":"2026-04-21","nivel1":"LOCAL","nivel2":"DOLORES","nivel3":"AYUNTAMIENTO DE DOLORES","codigoInvente":null},{"id":1102090,"mrr":false,"numeroConvocatoria":"900529","descripcion":"Convocatoria y Bases del Concurso de tortilla de alcachofa de Dolores, 2026.","descripcionLeng":null,"fechaRecepcion":"2026-04-21","nivel1":"LOCAL","nivel2":"DOLORES","nivel3":"AYUNTAMIENTO DE DOLORES","codigoInvente":null},{"id":1102088,"mrr":false,"numeroConvocatoria":"900527","descripcion":"Convocatoria para la concesión de becas en régimen de concurrencia no competitiva para el fomento de la movilidad para los alumnes de ciclos formativos de grado superior en centros de Granollers, beneficiarios para el curso 2025-2026","descripcionLeng":"Convocatòria per a la concessió de beques en règim de concurrència no competitiva per al foment de la mobilitat per als alumnes de cicles formatius de grau superior en centres de Granollers, beneficiaris pel curs 2025-2026","fechaRecepcion":"2026-04-21","nivel1":"LOCAL","nivel2":"GRANOLLERS","nivel3":"AYUNTAMIENTO DE GRANOLLERS","codigoInvente":null},{"id":1102087,"mrr":false,"numeroConvocatoria":"900526","descripcion":"XXVIII PREMIO POR USO Y DIGNIFICACIÓN DEL VALENCIANO EN EL ÁMBITO MUNICIPAL","descripcionLeng":"XXVIII PREMI PER ÚS I DIGNIFICACIÓ DEL VALENCIÀ EN ÀMBIT MUNICIPAL","fechaRecepcion":"2026-04-21","nivel1":"LOCAL","nivel2":"ALGEMESÍ","nivel3":"AYUNTAMIENTO DE ALGEMESÍ","codigoInvente":null},{"id":1102085,"mrr":false,"numeroConvocatoria":"900524","descripcion":"Convocatoria de ayudas para la rehabilitación de viviendas en el municipio de Artajona para el ejercicio 2026","descripcionLeng":null,"fechaRecepcion":"2026-04-21","nivel1":"LOCAL","nivel2":"ARTAJONA","nivel3":"AYUNTAMIENTO DE ARTAJONA","codigoInvente":null},{"id":1102066,"mrr":false,"numeroConvocatoria":"900505","descripcion":"TI4 Digitalización e Industria (Reg.MinimisP 717/2014)","descripcionLeng":null,"fechaRecepcion":"2026-04-21","nivel1":"AUTONOMICA","nivel2":"LA RIOJA","nivel3":"AGENCIA DE DESARROLLO ECONÓMICO DE LA RIOJA","codigoInvente":"INV00000065"},{"id":1102065,"mrr":false,"numeroConvocatoria":"900504","descripcion":"TI4 Digitalización e Industria (Reg.Minimis 2023/2831)","descripcionLeng":null,"fechaRecepcion":"2026-04-21","nivel1":"AUTONOMICA","nivel2":"LA RIOJA","nivel3":"AGENCIA DE DESARROLLO ECONÓMICO DE LA RIOJA","codigoInvente":"INV00000065"},{"id":1102063,"mrr":false,"numeroConvocatoria":"900502","descripcion":"Concurso del cartel anunciador de la Fira d'Onda","descripcionLeng":"Concurs del cartell anunciador de la Fira d'Onda","fechaRecepcion":"2026-04-21","nivel1":"LOCAL","nivel2":"ONDA","nivel3":"AYUNTAMIENTO DE ONDA","codigoInvente":null},{"id":1102062,"mrr":false,"numeroConvocatoria":"900501","descripcion":"SUBVENCIONES AYUNTAMIENTOS PARA REALIZACIÓN EVENTOS ESPECIAL INTERÉS CULTURAL","descripcionLeng":null,"fechaRecepcion":"2026-04-21","nivel1":"LOCAL","nivel2":"DIPUTACIÓN PROV. DE JAÉN","nivel3":"DIPUTACIÓN PROVINCIAL DE JAÉN","codigoInvente":null},{"id":1102056,"mrr":false,"numeroConvocatoria":"900495","descripcion":"XV Concurso de fotografía por el Día Internacional de las Mujeres","descripcionLeng":"XV Concurso de fotografía polo Día Internacional das Mulleres","fechaRecepcion":"2026-04-21","nivel1":"LOCAL","nivel2":"GROVE, O","nivel3":"AYUNTAMIENTO DE GROVE, O","codigoInvente":null},{"id":1102050,"mrr":false,"numeroConvocatoria":"900489","descripcion":"Resolución número 62, de 16 de abril, de la Alcaldesa del Ayuntamiento de Leoz de convocatoria para la concesión de ayudas económicas para abono de la matrícula en las instalaciones del Polideportivo de Tafalla 2026.","descripcionLeng":null,"fechaRecepcion":"2026-04-21","nivel1":"LOCAL","nivel2":"LEOZ/LEOTZ","nivel3":"AYUNTAMIENTO DE LEOZ/LEOTZ","codigoInvente":null},{"id":1102047,"mrr":false,"numeroConvocatoria":"900486","descripcion":"CONVOCATORIA BONOS AMARIBEIRA 2026","descripcionLeng":null,"fechaRecepcion":"2026-04-21","nivel1":"LOCAL","nivel2":"RIBEIRA","nivel3":"AYUNTAMIENTO DE RIBEIRA","codigoInvente":null},{"id":1102044,"mrr":false,"numeroConvocatoria":"900483","descripcion":"XIII Premio Concepción Arenal a proyectos educativos por la igualdad de género. (PREM-CA / 2026)","descripcionLeng":"XIII Premio Concepción Arenal a proxectos educativos pola igualdade de xénero. (PREM-CA / 2026)","fechaRecepcion":"2026-04-21","nivel1":"LOCAL","nivel2":"DIPUTACIÓN PROV. DE A CORUÑA","nivel3":"DIPUTACIÓN PROVINCIAL DE CORUÑA, A","codigoInvente":null},{"id":1102037,"mrr":false,"numeroConvocatoria":"900476","descripcion":"Unidades de Apoyo a la Actividad Profesional en el marco de los Servicios de Ajuste Personal y Social de los Centros Especiales de Empleo 2026.","descripcionLeng":null,"fechaRecepcion":"2026-04-21","nivel1":"AUTONOMICA","nivel2":"REGIÓN DE MURCIA","nivel3":"SERVICIO REGIONAL DE EMPLEO Y FORMACIÓN (SEF)","codigoInvente":"INV00005060"},{"id":1102030,"mrr":false,"numeroConvocatoria":"900469","descripcion":"Resolución de 21 de abril de la Universidad Complutense de Madrid por la que se convocan los Premios por Excelencia Docente correspondientes a la convocatoria 2024-25","descripcionLeng":"Resolución de 21 de abril de la Universidad Complutense de Madrid por la que se convocan los Premios por Excelencia Docente correspondientes a la convocatoria 2024-25","fechaRecepcion":"2026-04-21","nivel1":"OTROS","nivel2":"UNIVERSIDAD COMPLUTENSE DE MADRID","nivel3":null,"codigoInvente":"INV00005326"},{"id":1102029,"mrr":false,"numeroConvocatoria":"900468","descripcion":"CONVOCATORIA CONCESIÓN SUBVENCIONES RÉGIMEN CONCURRENCIA COMPETITIVA EN EL MARCO DE LAS BASES REGULADORAS ESPECÍFICAS PARA EL OTORGAMIENTO DE SUBVENCIONES A ENTIDADES CULTURALES,DEPORTIVAS Y FESTIVAS SIN ÁNIMO DE LUCRO DE ELS HOSTALETS DE PIEROLA AÑO 2026","descripcionLeng":"CONVOCATÒRIA CONCESSIÓ DE SUBVENCIONS EN RÈGIM DE CONCURRÈNCIA COMPETITIVA EN EL MARC DE LES BASES  REGULADORES ESPECÍFIQUES PER A L’ATORGAMENT DE SUBVENCIONS A ENTITATS CULTURALS, ESPORTIVES I FESTIVES SENSE ÀNIM DE LUCRE DELS HOSTALETS DE PIER","fechaRecepcion":"2026-04-21","nivel1":"LOCAL","nivel2":"HOSTALETS DE PIEROLA, ELS","nivel3":"AYUNTAMIENTO DE HOSTALETS DE PIEROLA, ELS","codigoInvente":null},{"id":1102026,"mrr":false,"numeroConvocatoria":"900465","descripcion":"Orden IND/18/2026, de 17 de abril, por la que se aprueba la convocatoria de una beca de formación práctica dirigida a postgraduados en la Dirección General de Comercio y Consumo.","descripcionLeng":null,"fechaRecepcion":"2026-04-21","nivel1":"AUTONOMICA","nivel2":"CANTABRIA","nivel3":"CONSEJERÍA DE INDUSTRIA, EMPLEO, INNOVACIÓN Y COMERCIO","codigoInvente":null},{"id":1102024,"mrr":false,"numeroConvocatoria":"900463","descripcion":"CONCESIÓN DE SUBVENCIONES PARA ACTIVIDADES CULTURALES Y DEPORTIVAS EJERCICIO 2026.","descripcionLeng":"CONCESIÓN DE SUBVENCIÓNS PARA ACTIVIDADES CULTURAIS E DEPORTIVAS EXERCICIO 2026.","fechaRecepcion":"2026-04-21","nivel1":"LOCAL","nivel2":"CASTROVERDE","nivel3":"AYUNTAMIENTO DE CASTROVERDE","codigoInvente":null},{"id":1102023,"mrr":false,"numeroConvocatoria":"900462","descripcion":"Ayudas complementarias a la movilidad internacional del alumnado de enseñanzas artísticas superiores. Curso 2025-2026","descripcionLeng":null,"fechaRecepcion":"2026-04-21","nivel1":"AUTONOMICA","nivel2":"COMUNIDAD FORAL DE NAVARRA","nivel3":"DEPARTAMENTO DE EDUCACION","codigoInvente":null}],"pageable":{"sort":{"sorted":true,"unsorted":false,"empty":false},"pageNumber":46,"pageSize":50,"offset":2300,"paged":true,"unpaged":false},"last":false,"totalElements":10000,"totalPages":200,"sort":{"sorted":true,"unsorted":false,"empty":false},"first":false,"numberOfElements":50,"size":50,"number":46,"empty":false,"advertencia":"La reutilización de los datos del Sistema Nacional de Publicidad de Subvenciones y Ayudas Públicas está sujeta a una serie de restricciones y consideraciones legales. Consulte el aviso legal en https://www.infosubvenciones.es/bdnstrans/GE/es/avisolegal.Además, el usuario debe ser consciente que la información presentada es de naturaleza dinámica, y que los datos pueden ser sometidos a correcciones, inserciones, modificaciones y eliminaciones en momentos posteriores a su extracción. Accesos al API del sistema Nacional de Publicidad de Subvenciones y Ayudas Públicas. La Administración Presupuestaria, para salvaguardar la protección del acceso libre e irrestricto de los ciudadanos a este Portal y a su información podrá adoptar medidas restrictivas de acceso al API ante situaciones de manifiesto abuso del servicio, riesgos de seguridad, o uso fraudulento de la información descargada, de acuerdo con las buenas prácticas de gestión de datos abiertos (https://datos.gob.es/es/blog/limitaciones-la-consulta-de-una-api) establecidas por el Ministerio para la Transformación Digital y de la Función Pública."}