{"content":[{"id":1120304,"mrr":false,"numeroConvocatoria":"918743","descripcion":"Resolución 2026/2113 de 10 de julio de 2026 del Área de Educación del Ayuntamiento de Durango por la que se convocan las subvenciones para sufragar los gastos de guardería. Curso 2025/2026","descripcionLeng":"2026/2113 Ebazpena, 2026ko uztailaren 10ekoa, Durangoko Udaleko Hezkuntza Arloarena, haurtzaindegiko gastuak ordaintzeko dirulaguntzetarako deialdia egiten duena. 2025/2026 ikasturtea","fechaRecepcion":"2026-07-13","nivel1":"LOCAL","nivel2":"DURANGO","nivel3":"AYUNTAMIENTO DE DURANGO","codigoInvente":null},{"id":1120302,"mrr":false,"numeroConvocatoria":"918741","descripcion":"Resolución de 11 de julio de 2026 del Rector de la Universidad de Burgos, por la que se convocan  prácticas académicas extracurriculares para apoyo técnico de los másteres que se imparten en la Facultad de Ciencias Económicas y Empresariales","descripcionLeng":null,"fechaRecepcion":"2026-07-13","nivel1":"OTROS","nivel2":"UNIVERSIDAD DE BURGOS","nivel3":null,"codigoInvente":"INV00005331"},{"id":1120301,"mrr":false,"numeroConvocatoria":"918740","descripcion":"Convocatoria de concesión de prestaciones económicas para libros y/o material didáctico correspondiente a 2º ciclo de educación infantil en centros escolares para el curso escolar 2026-2027","descripcionLeng":null,"fechaRecepcion":"2026-07-13","nivel1":"LOCAL","nivel2":"TUDELA","nivel3":"AYUNTAMIENTO DE TUDELA","codigoInvente":null},{"id":1120296,"mrr":false,"numeroConvocatoria":"918735","descripcion":"Subvención para cursos para obtener los títulos de monitor/a y de director/a de tiempo libre","descripcionLeng":"Aisialdiko begirale eta zuzendari tituluak euskaraz ateratzeko ikastaroetarako dirulaguntzak","fechaRecepcion":"2026-07-13","nivel1":"LOCAL","nivel2":"LASARTE-ORIA","nivel3":"AYUNTAMIENTO DE LASARTE-ORIA","codigoInvente":null},{"id":1120295,"mrr":false,"numeroConvocatoria":"918734","descripcion":"AYUDAS ESCOLARES CURSO 2026/2027","descripcionLeng":null,"fechaRecepcion":"2026-07-13","nivel1":"LOCAL","nivel2":"VILLA DE OTURA","nivel3":"AYUNTAMIENTO DE VILLA DE OTURA","codigoInvente":null},{"id":1120294,"mrr":false,"numeroConvocatoria":"918733","descripcion":"CONVOCATORIA CERTAMEN TORRELLANO TALENTOS 2026.","descripcionLeng":"CONVOCATÒRIA CERTAMEN TORRELLANO TALENTS 2026.","fechaRecepcion":"2026-07-13","nivel1":"LOCAL","nivel2":"ELCHE/ELX","nivel3":"AYUNTAMIENTO DE ELCHE/ELX","codigoInvente":null},{"id":1120275,"mrr":false,"numeroConvocatoria":"918714","descripcion":"SUBVENCION ENTIDADES SIN ANIMO DE LUCRO MEMORIA DEMOCRATICA","descripcionLeng":null,"fechaRecepcion":"2026-07-10","nivel1":"AUTONOMICA","nivel2":"PRINCIPADO DE ASTURIAS","nivel3":"CONSEJERÍA ORDENACIÓN DE TERRITORIO, URBANISMO, VIVIENDA Y DERECHOS CIUDADANOS","codigoInvente":null},{"id":1120258,"mrr":false,"numeroConvocatoria":"918697","descripcion":"SUBVENCIONES DESTINADAS AL DESARROLLO DE LARGOMETRAJES, SERIES DE TELEVISIÓN, Y PRODUCCIÓN DE CORTOMETRAJES","descripcionLeng":null,"fechaRecepcion":"2026-07-10","nivel1":"AUTONOMICA","nivel2":"CANARIAS","nivel3":"CONSEJERÍA DE UNIVERSIDADES, CIENCIA E INNOVACIÓN Y CULTURA","codigoInvente":null},{"id":1120255,"mrr":false,"numeroConvocatoria":"918694","descripcion":"L0199. Resolución por la que se abre la convocatoria del año 2026 para la concesión de subvenciones en especie, en régimen de concurrencia no competitiva, para llevar a cabo residencias internacionales en los centros con los que el Consorci Institut Ramon","descripcionLeng":"L0199. Resolució per la qual s’obre la convocatòria de l’any 2026 per a la concessió de subvencions en espècie, en règim de concurrència no competitiva, per dur a terme residències internacionals als centres amb els quals el Consorci Institut Ramon Llull","fechaRecepcion":"2026-07-10","nivel1":"AUTONOMICA","nivel2":"CATALUÑA","nivel3":"INSTITUT RAMON LLULL","codigoInvente":null},{"id":1120254,"mrr":false,"numeroConvocatoria":"918693","descripcion":"Bases reguladoras y Covocatoria y Preasignación de subvenciones directas para la financiación de gastos derivados de la Limpieza y Mantenimiento de los CEIP y C.R.A. ubicados en las ÉE.LL. de la provincia de Toledo durante el Curso Escolar 2026-2027","descripcionLeng":null,"fechaRecepcion":"2026-07-10","nivel1":"LOCAL","nivel2":"DIPUTACIÓN PROV. DE TOLEDO","nivel3":"DIPUTACIÓN PROVINCIAL DE TOLEDO","codigoInvente":null},{"id":1120252,"mrr":false,"numeroConvocatoria":"918691","descripcion":"Bases reguladoras y Convocatoria de la Undécima Edición del Programa Educativo de Talleres Didácticos en Centros Escolares de la provincia de Toledo durante el Curso Escolar 2026-2027","descripcionLeng":null,"fechaRecepcion":"2026-07-10","nivel1":"LOCAL","nivel2":"DIPUTACIÓN PROV. DE TOLEDO","nivel3":"DIPUTACIÓN PROVINCIAL DE TOLEDO","codigoInvente":null},{"id":1120251,"mrr":false,"numeroConvocatoria":"918690","descripcion":"Bases reguladoras y Convocatoria de subvenciones para la realización de actividades en materia de bienestar social por las Entidades Locales de la provincia de Toledo menores de 5.000 habitantes en el ámbito del Programa Tu Salud en Danza 2026-2027","descripcionLeng":null,"fechaRecepcion":"2026-07-10","nivel1":"LOCAL","nivel2":"DIPUTACIÓN PROV. DE TOLEDO","nivel3":"DIPUTACIÓN PROVINCIAL DE TOLEDO","codigoInvente":null},{"id":1120250,"mrr":false,"numeroConvocatoria":"918689","descripcion":"Segona convocatòria per a la presentació de sol·licituds per a la concessió de subvencions, en règim de concurrència competitiva, per a l’organització, participació i desenvolupament de l’organització d’activitats culturals, any 2026","descripcionLeng":"Segunda convocatoria para la presentación de solicitudes para la concesión de subvenciones, en régimen de concurrencia competitiva, para la organización, participación y desarrollo de la organización de actividades culturales, año 2026","fechaRecepcion":"2026-07-10","nivel1":"LOCAL","nivel2":"OLOT","nivel3":"AYUNTAMIENTO DE OLOT","codigoInvente":null},{"id":1120248,"mrr":false,"numeroConvocatoria":"918687","descripcion":"BASES CONCURSO CARTEL DE FERIA REAL CASTRO DEL RÍO 2026","descripcionLeng":null,"fechaRecepcion":"2026-07-10","nivel1":"LOCAL","nivel2":"CASTRO DEL RÍO","nivel3":"AYUNTAMIENTO DE CASTRO DEL RÍO","codigoInvente":null},{"id":1120246,"mrr":false,"numeroConvocatoria":"918685","descripcion":"Ayudas Extremadura Avante a empresas para participación agrupada en la Misión Comercial Canadá 2026, según el Acuerdo de 9 de julio de 2026 que las convoca.","descripcionLeng":null,"fechaRecepcion":"2026-07-10","nivel1":"AUTONOMICA","nivel2":"EXTREMADURA","nivel3":"EXTREMADURA AVANTE SERVICIOS AVANZADOS A PYMES, S.L.U.","codigoInvente":"INV00002179"},{"id":1120235,"mrr":false,"numeroConvocatoria":"918674","descripcion":"Resolución de 10/07/2026 del SEPE, por la que se aprueba la convocatoria para la concesión de sub. púb. destinadas a financiar, en el 2026, la contratación de personas desempleadas menores de 30 años en el marco Proyectos investigo en Melilla.","descripcionLeng":null,"fechaRecepcion":"2026-07-10","nivel1":"ESTADO","nivel2":"MINISTERIO DE TRABAJO Y ECONOMÍA SOCIAL","nivel3":"DIRECCIÓN PROVINCIAL DEL SEPE DE MELILLA","codigoInvente":null},{"id":1120222,"mrr":false,"numeroConvocatoria":"918661","descripcion":"Becas UJI Santander¦Ayuda Económica 2026","descripcionLeng":"Beques UJI Santander¦Ajuda Econòmica 2026","fechaRecepcion":"2026-07-10","nivel1":"OTROS","nivel2":"UNIVERSIDAD JAUME I DE CASTELLÓN","nivel3":null,"codigoInvente":"INV00005381"},{"id":1120219,"mrr":false,"numeroConvocatoria":"918658","descripcion":"RESOLUCIÓN de 10 de julio de 2026, de la Dirección General de LABORA Servicio Valenciano de Empleo y Formación, por la que se convocan para el ejercicio 2026 las subvenciones destinadas a la contratación de personas desempleadas por entidades locales de l","descripcionLeng":"RESOLUCIÓ de 10 de juliol de 2026, de la Direcció General de LABORA Servici Valencià d'Ocupació i Formació, per la qual es convoquen per a l'exercici 2026 les subvencions destinades a la contractació de persones desocupades per entitats locals de la Comun","fechaRecepcion":"2026-07-10","nivel1":"AUTONOMICA","nivel2":"COMUNITAT VALENCIANA","nivel3":"DIRECCIÓN GENERAL DE EMPLEO Y FORMACIÓN","codigoInvente":null},{"id":1120217,"mrr":false,"numeroConvocatoria":"918656","descripcion":"CONVOCATORIA DE SUBVENCIONES A LAS ENTIDADES DE MOLINS DE REI PARA LA CONTRATACIÓN DE CUIDADORES/AS PARA LA INCLUSIÓN DE ALUMNADO CON DISCAPACIDAD A LAS ACTIVIDADES DE VERANO DURANTE PERIODOS NO LECTIVOS 2026","descripcionLeng":"CONVOCATÒRIA DE SUBVENCIONS A LES ENTITATS DE MOLINS DE REI PER\nA LA CONTRACTACIÓ DE VETLLADORS/ES PER A LA INCLUSIÓ D’ALUMNAT\nAMB DISCAPACITAT A LES ACTIVITATS D’ESTIU DURANT PERÍODES NO\nLECTIUS 2026","fechaRecepcion":"2026-07-10","nivel1":"LOCAL","nivel2":"MOLINS DE REI","nivel3":"AYUNTAMIENTO DE MOLINS DE REI","codigoInvente":null},{"id":1120216,"mrr":false,"numeroConvocatoria":"918655","descripcion":"VIII CAMPAÑA REPARTO BONOS PARA REFORZAR EL CANAL DE VENTA DE PROXIMIDAD","descripcionLeng":"HURBILEKO SALMENTA-SAREA INDARTZEKO BONOAK BANATZEKO VIII. KANPAINA","fechaRecepcion":"2026-07-10","nivel1":"LOCAL","nivel2":"ERRENTERIA","nivel3":"AYUNTAMIENTO DE ERRENTERIA","codigoInvente":null},{"id":1120213,"mrr":false,"numeroConvocatoria":"918652","descripcion":"Acuerdo de 18/06/2026 del C.R. del ILC, por el que se convoca la I PREMIO DE NARRATIVA ELENA SANTIAGO 2026","descripcionLeng":null,"fechaRecepcion":"2026-07-10","nivel1":"LOCAL","nivel2":"DIPUTACIÓN PROV. DE LEÓN","nivel3":"INSTITUTO LEONES DE CULTURA","codigoInvente":"INV00003509"},{"id":1120212,"mrr":false,"numeroConvocatoria":"918651","descripcion":"Acuerdo de 18/06/2026 del C.R. del ILC, por el que se convoca la XXVI BIENAL DE POESÍA PROVINCIA DE LEÓN 2026","descripcionLeng":null,"fechaRecepcion":"2026-07-10","nivel1":"LOCAL","nivel2":"DIPUTACIÓN PROV. DE LEÓN","nivel3":"INSTITUTO LEONES DE CULTURA","codigoInvente":"INV00003509"},{"id":1120211,"mrr":false,"numeroConvocatoria":"918650","descripcion":"Orden de la Consejería de Presidencia, Juventud, Acción Exterior y Emergencias por la que se convoca una subvención, en régimen de concurrencia competitiva, para la concesión de dos becas de formación y prácticas en asuntos europeos, para el año 2026/2027","descripcionLeng":null,"fechaRecepcion":"2026-07-10","nivel1":"AUTONOMICA","nivel2":"REGIÓN DE MURCIA","nivel3":"CONSEJERÍA DE PRESIDENCIA, JUVENTUD, ACCIÓN EXTERIOR Y EMERGENCIAS","codigoInvente":null},{"id":1120207,"mrr":false,"numeroConvocatoria":"918646","descripcion":"Orden de 10 de julio de 2026 de la Consejería de Agricultura, Ganadería, Medio Rural y Política Ambiental por la que se convocan, para el año 2026, las ayudas para la reposición de reses como consecuencia de su sacrificio.","descripcionLeng":null,"fechaRecepcion":"2026-07-10","nivel1":"AUTONOMICA","nivel2":"CASTILLA Y LEÓN","nivel3":"CONSEJERÍA DE AGRICULTURA, GANADERÍA, MEDIO RURAL Y POLÍTICA AMBIENTAL","codigoInvente":null},{"id":1120204,"mrr":false,"numeroConvocatoria":"918643","descripcion":"Convocatoria de ayudas a la movilidad de corta duración para estudiantes de la ULE con el fin de asistir a Programas Intensivos Combinados Erasmus+. Curso 2026-2027","descripcionLeng":null,"fechaRecepcion":"2026-07-10","nivel1":"OTROS","nivel2":"UNIVERSIDAD DE LEÓN","nivel3":null,"codigoInvente":"INV00005344"},{"id":1120201,"mrr":false,"numeroConvocatoria":"918640","descripcion":"Orden de 10 de julio de 2026 de la Consejería de Agricultura, Ganadería, Medio Rural y Política Ambiental por la que se convocan, para el año 2026, las ayudas destinadas al fomento de las razas autóctonas españolas.","descripcionLeng":null,"fechaRecepcion":"2026-07-10","nivel1":"AUTONOMICA","nivel2":"CASTILLA Y LEÓN","nivel3":"CONSEJERÍA DE AGRICULTURA, GANADERÍA, MEDIO RURAL Y POLÍTICA AMBIENTAL","codigoInvente":null},{"id":1120197,"mrr":false,"numeroConvocatoria":"918636","descripcion":"Concurso Gran Gymkana de Peñas para la fiestas de agosto 2026","descripcionLeng":null,"fechaRecepcion":"2026-07-10","nivel1":"LOCAL","nivel2":"MANZANARES EL REAL","nivel3":"AYUNTAMIENTO DE MANZANARES EL REAL","codigoInvente":null},{"id":1120196,"mrr":false,"numeroConvocatoria":"918635","descripcion":"CONVOCATORIA PARA CURSO 2026/2027, SUBVENCIONES CON DESTINO AL TRANSPORTE Y A LA COMPRA DE LIBROS DE TEXTO Y/ O MATERIAL ALUMNOS ESO, BACHILLERATO Y CICLO GRADO MEDIO","descripcionLeng":null,"fechaRecepcion":"2026-07-10","nivel1":"LOCAL","nivel2":"GRANADILLA DE ABONA","nivel3":"AYUNTAMIENTO DE GRANADILLA DE ABONA","codigoInvente":null},{"id":1120191,"mrr":false,"numeroConvocatoria":"918630","descripcion":"BECAS A ALUMNADO DE CGS Y UNIVERSITARIOS CURSO ESCOLAR 2026/2027","descripcionLeng":null,"fechaRecepcion":"2026-07-10","nivel1":"LOCAL","nivel2":"GRANADILLA DE ABONA","nivel3":"AYUNTAMIENTO DE GRANADILLA DE ABONA","codigoInvente":null},{"id":1120184,"mrr":false,"numeroConvocatoria":"918623","descripcion":"Bases reguladoras y convocatoria de la ayuda para sufragar parcialmente los gastos de adquisición de tarjeta bonometro y fomentar el uso del transporte ferroviario de personas mayores de 65 o con un grado de discapacidad igual o superior al 64%, 2026/2027","descripcionLeng":null,"fechaRecepcion":"2026-07-10","nivel1":"LOCAL","nivel2":"MELIANA","nivel3":"AYUNTAMIENTO DE MELIANA","codigoInvente":null},{"id":1120182,"mrr":false,"numeroConvocatoria":"918621","descripcion":"(TEC) Econ. Circular y Trans.Energética (Reg. 651/2014)","descripcionLeng":null,"fechaRecepcion":"2026-07-10","nivel1":"AUTONOMICA","nivel2":"LA RIOJA","nivel3":"AGENCIA DE DESARROLLO ECONÓMICO DE LA RIOJA","codigoInvente":"INV00000065"},{"id":1120177,"mrr":false,"numeroConvocatoria":"918616","descripcion":"ORDENANZA MUNICIPAL PARA PROMOCIÓN DE LA ACCESIBILIDAD A LAS VIVIENDAS","descripcionLeng":null,"fechaRecepcion":"2026-07-10","nivel1":"LOCAL","nivel2":"BASAURI","nivel3":"AYUNTAMIENTO DE BASAURI","codigoInvente":null},{"id":1120171,"mrr":false,"numeroConvocatoria":"918610","descripcion":"Convocatoria de Becas \"Universidad de Huelva -Santander Ayuda Económica\"","descripcionLeng":null,"fechaRecepcion":"2026-07-10","nivel1":"OTROS","nivel2":"UNIVERSIDAD DE HUELVA","nivel3":null,"codigoInvente":"INV00005338"},{"id":1120158,"mrr":false,"numeroConvocatoria":"918597","descripcion":"Becas, en régimen de concurrencia competitiva, para cursar estudios de enseñanzas artísticas superiores, o enseñanzas conducentes al título oficial de máster universitario relacionado con estudios de enseñanzas artísticas superiores.Curso 2025-2026","descripcionLeng":null,"fechaRecepcion":"2026-07-10","nivel1":"AUTONOMICA","nivel2":"CANTABRIA","nivel3":"CONSEJERÍA DE EDUCACIÓN, FORMACIÓN PROFESIONAL Y UNIVERSIDADES","codigoInvente":null},{"id":1120156,"mrr":false,"numeroConvocatoria":"918595","descripcion":"Resolución Nº1361 de 10/07/2026: Decreto Convocatoria PEISS 2026","descripcionLeng":null,"fechaRecepcion":"2026-07-10","nivel1":"LOCAL","nivel2":"ALGINET","nivel3":"AYUNTAMIENTO DE ALGINET","codigoInvente":null},{"id":1120153,"mrr":false,"numeroConvocatoria":"918592","descripcion":"Convocatoria para la concesión de financiación para la intensificación de la actividad investigadora en los centros de Atención Primaria del Servicio Navarro de Salud-Osasunbidea durante el año 2026.","descripcionLeng":null,"fechaRecepcion":"2026-07-10","nivel1":"AUTONOMICA","nivel2":"COMUNIDAD FORAL DE NAVARRA","nivel3":"DEPARTAMENTO DE SALUD","codigoInvente":null},{"id":1120152,"mrr":false,"numeroConvocatoria":"918591","descripcion":"Acuerdo de 26 de junio de 2026, de la Junta de Gobierno Local, por la que se convocan subvenciones para el fomento del autoempleo e incentivación de creación de empresas en Llodio durante el periodo de 1 de enero de 2024 al 31 de diciembre de 2025.","descripcionLeng":"Erabakia, 2026ko ekainaren 26koa, Tokiko Gobernu Batzarrarena, autoenplegua sustatzeko eta Laudion enpresak sortzeko dirulaguntzak emateko, 2024ko urtarrilaren 1etik 2025eko abenduaren 31ra bitartean  ","fechaRecepcion":"2026-07-10","nivel1":"LOCAL","nivel2":"LAUDIO/LLODIO","nivel3":"AYUNTAMIENTO DE LAUDIO/LLODIO","codigoInvente":null},{"id":1120148,"mrr":false,"numeroConvocatoria":"918587","descripcion":"“BASES Y CONVOCATORIA DE CONCESIÓN DE SUBVENCIONES A DEPORTISTAS DE ÉLITE “","descripcionLeng":null,"fechaRecepcion":"2026-07-10","nivel1":"LOCAL","nivel2":"NÁQUERA","nivel3":"AYUNTAMIENTO DE NÁQUERA","codigoInvente":null},{"id":1120134,"mrr":false,"numeroConvocatoria":"918573","descripcion":"CONVOCATORIA DE AYUDAS Y BASES PARA EL DESARROLLO DEL PROGRAMA \"CONOCE Y PRUEBA\" 2026","descripcionLeng":null,"fechaRecepcion":"2026-07-10","nivel1":"LOCAL","nivel2":"VALLE DE EGÜÉS/EGUESIBAR","nivel3":"AYUNTAMIENTO DE VALLE DE EGÜÉS/EGUESIBAR","codigoInvente":null},{"id":1120132,"mrr":false,"numeroConvocatoria":"918571","descripcion":"Becas de Excelencia al Estudio. Curso 2025-2026","descripcionLeng":null,"fechaRecepcion":"2026-07-10","nivel1":"LOCAL","nivel2":"FUENTES DE EBRO","nivel3":"AYUNTAMIENTO DE FUENTES DE EBRO","codigoInvente":null},{"id":1120130,"mrr":false,"numeroConvocatoria":"918569","descripcion":"Orden IND/33/2026, de 14 de julio, por la que se aprueba la convocatoria en 2026 de subvenciones para la realización de actividades territoriales en el ámbito de prevención de riesgos laborales conforme a la Ley 31/1995, de 8 de noviembre","descripcionLeng":null,"fechaRecepcion":"2026-07-10","nivel1":"AUTONOMICA","nivel2":"CANTABRIA","nivel3":"DIRECCIÓN DEL ICASST","codigoInvente":null},{"id":1120125,"mrr":false,"numeroConvocatoria":"918564","descripcion":"“BASES REGULADORAS y CONVOCATORIA DE LA CONCESIÓN DE SUBVENCIÓN EN ESPECIE BECAS DE TENIS PARA EL CURSO 2026-2027","descripcionLeng":null,"fechaRecepcion":"2026-07-10","nivel1":"LOCAL","nivel2":"NÁQUERA","nivel3":"AYUNTAMIENTO DE NÁQUERA","codigoInvente":null},{"id":1120119,"mrr":false,"numeroConvocatoria":"918558","descripcion":"BASES REGULADORAS Y CONVOCATORIA PARA LA CONCESIÓN DE SUBVENCIONES PARA EL EMBELLECIMIENTO DE LAS FACHADAS INCLUIDAS EN EL CATÁLOGO DE BIENES INMUEBLES Y ESPACIOS PROTEGIDOS DEL AYUNTAMIENTO DE DAIMIEL. EJERCICIO 2026.","descripcionLeng":null,"fechaRecepcion":"2026-07-10","nivel1":"LOCAL","nivel2":"DAIMIEL","nivel3":"AYUNTAMIENTO DE DAIMIEL","codigoInvente":null},{"id":1120116,"mrr":false,"numeroConvocatoria":"918555","descripcion":"Subvenció per a vals de repartiment als establiments adherits al projecte pilot \"Commerce&Delivery a Sant Joan Despí\"","descripcionLeng":"Subvenció per a vals de repartiment als establiments adherits al projecte pilot \"Commerce&Delivery a Sant Joan Despí\"","fechaRecepcion":"2026-07-10","nivel1":"LOCAL","nivel2":"SANT JOAN DESPÍ","nivel3":"AYUNTAMIENTO DE SANT JOAN DESPÍ","codigoInvente":null},{"id":1120115,"mrr":false,"numeroConvocatoria":"918554","descripcion":"Subvenciones a Ayuntamientos de la isla de menos de treinta mil habitantes o entidades públicas dependientes para la realización de proyectos que impulsen políticas de diversidad sexual, familiar y de género en el territorio insular 2026.","descripcionLeng":null,"fechaRecepcion":"2026-07-10","nivel1":"LOCAL","nivel2":"CABILDO INSULAR DE TENERIFE","nivel3":"CABILDO INSULAR DE TENERIFE","codigoInvente":null},{"id":1120111,"mrr":false,"numeroConvocatoria":"918550","descripcion":"Acuerdo de 18/06/2026 del C.R. del ILC, por el que se convocan subvenciones para Talleres Culturales 2026","descripcionLeng":"Acuerdo de 18/06/2026 del C.R. del ILC, por el que se convocan subvenciones para Talleres Culturales 2026","fechaRecepcion":"2026-07-10","nivel1":"LOCAL","nivel2":"DIPUTACIÓN PROV. DE LEÓN","nivel3":"INSTITUTO LEONES DE CULTURA","codigoInvente":"INV00003509"},{"id":1120105,"mrr":false,"numeroConvocatoria":"918544","descripcion":"Subvenciones a las empresas cuya plantilla no supere 49 personas para la realización de proyectos que contribuyan al establecimiento de políticas efectivas de igualdad de género, en el ámbito laboral en el ejercicio 2026.","descripcionLeng":null,"fechaRecepcion":"2026-07-10","nivel1":"LOCAL","nivel2":"CABILDO INSULAR DE TENERIFE","nivel3":"CABILDO INSULAR DE TENERIFE","codigoInvente":null},{"id":1120101,"mrr":false,"numeroConvocatoria":"918540","descripcion":"Subvencions per als desplaçamens en transport públic per a joves menors de 25 anys que cursin estudis superiors el curs 2022/23","descripcionLeng":"Subvencions per als desplaçamens en transport públic per a joves menors de 25 anys que cursin estudis superiors el curs 2022/23","fechaRecepcion":"2026-07-10","nivel1":"LOCAL","nivel2":"SANT JOAN DESPÍ","nivel3":"AYUNTAMIENTO DE SANT JOAN DESPÍ","codigoInvente":null},{"id":1120100,"mrr":false,"numeroConvocatoria":"918539","descripcion":"Resolución de 10 de julio de 2026,  del Servicio Público de Empleo de Castilla y León, por la que se convocan subvenciones, cofinanciadas por el FSE+, dirigidas al fomento del empleo estable por cuenta ajena en Castilla y León, para el año 2026.","descripcionLeng":null,"fechaRecepcion":"2026-07-10","nivel1":"AUTONOMICA","nivel2":"CASTILLA Y LEÓN","nivel3":"SERVICIO PÚBLICO DE EMPLEO DE CASTILLA Y LEÓN","codigoInvente":null},{"id":1120099,"mrr":false,"numeroConvocatoria":"918538","descripcion":"Subvencions per als desplaçaments en transport public per a joves menors de  30  anys que cursin estudis superiors el curs 2023/2024","descripcionLeng":"Subvencions per als desplaçaments en transport public per a joves menors de  30  anys que cursin estudis superiors el curs 2023/2024","fechaRecepcion":"2026-07-10","nivel1":"LOCAL","nivel2":"SANT JOAN DESPÍ","nivel3":"AYUNTAMIENTO DE SANT JOAN DESPÍ","codigoInvente":null}],"pageable":{"sort":{"sorted":true,"unsorted":false,"empty":false},"pageNumber":8,"pageSize":50,"offset":400,"unpaged":false,"paged":true},"last":false,"totalElements":10000,"totalPages":200,"sort":{"sorted":true,"unsorted":false,"empty":false},"first":false,"numberOfElements":50,"size":50,"number":8,"empty":false,"advertencia":"La reutilización de los datos del Sistema Nacional de Publicidad de Subvenciones y Ayudas Públicas está sujeta a una serie de restricciones y consideraciones legales. Consulte el aviso legal en https://www.infosubvenciones.es/bdnstrans/GE/es/avisolegal.Además, el usuario debe ser consciente que la información presentada es de naturaleza dinámica, y que los datos pueden ser sometidos a correcciones, inserciones, modificaciones y eliminaciones en momentos posteriores a su extracción. Accesos al API del sistema Nacional de Publicidad de Subvenciones y Ayudas Públicas. La Administración Presupuestaria, para salvaguardar la protección del acceso libre e irrestricto de los ciudadanos a este Portal y a su información podrá adoptar medidas restrictivas de acceso al API ante situaciones de manifiesto abuso del servicio, riesgos de seguridad, o uso fraudulento de la información descargada, de acuerdo con las buenas prácticas de gestión de datos abiertos (https://datos.gob.es/es/blog/limitaciones-la-consulta-de-una-api) establecidas por el Ministerio para la Transformación Digital y de la Función Pública."}