{"content":[{"id":1109649,"mrr":false,"numeroConvocatoria":"908088","descripcion":"BECAS ESCOLARIZACIÓN GUARDERIA CURSO 2026-27 (DE SETIEMBRE A DICIEMBRE 2026)","descripcionLeng":null,"fechaRecepcion":"2026-05-26","nivel1":"LOCAL","nivel2":"SANTA MARIA DE PALAUTORDERA","nivel3":"AYUNTAMIENTO DE SANTA MARIA DE PALAUTORDERA","codigoInvente":null},{"id":1109648,"mrr":false,"numeroConvocatoria":"908087","descripcion":"BECAS COMEDOR CURSO 2026-27 (DE SETIEMBRE A DICIEMBRE 2026)","descripcionLeng":null,"fechaRecepcion":"2026-05-26","nivel1":"LOCAL","nivel2":"SANTA MARIA DE PALAUTORDERA","nivel3":"AYUNTAMIENTO DE SANTA MARIA DE PALAUTORDERA","codigoInvente":null},{"id":1109647,"mrr":false,"numeroConvocatoria":"908086","descripcion":"Convocatoria ayudas escolarización 2026","descripcionLeng":"Convocatòria ajuts escolarització 2026","fechaRecepcion":"2026-05-26","nivel1":"LOCAL","nivel2":"SANTA MARGARIDA DE MONTBUI","nivel3":"AYUNTAMIENTO DE SANTA MARGARIDA DE MONTBUI","codigoInvente":null},{"id":1109641,"mrr":false,"numeroConvocatoria":"908080","descripcion":"ORDEN de la Consejería de Agricultura, Ganadería, Pesca y Soberanía Alimentaria, por la que se convoca para la campaña 2026 la Ayuda por hectárea para el mantenimiento del cultivo de vides","descripcionLeng":null,"fechaRecepcion":"2026-05-26","nivel1":"AUTONOMICA","nivel2":"CANARIAS","nivel3":"CONSEJERÍA DE AGRICULTURA, GANADERÍA, PESCA Y AGUAS","codigoInvente":null},{"id":1109639,"mrr":false,"numeroConvocatoria":"908078","descripcion":"CONVOCATORIA DE SUBVENCIONES A AYUNTAMIENTOS PARA COMEDORES SOCIALES DE LA COMARCA COMUNIDAD DE TERUEL","descripcionLeng":null,"fechaRecepcion":"2026-05-26","nivel1":"LOCAL","nivel2":"COMARCA COMUNIDAD DE TERUEL","nivel3":"COMARCA DE COMUNIDAD DE TERUEL","codigoInvente":null},{"id":1109636,"mrr":false,"numeroConvocatoria":"908075","descripcion":"PREMIOS FUNDACIÓN TRINIDAD ALFONSO PARA DEPORTISTAS UNIVERSITARIOS DE LA UNIVERSITAT POLITÈCNICA DE VALÈNCIA CURSO 2025/2026","descripcionLeng":"PREMIS FUNDACIÓ TRINIDAD ALFONSO PER A ESPORTISTES UNIVERSITARIS DE LA UNIVERSITAT POLITÈCNICA DE VALÈNCIA. \nCURS 2025/26","fechaRecepcion":"2026-05-26","nivel1":"OTROS","nivel2":"UNIVERSITAT POLITÈCNICA DE VALÈNCIA","nivel3":null,"codigoInvente":"INV00005383"},{"id":1109634,"mrr":false,"numeroConvocatoria":"908073","descripcion":"ORDEN de la Consejería de Agricultura, Ganadería, Pesca y Soberanía Alimentaria por la que se convoca para la campaña 2026, la ayuda por superficie a los productores de Aloe Vera y Olivo","descripcionLeng":null,"fechaRecepcion":"2026-05-26","nivel1":"AUTONOMICA","nivel2":"CANARIAS","nivel3":"CONSEJERÍA DE AGRICULTURA, GANADERÍA, PESCA Y AGUAS","codigoInvente":null},{"id":1109631,"mrr":false,"numeroConvocatoria":"908070","descripcion":"CONVENIO REGULADOR DE LA CESIÓN DE USO DE LA SALA ENTRE L¿AJUNTAMENT D¿ARGENTONA Y EL SR. ANTONI MIRA MARTÍNEZ, 2026","descripcionLeng":null,"fechaRecepcion":"2026-05-26","nivel1":"LOCAL","nivel2":"ARGENTONA","nivel3":"AYUNTAMIENTO DE ARGENTONA","codigoInvente":null},{"id":1109629,"mrr":false,"numeroConvocatoria":"908068","descripcion":"AYUDAS NATALIDAD Y ADOPCIÓN 2026","descripcionLeng":null,"fechaRecepcion":"2026-05-26","nivel1":"LOCAL","nivel2":"SANT MATEU DE BAGES","nivel3":"AYUNTAMIENTO DE SANT MATEU DE BAGES","codigoInvente":null},{"id":1109628,"mrr":false,"numeroConvocatoria":"908067","descripcion":"CONVOCATORIA PARA CONCESIÓN DE SUBVENCIONES A ENTIDADES LOCALES DEL ÁMBITO DE ACTUACIÓN DE ADRI PALOMARES PARA INVERSIONES DE CARÁCTER NO PRODUCTIVO EN EL MARCO DE LA INTERVENCIÓN 7119 LEADER DEL PEPAC 2023-2027","descripcionLeng":null,"fechaRecepcion":"2026-05-26","nivel1":"OTROS","nivel2":"ADRI PALOMARES - ASOCIACIÓN DE DESARROLLO RURAL INTEGRAL  PALOMARES (VIA DE LA PLATA - SALINAS - NORTE DUERO)","nivel3":null,"codigoInvente":null},{"id":1109627,"mrr":false,"numeroConvocatoria":"908066","descripcion":"Convocatoria de subvenciones dirigidas a las bodegas del municipio de La Frontera para el ejercicio 2026","descripcionLeng":null,"fechaRecepcion":"2026-05-26","nivel1":"LOCAL","nivel2":"FRONTERA","nivel3":"AYUNTAMIENTO DE FRONTERA","codigoInvente":null},{"id":1109624,"mrr":false,"numeroConvocatoria":"908063","descripcion":"CONVOCATORIA DE AYUDAS DE EMERGENCIA PARA EL PAGO DE COMEDOR ESCOLAR DEL CURSO 2026-2027","descripcionLeng":null,"fechaRecepcion":"2026-05-26","nivel1":"LOCAL","nivel2":"VILLANUEVA DE LA TORRE","nivel3":"AYUNTAMIENTO DE VILLANUEVA DE LA TORRE","codigoInvente":null},{"id":1109622,"mrr":false,"numeroConvocatoria":"908061","descripcion":"PROGRAMA DE FOMENTO DE EMPLEO AGRARIO (GARANTIA DE RENTAS)","descripcionLeng":null,"fechaRecepcion":"2026-05-26","nivel1":"ESTADO","nivel2":"MINISTERIO DE TRABAJO Y ECONOMÍA SOCIAL","nivel3":"DIRECCIÓN PROVINCIAL DEL SEPE DE SEVILLA","codigoInvente":null},{"id":1109621,"mrr":false,"numeroConvocatoria":"908060","descripcion":"PROGRAMA DE FOMENTO DE EMPLEO AGRARIO (EMPLEO ESTABLE)","descripcionLeng":null,"fechaRecepcion":"2026-05-26","nivel1":"ESTADO","nivel2":"MINISTERIO DE TRABAJO Y ECONOMÍA SOCIAL","nivel3":"DIRECCIÓN PROVINCIAL DEL SEPE DE SEVILLA","codigoInvente":null},{"id":1109617,"mrr":false,"numeroConvocatoria":"908056","descripcion":"Decreto del 18 de mayo de 206 del Alcalde del Ayuntamiento de Badajoz, por el que se convoca el 20  Premio de Escultura Ciudad de Badajoz 2026.","descripcionLeng":null,"fechaRecepcion":"2026-05-26","nivel1":"LOCAL","nivel2":"BADAJOZ","nivel3":"AYUNTAMIENTO DE BADAJOZ","codigoInvente":null},{"id":1109616,"mrr":false,"numeroConvocatoria":"908055","descripcion":"Decreto del 18 de mayo de 2026 del Alcalde del Ayuntamiento de Badajoz,  por el que se convoca 45 Premio de Poesía Ciudad de Badajoz 2026.","descripcionLeng":null,"fechaRecepcion":"2026-05-26","nivel1":"LOCAL","nivel2":"BADAJOZ","nivel3":"AYUNTAMIENTO DE BADAJOZ","codigoInvente":null},{"id":1109615,"mrr":false,"numeroConvocatoria":"908054","descripcion":"CONVOCATORIA PARA LA CONCESION DE AYUDAS INDIVIDUALES PARA LA ASISTENCIA AL CASAL DE VERANO MUNICIPAL DE HOSTALRIC 2026","descripcionLeng":"CONVOCATÒRIA PER A LA CONCESSIÓ D'AJUDES INDIVIDUALS PER A L'ASSISTÈNCIA AL CASAL D'ESTIU MUNICIPAL D'HOSTALRIC 2026","fechaRecepcion":"2026-05-26","nivel1":"LOCAL","nivel2":"HOSTALRIC","nivel3":"AYUNTAMIENTO DE HOSTALRIC","codigoInvente":null},{"id":1109613,"mrr":false,"numeroConvocatoria":"908052","descripcion":"Decreto del 18 de mayo de 2026 del Alcalde del Ayuntamiento de Badajoz, por el que se convoca el 7º Premio de Música Ciudad de Badajoz 2026","descripcionLeng":null,"fechaRecepcion":"2026-05-26","nivel1":"LOCAL","nivel2":"BADAJOZ","nivel3":"AYUNTAMIENTO DE BADAJOZ","codigoInvente":null},{"id":1109610,"mrr":false,"numeroConvocatoria":"908049","descripcion":"Resolución Vicerrectorado de Internacionalización, de 22/05/2026, por la que se aprueba la Convocatoria de Becas Erasmus+ (Acción KA1) Movilidad de Prácticas “SMT- Student Mobility\nfor Traineeships” Estudiantes de Grado y Máster. Curso 2025/26 2ªEdición","descripcionLeng":null,"fechaRecepcion":"2026-05-26","nivel1":"OTROS","nivel2":"UNIVERSIDAD DE CÓRDOBA","nivel3":null,"codigoInvente":"INV00005335"},{"id":1109605,"mrr":false,"numeroConvocatoria":"908044","descripcion":"Ayudas a la Organización de Congresos y Reuniones Científico-Técnicas de la Fundación séneca-Agencia de ciencia y tecnología de la Región de Murcia","descripcionLeng":null,"fechaRecepcion":"2026-05-26","nivel1":"AUTONOMICA","nivel2":"REGIÓN DE MURCIA","nivel3":"FUNDACIÓN SÉNECA (AGENCIA REGIONAL DE CIENCIA Y TECNOLOGÍA)","codigoInvente":"INV00003181"},{"id":1109604,"mrr":false,"numeroConvocatoria":"908043","descripcion":"ACUERDO DE LA JUNTA DE GOBIERNO LOCAL DEL AYUNTAMIENTO DE DELTEBRE, DE FECHA 21 DE MAYO DE 2026, POR EL QUE SE APRUEBA LA MODIFICACIÓN DE LA CONVOCATORIA DE LOS PREMIOS RUA DE CARNAVAL, CARNAVAL INFANTIL Y JUVENIL 2026.","descripcionLeng":"ACORD DE LA JUNTA DE GOVERN LOCAL DE L'AJUNTAMENT DE DELTEBRE, DE DATA 21 DE MAIG DE 2026, PEL QUAL S'APROVA LA MODIFICACIÓ DE LA CONVOCATÒRIA DELS PREMIS RUA DE CARNAVAL, CARNAVAL INFANTIL I JOVE 2026.\n","fechaRecepcion":"2026-05-26","nivel1":"LOCAL","nivel2":"DELTEBRE","nivel3":"AYUNTAMIENTO DE DELTEBRE","codigoInvente":null},{"id":1109602,"mrr":false,"numeroConvocatoria":"908041","descripcion":"CONVOCATORIA PARA LA CONCESION DE AYUDAS PARA LA ADQUISICION DE LIBROS DE TEXTO Y LICENCIAS DIGITALES 2026","descripcionLeng":"CONVOCATÒRIA PER A LA CONCESSIÓ D'AJUDES PER A L'ADQUISICIÓ DE LLIBRES DE TEXT I LLICÈNCIES DIGITALS 2026 ","fechaRecepcion":"2026-05-26","nivel1":"LOCAL","nivel2":"HOSTALRIC","nivel3":"AYUNTAMIENTO DE HOSTALRIC","codigoInvente":null},{"id":1109601,"mrr":false,"numeroConvocatoria":"908040","descripcion":"Orden de 25 de mayo de 2026 de la Consejería de Agua, Agricultura, Ganadería y Pesca, por la que se aprueba la convocatoria para el año 2026 de las ayudas de intervención en el sector apícola de la Comunidad Autónoma de la Región de Murcia","descripcionLeng":null,"fechaRecepcion":"2026-05-26","nivel1":"AUTONOMICA","nivel2":"REGIÓN DE MURCIA","nivel3":"CONSEJERÍA DE AGUA, AGRICULTURA, GANADERÍA Y PESCA","codigoInvente":null},{"id":1109598,"mrr":false,"numeroConvocatoria":"908037","descripcion":"CONVOCATORIA DE AYUDAS A LA REALIZACIÓN DE ESTANCIAS DE INVESTIGADORES DE LA REGIÓN EN CENTROS INTERNACIONALES DE LA FUNDACIÓN SÉNECA-AGENCIA DE CIENCIA Y TECNOLOGÍA DE LA REGIÓN DE MURCIA","descripcionLeng":null,"fechaRecepcion":"2026-05-26","nivel1":"AUTONOMICA","nivel2":"REGIÓN DE MURCIA","nivel3":"FUNDACIÓN SÉNECA (AGENCIA REGIONAL DE CIENCIA Y TECNOLOGÍA)","codigoInvente":"INV00003181"},{"id":1109597,"mrr":false,"numeroConvocatoria":"908036","descripcion":"Resolución del Imserso, por la que se convoca la concesión de subvenciones sometidas al régimen general de subvenciones del Imserso para las actuaciones de turismo y termalismo dirigidas a personas con discapacidad durante el año 2026","descripcionLeng":null,"fechaRecepcion":"2026-05-26","nivel1":"ESTADO","nivel2":"MINISTERIO DE DERECHOS SOCIALES, CONSUMO Y AGENDA 2030","nivel3":"INSTITUTO DE MAYORES Y SERVICIOS SOCIALES","codigoInvente":"INV00003701"},{"id":1109594,"mrr":false,"numeroConvocatoria":"908033","descripcion":"Cartel de las Ferias y Fiestas de Guadalajara. Septiembre 2026","descripcionLeng":null,"fechaRecepcion":"2026-05-26","nivel1":"LOCAL","nivel2":"GUADALAJARA","nivel3":"AYUNTAMIENTO DE GUADALAJARA","codigoInvente":null},{"id":1109592,"mrr":false,"numeroConvocatoria":"908031","descripcion":"Extracto de la Resolución de Alcaldía número 90/2026, de 11 de mayo, por la que se convocan las prestaciones económicas de emergencia social para 2026.","descripcionLeng":null,"fechaRecepcion":"2026-05-26","nivel1":"LOCAL","nivel2":"SELAYA","nivel3":"AYUNTAMIENTO DE SELAYA","codigoInvente":null},{"id":1109587,"mrr":false,"numeroConvocatoria":"908026","descripcion":"DECRETO DEL ALCALDE 532/26 DE 21 MAYO DE 2026 CONVOCATORIA PARA LA CONCESIÓN DE SUBVENCIONES CON DESTINO AL ABONO DE LAS MATRICULAS DE CURSOS DE EUSKERA REALIZADOS EN EL AÑO 2025.","descripcionLeng":"MAIATZAREN 21EKO 532/26 ALKATEAREN DEKRETUA. 2025. URTEAN EUSKARA IKASTAROEN MATRIKULA HEIN BATEAN ORDAINTZEKO, DIRULAGUNTZAK EMATEKO DEALDIA.","fechaRecepcion":"2026-05-26","nivel1":"LOCAL","nivel2":"IURRETA","nivel3":"AYUNTAMIENTO DE IURRETA","codigoInvente":null},{"id":1109585,"mrr":false,"numeroConvocatoria":"908024","descripcion":"Convocatoria de las subvenciones en materia de promoción económica mediante la contratación y la emprenedoria a Torrefarrera 2024 i 2025","descripcionLeng":"Convocatòria de les subvencions en matèria de promoció econòmica mitjançant la contractació i l'emprenedoria a Torrefarrera 2024 i 2025","fechaRecepcion":"2026-05-26","nivel1":"LOCAL","nivel2":"TORREFARRERA","nivel3":"AYUNTAMIENTO DE TORREFARRERA","codigoInvente":null},{"id":1109583,"mrr":false,"numeroConvocatoria":"908022","descripcion":"CONVOCATORIA DE AYUDAS MUNICIPALES PARA SUMINISTROS MÍNIMOS VITALES DEL AYUNTAMIENTO DE FUENLABRADA DE LOS MONTES, EJERCICIO 2026","descripcionLeng":null,"fechaRecepcion":"2026-05-26","nivel1":"LOCAL","nivel2":"FUENLABRADA DE LOS MONTES","nivel3":"AYUNTAMIENTO DE FUENLABRADA DE LOS MONTES","codigoInvente":null},{"id":1109577,"mrr":false,"numeroConvocatoria":"908016","descripcion":"Convocatoria de subvenciones para actividades económicas de ámbito cultural","descripcionLeng":"Convocatòria de subvencions per a activitats econòmiques de caire cultural","fechaRecepcion":"2026-05-26","nivel1":"LOCAL","nivel2":"PALAFRUGELL","nivel3":"AYUNTAMIENTO DE PALAFRUGELL","codigoInvente":null},{"id":1109576,"mrr":false,"numeroConvocatoria":"908015","descripcion":"Convocatoria Municipal de Subvenciones para Entidades privadas, sin ánimo de lucro, para el desarrollo de programas integrales en materia de inmigración  (APSAL INMIGRACIÓN), AÑO 2026","descripcionLeng":null,"fechaRecepcion":"2026-05-26","nivel1":"LOCAL","nivel2":"BURGOS","nivel3":"AYUNTAMIENTO DE BURGOS","codigoInvente":null},{"id":1109575,"mrr":false,"numeroConvocatoria":"908014","descripcion":"Resolución del Instituto de Mayores y Servicios Sociales, por la que se convoca la concesión de subvenciones al régimen general de subvenciones del Imserso en el área de atención a mayores, durante el año 2026","descripcionLeng":null,"fechaRecepcion":"2026-05-26","nivel1":"ESTADO","nivel2":"MINISTERIO DE DERECHOS SOCIALES, CONSUMO Y AGENDA 2030","nivel3":"INSTITUTO DE MAYORES Y SERVICIOS SOCIALES","codigoInvente":"INV00003701"},{"id":1109571,"mrr":false,"numeroConvocatoria":"908010","descripcion":"III Concurso Cartel Encierro de Guadalajara 2026","descripcionLeng":null,"fechaRecepcion":"2026-05-26","nivel1":"LOCAL","nivel2":"GUADALAJARA","nivel3":"AYUNTAMIENTO DE GUADALAJARA","codigoInvente":null},{"id":1109564,"mrr":false,"numeroConvocatoria":"908003","descripcion":"Convocatoria Municipal de Subvenciones para Entidades privadas, sin ánimo de lucro, para el desarrollo de programas de INCLUSIÓN SOCIAL, AÑO 2026","descripcionLeng":null,"fechaRecepcion":"2026-05-26","nivel1":"LOCAL","nivel2":"BURGOS","nivel3":"AYUNTAMIENTO DE BURGOS","codigoInvente":null},{"id":1109561,"mrr":false,"numeroConvocatoria":"908000","descripcion":"Resolución de 26 de mayo de 2026, por la que se convocan Subvenciones públicas regladas, en régimen de concurrencia competitiva,destinadas a la financiación de la oferta formativa de Formación Profesional en el Trabajo dirigida a personas trabajadoras aut","descripcionLeng":null,"fechaRecepcion":"2026-05-26","nivel1":"AUTONOMICA","nivel2":"ANDALUCÍA","nivel3":"CONSEJERÍA DE EMPLEO, EMPRESA Y TRABAJO AUTÓNOMO","codigoInvente":null},{"id":1109559,"mrr":false,"numeroConvocatoria":"907998","descripcion":"CONVOCATORIA PARA LA CONCESIÓN DE SUBVENCIONES PARA LA PROMOCIÓN DE PROYECTOS EDUCATIVOS ESPECÍFICOS DESARROLLADOS POR LOS CENTROS EDUCATIVOS. CURSO 2025-2026","descripcionLeng":null,"fechaRecepcion":"2026-05-26","nivel1":"LOCAL","nivel2":"BARBERÀ DEL VALLÈS","nivel3":"AYUNTAMIENTO DE BARBERÀ DEL VALLÈS","codigoInvente":null},{"id":1109558,"mrr":false,"numeroConvocatoria":"907997","descripcion":"CONVOCATORIA DE SUBVENCIONES DEL SERVICIO DE PRESIDENCIA DESTINADA AYUNTAMIENTOS Y ENTIDADES LOCALES MENORES DE ALBACETE PARA LA CONTRATACIÓN DE PERSONAL Y EMPRESAS DE SERVICIOS PARA EL MANTENIMIENTO DE INFRAESTRUCTURAS Y ESPACIOS MUNICIPALES","descripcionLeng":null,"fechaRecepcion":"2026-05-26","nivel1":"LOCAL","nivel2":"DIPUTACIÓN PROV. DE ALBACETE","nivel3":"DIPUTACIÓN PROVINCIAL DE ALBACETE","codigoInvente":null},{"id":1109556,"mrr":false,"numeroConvocatoria":"907995","descripcion":"PREMIO HISTÓRICO-LITERARIO CASTILLO DE MATRERA 2026/27","descripcionLeng":null,"fechaRecepcion":"2026-05-26","nivel1":"LOCAL","nivel2":"VILLAMARTÍN","nivel3":"AYUNTAMIENTO DE VILLAMARTÍN","codigoInvente":null},{"id":1109552,"mrr":false,"numeroConvocatoria":"907991","descripcion":"Concurso para la selección del cartel de la portada del programa de Fiestas de Septiembre de 2026.","descripcionLeng":"Concurs per a la selecció del cartell de la portada del programa de Festes de Setembre de 2026.","fechaRecepcion":"2026-05-26","nivel1":"LOCAL","nivel2":"BETXÍ","nivel3":"AYUNTAMIENTO DE BETXÍ","codigoInvente":null},{"id":1109549,"mrr":false,"numeroConvocatoria":"907988","descripcion":"CONVOCATORIA PÚBLICA PARA LA CONCESIÓN DE SUBVENCIONES DE FINANCIACIÓN DE PLAZAS CONCERTADAS CON ASOCIACIONES JUVENILES PARA LA PARTICIPACIÓN DE POBLACION INFANTO-JUVENIL EN CAMPAMENTOS Y MARCHAS VOLANTES 2026","descripcionLeng":null,"fechaRecepcion":"2026-05-26","nivel1":"LOCAL","nivel2":"PALENCIA","nivel3":"AYUNTAMIENTO DE PALENCIA","codigoInvente":null},{"id":1109538,"mrr":false,"numeroConvocatoria":"907977","descripcion":"Resolución de 25 de mayo de 2026, del vicepresidente tercero y conseller de Medio Ambiente, Infraestructuras, Territorio y de la Recuperación, por la que se establecen las bases reguladoras de las ayudas al voluntariado ambiental (PIFVOL 2026)","descripcionLeng":"Resolució de 25 de maig de 2026, del vicepresident tercer i conseller de Medi Ambient, Infraestructures, Territori i de la Recuperació, per la qual s'establixen les bases reguladores de les ajudes al voluntariat ambiental (PIFVOL 2026)","fechaRecepcion":"2026-05-26","nivel1":"AUTONOMICA","nivel2":"COMUNITAT VALENCIANA","nivel3":"SECRETARÍA AUTONÓMICA DE MEDIO AMBIENTE  Y TERRITORIO","codigoInvente":null},{"id":1109537,"mrr":false,"numeroConvocatoria":"907976","descripcion":"RESOLUCIÓN DE LA SECRETARÍA DE ESTADO DE EDUCACIÓN POR LA QUE SE CONVOCAN AYUDAS PARA SUFRAGAR LOS SERVICIOS DE TRANSPORTE ESCOLAR PARA EL ALUMNADO MATRICULADO EN CENTROS PÚBLICOS DOCENTES NO UNIVERSITARIOS EN CEUTA Y MELILLA EN EL CURSO 2026-2027","descripcionLeng":null,"fechaRecepcion":"2026-05-26","nivel1":"ESTADO","nivel2":"MINISTERIO DE EDUCACIÓN, FORMACIÓN PROFESIONAL Y DEPORTES","nivel3":"SECRETARÍA DE ESTADO DE EDUCACIÓN","codigoInvente":null},{"id":1109535,"mrr":false,"numeroConvocatoria":"907974","descripcion":"42º CERTAMEN BAILES REGIONALES DE VILLAMARTIN 2026","descripcionLeng":null,"fechaRecepcion":"2026-05-26","nivel1":"LOCAL","nivel2":"VILLAMARTÍN","nivel3":"AYUNTAMIENTO DE VILLAMARTÍN","codigoInvente":null},{"id":1109534,"mrr":false,"numeroConvocatoria":"907973","descripcion":"Subvenciones Deporte Federado 2026","descripcionLeng":null,"fechaRecepcion":"2026-05-26","nivel1":"LOCAL","nivel2":"ALICANTE/ALACANT","nivel3":"AYUNTAMIENTO DE ALICANTE/ALACANT","codigoInvente":null},{"id":1109533,"mrr":false,"numeroConvocatoria":"907972","descripcion":"Subvenciones Alto Nivel 2026","descripcionLeng":null,"fechaRecepcion":"2026-05-26","nivel1":"LOCAL","nivel2":"ALICANTE/ALACANT","nivel3":"AYUNTAMIENTO DE ALICANTE/ALACANT","codigoInvente":null},{"id":1109530,"mrr":false,"numeroConvocatoria":"907969","descripcion":"Subvención concurrencia competitiva para el concurso del Cartel de fiesta Mayor de Viladecavalls 2026","descripcionLeng":"Subvenció concurrència competitiva per el concurs del Cartell de Festa Major de Viladecavalls 2026","fechaRecepcion":"2026-05-26","nivel1":"LOCAL","nivel2":"VILADECAVALLS","nivel3":"AYUNTAMIENTO DE VILADECAVALLS","codigoInvente":null},{"id":1109526,"mrr":false,"numeroConvocatoria":"907965","descripcion":"Subvenciones para las asociaciones del trabajo autónomo en Cataluña, para el fomento de las actividades que les son propias y para sufragar sus gastos de funcionamiento.","descripcionLeng":"Subvencions per a les associacions del treball autònom a Catalunya, per al foment de les activitats que els són pròpies i per a sufragar les seves despeses de funcionament.","fechaRecepcion":"2026-05-26","nivel1":"AUTONOMICA","nivel2":"CATALUÑA","nivel3":"DEPARTAMENT D'EMPRESA I TREBALL  ","codigoInvente":null},{"id":1109525,"mrr":false,"numeroConvocatoria":"907964","descripcion":"Convocatoria que ha de regir en el otorgamiento de las ayudas económicas individuales a usuarios/as de la Unidad Orgánica de Infancia y Familia del IASS para el ejercicio 2026.","descripcionLeng":null,"fechaRecepcion":"2026-05-26","nivel1":"LOCAL","nivel2":"CABILDO INSULAR DE TENERIFE","nivel3":"INSTITUTO INSULAR DE ATENCIÓN SOCIAL Y SOCIO-SANITARIA","codigoInvente":"INV00003507"},{"id":1109524,"mrr":false,"numeroConvocatoria":"907963","descripcion":"RESOLUCIÓN DE LA SECRETARÍA DE ESTADO DE EDUCACIÓN POR LA QUE SE CONVOCAN AYUDAS PARA SUFRAGAR LOS SERVICIOS DE COMEDOR ESCOLAR PARA EL ALUMNADO MATRICULADO EN CENTROS DOCENTES SOSTENIDOS CON FONDOS PÚBLICOS NO UNIVERSITARIOS EN CEUTA Y MELILLA 2026-2027","descripcionLeng":null,"fechaRecepcion":"2026-05-26","nivel1":"ESTADO","nivel2":"MINISTERIO DE EDUCACIÓN, FORMACIÓN PROFESIONAL Y DEPORTES","nivel3":"SECRETARÍA DE ESTADO DE EDUCACIÓN","codigoInvente":null}],"pageable":{"sort":{"sorted":true,"empty":false,"unsorted":false},"pageNumber":43,"pageSize":50,"offset":2150,"unpaged":false,"paged":true},"last":false,"totalPages":200,"totalElements":10000,"size":50,"number":43,"first":false,"sort":{"sorted":true,"empty":false,"unsorted":false},"numberOfElements":50,"empty":false,"advertencia":"La reutilización de los datos del Sistema Nacional de Publicidad de Subvenciones y Ayudas Públicas está sujeta a una serie de restricciones y consideraciones legales. Consulte el aviso legal en https://www.infosubvenciones.es/bdnstrans/GE/es/avisolegal.Además, el usuario debe ser consciente que la información presentada es de naturaleza dinámica, y que los datos pueden ser sometidos a correcciones, inserciones, modificaciones y eliminaciones en momentos posteriores a su extracción. Accesos al API del sistema Nacional de Publicidad de Subvenciones y Ayudas Públicas. La Administración Presupuestaria, para salvaguardar la protección del acceso libre e irrestricto de los ciudadanos a este Portal y a su información podrá adoptar medidas restrictivas de acceso al API ante situaciones de manifiesto abuso del servicio, riesgos de seguridad, o uso fraudulento de la información descargada, de acuerdo con las buenas prácticas de gestión de datos abiertos (https://datos.gob.es/es/blog/limitaciones-la-consulta-de-una-api) establecidas por el Ministerio para la Transformación Digital y de la Función Pública."}