{"content":[{"id":1109601,"mrr":false,"numeroConvocatoria":"908040","descripcion":"Orden de 25 de mayo de 2026 de la Consejería de Agua, Agricultura, Ganadería y Pesca, por la que se aprueba la convocatoria para el año 2026 de las ayudas de intervención en el sector apícola de la Comunidad Autónoma de la Región de Murcia","descripcionLeng":null,"fechaRecepcion":"2026-05-26","nivel1":"AUTONOMICA","nivel2":"REGIÓN DE MURCIA","nivel3":"CONSEJERÍA DE AGUA, AGRICULTURA, GANADERÍA Y PESCA","codigoInvente":null},{"id":1109598,"mrr":false,"numeroConvocatoria":"908037","descripcion":"CONVOCATORIA DE AYUDAS A LA REALIZACIÓN DE ESTANCIAS DE INVESTIGADORES DE LA REGIÓN EN CENTROS INTERNACIONALES DE LA FUNDACIÓN SÉNECA-AGENCIA DE CIENCIA Y TECNOLOGÍA DE LA REGIÓN DE MURCIA","descripcionLeng":null,"fechaRecepcion":"2026-05-26","nivel1":"AUTONOMICA","nivel2":"REGIÓN DE MURCIA","nivel3":"FUNDACIÓN SÉNECA (AGENCIA REGIONAL DE CIENCIA Y TECNOLOGÍA)","codigoInvente":"INV00003181"},{"id":1109597,"mrr":false,"numeroConvocatoria":"908036","descripcion":"Resolución del Imserso, por la que se convoca la concesión de subvenciones sometidas al régimen general de subvenciones del Imserso para las actuaciones de turismo y termalismo dirigidas a personas con discapacidad durante el año 2026","descripcionLeng":null,"fechaRecepcion":"2026-05-26","nivel1":"ESTADO","nivel2":"MINISTERIO DE DERECHOS SOCIALES, CONSUMO Y AGENDA 2030","nivel3":"INSTITUTO DE MAYORES Y SERVICIOS SOCIALES","codigoInvente":"INV00003701"},{"id":1109594,"mrr":false,"numeroConvocatoria":"908033","descripcion":"Cartel de las Ferias y Fiestas de Guadalajara. Septiembre 2026","descripcionLeng":null,"fechaRecepcion":"2026-05-26","nivel1":"LOCAL","nivel2":"GUADALAJARA","nivel3":"AYUNTAMIENTO DE GUADALAJARA","codigoInvente":null},{"id":1109592,"mrr":false,"numeroConvocatoria":"908031","descripcion":"Extracto de la Resolución de Alcaldía número 90/2026, de 11 de mayo, por la que se convocan las prestaciones económicas de emergencia social para 2026.","descripcionLeng":null,"fechaRecepcion":"2026-05-26","nivel1":"LOCAL","nivel2":"SELAYA","nivel3":"AYUNTAMIENTO DE SELAYA","codigoInvente":null},{"id":1109587,"mrr":false,"numeroConvocatoria":"908026","descripcion":"DECRETO DEL ALCALDE 532/26 DE 21 MAYO DE 2026 CONVOCATORIA PARA LA CONCESIÓN DE SUBVENCIONES CON DESTINO AL ABONO DE LAS MATRICULAS DE CURSOS DE EUSKERA REALIZADOS EN EL AÑO 2025.","descripcionLeng":"MAIATZAREN 21EKO 532/26 ALKATEAREN DEKRETUA. 2025. URTEAN EUSKARA IKASTAROEN MATRIKULA HEIN BATEAN ORDAINTZEKO, DIRULAGUNTZAK EMATEKO DEALDIA.","fechaRecepcion":"2026-05-26","nivel1":"LOCAL","nivel2":"IURRETA","nivel3":"AYUNTAMIENTO DE IURRETA","codigoInvente":null},{"id":1109585,"mrr":false,"numeroConvocatoria":"908024","descripcion":"Convocatoria de las subvenciones en materia de promoción económica mediante la contratación y la emprenedoria a Torrefarrera 2024 i 2025","descripcionLeng":"Convocatòria de les subvencions en matèria de promoció econòmica mitjançant la contractació i l'emprenedoria a Torrefarrera 2024 i 2025","fechaRecepcion":"2026-05-26","nivel1":"LOCAL","nivel2":"TORREFARRERA","nivel3":"AYUNTAMIENTO DE TORREFARRERA","codigoInvente":null},{"id":1109583,"mrr":false,"numeroConvocatoria":"908022","descripcion":"CONVOCATORIA DE AYUDAS MUNICIPALES PARA SUMINISTROS MÍNIMOS VITALES DEL AYUNTAMIENTO DE FUENLABRADA DE LOS MONTES, EJERCICIO 2026","descripcionLeng":null,"fechaRecepcion":"2026-05-26","nivel1":"LOCAL","nivel2":"FUENLABRADA DE LOS MONTES","nivel3":"AYUNTAMIENTO DE FUENLABRADA DE LOS MONTES","codigoInvente":null},{"id":1109577,"mrr":false,"numeroConvocatoria":"908016","descripcion":"Convocatoria de subvenciones para actividades económicas de ámbito cultural","descripcionLeng":"Convocatòria de subvencions per a activitats econòmiques de caire cultural","fechaRecepcion":"2026-05-26","nivel1":"LOCAL","nivel2":"PALAFRUGELL","nivel3":"AYUNTAMIENTO DE PALAFRUGELL","codigoInvente":null},{"id":1109576,"mrr":false,"numeroConvocatoria":"908015","descripcion":"Convocatoria Municipal de Subvenciones para Entidades privadas, sin ánimo de lucro, para el desarrollo de programas integrales en materia de inmigración  (APSAL INMIGRACIÓN), AÑO 2026","descripcionLeng":null,"fechaRecepcion":"2026-05-26","nivel1":"LOCAL","nivel2":"BURGOS","nivel3":"AYUNTAMIENTO DE BURGOS","codigoInvente":null},{"id":1109575,"mrr":false,"numeroConvocatoria":"908014","descripcion":"Resolución del Instituto de Mayores y Servicios Sociales, por la que se convoca la concesión de subvenciones al régimen general de subvenciones del Imserso en el área de atención a mayores, durante el año 2026","descripcionLeng":null,"fechaRecepcion":"2026-05-26","nivel1":"ESTADO","nivel2":"MINISTERIO DE DERECHOS SOCIALES, CONSUMO Y AGENDA 2030","nivel3":"INSTITUTO DE MAYORES Y SERVICIOS SOCIALES","codigoInvente":"INV00003701"},{"id":1109571,"mrr":false,"numeroConvocatoria":"908010","descripcion":"III Concurso Cartel Encierro de Guadalajara 2026","descripcionLeng":null,"fechaRecepcion":"2026-05-26","nivel1":"LOCAL","nivel2":"GUADALAJARA","nivel3":"AYUNTAMIENTO DE GUADALAJARA","codigoInvente":null},{"id":1109564,"mrr":false,"numeroConvocatoria":"908003","descripcion":"Convocatoria Municipal de Subvenciones para Entidades privadas, sin ánimo de lucro, para el desarrollo de programas de INCLUSIÓN SOCIAL, AÑO 2026","descripcionLeng":null,"fechaRecepcion":"2026-05-26","nivel1":"LOCAL","nivel2":"BURGOS","nivel3":"AYUNTAMIENTO DE BURGOS","codigoInvente":null},{"id":1109561,"mrr":false,"numeroConvocatoria":"908000","descripcion":"Resolución de 26 de mayo de 2026, por la que se convocan Subvenciones públicas regladas, en régimen de concurrencia competitiva,destinadas a la financiación de la oferta formativa de Formación Profesional en el Trabajo dirigida a personas trabajadoras aut","descripcionLeng":null,"fechaRecepcion":"2026-05-26","nivel1":"AUTONOMICA","nivel2":"ANDALUCÍA","nivel3":"CONSEJERÍA DE EMPLEO, EMPRESA Y TRABAJO AUTÓNOMO","codigoInvente":null},{"id":1109559,"mrr":false,"numeroConvocatoria":"907998","descripcion":"CONVOCATORIA PARA LA CONCESIÓN DE SUBVENCIONES PARA LA PROMOCIÓN DE PROYECTOS EDUCATIVOS ESPECÍFICOS DESARROLLADOS POR LOS CENTROS EDUCATIVOS. CURSO 2025-2026","descripcionLeng":null,"fechaRecepcion":"2026-05-26","nivel1":"LOCAL","nivel2":"BARBERÀ DEL VALLÈS","nivel3":"AYUNTAMIENTO DE BARBERÀ DEL VALLÈS","codigoInvente":null},{"id":1109558,"mrr":false,"numeroConvocatoria":"907997","descripcion":"CONVOCATORIA DE SUBVENCIONES DEL SERVICIO DE PRESIDENCIA DESTINADA AYUNTAMIENTOS Y ENTIDADES LOCALES MENORES DE ALBACETE PARA LA CONTRATACIÓN DE PERSONAL Y EMPRESAS DE SERVICIOS PARA EL MANTENIMIENTO DE INFRAESTRUCTURAS Y ESPACIOS MUNICIPALES","descripcionLeng":null,"fechaRecepcion":"2026-05-26","nivel1":"LOCAL","nivel2":"DIPUTACIÓN PROV. DE ALBACETE","nivel3":"DIPUTACIÓN PROVINCIAL DE ALBACETE","codigoInvente":null},{"id":1109556,"mrr":false,"numeroConvocatoria":"907995","descripcion":"PREMIO HISTÓRICO-LITERARIO CASTILLO DE MATRERA 2026/27","descripcionLeng":null,"fechaRecepcion":"2026-05-26","nivel1":"LOCAL","nivel2":"VILLAMARTÍN","nivel3":"AYUNTAMIENTO DE VILLAMARTÍN","codigoInvente":null},{"id":1109552,"mrr":false,"numeroConvocatoria":"907991","descripcion":"Concurso para la selección del cartel de la portada del programa de Fiestas de Septiembre de 2026.","descripcionLeng":"Concurs per a la selecció del cartell de la portada del programa de Festes de Setembre de 2026.","fechaRecepcion":"2026-05-26","nivel1":"LOCAL","nivel2":"BETXÍ","nivel3":"AYUNTAMIENTO DE BETXÍ","codigoInvente":null},{"id":1109549,"mrr":false,"numeroConvocatoria":"907988","descripcion":"CONVOCATORIA PÚBLICA PARA LA CONCESIÓN DE SUBVENCIONES DE FINANCIACIÓN DE PLAZAS CONCERTADAS CON ASOCIACIONES JUVENILES PARA LA PARTICIPACIÓN DE POBLACION INFANTO-JUVENIL EN CAMPAMENTOS Y MARCHAS VOLANTES 2026","descripcionLeng":null,"fechaRecepcion":"2026-05-26","nivel1":"LOCAL","nivel2":"PALENCIA","nivel3":"AYUNTAMIENTO DE PALENCIA","codigoInvente":null},{"id":1109538,"mrr":false,"numeroConvocatoria":"907977","descripcion":"Resolución de 25 de mayo de 2026, del vicepresidente tercero y conseller de Medio Ambiente, Infraestructuras, Territorio y de la Recuperación, por la que se establecen las bases reguladoras de las ayudas al voluntariado ambiental (PIFVOL 2026)","descripcionLeng":"Resolució de 25 de maig de 2026, del vicepresident tercer i conseller de Medi Ambient, Infraestructures, Territori i de la Recuperació, per la qual s'establixen les bases reguladores de les ajudes al voluntariat ambiental (PIFVOL 2026)","fechaRecepcion":"2026-05-26","nivel1":"AUTONOMICA","nivel2":"COMUNITAT VALENCIANA","nivel3":"SECRETARÍA AUTONÓMICA DE MEDIO AMBIENTE  Y TERRITORIO","codigoInvente":null},{"id":1109537,"mrr":false,"numeroConvocatoria":"907976","descripcion":"RESOLUCIÓN DE LA SECRETARÍA DE ESTADO DE EDUCACIÓN POR LA QUE SE CONVOCAN AYUDAS PARA SUFRAGAR LOS SERVICIOS DE TRANSPORTE ESCOLAR PARA EL ALUMNADO MATRICULADO EN CENTROS PÚBLICOS DOCENTES NO UNIVERSITARIOS EN CEUTA Y MELILLA EN EL CURSO 2026-2027","descripcionLeng":null,"fechaRecepcion":"2026-05-26","nivel1":"ESTADO","nivel2":"MINISTERIO DE EDUCACIÓN, FORMACIÓN PROFESIONAL Y DEPORTES","nivel3":"SECRETARÍA DE ESTADO DE EDUCACIÓN","codigoInvente":null},{"id":1109535,"mrr":false,"numeroConvocatoria":"907974","descripcion":"42º CERTAMEN BAILES REGIONALES DE VILLAMARTIN 2026","descripcionLeng":null,"fechaRecepcion":"2026-05-26","nivel1":"LOCAL","nivel2":"VILLAMARTÍN","nivel3":"AYUNTAMIENTO DE VILLAMARTÍN","codigoInvente":null},{"id":1109534,"mrr":false,"numeroConvocatoria":"907973","descripcion":"Subvenciones Deporte Federado 2026","descripcionLeng":null,"fechaRecepcion":"2026-05-26","nivel1":"LOCAL","nivel2":"ALICANTE/ALACANT","nivel3":"AYUNTAMIENTO DE ALICANTE/ALACANT","codigoInvente":null},{"id":1109533,"mrr":false,"numeroConvocatoria":"907972","descripcion":"Subvenciones Alto Nivel 2026","descripcionLeng":null,"fechaRecepcion":"2026-05-26","nivel1":"LOCAL","nivel2":"ALICANTE/ALACANT","nivel3":"AYUNTAMIENTO DE ALICANTE/ALACANT","codigoInvente":null},{"id":1109530,"mrr":false,"numeroConvocatoria":"907969","descripcion":"Subvención concurrencia competitiva para el concurso del Cartel de fiesta Mayor de Viladecavalls 2026","descripcionLeng":"Subvenció concurrència competitiva per el concurs del Cartell de Festa Major de Viladecavalls 2026","fechaRecepcion":"2026-05-26","nivel1":"LOCAL","nivel2":"VILADECAVALLS","nivel3":"AYUNTAMIENTO DE VILADECAVALLS","codigoInvente":null},{"id":1109526,"mrr":false,"numeroConvocatoria":"907965","descripcion":"Subvenciones para las asociaciones del trabajo autónomo en Cataluña, para el fomento de las actividades que les son propias y para sufragar sus gastos de funcionamiento.","descripcionLeng":"Subvencions per a les associacions del treball autònom a Catalunya, per al foment de les activitats que els són pròpies i per a sufragar les seves despeses de funcionament.","fechaRecepcion":"2026-05-26","nivel1":"AUTONOMICA","nivel2":"CATALUÑA","nivel3":"DEPARTAMENT D'EMPRESA I TREBALL  ","codigoInvente":null},{"id":1109525,"mrr":false,"numeroConvocatoria":"907964","descripcion":"Convocatoria que ha de regir en el otorgamiento de las ayudas económicas individuales a usuarios/as de la Unidad Orgánica de Infancia y Familia del IASS para el ejercicio 2026.","descripcionLeng":null,"fechaRecepcion":"2026-05-26","nivel1":"LOCAL","nivel2":"CABILDO INSULAR DE TENERIFE","nivel3":"INSTITUTO INSULAR DE ATENCIÓN SOCIAL Y SOCIO-SANITARIA","codigoInvente":"INV00003507"},{"id":1109524,"mrr":false,"numeroConvocatoria":"907963","descripcion":"RESOLUCIÓN DE LA SECRETARÍA DE ESTADO DE EDUCACIÓN POR LA QUE SE CONVOCAN AYUDAS PARA SUFRAGAR LOS SERVICIOS DE COMEDOR ESCOLAR PARA EL ALUMNADO MATRICULADO EN CENTROS DOCENTES SOSTENIDOS CON FONDOS PÚBLICOS NO UNIVERSITARIOS EN CEUTA Y MELILLA 2026-2027","descripcionLeng":null,"fechaRecepcion":"2026-05-26","nivel1":"ESTADO","nivel2":"MINISTERIO DE EDUCACIÓN, FORMACIÓN PROFESIONAL Y DEPORTES","nivel3":"SECRETARÍA DE ESTADO DE EDUCACIÓN","codigoInvente":null},{"id":1109522,"mrr":false,"numeroConvocatoria":"907961","descripcion":"Convocatoria 2/2026 de ayudas LEADER 2023-2027 GAL ARACOVE","descripcionLeng":null,"fechaRecepcion":"2026-05-26","nivel1":"OTROS","nivel2":"ARACOVE - ASOCIACIÓN DE DESARROLLO RURAL ARANJUEZ-COMARCA VEGAS","nivel3":null,"codigoInvente":null},{"id":1109518,"mrr":false,"numeroConvocatoria":"907957","descripcion":"CONVOCATORIA 2026 DE AYUDAS INDIVIDUALES PARA SUFRAGAR LOS GASTOS EN LA VIVIENDA HABITUAL A DESEMPLEADOS DE LARGA DURACIÓN Y PENSIONISTAS CON POCOS RECURSOS ECONÓMICOS EN CALP PARA EL EJERCICIO 2025","descripcionLeng":null,"fechaRecepcion":"2026-05-26","nivel1":"LOCAL","nivel2":"CALP","nivel3":"AYUNTAMIENTO DE CALP","codigoInvente":null},{"id":1109515,"mrr":false,"numeroConvocatoria":"907954","descripcion":"Premios a la excelencia deportiva año 2026","descripcionLeng":null,"fechaRecepcion":"2026-05-26","nivel1":"LOCAL","nivel2":"COLMENAR VIEJO","nivel3":"AYUNTAMIENTO DE COLMENAR VIEJO","codigoInvente":null},{"id":1109500,"mrr":false,"numeroConvocatoria":"907939","descripcion":"BECAS FORMATIVAS PARA JÓVENES ESTUDIANTES MEDIANTE LA REALIZACIÓN DE PRÁCTICAS FORMATIVAS EN EL AYUNTAMIENTO DE LORIGUILLA “LORITEBECA\" 2026","descripcionLeng":null,"fechaRecepcion":"2026-05-26","nivel1":"LOCAL","nivel2":"LORIGUILLA","nivel3":"AYUNTAMIENTO DE LORIGUILLA","codigoInvente":null},{"id":1109496,"mrr":false,"numeroConvocatoria":"907935","descripcion":"Ayudas en especie servicios de asistencias técnicas y consultoría en Latinoamérica en el marco de la Estrategia de Internacionalización de la Economía Canaria","descripcionLeng":null,"fechaRecepcion":"2026-05-26","nivel1":"AUTONOMICA","nivel2":"CANARIAS","nivel3":"CONSEJERÍA DE ECONOMÍA, INDUSTRIA, COMERCIO Y AUTÓNOMOS","codigoInvente":null},{"id":1109495,"mrr":false,"numeroConvocatoria":"907934","descripcion":"Convocatoria de proyectos de cooperación al desarrollo del año 2026","descripcionLeng":null,"fechaRecepcion":"2026-05-26","nivel1":"AUTONOMICA","nivel2":"CANARIAS","nivel3":"PRESIDENCIA DEL GOBIERNO","codigoInvente":null},{"id":1109489,"mrr":false,"numeroConvocatoria":"907928","descripcion":"BASES DE LA CONVOCATORIA POR LAS QUE SE RIGE LA CONCESIÓN DE SUBVENCIONES A ENTIDADES PRIVADAS Y PÚBLICAS PARA EL MANTENIMIENTO DE INSTALACIONES Y LA REALIZACIÓN DE ACTIVIDADES DEPORTIVAS, CORRESPONDIENTE AL EJERCICIO 2026.","descripcionLeng":null,"fechaRecepcion":"2026-05-26","nivel1":"LOCAL","nivel2":"SEGORBE","nivel3":"AYUNTAMIENTO DE SEGORBE","codigoInvente":null},{"id":1109486,"mrr":false,"numeroConvocatoria":"907925","descripcion":"CONCURS DE VESTITS D`EPOCA FIRA DEL VAPOR 2026","descripcionLeng":null,"fechaRecepcion":"2026-05-26","nivel1":"LOCAL","nivel2":"SANT VICENÇ DE CASTELLET","nivel3":"AYUNTAMIENTO DE SANT VICENÇ DE CASTELLET","codigoInvente":null},{"id":1109482,"mrr":false,"numeroConvocatoria":"907921","descripcion":"CONVOCATORIA DE SUBVENCIONES PARA LA REALIZACIÓN DE PROYECTOS CULTURALES Y/O CELEBRACIÓN DE EFEMÉRIDES DESTINADA A ASOCIACIONES Y COLECTIVOS CULTURALES, SIN ÁNIMO DE LUCRO, 2026","descripcionLeng":null,"fechaRecepcion":"2026-05-26","nivel1":"LOCAL","nivel2":"DIPUTACIÓN PROV. DE CUENCA","nivel3":"DIPUTACIÓN PROVINCIAL DE CUENCA","codigoInvente":null},{"id":1109481,"mrr":false,"numeroConvocatoria":"907920","descripcion":"CONVOCATORIA SUBVENCIONES PARA LA REALIZACIÓN DE PROGRAMAS DE LAS UNIVERSIDADES POPULARES Y/O ESCUELAS DE MÚSICA 2026","descripcionLeng":null,"fechaRecepcion":"2026-05-26","nivel1":"LOCAL","nivel2":"DIPUTACIÓN PROV. DE CUENCA","nivel3":"DIPUTACIÓN PROVINCIAL DE CUENCA","codigoInvente":null},{"id":1109480,"mrr":false,"numeroConvocatoria":"907919","descripcion":"CONVOCATORIA DE AYUDAS A LAS AMPAS DE LA PROVINCIA DE CUENCA EN EL AÑO 2026","descripcionLeng":null,"fechaRecepcion":"2026-05-26","nivel1":"LOCAL","nivel2":"DIPUTACIÓN PROV. DE CUENCA","nivel3":"DIPUTACIÓN PROVINCIAL DE CUENCA","codigoInvente":null},{"id":1109477,"mrr":false,"numeroConvocatoria":"907916","descripcion":"AYUDAS TALENTO_JUNIOR2026","descripcionLeng":"AJUDES TALENT_JUNIOR2026","fechaRecepcion":"2026-05-26","nivel1":"AUTONOMICA","nivel2":"ILLES BALEARS","nivel3":"DIRECCIÓN GENERAL DE UNIVERSIDADES, INVESTIGACIÓN Y ENSEÑANZAS ARTÍSTICAS SUPERIORES","codigoInvente":null},{"id":1109476,"mrr":false,"numeroConvocatoria":"907915","descripcion":"ayudas destinadas a promover la continuidad de las empresas de las Illes Balears mediante el apoyo al relevo generacional para el año 2026","descripcionLeng":"ajuts destinats a promoure la continuïtat de les empreses de les Illes Balears mitjançant el suport al relleu generacional per a l’any 2026","fechaRecepcion":"2026-05-26","nivel1":"AUTONOMICA","nivel2":"ILLES BALEARS","nivel3":"DIRECCIÓN GENERAL DE COMERCIO Y EMPRESA","codigoInvente":null},{"id":1109475,"mrr":false,"numeroConvocatoria":"907914","descripcion":"Subvenciones del Servicio de Igualdad a entidades deportivas sin ánimo de lucro del Ayuntamiento de Vigo para la promoción del deporte femenino del año 2026","descripcionLeng":"Subvencións do Servizo de Igualdade a entidades deportivas sen ánimo de lucro do Concello de Vigo para a promoción do deporte feminino do ano 2026","fechaRecepcion":"2026-05-25","nivel1":"LOCAL","nivel2":"VIGO","nivel3":"AYUNTAMIENTO DE VIGO","codigoInvente":null},{"id":1109460,"mrr":false,"numeroConvocatoria":"907899","descripcion":"Convocatoria para la Gestión y Conservación de Espacios Naturales (GCEN), ejercicio 2026.","descripcionLeng":"Convocatòria per a la Gestió i Conservació d'Espais Naturals (GCEN), exercici 2026.","fechaRecepcion":"2026-05-25","nivel1":"LOCAL","nivel2":"DIPUTACIÓN PROV. DE VALENCIA","nivel3":"DIPUTACIÓN PROVINCIAL DE VALENCIA","codigoInvente":null},{"id":1109448,"mrr":false,"numeroConvocatoria":"907887","descripcion":"Resolución de Alcaldía nº 1434 de 22 de mayo de 2026 de la convocatoria para la concesión de cuatro becas de formación para el año 2026 \"UTIEL JO-B 2026\"","descripcionLeng":null,"fechaRecepcion":"2026-05-25","nivel1":"LOCAL","nivel2":"UTIEL","nivel3":"AYUNTAMIENTO DE UTIEL","codigoInvente":null},{"id":1109446,"mrr":false,"numeroConvocatoria":"907885","descripcion":"Resolución de 25/05/2026 del Instituto de las Mujeres, O.A. que aprueba convocatoria de subvenciones a organizaciones sindicales para el ejercicio de las funciones de negociación, elaboración, implantación, seguimiento y evaluación de planes de igualdad","descripcionLeng":null,"fechaRecepcion":"2026-05-25","nivel1":"ESTADO","nivel2":"MINISTERIO DE IGUALDAD","nivel3":"INSTITUTO DE LAS MUJERES","codigoInvente":"INV00003697"},{"id":1109443,"mrr":false,"numeroConvocatoria":"907882","descripcion":"RESOLUCIÓN de 24/05/2026, bases reguladoras para concesión subvenciones destinadas a actuaciones de apertura de fosas y exhumaciones de víctimas Guerra Civil y dictadura, y se convocan para el ejercicio 2026.","descripcionLeng":"RESOLUCIÓ de 24/05/2026, bases reguladores per a concessió subvencions destinades a actuacions d'obertura de fosses i exhumacions de víctimes Guerra Civil i dictadura, i es convoquen per a l'exercici 2026.","fechaRecepcion":"2026-05-25","nivel1":"AUTONOMICA","nivel2":"COMUNITAT VALENCIANA","nivel3":"SECRETARÍA AUTONÓMICA DE JUSTICIA Y AUTOGOBIERNO","codigoInvente":null},{"id":1109442,"mrr":false,"numeroConvocatoria":"907881","descripcion":"Ayudas para la difusión de conocimiento científico en Ciencias Sociales para estudiantes de Grado de la Facultat de Ciències Socials 2025","descripcionLeng":"Ajudes per a la difusió de coneixement científic en Ciències Socials per a estudiants de Grau de la Facultat de Ciències Socials 2025","fechaRecepcion":"2026-05-25","nivel1":"OTROS","nivel2":"UNIVERSITAT DE VALÈNCIA (ESTUDI GENERAL)","nivel3":null,"codigoInvente":"INV00005380"},{"id":1109441,"mrr":false,"numeroConvocatoria":"907880","descripcion":"RESOLUCIÓN 22/05/2026 de la presidenta del IVACE, por la que se convocan subvenciones a proyectos de inversiones transformadoras en digitalización en empresas industriales de mediana capitalización y tamaño intermedio de la Comunitat Valenciana para 2026","descripcionLeng":"RESOLUCIÓ 22/05/2026 de la presidenta de l’IVACE, per la qual es convoquen subvencions a projectes d’inversions transformadores en digitalització en empreses industrials de capitalització mitjana i grandària intermèdia de la Comunitat Valenciana per 2026","fechaRecepcion":"2026-05-25","nivel1":"AUTONOMICA","nivel2":"COMUNITAT VALENCIANA","nivel3":"INSTITUTO VALENCIANO DE COMPETITIVIDAD EMPRESARIAL (IVACE)","codigoInvente":"INV00003755"},{"id":1109437,"mrr":false,"numeroConvocatoria":"907876","descripcion":"Resolución de Concejal de Área de 21 de mayo de 2026 que aprueba la convocatoria de la VII edición del concurso Fase C","descripcionLeng":null,"fechaRecepcion":"2026-05-25","nivel1":"LOCAL","nivel2":"LOGROÑO","nivel3":"AYUNTAMIENTO DE LOGROÑO","codigoInvente":null},{"id":1109436,"mrr":false,"numeroConvocatoria":"907875","descripcion":"ORDEN DE LA CONSEJERÍA DE EDUCACIÓN Y FORMACIÓN PROFESIONAL, POR LA QUE SE CONVOCAN AYUDAS AL ESTUDIO PARA EL ALUMNADO DE NIVELES OBLIGATORIOS DE LA ENSEÑANZA ESCOLARIZADO EN CENTROS SOSTENIDOS CON FONDOS PÚBLICOS DURANTE EL CURSO 2026-2027","descripcionLeng":null,"fechaRecepcion":"2026-05-25","nivel1":"AUTONOMICA","nivel2":"REGIÓN DE MURCIA","nivel3":"CONSEJERÍA DE EDUCACIÓN Y FORMACIÓN PROFESIONAL","codigoInvente":null}],"pageable":{"sort":{"sorted":true,"unsorted":false,"empty":false},"pageNumber":37,"pageSize":50,"offset":1850,"paged":true,"unpaged":false},"last":false,"totalPages":200,"totalElements":10000,"first":false,"sort":{"sorted":true,"unsorted":false,"empty":false},"numberOfElements":50,"size":50,"number":37,"empty":false,"advertencia":"La reutilización de los datos del Sistema Nacional de Publicidad de Subvenciones y Ayudas Públicas está sujeta a una serie de restricciones y consideraciones legales. Consulte el aviso legal en https://www.infosubvenciones.es/bdnstrans/GE/es/avisolegal.Además, el usuario debe ser consciente que la información presentada es de naturaleza dinámica, y que los datos pueden ser sometidos a correcciones, inserciones, modificaciones y eliminaciones en momentos posteriores a su extracción. Accesos al API del sistema Nacional de Publicidad de Subvenciones y Ayudas Públicas. La Administración Presupuestaria, para salvaguardar la protección del acceso libre e irrestricto de los ciudadanos a este Portal y a su información podrá adoptar medidas restrictivas de acceso al API ante situaciones de manifiesto abuso del servicio, riesgos de seguridad, o uso fraudulento de la información descargada, de acuerdo con las buenas prácticas de gestión de datos abiertos (https://datos.gob.es/es/blog/limitaciones-la-consulta-de-una-api) establecidas por el Ministerio para la Transformación Digital y de la Función Pública."}