{"content":[{"id":1113345,"mrr":false,"numeroConvocatoria":"911784","descripcion":"Línea de subvenciones en especie para financiar gastos derivados de la realización de un censo de instalaciones y emplazamientos con amianto existentes en el término de las entidades locales beneficiarias, incluyendo un calendario que planifique su retira","descripcionLeng":null,"fechaRecepcion":"2026-06-10","nivel1":"LOCAL","nivel2":"DIPUTACIÓN PROV. DE SEVILLA","nivel3":"DIPUTACIÓN PROVINCIAL DE SEVILLA","codigoInvente":null},{"id":1113342,"mrr":false,"numeroConvocatoria":"911781","descripcion":"Acuerdo de Pleno  nº 99 de 29 de mayo, por el que se aprueba convocatoria subv. para Aytos con menos de 20.000 hb. para el sostenimiento de escuelas infantiles de 0 a 3 años municipales, 2026","descripcionLeng":null,"fechaRecepcion":"2026-06-10","nivel1":"LOCAL","nivel2":"DIPUTACIÓN PROV. DE VALLADOLID","nivel3":"DIPUTACIÓN PROVINCIAL DE VALLADOLID","codigoInvente":null},{"id":1113336,"mrr":false,"numeroConvocatoria":"911775","descripcion":"Subvenciones en especie de arcos de llegada para acontecimientos deportivos destinada a los consejos deportivos de la demarcación de Tarragona, año 2026","descripcionLeng":"Subvencions en espècie d'arcs d'arribada per a esdeveniments esportius destinada als consells esportius de la demarcació de Tarragona, any 2026","fechaRecepcion":"2026-06-10","nivel1":"LOCAL","nivel2":"DIPUTACIÓN PROV. DE TARRAGONA","nivel3":"DIPUTACIÓN PROVINCIAL DE TARRAGONA","codigoInvente":null},{"id":1113332,"mrr":false,"numeroConvocatoria":"911771","descripcion":"BASES REGULADORAS DE SUBVENCIONES DESTINADAS AL FOMENTO DE LA MOVILIDAD SOSTENIBLE  EN LEGANÉS","descripcionLeng":null,"fechaRecepcion":"2026-06-10","nivel1":"LOCAL","nivel2":"LEGANÉS","nivel3":"AYUNTAMIENTO DE LEGANÉS","codigoInvente":null},{"id":1113327,"mrr":false,"numeroConvocatoria":"911766","descripcion":"Convocatoria de subvenciones a entidades locales para el desarrollo de programas de promoción de la autonomía y prevención de la dependencia (jubilotecas)","descripcionLeng":null,"fechaRecepcion":"2026-06-10","nivel1":"AUTONOMICA","nivel2":"COMUNIDAD FORAL DE NAVARRA","nivel3":"AGENCIA NAVARRA DE AUTONOMÍA Y DESARROLLO DE LAS PERSONAS","codigoInvente":"INV00000122"},{"id":1113324,"mrr":false,"numeroConvocatoria":"911763","descripcion":"Convocatoria para personas jurídicas privadas sin ánimo de lucro de la demarcación de Tarragona destinadas a inversiones. Convocatoria anticipada.","descripcionLeng":"Convocatòria inversions entitats","fechaRecepcion":"2026-06-10","nivel1":"LOCAL","nivel2":"DIPUTACIÓN PROV. DE TARRAGONA","nivel3":"DIPUTACIÓN PROVINCIAL DE TARRAGONA","codigoInvente":null},{"id":1113323,"mrr":false,"numeroConvocatoria":"911762","descripcion":"AYUDAS DE SOPORTE ECONÓMICO A PERSONAS CON DEPENDENCIA DEL MUNICIPIO DE LLAMBILLES","descripcionLeng":"AJUT DE SUPORT ECONÒMIC A PERSONES AMB DEPENDÈNCIA DEL MUNICIPI DE LLAMBILLES","fechaRecepcion":"2026-06-10","nivel1":"LOCAL","nivel2":"LLAMBILLES","nivel3":"AYUNTAMIENTO DE LLAMBILLES","codigoInvente":null},{"id":1113316,"mrr":false,"numeroConvocatoria":"911755","descripcion":"Resolución nº 2026000638 de 09/06/2026 de la Consejería de Cultura, Patrimonio Cultural y Del Mayor, por la que se convoca el CONCURSO DE HOGUERAS DE SAN JUAN 2026","descripcionLeng":null,"fechaRecepcion":"2026-06-10","nivel1":"AUTONOMICA","nivel2":"CIUDAD AUTÓNOMA DE MELILLA","nivel3":"CONSEJERÍA DE CULTURA, PATRIMONIO CULTURAL Y DEL MAYOR","codigoInvente":null},{"id":1113313,"mrr":false,"numeroConvocatoria":"911752","descripcion":"IX Convocatoria de ayudas municipales para la creación y consolidación de iniciativas empresariales y generación de empleo en el Vivero de Empresas","descripcionLeng":null,"fechaRecepcion":"2026-06-10","nivel1":"LOCAL","nivel2":"MIRANDA DE EBRO","nivel3":"AYUNTAMIENTO DE MIRANDA DE EBRO","codigoInvente":null},{"id":1113312,"mrr":false,"numeroConvocatoria":"911751","descripcion":"Ayudas destinadas a la aplicación del desarrollo local participativo Leader en el marco del Programa de desarrollo rural de Cataluña PEPAC 2023-2027","descripcionLeng":"Ajuts destinats a l'aplicació del desenvolupament local participatiu Leader en el marc del Programa de desenvolupament rural de Catalunya PEPAC 2023-2027","fechaRecepcion":"2026-06-10","nivel1":"AUTONOMICA","nivel2":"CATALUÑA","nivel3":"DEPARTAMENT D'AGRICULTURA, RAMADERIA, PESCA I ALIMENTACIÓ","codigoInvente":null},{"id":1113311,"mrr":false,"numeroConvocatoria":"911750","descripcion":"SUBV. CLUBES Y S.A. DEPORTIVAS 2025/2026","descripcionLeng":null,"fechaRecepcion":"2026-06-10","nivel1":"AUTONOMICA","nivel2":"CASTILLA-LA MANCHA","nivel3":"VICECONSEJERÍA DE CULTURA Y DEPORTES","codigoInvente":null},{"id":1113309,"mrr":false,"numeroConvocatoria":"911748","descripcion":"Extracto de la convocatoria de las tarjetas monedero del Ayuntamiento de Torroella de Montgrí para la adquisición de alimentos de primera necesidad y/o productos de higiene personal, doméstica y medicamentos con prescripción médica del año 2026.","descripcionLeng":"Extracte de la convocatòria de les targetes moneder de l’Ajuntament de Torroella de\nMontgrí per a l’adquisició d’aliments de primera necessitat i/o productes d’higiene\npersonal, domèstica i medicaments amb prescripció mèdica de l’any 2026.","fechaRecepcion":"2026-06-10","nivel1":"LOCAL","nivel2":"TORROELLA DE MONTGRÍ","nivel3":"AYUNTAMIENTO DE TORROELLA DE MONTGRÍ","codigoInvente":null},{"id":1113308,"mrr":false,"numeroConvocatoria":"911747","descripcion":"CONVOCATORIA I CONCURSO FOTOGRÁFICO \"BAZEANDO\" 2026","descripcionLeng":null,"fechaRecepcion":"2026-06-10","nivel1":"LOCAL","nivel2":"BAZA","nivel3":"AYUNTAMIENTO DE BAZA","codigoInvente":null},{"id":1113300,"mrr":false,"numeroConvocatoria":"911739","descripcion":"Resolución de Presidenta de J. Municipal del D. Macarena, de 28/05/26, por la que se aprueban las Bases de las subvenciones de funcionamiento destinadas a entidades ciudadanas del Distrito Macarena y, se efectúa su convocatoria para el año 2026.","descripcionLeng":null,"fechaRecepcion":"2026-06-10","nivel1":"LOCAL","nivel2":"SEVILLA","nivel3":"AYUNTAMIENTO DE SEVILLA","codigoInvente":null},{"id":1113295,"mrr":false,"numeroConvocatoria":"911734","descripcion":"Concurso Portada Libro de la Feria y Fiestas 2026 de Casas Ibáñez","descripcionLeng":null,"fechaRecepcion":"2026-06-10","nivel1":"LOCAL","nivel2":"CASAS-IBÁÑEZ","nivel3":"AYUNTAMIENTO DE CASAS-IBÁÑEZ","codigoInvente":null},{"id":1113293,"mrr":false,"numeroConvocatoria":"911732","descripcion":"Acuerdo de Junta de Gobierno Local de 3 de junio de 2026 del Ayuntamiento de Almuñécar, por la que se convoca el XII Concurso de Fotografía “Nino Rodríguez, mi pequeño paraíso”.","descripcionLeng":null,"fechaRecepcion":"2026-06-10","nivel1":"LOCAL","nivel2":"ALMUÑÉCAR","nivel3":"AYUNTAMIENTO DE ALMUÑÉCAR","codigoInvente":null},{"id":1113282,"mrr":false,"numeroConvocatoria":"911721","descripcion":"CONVOCATORIA DE Las SUBVENCIONES PARA El FOMENTO DEL ASOCIACIONISMO Y DE La PARTICIPACIÓN CIUDADANA PARA El AÑO 2026","descripcionLeng":"CONVOCATORIA DAS SUBVENCIÓNS PARA O FOMENTO DO ASOCIACIONISMO E DA PARTICIPACIÓN CIDADÁ PARA O ANO 2026","fechaRecepcion":"2026-06-09","nivel1":"LOCAL","nivel2":"VIGO","nivel3":"AYUNTAMIENTO DE VIGO","codigoInvente":null},{"id":1113281,"mrr":false,"numeroConvocatoria":"911720","descripcion":"AYUDAS A LA ESCOLARIZACIÓN CURSO 2025-2026","descripcionLeng":null,"fechaRecepcion":"2026-06-09","nivel1":"LOCAL","nivel2":"CESPEDOSA DE TORMES","nivel3":"AYUNTAMIENTO DE CESPEDOSA DE TORMES","codigoInvente":null},{"id":1113279,"mrr":false,"numeroConvocatoria":"911718","descripcion":"CONVOCATORIA DE AYUDAS ECONÓMICAS PARA LA ADQUISICIÓN DE LIBROS DE TEXTO Y/O MATERIAL ESCOLAR CURSO 2026/2027.","descripcionLeng":null,"fechaRecepcion":"2026-06-09","nivel1":"LOCAL","nivel2":"SANTIAGO DEL TEIDE","nivel3":"AYUNTAMIENTO DE SANTIAGO DEL TEIDE","codigoInvente":null},{"id":1113278,"mrr":false,"numeroConvocatoria":"911717","descripcion":"SUBV. FEDERACIONES DEPORTIVAS DE CLM 2026","descripcionLeng":null,"fechaRecepcion":"2026-06-09","nivel1":"AUTONOMICA","nivel2":"CASTILLA-LA MANCHA","nivel3":"VICECONSEJERÍA DE CULTURA Y DEPORTES","codigoInvente":null},{"id":1113276,"mrr":false,"numeroConvocatoria":"911715","descripcion":"AYUDAS PARA MATERIAL DE ESTUDIOS DESTINADA A VECINOS DE LLAMBILLES","descripcionLeng":"AJUTS PER A MATERIAL D'ESTUDIS DESTINATS ALS VEÏNS DE LLAMBILLES","fechaRecepcion":"2026-06-09","nivel1":"LOCAL","nivel2":"LLAMBILLES","nivel3":"AYUNTAMIENTO DE LLAMBILLES","codigoInvente":null},{"id":1113274,"mrr":false,"numeroConvocatoria":"911713","descripcion":"CONVOCATORIA PROGRAMA ERASMUS+ PRÁCTICAS 2025. ESTANCIAS HASTA EL 31/07/2027","descripcionLeng":"CONVOCATÒRIA PROGRAMA ERASMUS+ PRÀCTIQUES 2025. ESTADES FINS EL 31/07/2027","fechaRecepcion":"2026-06-09","nivel1":"OTROS","nivel2":"UNIVERSITAT POLITÈCNICA DE VALÈNCIA","nivel3":null,"codigoInvente":"INV00005383"},{"id":1113261,"mrr":false,"numeroConvocatoria":"911700","descripcion":"CONVOCATORIA SUBVENCIONES AÑO 2026 ÁREA DE INMIGRACIÓN E INCLUS","descripcionLeng":null,"fechaRecepcion":"2026-06-09","nivel1":"AUTONOMICA","nivel2":"CANARIAS","nivel3":"CONSEJERÍA DE BIENESTAR SOCIAL, IGUALDAD, JUVENTUD, INFANCIA Y FAMILIAS","codigoInvente":null},{"id":1113260,"mrr":false,"numeroConvocatoria":"911699","descripcion":"Convocatoria Pyme Global 2026 Mision Comercial a Mexico para empresas de Burgos","descripcionLeng":null,"fechaRecepcion":"2026-06-09","nivel1":"OTROS","nivel2":"CÁMARA DE COMERCIO DE BURGOS","nivel3":null,"codigoInvente":null},{"id":1113259,"mrr":false,"numeroConvocatoria":"911698","descripcion":"Convocatoria de ayudas para la difusión de resultados científicos de la Cátedra participativa de cambio climático del sector primario de la Universidad de Castilla-La Mancha de la Universidad de Castilla-La Mancha. Curso académico 2025-2026","descripcionLeng":null,"fechaRecepcion":"2026-06-09","nivel1":"OTROS","nivel2":"UNIVERSIDAD DE CASTILLA-LA MANCHA","nivel3":null,"codigoInvente":"INV00005334"},{"id":1113257,"mrr":false,"numeroConvocatoria":"911696","descripcion":"Convocatoria 2026 Subvenciones destinadas al arreglo de viviendas para favorecer la accesibilidad y  mejorar la calidad de vida de las personas dentro de su domicilio","descripcionLeng":"Convocatòria 2026 - subvencions destinades a l'arranjament d'habitatges per afavorir l'accessibilitat i millorar la qualitat de vida de les persones dins el seu domicili","fechaRecepcion":"2026-06-09","nivel1":"LOCAL","nivel2":"MASNOU, EL","nivel3":"AYUNTAMIENTO DE MASNOU, EL","codigoInvente":null},{"id":1113251,"mrr":false,"numeroConvocatoria":"911690","descripcion":"RESOLUCIÓN de 5 de junio de 2026 por la que se aprueba la convocatoria de subv. para serv. de asesoría en las pequeñas y medianas explot. agrícolas prestados por ATRIAS.","descripcionLeng":null,"fechaRecepcion":"2026-06-09","nivel1":"AUTONOMICA","nivel2":"PRINCIPADO DE ASTURIAS","nivel3":"CONSEJERÍA DE MEDIO RURAL Y POLÍTICA AGRARIA","codigoInvente":null},{"id":1113223,"mrr":false,"numeroConvocatoria":"911662","descripcion":"Convocatoria pública para la asignación de recursos económicos dirigidos al alumnado en situación socioeconómica vulnerable, de los centros educativos concertados y entidades autorizadas a impartir PCA, para el curso 2026/2027","descripcionLeng":null,"fechaRecepcion":"2026-06-09","nivel1":"AUTONOMICA","nivel2":"COMUNIDAD FORAL DE NAVARRA","nivel3":"DEPARTAMENTO DE EDUCACION","codigoInvente":null},{"id":1113222,"mrr":false,"numeroConvocatoria":"911661","descripcion":"Resolución 8 de junio 2026 para la concesión de subvenciones para la financiación de planes de formación dirigidos a la capacitación para el desarrollo de las funciones de negociación colectiva. OO Sindicales o Empresariales de ámbito Andaluz","descripcionLeng":null,"fechaRecepcion":"2026-06-09","nivel1":"AUTONOMICA","nivel2":"ANDALUCÍA","nivel3":"CONSEJERÍA DE EMPLEO, EMPRESA Y TRABAJO AUTÓNOMO","codigoInvente":null},{"id":1113221,"mrr":false,"numeroConvocatoria":"911660","descripcion":"Resolución 8 de junio 2026 para la concesión de subvenciones para la financiación de planes de formación dirigidos a la capacitación para el desarrollo de las funciones de diálogo social y negociación colectiva. OO Sindicales o Empresariales","descripcionLeng":null,"fechaRecepcion":"2026-06-09","nivel1":"AUTONOMICA","nivel2":"ANDALUCÍA","nivel3":"CONSEJERÍA DE EMPLEO, EMPRESA Y TRABAJO AUTÓNOMO","codigoInvente":null},{"id":1113220,"mrr":false,"numeroConvocatoria":"911659","descripcion":"CONVOCATORIA SUBVENCIONES A LAS ASOCIACIONES DE MUJERES DEL MUNICIPIO DE ARUCAS PARA EL EJERCICIO 2026","descripcionLeng":null,"fechaRecepcion":"2026-06-09","nivel1":"LOCAL","nivel2":"ARUCAS","nivel3":"AYUNTAMIENTO DE ARUCAS","codigoInvente":null},{"id":1113219,"mrr":false,"numeroConvocatoria":"911658","descripcion":"Resolución de 9 de junio de 2026 de la Vicerrectora de Investigación de la Universidad de Oviedo por la que se aprueba la convocatoria de ayudas económicas destinadas a grupos de investigación de la Universidad de Oviedo 2026","descripcionLeng":null,"fechaRecepcion":"2026-06-09","nivel1":"OTROS","nivel2":"UNIVERSIDAD DE OVIEDO","nivel3":null,"codigoInvente":"INV00005347"},{"id":1113215,"mrr":false,"numeroConvocatoria":"911654","descripcion":"BECAS TRANSPORTE ESCOLAR CURSO 2026-2027","descripcionLeng":null,"fechaRecepcion":"2026-06-09","nivel1":"LOCAL","nivel2":"VINARÒS","nivel3":"AYUNTAMIENTO DE VINARÒS","codigoInvente":null},{"id":1113214,"mrr":false,"numeroConvocatoria":"911653","descripcion":"Resolución de 05 de junio de 2026, de la Junta de Gobierno Local, por la que se convocan subvenciones dirigidas a entidades y asociaciones sin ánimo de lucro del ámbito de cohesión social para la realización de actividades durante el año 2026.","descripcionLeng":"Tokiko Gobernu Batzordearen 2026ko ekainaren 5eko Ebazpenarena, gizarte-kohesioaren arloko irabazi-asmorik gabeko erakunde eta elkarteei 2026an jarduerak egiteko dirulaguntzak emateko deialdia egiten duena.","fechaRecepcion":"2026-06-09","nivel1":"LOCAL","nivel2":"LAUDIO/LLODIO","nivel3":"AYUNTAMIENTO DE LAUDIO/LLODIO","codigoInvente":null},{"id":1113211,"mrr":false,"numeroConvocatoria":"911650","descripcion":"CONVOCATORIA PARA LA CONCESIÓN DE SUBVENCIÓN DEL AYUNTAMIENTO DE POTES PARA LOS GASTOS DE COMEDOR ESCOLAR, para el CURSO 2025-2026.\n.","descripcionLeng":null,"fechaRecepcion":"2026-06-09","nivel1":"LOCAL","nivel2":"POTES","nivel3":"AYUNTAMIENTO DE POTES","codigoInvente":null},{"id":1113210,"mrr":false,"numeroConvocatoria":"911649","descripcion":"BONO INFANTIL CURSO 2026/27 (AÑO 2027)","descripcionLeng":null,"fechaRecepcion":"2026-06-09","nivel1":"LOCAL","nivel2":"VINARÒS","nivel3":"AYUNTAMIENTO DE VINARÒS","codigoInvente":null},{"id":1113205,"mrr":false,"numeroConvocatoria":"911644","descripcion":"Premios Cartel de las Fiestas de San Agustín 2026","descripcionLeng":null,"fechaRecepcion":"2026-06-09","nivel1":"LOCAL","nivel2":"SERRADILLA","nivel3":"AYUNTAMIENTO DE SERRADILLA","codigoInvente":null},{"id":1113201,"mrr":false,"numeroConvocatoria":"911640","descripcion":"SUBVENCIONES A EELL DE LA PROVINCIA PARA LA DEFENSA DEL TERRITORIO 2026","descripcionLeng":null,"fechaRecepcion":"2026-06-09","nivel1":"LOCAL","nivel2":"DIPUTACIÓN PROV. DE CASTELLÓN","nivel3":"DIPUTACIÓN PROVINCIAL DE CASTELLÓ/CASTELLÓN","codigoInvente":null},{"id":1113200,"mrr":false,"numeroConvocatoria":"911639","descripcion":"CONVOCATORIA PARA LA CONCESIÓN DE SUBVENCIONES EN RÉGIMEN DE CONCURRENCIA COMPETITIVA PARA EL FOMENTO DE ACTIVIDADES PÚBLICAS, DE INTERÉS SOCIAL O PROMOCIÓN DE UNA FINALIDAD PÚBLICA COMARCAL PARA EL AÑO 2026","descripcionLeng":"CONVOCATÒRIA PER A LA CONCESSIÓ DE SUBVENCIONS EN RÈGIM DE CONCURRÈNCIA COMPETITIVA PER AL FOMENT D’ACTIVITATS PÚBLIQUES, D’INTERÈS SOCIAL O PROMOCIÓ D’UNA FINALITAT PÚBLICA COMARCAL PER A L’ANY 2026","fechaRecepcion":"2026-06-09","nivel1":"LOCAL","nivel2":"CONSELL COMARCAL DE RIPOLLÈS","nivel3":"CONSELL COMARCAL DE RIPOLLÈS","codigoInvente":null},{"id":1113199,"mrr":false,"numeroConvocatoria":"911638","descripcion":"Decreto de Alcaldía, de fecha 5 de junio de 2026, por el que se aprueba la Convocatoria 2026 de subvenciones para la realización de actividades en euskera en Portugalete","descripcionLeng":"Alkatetzaren Dekretua, 2026ko ekainaren 5ekoa, Portugaleten euskarazko jarduerak egiteko 2026ko dirulaguntzen deialdia onesten duena","fechaRecepcion":"2026-06-09","nivel1":"LOCAL","nivel2":"PORTUGALETE","nivel3":"AYUNTAMIENTO DE PORTUGALETE","codigoInvente":null},{"id":1113197,"mrr":false,"numeroConvocatoria":"911636","descripcion":"Convocatoria de las subvenciones de concurrencia competitiva, destinadas a entidades sin ánimo de lucro para desarrollar proyectos y actividades culturales, ejercicio 2026.","descripcionLeng":"convocatòria de subvencions en règim de concurrència competitiva per a entitats sense ànim de lucre que desenvolupen projectes i activitats culturals, exercici 2026","fechaRecepcion":"2026-06-09","nivel1":"LOCAL","nivel2":"POBLA DE VALLBONA, LA","nivel3":"AYUNTAMIENTO DE POBLA DE VALLBONA, LA","codigoInvente":null},{"id":1113193,"mrr":false,"numeroConvocatoria":"911632","descripcion":"Subvenciones para el fomento del desarrollo de actividades, proyectos y programas del ámbito de los Servicios Sociales en régimen de libre concurrencia para el año 2026.","descripcionLeng":"2026rako lehia askeko erregimeneko Gizarte Zerbitzu arloan garatuko diren jardueren, proiektuen eta programen garapena sustatzeko dirulaguntzak.","fechaRecepcion":"2026-06-09","nivel1":"LOCAL","nivel2":"ASTIGARRAGA","nivel3":"AYUNTAMIENTO DE ASTIGARRAGA","codigoInvente":null},{"id":1113192,"mrr":false,"numeroConvocatoria":"911631","descripcion":"Ayudas para programas de cooperación al desarrollo","descripcionLeng":"Garapenerako Lankidetza Progamaren dirulaguntzak ","fechaRecepcion":"2026-06-09","nivel1":"LOCAL","nivel2":"ASTIGARRAGA","nivel3":"AYUNTAMIENTO DE ASTIGARRAGA","codigoInvente":null},{"id":1113191,"mrr":false,"numeroConvocatoria":"911630","descripcion":"GC CONCURSO DE TALENTOS GRAN CANARIA JOVEN 2026.","descripcionLeng":null,"fechaRecepcion":"2026-06-09","nivel1":"LOCAL","nivel2":"CABILDO INSULAR DE GRAN CANARIA","nivel3":"CABILDO INSULAR DE GRAN CANARIA","codigoInvente":null},{"id":1113190,"mrr":false,"numeroConvocatoria":"911629","descripcion":"Resolución de 8 de junio de 2026, de la D.G. Trabajo, Seguridad y Salud Laboral por la que se conv. para 2026 sub en rég.de conc.comp. a pyme para proyectos de prevención de riesgos laborales, Línea 2 Actividades PRL: minimi pesca y acuicultura","descripcionLeng":null,"fechaRecepcion":"2026-06-09","nivel1":"AUTONOMICA","nivel2":"ANDALUCÍA","nivel3":"CONSEJERÍA DE EMPLEO, EMPRESA Y TRABAJO AUTÓNOMO","codigoInvente":null},{"id":1113189,"mrr":false,"numeroConvocatoria":"911628","descripcion":"Resolución de 8 de junio de 2026, de la D.G. Trabajo, Seguridad y Salud Laboral por la que se conv. para 2026 sub en rég.de conc.comp. a pyme para proyectos de prevención de riesgos laborales, Línea 2 Actividades PRL: minimi agrícola","descripcionLeng":null,"fechaRecepcion":"2026-06-09","nivel1":"AUTONOMICA","nivel2":"ANDALUCÍA","nivel3":"CONSEJERÍA DE EMPLEO, EMPRESA Y TRABAJO AUTÓNOMO","codigoInvente":null},{"id":1113188,"mrr":false,"numeroConvocatoria":"911627","descripcion":"Resolución de 8 de junio de 2026, de la D.G. Trabajo, Seguridad y Salud Laboral por la que se conv. para 2026 sub en rég.de conc.comp. a pyme para proyectos de prevención de riesgos laborales, Línea 2 Actividades PRL: minimi general","descripcionLeng":null,"fechaRecepcion":"2026-06-09","nivel1":"AUTONOMICA","nivel2":"ANDALUCÍA","nivel3":"CONSEJERÍA DE EMPLEO, EMPRESA Y TRABAJO AUTÓNOMO","codigoInvente":null},{"id":1113187,"mrr":false,"numeroConvocatoria":"911626","descripcion":"Resolución de 8 de junio de 2026, de la D.G. Trabajo, Seguridad y Salud Laboral por la que se conv. para 2026 sub en rég.de conc.comp. a pyme para proyectos de prevención de riesgos laborales, Línea 1 Inversiones en PRL: minimi pesca y acuicultura","descripcionLeng":null,"fechaRecepcion":"2026-06-09","nivel1":"AUTONOMICA","nivel2":"ANDALUCÍA","nivel3":"CONSEJERÍA DE EMPLEO, EMPRESA Y TRABAJO AUTÓNOMO","codigoInvente":null},{"id":1113186,"mrr":false,"numeroConvocatoria":"911625","descripcion":"Resolución de 8 de junio de 2026, de la D.G. Trabajo, Seguridad y Salud Laboral por la que se conv. para 2026 sub en rég.de conc.comp. a pyme para proyectos de prevención de riesgos laborales, Línea 1 Inversiones en PRL: minimi agrícola","descripcionLeng":null,"fechaRecepcion":"2026-06-09","nivel1":"AUTONOMICA","nivel2":"ANDALUCÍA","nivel3":"CONSEJERÍA DE EMPLEO, EMPRESA Y TRABAJO AUTÓNOMO","codigoInvente":null},{"id":1113185,"mrr":false,"numeroConvocatoria":"911624","descripcion":"Resolución de 8 de junio de 2026, de la D.G. Trabajo, Seguridad y Salud Laboral por la que se conv. para 2026 sub en rég.de conc.comp. a pyme para proyectos de prevención de riesgos laborales, Línea 1 Inversiones en PRL: minimi general","descripcionLeng":null,"fechaRecepcion":"2026-06-09","nivel1":"AUTONOMICA","nivel2":"ANDALUCÍA","nivel3":"CONSEJERÍA DE EMPLEO, EMPRESA Y TRABAJO AUTÓNOMO","codigoInvente":null}],"pageable":{"sort":{"sorted":true,"unsorted":false,"empty":false},"pageNumber":29,"pageSize":50,"offset":1450,"unpaged":false,"paged":true},"last":false,"totalElements":10000,"totalPages":200,"sort":{"sorted":true,"unsorted":false,"empty":false},"first":false,"numberOfElements":50,"size":50,"number":29,"empty":false,"advertencia":"La reutilización de los datos del Sistema Nacional de Publicidad de Subvenciones y Ayudas Públicas está sujeta a una serie de restricciones y consideraciones legales. Consulte el aviso legal en https://www.infosubvenciones.es/bdnstrans/GE/es/avisolegal.Además, el usuario debe ser consciente que la información presentada es de naturaleza dinámica, y que los datos pueden ser sometidos a correcciones, inserciones, modificaciones y eliminaciones en momentos posteriores a su extracción. Accesos al API del sistema Nacional de Publicidad de Subvenciones y Ayudas Públicas. La Administración Presupuestaria, para salvaguardar la protección del acceso libre e irrestricto de los ciudadanos a este Portal y a su información podrá adoptar medidas restrictivas de acceso al API ante situaciones de manifiesto abuso del servicio, riesgos de seguridad, o uso fraudulento de la información descargada, de acuerdo con las buenas prácticas de gestión de datos abiertos (https://datos.gob.es/es/blog/limitaciones-la-consulta-de-una-api) establecidas por el Ministerio para la Transformación Digital y de la Función Pública."}