{"content":[{"id":1109334,"mrr":false,"numeroConvocatoria":"907773","descripcion":"SUBVENCIONES A ENTIDADES SIN FINES DE LUCRO PARA EL EJERCICIO ECONÓMICO 2026 DEL AYUNTAMIENTO DE BERGONDO","descripcionLeng":null,"fechaRecepcion":"2026-05-25","nivel1":"LOCAL","nivel2":"BERGONDO","nivel3":"AYUNTAMIENTO DE BERGONDO","codigoInvente":null},{"id":1109333,"mrr":false,"numeroConvocatoria":"907772","descripcion":"Convocatoria mediante procedimiento de concurrencia competitiva del 48 concurso de \"cassoles\" anualidad 2026","descripcionLeng":"Convocatòria mitjançant concurrència competitiva del 48è concurs de cassoles anualitat 2026","fechaRecepcion":"2026-05-25","nivel1":"LOCAL","nivel2":"JUNEDA","nivel3":"AYUNTAMIENTO DE JUNEDA","codigoInvente":null},{"id":1109331,"mrr":false,"numeroConvocatoria":"907770","descripcion":"RESOLUCIÓN 127 DE FECHA 22/05/2026 DE LA PRESIDENCIA DEL CIFE DE APROBACIÓN DE LA CONVOCATORIA DE AYUDAS DIRIGIDAS AL FOMENTO Y APOYO AL EMPRENDIMIENTO EN FUENLABRADA. AÑO 2026.","descripcionLeng":null,"fechaRecepcion":"2026-05-25","nivel1":"LOCAL","nivel2":"FUENLABRADA","nivel3":"CENTRO DE INIC. PARA LA FORMACIÓN Y EL EMPLEO - PRESIDENCIA - FUENLABRADA","codigoInvente":null},{"id":1109330,"mrr":false,"numeroConvocatoria":"907769","descripcion":"PREMIO A TRABAJOS DE FIN DE MÁSTER EN PREVENCIÓN DE RIESGOS LABORALES, DE LA ESCUELA POLITÉCNICA SUPERIOR DE LA UNIVERSIDAD DE ALICANTE 2026","descripcionLeng":null,"fechaRecepcion":"2026-05-25","nivel1":"OTROS","nivel2":"UNIVERSIDAD DE ALICANTE","nivel3":null,"codigoInvente":"INV00005329"},{"id":1109327,"mrr":false,"numeroConvocatoria":"907766","descripcion":"Convocatoria Pyme global 2026 Misión comercial directa a Argentina y Uruguay, del 14 al 18 de septiembre del 2026, para empresas de la provincia de Santa Cruz de Tenerife","descripcionLeng":null,"fechaRecepcion":"2026-05-25","nivel1":"OTROS","nivel2":"CÁMARA DE COMERCIO DE TENERIFE","nivel3":null,"codigoInvente":null},{"id":1109324,"mrr":false,"numeroConvocatoria":"907763","descripcion":"AYUDAS IBI EJERCICIO 2025","descripcionLeng":"AJUTS IBI EXERCICI 2025","fechaRecepcion":"2026-05-25","nivel1":"LOCAL","nivel2":"ESPLUGUES DE LLOBREGAT","nivel3":"AYUNTAMIENTO DE ESPLUGUES DE LLOBREGAT","codigoInvente":null},{"id":1109323,"mrr":false,"numeroConvocatoria":"907762","descripcion":"Convocatoria de 10 ayudas de matrícula para estudiantes del título propio de especialista en justicia constitucional, interpretación y tutela de los derechos fundamentales VI Ed. Curso académico (2025/2026)","descripcionLeng":null,"fechaRecepcion":"2026-05-25","nivel1":"OTROS","nivel2":"UNIVERSIDAD DE CASTILLA-LA MANCHA","nivel3":null,"codigoInvente":"INV00005334"},{"id":1109321,"mrr":false,"numeroConvocatoria":"907760","descripcion":"Orden 25 de mayo de 2026 de la Consejería de Industria, Comercio y Empleo por la que se convocan subvenciones dirigidas a la promoción del sector comercial de Castilla y León.","descripcionLeng":null,"fechaRecepcion":"2026-05-25","nivel1":"AUTONOMICA","nivel2":"CASTILLA Y LEÓN","nivel3":"CONSEJERÍA DE INDUSTRIA, COMERCIO Y EMPLEO","codigoInvente":null},{"id":1109320,"mrr":false,"numeroConvocatoria":"907759","descripcion":"Extracto acuerdo de Junta de Gob. de 22/05/26 que aprueba convocatoria pública para otorgamiento de ayudas económicas de pago único para bonos por nacimiento y adopción en Sevilla para el ejercicio 2026.","descripcionLeng":null,"fechaRecepcion":"2026-05-25","nivel1":"LOCAL","nivel2":"SEVILLA","nivel3":"AYUNTAMIENTO DE SEVILLA","codigoInvente":null},{"id":1109316,"mrr":false,"numeroConvocatoria":"907755","descripcion":"Resolución de la Dirección de la Organización Nacional de Trasplantes O.A. de 22 de mayo de 2026, por la que se convocan subvenciones destinadas a entidades sin fines de lucro para fomentar la donación y el trasplante de órganos, tejidos y células.","descripcionLeng":null,"fechaRecepcion":"2026-05-25","nivel1":"ESTADO","nivel2":"MINISTERIO DE SANIDAD","nivel3":"ORGANIZACIÓN NACIONAL DE TRASPLANTES","codigoInvente":"INV00004141"},{"id":1109314,"mrr":false,"numeroConvocatoria":"907753","descripcion":"6º CONCURSO DE PINTURA CARTEL FERIA Y FIESTAS DE SAN MATEO 2026","descripcionLeng":null,"fechaRecepcion":"2026-05-25","nivel1":"LOCAL","nivel2":"VILLAMARTÍN","nivel3":"AYUNTAMIENTO DE VILLAMARTÍN","codigoInvente":null},{"id":1109313,"mrr":false,"numeroConvocatoria":"907752","descripcion":"por la que se establecen las bases reguladoras y la convocatoria de las ayudas de Industria Dual destinadas a apoyar la cadena industrial gallega en el proceso de producción de bienes y servicios tecnológicos de uso dual destinados a los ámbitos de la Seg","descripcionLeng":"GALEGO","fechaRecepcion":"2026-05-25","nivel1":"AUTONOMICA","nivel2":"GALICIA","nivel3":"CONSELLERÍA DE ECONOMÍA E INDUSTRIA","codigoInvente":null},{"id":1109312,"mrr":false,"numeroConvocatoria":"907751","descripcion":"Convocatoria de proyectos de inicio en la formación investigadora, encuadrados en el marco de la colaboración suscrita entre la Excma. Diputación Provincial de Toledo y la Universidad de Castilla-La Mancha para el apoyo a la actividad investigadora en los","descripcionLeng":null,"fechaRecepcion":"2026-05-25","nivel1":"OTROS","nivel2":"UNIVERSIDAD DE CASTILLA-LA MANCHA","nivel3":null,"codigoInvente":"INV00005334"},{"id":1109311,"mrr":false,"numeroConvocatoria":"907750","descripcion":"Ajuts econòmics per al transport adaptat del Moianès 2022","descripcionLeng":null,"fechaRecepcion":"2026-05-25","nivel1":"LOCAL","nivel2":"CONSELL COMARCAL  DEL MOIANÈS","nivel3":"CONSELL COMARCAL  DEL MOIANÈS","codigoInvente":null},{"id":1109305,"mrr":false,"numeroConvocatoria":"907744","descripcion":"ORDEN DBF/___/2026, por la que se hace pública la convocatoria de subvenciones para el año 2026 del Programa de Inclusión Activa: proyectos de inserción sociolaboral a través de itinerarios en el marco del Programa del Fondo Social Europeo Plus 2021-2027","descripcionLeng":null,"fechaRecepcion":"2026-05-25","nivel1":"AUTONOMICA","nivel2":"ARAGÓN","nivel3":"SERVICIOS CENTRALES IASS","codigoInvente":null},{"id":1109302,"mrr":false,"numeroConvocatoria":"907741","descripcion":"Conv. ayudas sociales de permanencia UR curso 25/26","descripcionLeng":null,"fechaRecepcion":"2026-05-25","nivel1":"AUTONOMICA","nivel2":"LA RIOJA","nivel3":"CONSEJERÍA DE EDUCACIÓN Y EMPLEO","codigoInvente":null},{"id":1109300,"mrr":false,"numeroConvocatoria":"907739","descripcion":"SUBVENCION DIRECTA A EELL PARA ESCUELAS INFANTILES- ALUMNADO 2-3 AÑOS. CURSO 2026/2027","descripcionLeng":null,"fechaRecepcion":"2026-05-25","nivel1":"AUTONOMICA","nivel2":"CASTILLA-LA MANCHA","nivel3":"SECRETARÍA GENERAL DE EDUCACIÓN, CULTURA Y DEPORTES","codigoInvente":null},{"id":1109299,"mrr":false,"numeroConvocatoria":"907738","descripcion":"CONVOCATORIA DE CONCESIÓN DE SUBVENCIONES EN CONCURRENCIA COMPETITIVA PARA LA ACTIVIDAD FEDERADA DE LOS CLUBES DEPORTIVOS. 2026","descripcionLeng":null,"fechaRecepcion":"2026-05-25","nivel1":"LOCAL","nivel2":"BENALMÁDENA","nivel3":"AYUNTAMIENTO DE BENALMÁDENA","codigoInvente":null},{"id":1109298,"mrr":false,"numeroConvocatoria":"907737","descripcion":"Elaboración censo de instalaciones y emplazamientos con amianto 2026","descripcionLeng":null,"fechaRecepcion":"2026-05-25","nivel1":"LOCAL","nivel2":"DIPUTACIÓN PROV. DE LEÓN","nivel3":"DIPUTACIÓN PROVINCIAL DE LEÓN","codigoInvente":null},{"id":1109297,"mrr":false,"numeroConvocatoria":"907736","descripcion":"BASES QUE HAN DE REGIR EN LA CONVOCATORIA PÚBLICA DE SUBVENCIONES PARA PROGRAMAS Y ACTUACIONES EN EL ÁREA DE IGUALDAD Y POLÍTICAS INCLUSIVAS PARA EL EJERCICIO 2026 DIRIGIDAS A ASOCIACIONES Y ENTIDADES SIN ÁNIMO DE LUCRO DEL MUNICIPIO DE DÉNIA","descripcionLeng":null,"fechaRecepcion":"2026-05-25","nivel1":"LOCAL","nivel2":"DÉNIA","nivel3":"AYUNTAMIENTO DE DÉNIA","codigoInvente":null},{"id":1109295,"mrr":false,"numeroConvocatoria":"907734","descripcion":"CONV AIM 2025-2026 ANY 2026 AJUTS INDIVIDUALS DE MENJADOR ESCOLAR 3","descripcionLeng":null,"fechaRecepcion":"2026-05-25","nivel1":"LOCAL","nivel2":"CONSELL COMARCAL  DEL MOIANÈS","nivel3":"CONSELL COMARCAL  DEL MOIANÈS","codigoInvente":null},{"id":1109294,"mrr":false,"numeroConvocatoria":"907733","descripcion":"CONV AIM 2025-2026 ANY 2025 AJUTS INDIVIDUALS DE MENJADOR ESCOLAR 2","descripcionLeng":null,"fechaRecepcion":"2026-05-25","nivel1":"LOCAL","nivel2":"CONSELL COMARCAL  DEL MOIANÈS","nivel3":"CONSELL COMARCAL  DEL MOIANÈS","codigoInvente":null},{"id":1109291,"mrr":false,"numeroConvocatoria":"907730","descripcion":"CONVOCATORIA DEL TORNEO DEPORTIVO 24 HORAS ÁLORA FÚTBOL SALA CON OTORGAMIENTO DE PREMIOS","descripcionLeng":null,"fechaRecepcion":"2026-05-25","nivel1":"LOCAL","nivel2":"ÁLORA","nivel3":"AYUNTAMIENTO DE ÁLORA","codigoInvente":null},{"id":1109286,"mrr":false,"numeroConvocatoria":"907725","descripcion":"Resolución de Alcaldía nº 2026/00002207 de 22/05/2026 por la que se aprueba la convocatoria pública de subvenciones de la\nConcejalía de Igualdad para el año 2026 mediante el Régimen de concurrencia competitiva.","descripcionLeng":null,"fechaRecepcion":"2026-05-25","nivel1":"LOCAL","nivel2":"POZOBLANCO","nivel3":"AYUNTAMIENTO DE POZOBLANCO","codigoInvente":null},{"id":1109285,"mrr":false,"numeroConvocatoria":"907724","descripcion":"CONCURSO DE PINTURA RÁPIDA AL AIRE LIBRE \"CIUDAD DE ARUCAS\" - FIESTAS PATRONALES DE SAN JUAN BAUTISTA DE ARUCAS 2026.","descripcionLeng":null,"fechaRecepcion":"2026-05-25","nivel1":"LOCAL","nivel2":"ARUCAS","nivel3":"AYUNTAMIENTO DE ARUCAS","codigoInvente":null},{"id":1109284,"mrr":false,"numeroConvocatoria":"907723","descripcion":"Convocatoria del XII premio de poesía Lluís de Montsià 2026","descripcionLeng":"Convocatòria del XII premi de poesia Lluís de Montsià 2026","fechaRecepcion":"2026-05-25","nivel1":"LOCAL","nivel2":"LA RÀPITA","nivel3":"AYUNTAMIENTO DE LA RÀPITA","codigoInvente":null},{"id":1109283,"mrr":false,"numeroConvocatoria":"907722","descripcion":"Convocatoria de la 1ª edición de la competición “Torneo del Código!”. Escuela Superior de Ingeniería Informática. Universidad de Castilla-La Mancha. Curso académico 2025-2026","descripcionLeng":null,"fechaRecepcion":"2026-05-25","nivel1":"OTROS","nivel2":"UNIVERSIDAD DE CASTILLA-LA MANCHA","nivel3":null,"codigoInvente":"INV00005334"},{"id":1109279,"mrr":false,"numeroConvocatoria":"907718","descripcion":"CONVOCATORIA PARA LA CONCESIÓN DE LAS AYUDAS PARA EL FOMENTO DE LA INICIATIVA EMPRENDEDORA EN EL MUNICIPIO DE ALFAFAR - EJERCICIO 2026.","descripcionLeng":null,"fechaRecepcion":"2026-05-25","nivel1":"LOCAL","nivel2":"ALFAFAR","nivel3":"AYUNTAMIENTO DE ALFAFAR","codigoInvente":null},{"id":1109276,"mrr":false,"numeroConvocatoria":"907715","descripcion":"Orden de 11 de mayo de 2026 por la que se establecen las bases reguladoras para la concesión de ayudas a centros privados concertados para la contratación de profesorado de apoyo y refuerzo PROA + en los cursos 2026/27 y 2027/28 en el marco del Programa d","descripcionLeng":"Orde do 11 de maio de 2026 pola que se establecen as bases reguladoras para a concesión de axudas a centros privados concertados para a contratación de profesorado de apoio e reforzo PROA + nos cursos 2026/27 e 2027/28 no marco do Programa de emprego, edu","fechaRecepcion":"2026-05-25","nivel1":"AUTONOMICA","nivel2":"GALICIA","nivel3":"CONSELLERÍA DE EDUCACIÓN, CIENCIA, UNIVERSIDADES E FORMACIÓN PROFESIONAL","codigoInvente":null},{"id":1109274,"mrr":false,"numeroConvocatoria":"907713","descripcion":"Convocatoria para el otorgamiento de subvenciones por el aprendizaje del euskera, curso 2025-2026","descripcionLeng":"2025-2026 ikasturtean euskara ikasteagatik dirulaguntzak emateko deialdia","fechaRecepcion":"2026-05-25","nivel1":"LOCAL","nivel2":"IRUN","nivel3":"AYUNTAMIENTO DE IRUN","codigoInvente":null},{"id":1109272,"mrr":false,"numeroConvocatoria":"907711","descripcion":"Acuerdo de la Junta de Gobierno de 13 de mayo de 2026, punto 6.1.2., de aprobación de la Convocatoria para la concesión del XXVII Premio Internacional de Poesía Emilio Prados, para menores de 35 años, correspondiente a 2026.","descripcionLeng":null,"fechaRecepcion":"2026-05-25","nivel1":"LOCAL","nivel2":"DIPUTACIÓN PROV. DE MÁLAGA","nivel3":"DIPUTACIÓN PROVINCIAL DE MÁLAGA","codigoInvente":null},{"id":1109270,"mrr":false,"numeroConvocatoria":"907709","descripcion":"CONCURSO DE CARRETAS Y CARROS DE ROMERIA DE LAS FIESTAS PATRONALES DE SAN JUAN 2026","descripcionLeng":null,"fechaRecepcion":"2026-05-25","nivel1":"LOCAL","nivel2":"ARUCAS","nivel3":"AYUNTAMIENTO DE ARUCAS","codigoInvente":null},{"id":1109266,"mrr":false,"numeroConvocatoria":"907705","descripcion":"Orde obradoiro duais de emprego  2ª convocatoria 2026","descripcionLeng":null,"fechaRecepcion":"2026-05-25","nivel1":"AUTONOMICA","nivel2":"GALICIA","nivel3":"CONSELLERÍA DE EMPLEO, COMERCIO Y EMIGRACIÓN","codigoInvente":null},{"id":1109265,"mrr":false,"numeroConvocatoria":"907704","descripcion":"Acuerdo de la Junta de Gobierno de 13 de mayo de 2026, punto 6.1.4., de aprobación de la Convocatoria para la concesión del V Premio Internacional de Ensayo María Zambrano, correspondiente a 2026.","descripcionLeng":null,"fechaRecepcion":"2026-05-25","nivel1":"LOCAL","nivel2":"DIPUTACIÓN PROV. DE MÁLAGA","nivel3":"DIPUTACIÓN PROVINCIAL DE MÁLAGA","codigoInvente":null},{"id":1109264,"mrr":false,"numeroConvocatoria":"907703","descripcion":"Subvenciones destinadas a financiar proyectos culturales en municipios del medio rural de menos de 20 000 habitantes de Castilla y León, año 2026. Personas sin  actividad económica. Orden de 22/05/2026 de la Consejería de Cultura, Turismo y Deporte.","descripcionLeng":null,"fechaRecepcion":"2026-05-25","nivel1":"AUTONOMICA","nivel2":"CASTILLA Y LEÓN","nivel3":"CONSEJERÍA DE CULTURA, TURISMO Y DEPORTE","codigoInvente":null},{"id":1109262,"mrr":false,"numeroConvocatoria":"907701","descripcion":"Acuerdo de la Junta de Gobierno de 13 de mayo de 2026, punto 6.1.3., de aprobación de la Convocatoria para la concesión del XXIX Premio Internacional de Poesía Generación del 27, correspondiente a 2026.","descripcionLeng":null,"fechaRecepcion":"2026-05-25","nivel1":"LOCAL","nivel2":"DIPUTACIÓN PROV. DE MÁLAGA","nivel3":"DIPUTACIÓN PROVINCIAL DE MÁLAGA","codigoInvente":null},{"id":1109261,"mrr":false,"numeroConvocatoria":"907700","descripcion":"Resolución de Alcaldía nº 2026/00001982 de 22/05/2026 por la que se aprueba la convocatoria pública de subvenciones de la\nConcejalía de Participación Ciudadana para el año 2026 mediante el Régimen de concurrencia competitiva.","descripcionLeng":null,"fechaRecepcion":"2026-05-25","nivel1":"LOCAL","nivel2":"POZOBLANCO","nivel3":"AYUNTAMIENTO DE POZOBLANCO","codigoInvente":null},{"id":1109260,"mrr":false,"numeroConvocatoria":"907699","descripcion":"Acuerdo de 20 de mayo de 2026 de Junta de Gobierno Local, por la que se aprueba la convocatoria Becas Erasmus+ del Ayuntamiento de Almuñécar- La Herradura para el curso 2026-2027","descripcionLeng":null,"fechaRecepcion":"2026-05-25","nivel1":"LOCAL","nivel2":"ALMUÑÉCAR","nivel3":"AYUNTAMIENTO DE ALMUÑÉCAR","codigoInvente":null},{"id":1109259,"mrr":false,"numeroConvocatoria":"907698","descripcion":"Subvenciones destinadas a financiar proyectos culturales en municipios del medio rural de menos de 20.000 habitantes de Castilla y León, para el año 2026. Minimis general. Orden 22/05/2026, de la Consejería de Cultura, Turismo y Deporte.","descripcionLeng":null,"fechaRecepcion":"2026-05-25","nivel1":"AUTONOMICA","nivel2":"CASTILLA Y LEÓN","nivel3":"CONSEJERÍA DE CULTURA, TURISMO Y DEPORTE","codigoInvente":null},{"id":1109257,"mrr":false,"numeroConvocatoria":"907696","descripcion":"BASES REGULADORAS Y CONVOCATORIA I CONCURSO DE ESCAPARATE \"GUARDAMAR ORGULLOSA 2026\"","descripcionLeng":null,"fechaRecepcion":"2026-05-25","nivel1":"LOCAL","nivel2":"GUARDAMAR DEL SEGURA","nivel3":"AYUNTAMIENTO DE GUARDAMAR DEL SEGURA","codigoInvente":null},{"id":1109256,"mrr":false,"numeroConvocatoria":"907695","descripcion":"SUBVENCIÓN EN RÉGIMEN DE CONCURRENCIA COMPETITIVA PARA ASOCIACIONES Y COLECTIVOS DE PEDRO ABAD 2026","descripcionLeng":null,"fechaRecepcion":"2026-05-25","nivel1":"LOCAL","nivel2":"PEDRO ABAD","nivel3":"AYUNTAMIENTO DE PEDRO ABAD","codigoInvente":null},{"id":1109253,"mrr":false,"numeroConvocatoria":"907692","descripcion":"CONVENIO DE COLABORACIÓN ENTRE ASOCIACIÓN DE GUADALAJARA DE EMPRENDEDORAS Y MUJERES ACTIVAS Y EL EXCMO. AYUNTAMIENTO DE GUADALAJARA","descripcionLeng":null,"fechaRecepcion":"2026-05-25","nivel1":"LOCAL","nivel2":"GUADALAJARA","nivel3":"AYUNTAMIENTO DE GUADALAJARA","codigoInvente":null},{"id":1109249,"mrr":false,"numeroConvocatoria":"907688","descripcion":"XIX PREMIO DE INVESTIGACIÓN EN BACHILLERATO “CIUTAT D’AMPOSTA” 2026","descripcionLeng":"XIX PREMI DE RECERCA A BATXILLERAT “CIUTAT D’AMPOSTA” 2026","fechaRecepcion":"2026-05-25","nivel1":"LOCAL","nivel2":"AMPOSTA","nivel3":"AYUNTAMIENTO DE AMPOSTA","codigoInvente":null},{"id":1109248,"mrr":false,"numeroConvocatoria":"907687","descripcion":"Convocatoria para la concesión de premios académicos a la excelencia curso 2025-2026","descripcionLeng":null,"fechaRecepcion":"2026-05-25","nivel1":"LOCAL","nivel2":"ALCÀSSER","nivel3":"AYUNTAMIENTO DE ALCÀSSER","codigoInvente":null},{"id":1109238,"mrr":false,"numeroConvocatoria":"907677","descripcion":"Subvención nominativa Fundación AI Granada R&I","descripcionLeng":null,"fechaRecepcion":"2026-05-22","nivel1":"AUTONOMICA","nivel2":"ANDALUCÍA","nivel3":"AGENCIA DIGITAL DE ANDALUCÍA","codigoInvente":null},{"id":1109204,"mrr":false,"numeroConvocatoria":"907643","descripcion":"RESOLUCIÓN N.º 2026-0737 DE FECHA 22 MAYO DE 2026, DE LA ALCALDÍA DEL AYUNTAMIENTO DE ARCHIDONA POR LA QUE SE CONVOCA, EN RÉGIMEN DE CONCURRENCIA COMPETITIVA, DEL XLVIII CERTAMEN POÉTICO NACIONAL Y XXXIII CERTAMEN POÉTICO LOCAL “CIUDAD DE ARCHIDONA” 2026.","descripcionLeng":null,"fechaRecepcion":"2026-05-22","nivel1":"LOCAL","nivel2":"ARCHIDONA","nivel3":"AYUNTAMIENTO DE ARCHIDONA","codigoInvente":null},{"id":1109201,"mrr":false,"numeroConvocatoria":"907640","descripcion":"Resolución de 22 de mayo de 2026. Línea 4c","descripcionLeng":null,"fechaRecepcion":"2026-05-22","nivel1":"AUTONOMICA","nivel2":"ANDALUCÍA","nivel3":"AGENCIA ANDALUZA DE INSTITUCIONES CULTURALES","codigoInvente":"INV00000046"},{"id":1109200,"mrr":false,"numeroConvocatoria":"907639","descripcion":"Resolución de 22 de mayo de 2026. Línea 4b","descripcionLeng":null,"fechaRecepcion":"2026-05-22","nivel1":"AUTONOMICA","nivel2":"ANDALUCÍA","nivel3":"AGENCIA ANDALUZA DE INSTITUCIONES CULTURALES","codigoInvente":"INV00000046"},{"id":1109199,"mrr":false,"numeroConvocatoria":"907638","descripcion":"Resolución de 22 de mayo de 2026. Línea 4a","descripcionLeng":null,"fechaRecepcion":"2026-05-22","nivel1":"AUTONOMICA","nivel2":"ANDALUCÍA","nivel3":"AGENCIA ANDALUZA DE INSTITUCIONES CULTURALES","codigoInvente":"INV00000046"},{"id":1109198,"mrr":false,"numeroConvocatoria":"907637","descripcion":"Resolución de 22 de mayo de 2026. Línea 3b)","descripcionLeng":null,"fechaRecepcion":"2026-05-22","nivel1":"AUTONOMICA","nivel2":"ANDALUCÍA","nivel3":"AGENCIA ANDALUZA DE INSTITUCIONES CULTURALES","codigoInvente":"INV00000046"}],"pageable":{"sort":{"sorted":true,"unsorted":false,"empty":false},"pageNumber":39,"pageSize":50,"offset":1950,"paged":true,"unpaged":false},"last":false,"totalPages":200,"totalElements":10000,"first":false,"sort":{"sorted":true,"unsorted":false,"empty":false},"numberOfElements":50,"size":50,"number":39,"empty":false,"advertencia":"La reutilización de los datos del Sistema Nacional de Publicidad de Subvenciones y Ayudas Públicas está sujeta a una serie de restricciones y consideraciones legales. Consulte el aviso legal en https://www.infosubvenciones.es/bdnstrans/GE/es/avisolegal.Además, el usuario debe ser consciente que la información presentada es de naturaleza dinámica, y que los datos pueden ser sometidos a correcciones, inserciones, modificaciones y eliminaciones en momentos posteriores a su extracción. Accesos al API del sistema Nacional de Publicidad de Subvenciones y Ayudas Públicas. La Administración Presupuestaria, para salvaguardar la protección del acceso libre e irrestricto de los ciudadanos a este Portal y a su información podrá adoptar medidas restrictivas de acceso al API ante situaciones de manifiesto abuso del servicio, riesgos de seguridad, o uso fraudulento de la información descargada, de acuerdo con las buenas prácticas de gestión de datos abiertos (https://datos.gob.es/es/blog/limitaciones-la-consulta-de-una-api) establecidas por el Ministerio para la Transformación Digital y de la Función Pública."}