{"content":[{"id":1115567,"mrr":false,"numeroConvocatoria":"914006","descripcion":"CONVOCATORIA PARA LA CONCESION DE SUBVENCIONES PARA ENTIDADES SOCIALES SIN ANIMO DE LUCRO, ONGS Y SOCIOSANITARIAS ¿ AÑO 2026","descripcionLeng":null,"fechaRecepcion":"2026-06-18","nivel1":"LOCAL","nivel2":"LANGREO","nivel3":"AYUNTAMIENTO DE LANGREO","codigoInvente":null},{"id":1115566,"mrr":false,"numeroConvocatoria":"914005","descripcion":"CONVOCATORIA PARA LA CONCESIÓN DE SUBVENCIONES PARA ASOCIACIONES DE MAYORES Y CENTROS DE LA TERCERA EDAD DE LANGREO - AÑO 2026","descripcionLeng":null,"fechaRecepcion":"2026-06-18","nivel1":"LOCAL","nivel2":"LANGREO","nivel3":"AYUNTAMIENTO DE LANGREO","codigoInvente":null},{"id":1115565,"mrr":false,"numeroConvocatoria":"914004","descripcion":"Bases reguladoras del procedimiento para la concesión de subvenciones públicas para actividades de fomento del euskera en el año 2026","descripcionLeng":"Andoainen euskara sustatzeko jardueretarako dirulaguntza publikoak emateko oinarriak 2026 urterako. ","fechaRecepcion":"2026-06-18","nivel1":"LOCAL","nivel2":"ANDOAIN","nivel3":"AYUNTAMIENTO DE ANDOAIN","codigoInvente":null},{"id":1115561,"mrr":false,"numeroConvocatoria":"914000","descripcion":"Convocatoria para la concesión de subvenciones en materia de bonos al consumo, \"Campaña de Bono-Consumo Riotuerto #39720\".","descripcionLeng":null,"fechaRecepcion":"2026-06-18","nivel1":"LOCAL","nivel2":"RIOTUERTO","nivel3":"AYUNTAMIENTO DE RIOTUERTO","codigoInvente":null},{"id":1115559,"mrr":false,"numeroConvocatoria":"913998","descripcion":"DECRETO FORAL 61/2026 de 18 de junio de la DIPUTACIÓN FORAL DE BIZKAIA que regula las subvenciones a municipios con población de derecho inferior a 7.000 habitantes y mancomunidades de Bizkaia, para actuaciones de fomento de la igualdad en el 2026.","descripcionLeng":"61/2026 FORU DEKRETUA, ekainaren 18koa Bizkaiko Foru Aldundiarena, zuzenbideko 7.000 biztanle baino gutxiago dituzten udalerrientzako eta mankomunitateentzako dirulaguntzak arautzen dituena, 2026an berdintasuna sustatzeko jarduerak egin ditzaten.","fechaRecepcion":"2026-06-18","nivel1":"LOCAL","nivel2":"DIPUTACIÓN FORAL DE BIZKAIA","nivel3":"DIPUTACIÓN FORAL DE BIZKAIA","codigoInvente":null},{"id":1115556,"mrr":false,"numeroConvocatoria":"913995","descripcion":"Decreto foral 60/2026 de 18 de junio de la Diputación Foral de Bizkaia por el que se aprueban las bases y convocatoria del programa Zainlab. Subvenciones para la mejora de la capacitación profesional de las personas cuidadoras y su empleabilidad","descripcionLeng":"Bizkaiko Foru Aldundiaren 60/2026 Foru Dekretua , ekainaren 18koa, Zainlab programaren oinarriak eta deialdia onartzen dituena. Bizkaiko Lurralde Historikoan zaintzaileen lanbide-gaitasuna eta zaintzaileen enplegagarritasuna hobetzeko dirulagun","fechaRecepcion":"2026-06-18","nivel1":"LOCAL","nivel2":"DIPUTACIÓN FORAL DE BIZKAIA","nivel3":"DIPUTACIÓN FORAL DE BIZKAIA","codigoInvente":null},{"id":1115554,"mrr":false,"numeroConvocatoria":"913993","descripcion":"Convocatoria ayudas municipios y mancomunidades actuacionesPlan Corresponsables","descripcionLeng":null,"fechaRecepcion":"2026-06-18","nivel1":"AUTONOMICA","nivel2":"LA RIOJA","nivel3":"CONSEJERÍA DE SALUD Y POLÍTICAS SOCIALES","codigoInvente":null},{"id":1115553,"mrr":false,"numeroConvocatoria":"913992","descripcion":"Convocatoria ayudas municipios y mancomunidades actuacionesPlan Corresponsables","descripcionLeng":null,"fechaRecepcion":"2026-06-18","nivel1":"AUTONOMICA","nivel2":"LA RIOJA","nivel3":"CONSEJERÍA DE SALUD Y POLÍTICAS SOCIALES","codigoInvente":null},{"id":1115550,"mrr":false,"numeroConvocatoria":"913989","descripcion":"ACUERDO DE JUNTA DE GOBIERNO LOCAL DE 5 DE JUNIO DE 2026 APRUEBA CONVOCATORIA DE SUBVENCIONES A PROFESIONALES DEL TAXI POR LOS MAYORES GASTOS DE ADQUISICIÓN Y ADAPTACIÓN DE VEHÍCULOS ADAPTADOS A PERSONAS CON MOVILIDAD REDUCIDA. EJERCICIO 2026","descripcionLeng":null,"fechaRecepcion":"2026-06-18","nivel1":"LOCAL","nivel2":"ALMERÍA","nivel3":"AYUNTAMIENTO DE ALMERÍA","codigoInvente":null},{"id":1115542,"mrr":false,"numeroConvocatoria":"913981","descripcion":"Convocatoria de subvenciones para el “Programa de Desarrollo Rural: Apoyo a los Grupos de Acción Local gestores de la estrategia de desarrollo local LEADER (2023-2027) 2026”","descripcionLeng":null,"fechaRecepcion":"2026-06-18","nivel1":"LOCAL","nivel2":"DIPUTACIÓN PROV. DE TERUEL","nivel3":"DIPUTACIÓN PROVINCIAL DE TERUEL","codigoInvente":null},{"id":1115539,"mrr":false,"numeroConvocatoria":"913978","descripcion":"RESOLUCIÓN  de 20 de abril de 2026, de la directora general de Innovación e Inclusión Educativa, por la que se convocan ayudas económicas, en concepto de subvención, dirigidas a los centros privados concertados para el desarrollo de actuaciones orientadas","descripcionLeng":"RESOLUCIÓ de 20 d’abril de 2026, de la directora general d'Innovació i Inclusió Educativa, per la qual es convoquen ajudes econòmiques, en concepte de subvenció, dirigides als centres privats concertats per al desplegament d'actuacions orientades a l'alum","fechaRecepcion":"2026-06-18","nivel1":"AUTONOMICA","nivel2":"COMUNITAT VALENCIANA","nivel3":"SECRETARÍA AUTONÓMICA DE EDUCACIÓN","codigoInvente":null},{"id":1115537,"mrr":false,"numeroConvocatoria":"913976","descripcion":"APROBACIÓN DE LA CONVOCATORIA DEL “PROGRAMA MEJORA OVINA EN LA PROVINCIA DE TERUEL 2026”","descripcionLeng":null,"fechaRecepcion":"2026-06-18","nivel1":"LOCAL","nivel2":"DIPUTACIÓN PROV. DE TERUEL","nivel3":"DIPUTACIÓN PROVINCIAL DE TERUEL","codigoInvente":null},{"id":1115529,"mrr":false,"numeroConvocatoria":"913968","descripcion":"Convocatoria de subvenciones para el “PROGRAMA DE APOYO AL SECTOR AGRÍCOLA–GANADERO DE LA PROVINCIA DE TERUEL 2026”","descripcionLeng":null,"fechaRecepcion":"2026-06-18","nivel1":"LOCAL","nivel2":"DIPUTACIÓN PROV. DE TERUEL","nivel3":"DIPUTACIÓN PROVINCIAL DE TERUEL","codigoInvente":null},{"id":1115520,"mrr":false,"numeroConvocatoria":"913959","descripcion":"Convocatoria para la concesión de financiación para la intensificación de la actividad investigadora en los centros del Servicio Navarro de Salud-Osasunbidea durante el año 2026.","descripcionLeng":null,"fechaRecepcion":"2026-06-18","nivel1":"AUTONOMICA","nivel2":"COMUNIDAD FORAL DE NAVARRA","nivel3":"DEPARTAMENTO DE SALUD","codigoInvente":null},{"id":1115514,"mrr":false,"numeroConvocatoria":"913953","descripcion":"Acuerdo de 03 de junio de 2026 de la Junta de Gobierno Local del Ayuntamiento de Priego de Córdoba, por el que se convocan las Becas de la Banda Sinfónica de la EMMD de Priego de Córdoba para 2026","descripcionLeng":null,"fechaRecepcion":"2026-06-18","nivel1":"LOCAL","nivel2":"PRIEGO DE CÓRDOBA","nivel3":"AYUNTAMIENTO DE PRIEGO DE CÓRDOBA","codigoInvente":null},{"id":1115510,"mrr":false,"numeroConvocatoria":"913949","descripcion":"Resolución de 15 de junio de 2026, del vicepresidente tercero y conseller de Medio Ambiente, Infraestructuras, Territorio y de la Recuperación, por la que se establecen las bases reguladoras de las ayudas al control de vegetación en PIF (PASTPIF 2026)","descripcionLeng":"Resolució de 15 de juny de 2026, del vicepresident tercer i conseller de Medi Ambient, Infraestructures, Territori i de la Recuperació, por la que s'estableixen les bases reguladores de les ajudes al control de la vegetació en PIF (PASTPIF 2026)","fechaRecepcion":"2026-06-18","nivel1":"AUTONOMICA","nivel2":"COMUNITAT VALENCIANA","nivel3":"SECRETARÍA AUTONÓMICA DE MEDIO AMBIENTE  Y TERRITORIO","codigoInvente":null},{"id":1115507,"mrr":false,"numeroConvocatoria":"913946","descripcion":"Convocatòria subvencions inversions Consells Comarcals 2026","descripcionLeng":null,"fechaRecepcion":"2026-06-18","nivel1":"LOCAL","nivel2":"DIPUTACIÓN PROV. DE GIRONA","nivel3":"DIPUTACIÓN PROVINCIAL DE GIRONA","codigoInvente":null},{"id":1115486,"mrr":false,"numeroConvocatoria":"913925","descripcion":"Acuerdo de Pleno nº 100/26 de 29/05/26 por el que se aprueba convocatoria subv. aytos provincia Valladolid para adquisición material escolar alumnado matriculado segundo ciclo educación infantil 2026/2027","descripcionLeng":null,"fechaRecepcion":"2026-06-18","nivel1":"LOCAL","nivel2":"DIPUTACIÓN PROV. DE VALLADOLID","nivel3":"DIPUTACIÓN PROVINCIAL DE VALLADOLID","codigoInvente":null},{"id":1115485,"mrr":false,"numeroConvocatoria":"913924","descripcion":"Acuerdo de Pleno nº 98/26 de 29/05/26 por el que se aprueba convocatoria subv. aytos menos 20.000 hb provincia Vallaodlid para la adquisición de grupos electrógenos, 2026","descripcionLeng":null,"fechaRecepcion":"2026-06-18","nivel1":"LOCAL","nivel2":"DIPUTACIÓN PROV. DE VALLADOLID","nivel3":"DIPUTACIÓN PROVINCIAL DE VALLADOLID","codigoInvente":null},{"id":1115483,"mrr":false,"numeroConvocatoria":"913922","descripcion":"SUBVENCIONES EN RÉGIMEN DE CONCURRENCIA COMPETITIVA PARA DEPORTISTAS INDIVIDUALES DEL MUNICIPIO DE BERJA. TEMPORADA 2025-2026","descripcionLeng":null,"fechaRecepcion":"2026-06-18","nivel1":"LOCAL","nivel2":"BERJA","nivel3":"AYUNTAMIENTO DE BERJA","codigoInvente":null},{"id":1115474,"mrr":false,"numeroConvocatoria":"913913","descripcion":"SUBVENCIONES CON DESTINO A ESCUELAS DEPORTIVAS DE ININCIAICÓN, ASI COMO CLUBES O ASOCIACIONES DEPORTIVAS DEL MUNICIPIO DE BERJA CON DESTINO A DESARROLLAR SU LABOR EN LA TEMPORADA 2025-2026","descripcionLeng":null,"fechaRecepcion":"2026-06-18","nivel1":"LOCAL","nivel2":"BERJA","nivel3":"AYUNTAMIENTO DE BERJA","codigoInvente":null},{"id":1115473,"mrr":false,"numeroConvocatoria":"913912","descripcion":"CONVOCATORIA PARA LA CONCESIÓN DE PREMIOS PARA EL CONCURSO DEL CARTEL ANUNCIADOR DE LAS FIESTAS EN HONOR A LA VIRGEN Y SAN ROQUE 2026","descripcionLeng":null,"fechaRecepcion":"2026-06-18","nivel1":"LOCAL","nivel2":"NAVARRETE","nivel3":"AYUNTAMIENTO DE NAVARRETE","codigoInvente":null},{"id":1115472,"mrr":false,"numeroConvocatoria":"913911","descripcion":"Orden del 3 de junio de 2026 por la que se establecen las bases reguladoras del programa ES-Transforma en cooperativas o sociedades laborales y se procede a su convocatoria para la anualidad 2026. (Convocatorias asociadas 907322 e 907330)","descripcionLeng":"Orde do 3 de xuño de 2026 pola que se establecen as bases reguladoras do programa ES-Transforma en cooperativas ou sociedades laborais e se procede a súa convocatoria para a anualidade 2026. (Convocatorias asociadas 907322 e 907330)  ","fechaRecepcion":"2026-06-18","nivel1":"AUTONOMICA","nivel2":"GALICIA","nivel3":"CONSELLERÍA DE EMPLEO, COMERCIO Y EMIGRACIÓN","codigoInvente":null},{"id":1115462,"mrr":false,"numeroConvocatoria":"913901","descripcion":"Convocatoria para el otorgamiento de subvenciones de cooperación internacional para el año 2026","descripcionLeng":"Convocatòria per a l'atorgament de subvencions de cooperació internacional per a l’any 2026","fechaRecepcion":"2026-06-18","nivel1":"LOCAL","nivel2":"SANT FELIU DE GUÍXOLS","nivel3":"AYUNTAMIENTO DE SANT FELIU DE GUIXOLS","codigoInvente":null},{"id":1115461,"mrr":false,"numeroConvocatoria":"913900","descripcion":"SUBVENCIÓN PARA ESCUELAS DEPORTIVAS TEMPORADA 2026-2027","descripcionLeng":null,"fechaRecepcion":"2026-06-18","nivel1":"LOCAL","nivel2":"SAN ROQUE","nivel3":"AYUNTAMIENTO DE SAN ROQUE","codigoInvente":null},{"id":1115460,"mrr":false,"numeroConvocatoria":"913899","descripcion":"Resolución de convocatoria para la concesión de ayudas a la distribución y la explotación de espectáculos, en régimen de concurrencia competitiva, en las modalidades de aportaciones reintegrables y subvenciones","descripcionLeng":"Resolució de convocatòria per a la concessió d'ajuts a la distribució i l'explotació d'espectacles, en règim de concurrència competitiva, en les modalitats d'aportacions reintegrables i subvencions","fechaRecepcion":"2026-06-18","nivel1":"AUTONOMICA","nivel2":"CATALUÑA","nivel3":"INSTITUT CATALÀ DE LES EMPRESES CULTURALS (ICEC)","codigoInvente":"INV00003590"},{"id":1115452,"mrr":false,"numeroConvocatoria":"913891","descripcion":"VII edición de los premios Cátedra del Baloncesto de l’Alqueria del Bàsquet de la Universitat de València a los mejores trabajos de final de grado (TFG) relacionados con el básquet","descripcionLeng":"VII edició dels premis Càtedra del Bàsquet de l'Alquería del Bàsquet de la Universitat de València als millors treballs de final de grau (TFG) relacionats amb el bàsquet","fechaRecepcion":"2026-06-18","nivel1":"OTROS","nivel2":"UNIVERSITAT DE VALÈNCIA (ESTUDI GENERAL)","nivel3":null,"codigoInvente":"INV00005380"},{"id":1115449,"mrr":false,"numeroConvocatoria":"913888","descripcion":"convocatoria de las becas al estudio \"Antonio Huertas Mejías\" correspondientes al curso académico 2026-2027","descripcionLeng":null,"fechaRecepcion":"2026-06-18","nivel1":"LOCAL","nivel2":"VILLANUEVA DE LA SERENA","nivel3":"AYUNTAMIENTO DE VILLANUEVA DE LA SERENA","codigoInvente":null},{"id":1115448,"mrr":false,"numeroConvocatoria":"913887","descripcion":"2ª Convocatoria Subvención 2026 para fomento de la Seguridad y Salud en el trabajo para empresas de Extremadura, según Resolución de 5 de junio de 2026 de la Secretaría General de la Consejería de Economía, Empleo y Transformación Digital, por la que se","descripcionLeng":null,"fechaRecepcion":"2026-06-18","nivel1":"AUTONOMICA","nivel2":"EXTREMADURA","nivel3":"DIRECCIÓN GENERAL DE TRABAJO","codigoInvente":null},{"id":1115446,"mrr":false,"numeroConvocatoria":"913885","descripcion":"Decreto aprobación de CONVOCATORIA PARA LA CONCESIÓN DE BECAS DEL AYUNTAMIENTO DE LUCENA Y FUNDACIÓN ESCUELA DE ORGANIZACIÓN INDUSTRIAL (EOI) PARA PROGRAMAS MASTER O CURSOS SUPERIORES O EJECUTIVOS DE LA EOI, EJERCICIO 2026.","descripcionLeng":null,"fechaRecepcion":"2026-06-18","nivel1":"LOCAL","nivel2":"LUCENA","nivel3":"AYUNTAMIENTO DE LUCENA","codigoInvente":null},{"id":1115437,"mrr":false,"numeroConvocatoria":"913876","descripcion":"CONVOCATORIA DE AYUDAS A ENTIDADES Y ASOCIACIONES SIN ÁNIMO DE LUCRO PARA EL FOMENTO DEL ASOCIACIONISMO Y PARTICIPACIÓN CIUDADANA PARA EL AÑO 2026","descripcionLeng":null,"fechaRecepcion":"2026-06-18","nivel1":"LOCAL","nivel2":"BOADILLA DEL MONTE","nivel3":"AYUNTAMIENTO DE BOADILLA DEL MONTE","codigoInvente":null},{"id":1115436,"mrr":false,"numeroConvocatoria":"913875","descripcion":"CONVOCATORIA PREMIOS A LA CREACIÓN LITERARIA 2026 AYUNTAMIENTO DE ILLESCAS","descripcionLeng":null,"fechaRecepcion":"2026-06-18","nivel1":"LOCAL","nivel2":"ILLESCAS","nivel3":"AYUNTAMIENTO DE ILLESCAS","codigoInvente":null},{"id":1115435,"mrr":false,"numeroConvocatoria":"913874","descripcion":"Ayudas económicas del programa del servicio de respiro familiar a personas cuidadoras habituales no profesionales 2026","descripcionLeng":null,"fechaRecepcion":"2026-06-18","nivel1":"LOCAL","nivel2":"VILLANUEVA DE LA SERENA","nivel3":"AYUNTAMIENTO DE VILLANUEVA DE LA SERENA","codigoInvente":null},{"id":1115428,"mrr":false,"numeroConvocatoria":"913867","descripcion":"CONVOCATORIA XII EDICION CERTAMEN RELATO BREVE 2026 AYUNTAMIENTO DE ILLESCAS","descripcionLeng":null,"fechaRecepcion":"2026-06-18","nivel1":"LOCAL","nivel2":"ILLESCAS","nivel3":"AYUNTAMIENTO DE ILLESCAS","codigoInvente":null},{"id":1115427,"mrr":false,"numeroConvocatoria":"913866","descripcion":"BASES REGULADORAS PARA LA CONVOCATORIA DE SUBVENCIONES A LAS ASOCIACIONES DEL ÁMBITO VECINAL, POR LAS ACTIVIDADES REALIZADAS DURANTE EL AÑO 2026","descripcionLeng":"BASES REGULADORAS PARA A CONVOCATORIA DE SUBVENCIÓNS AS ASOCIACIÓNS DO AMBITO VECIÑAL, POLAS ACTIVIDADES REALIZADAS DURANTE O ANO 2026","fechaRecepcion":"2026-06-18","nivel1":"LOCAL","nivel2":"VILABOA","nivel3":"AYUNTAMIENTO DE VILABOA","codigoInvente":null},{"id":1115426,"mrr":false,"numeroConvocatoria":"913865","descripcion":"AYUDAS DE INICIACIÓN A LA INVESTIGACIÓN 2026 (Código de subvención: 04-541-4-2026-0034-S)","descripcionLeng":"AJUDES D'INICIACIÓ A LA INVESTIGACIÓ 2026 (codi de línia de subvenció 04-541-4-2026-0034-S)","fechaRecepcion":"2026-06-18","nivel1":"OTROS","nivel2":"UNIVERSIDAD MIGUEL HERNÁNDEZ DE ELCHE","nivel3":null,"codigoInvente":"INV00005357"},{"id":1115421,"mrr":false,"numeroConvocatoria":"913860","descripcion":"Bases y convocatoria ayudas jóvenes deportistas -temporada 2025-2026","descripcionLeng":null,"fechaRecepcion":"2026-06-18","nivel1":"LOCAL","nivel2":"COCENTAINA","nivel3":"AYUNTAMIENTO DE COCENTAINA","codigoInvente":null},{"id":1115416,"mrr":false,"numeroConvocatoria":"913855","descripcion":"Ayudas a clubes y entidades deportivas municipales- Temporada 2025-2026","descripcionLeng":null,"fechaRecepcion":"2026-06-18","nivel1":"LOCAL","nivel2":"COCENTAINA","nivel3":"AYUNTAMIENTO DE COCENTAINA","codigoInvente":null},{"id":1115402,"mrr":false,"numeroConvocatoria":"913841","descripcion":"Apoyo a jóvenes informadores/as en Centros de EEMM","descripcionLeng":"Irakaskuntza Ertainetako gazte informatzaileei laguntzea","fechaRecepcion":"2026-06-18","nivel1":"LOCAL","nivel2":"VITORIA-GASTEIZ","nivel3":"AYUNTAMIENTO DE VITORIA-GASTEIZ","codigoInvente":null},{"id":1115401,"mrr":false,"numeroConvocatoria":"913840","descripcion":"I Edición Premios \"Paredes con Vida\"","descripcionLeng":null,"fechaRecepcion":"2026-06-18","nivel1":"AUTONOMICA","nivel2":"COMUNIDAD DE MADRID","nivel3":"CONSEJERÍA DE PRESIDENCIA, JUSTICIA Y ADMINISTRACIÓN LOCAL","codigoInvente":null},{"id":1115398,"mrr":false,"numeroConvocatoria":"913837","descripcion":"Resolución de Alcaldía nº 2026/00002741 de 17/06/2026 por la que se aprueba la convocatoria pública de subvenciones de la\nConcejalía de Cultura para el año 2026 mediante el Régimen de concurrencia competitiva.","descripcionLeng":null,"fechaRecepcion":"2026-06-18","nivel1":"LOCAL","nivel2":"POZOBLANCO","nivel3":"AYUNTAMIENTO DE POZOBLANCO","codigoInvente":null},{"id":1115392,"mrr":false,"numeroConvocatoria":"913831","descripcion":"AYUDAS AL TRANSPORTE ESCOLAR PARA LOS ESTUDIANTES DE BACHILLERATO EMPADRONADOS EN EL MUNICIPIO DE ARGÉS, QUE CURSEN ESTUDIOS EN ALGÚN CENTRO DE ESTUDIOS DE LA CIUDAD DE TOLEDO 2025/2026","descripcionLeng":null,"fechaRecepcion":"2026-06-18","nivel1":"LOCAL","nivel2":"ARGÉS","nivel3":"AYUNTAMIENTO DE ARGÉS","codigoInvente":null},{"id":1115388,"mrr":false,"numeroConvocatoria":"913827","descripcion":"Convocatoria de Premios Fundación Trinidad Alfonso para estudiantado deportista de la Universitat Jaume I","descripcionLeng":"Convocatòria de Premis Fundació Trinidad Alfonso per a estudiantat esportista de la Universitat Jaume I","fechaRecepcion":"2026-06-18","nivel1":"OTROS","nivel2":"UNIVERSIDAD JAUME I DE CASTELLÓN","nivel3":null,"codigoInvente":"INV00005381"},{"id":1115384,"mrr":false,"numeroConvocatoria":"913823","descripcion":"SUBVENCION A LA FUNDACION GERNIKA-GOGORATUZ 2026","descripcionLeng":"GERNIKA-GOGORATUZ FUNDAZIOARI EMANDAKO DIRU-LAGUNTZA 2026","fechaRecepcion":"2026-06-18","nivel1":"LOCAL","nivel2":"GERNIKA-LUMO","nivel3":"AYUNTAMIENTO DE GERNIKA-LUMO","codigoInvente":null},{"id":1115380,"mrr":false,"numeroConvocatoria":"913819","descripcion":"Ayudas para financiar la adquisición de material para la autonomía personal de personas con discapacidad que hubieran sufrido pérdidas o daños irreparables con motivo de la DANA.","descripcionLeng":null,"fechaRecepcion":"2026-06-18","nivel1":"LOCAL","nivel2":"ALCÚDIA, L'","nivel3":"AYUNTAMIENTO DE ALCÚDIA, L'","codigoInvente":null},{"id":1115374,"mrr":false,"numeroConvocatoria":"913813","descripcion":"Convocatoria para la concesión de subvenciones por procedimiento de concurrencia competitiva en materia de subvenciones para gastos corrientes para finalidades culturales, deportivas. docentes, juveniles, de ocio y servicios sociales para el año 2026","descripcionLeng":null,"fechaRecepcion":"2026-06-17","nivel1":"LOCAL","nivel2":"SIGÜENZA","nivel3":"AYUNTAMIENTO DE SIGÜENZA","codigoInvente":null},{"id":1115373,"mrr":false,"numeroConvocatoria":"913812","descripcion":"Convocatoria de becas Erasmus para PDI con el fin de realizar estancias de corta duración del BIP en “Artificial Intelligence in Medicine - A Multidisciplinary Journey Across Clinical & Biomedical Sciences”, en la Universita degli Studi di Enna Kore.","descripcionLeng":null,"fechaRecepcion":"2026-06-17","nivel1":"OTROS","nivel2":"UNIVERSIDAD DE SALAMANCA","nivel3":null,"codigoInvente":"INV00005348"},{"id":1115372,"mrr":false,"numeroConvocatoria":"913811","descripcion":"Convocatoria de becas Erasmus para realizar estancias de corta duración del BIP “Artificial Intelligence in Medicine – A mMultidisciplinary Journey Across Clinical & Biomedical Sciences”, para la “Universitá degli Studi di Enna Kore”, 2025/2026.","descripcionLeng":null,"fechaRecepcion":"2026-06-17","nivel1":"OTROS","nivel2":"UNIVERSIDAD DE SALAMANCA","nivel3":null,"codigoInvente":"INV00005348"},{"id":1115369,"mrr":false,"numeroConvocatoria":"913808","descripcion":"CONVOCATORIA DE AYUDAS DE EMERGENCIA SOCIAL HABITACIONAL PARA LOS AYUNTAMIENTOS DE TENERIFE 2025 DEL AREA DE ACCION SOCIAL, INCLUSIÓN VOLUNTARIADO Y PARTICIPACIÓN CIUDADANA DEL CABILDO DE TENERIFE.","descripcionLeng":null,"fechaRecepcion":"2026-06-17","nivel1":"LOCAL","nivel2":"REALEJOS, LOS","nivel3":"AYUNTAMIENTO DE REALEJOS, LOS","codigoInvente":null},{"id":1115361,"mrr":false,"numeroConvocatoria":"913800","descripcion":"ORDEN CONVOCATORIA Y BASES AYUDAS AL DESPLAZAMIENTO CURSO 2025/2026","descripcionLeng":null,"fechaRecepcion":"2026-06-17","nivel1":"AUTONOMICA","nivel2":"CANARIAS","nivel3":"CONSEJERÍA DE UNIVERSIDADES, CIENCIA E INNOVACIÓN Y CULTURA","codigoInvente":null}],"pageable":{"sort":{"sorted":true,"unsorted":false,"empty":false},"pageNumber":31,"pageSize":50,"offset":1550,"unpaged":false,"paged":true},"last":false,"totalElements":10000,"totalPages":200,"first":false,"sort":{"sorted":true,"unsorted":false,"empty":false},"numberOfElements":50,"size":50,"number":31,"empty":false,"advertencia":"La reutilización de los datos del Sistema Nacional de Publicidad de Subvenciones y Ayudas Públicas está sujeta a una serie de restricciones y consideraciones legales. Consulte el aviso legal en https://www.infosubvenciones.es/bdnstrans/GE/es/avisolegal.Además, el usuario debe ser consciente que la información presentada es de naturaleza dinámica, y que los datos pueden ser sometidos a correcciones, inserciones, modificaciones y eliminaciones en momentos posteriores a su extracción. Accesos al API del sistema Nacional de Publicidad de Subvenciones y Ayudas Públicas. La Administración Presupuestaria, para salvaguardar la protección del acceso libre e irrestricto de los ciudadanos a este Portal y a su información podrá adoptar medidas restrictivas de acceso al API ante situaciones de manifiesto abuso del servicio, riesgos de seguridad, o uso fraudulento de la información descargada, de acuerdo con las buenas prácticas de gestión de datos abiertos (https://datos.gob.es/es/blog/limitaciones-la-consulta-de-una-api) establecidas por el Ministerio para la Transformación Digital y de la Función Pública."}