{"content":[{"id":1099342,"mrr":false,"numeroConvocatoria":"897781","descripcion":"Subvención nominativa- Convenio de colaboración con UNIÓ DE COMERÇ DE VILA-REAL para Convenio para promoción de la actividad comercial","descripcionLeng":null,"fechaRecepcion":"2026-04-09","nivel1":"LOCAL","nivel2":"VILA-REAL","nivel3":"AYUNTAMIENTO DE VILA-REAL","codigoInvente":null},{"id":1099340,"mrr":false,"numeroConvocatoria":"897779","descripcion":"Bono Denda Durango oinarriak - bases","descripcionLeng":null,"fechaRecepcion":"2026-04-09","nivel1":"LOCAL","nivel2":"DURANGO","nivel3":"AYUNTAMIENTO DE DURANGO","codigoInvente":null},{"id":1099338,"mrr":false,"numeroConvocatoria":"897777","descripcion":"Subvención nominativa- Convenio de colaboración con CÁMARA OFICIAL DE COMERCIO, INDUSTRIA Y NAVEGACIÓN DE CASTELLÓN para Sostenimiento del Vivero de empresas de Vila-real.","descripcionLeng":null,"fechaRecepcion":"2026-04-09","nivel1":"LOCAL","nivel2":"VILA-REAL","nivel3":"AYUNTAMIENTO DE VILA-REAL","codigoInvente":null},{"id":1099337,"mrr":false,"numeroConvocatoria":"897776","descripcion":"Subvención nominativa- Convenio de colaboración con CÁMARA OFICIAL DE COMERCIO, INDUSTRIA Y NAVEGACIÓN DE CASTELLÓN para Congreso mundial del azulejo Qualicer.","descripcionLeng":null,"fechaRecepcion":"2026-04-09","nivel1":"LOCAL","nivel2":"VILA-REAL","nivel3":"AYUNTAMIENTO DE VILA-REAL","codigoInvente":null},{"id":1099336,"mrr":false,"numeroConvocatoria":"897775","descripcion":"CONVOCATORIA DE SUBVENCIONES PARA ENTIDADES DE CARACTER SOCIAL DEL MUNICIPIO DE TREMP ANUALIDAD 2026","descripcionLeng":"CONVOCATÒRIA DE SUBVENCIONS PER A ENTITATS DE CARÀCTER SOCIAL DEL MUNICIPI DE TREMP ANUALITAT 2026","fechaRecepcion":"2026-04-09","nivel1":"LOCAL","nivel2":"TREMP","nivel3":"AYUNTAMIENTO DE TREMP","codigoInvente":null},{"id":1099335,"mrr":false,"numeroConvocatoria":"897774","descripcion":"Subvención nominativa- Convenio de colaboración con Asociación Cultural Junta Central Semana Santa para Contribuir en la sufragación de los gastos de organización y desarrollo de los actos propios que se realizan con motivo de la celebración de (...)","descripcionLeng":null,"fechaRecepcion":"2026-04-09","nivel1":"LOCAL","nivel2":"VILA-REAL","nivel3":"AYUNTAMIENTO DE VILA-REAL","codigoInvente":null},{"id":1099334,"mrr":false,"numeroConvocatoria":"897773","descripcion":"Convocatoria del XXIII Certamen de Jóvenes Flamencos de la Diputación de Córdoba","descripcionLeng":null,"fechaRecepcion":"2026-04-09","nivel1":"LOCAL","nivel2":"DIPUTACIÓN PROV. DE CÓRDOBA","nivel3":"DIPUTACIÓN PROVINCIAL DE CÓRDOBA","codigoInvente":null},{"id":1099332,"mrr":false,"numeroConvocatoria":"897771","descripcion":"Subvención nominativa- Convenio de colaboración con Asoc cultural flamenca andaluza de Vila-real para Colaborar en los gastos de sostenimiento de actividades recreativas, espectáculos públicos y realización de programas de promoción y fomento del (...)","descripcionLeng":null,"fechaRecepcion":"2026-04-09","nivel1":"LOCAL","nivel2":"VILA-REAL","nivel3":"AYUNTAMIENTO DE VILA-REAL","codigoInvente":null},{"id":1099331,"mrr":false,"numeroConvocatoria":"897770","descripcion":"CONVOCATORIA DE SUBVENCIONES PARA ENTIDADES DE CARACTER CULTURAL DEL MUNICIPIO DE TREMP ANUALIDAD 2026","descripcionLeng":"CONVOCATÒRIA DE SUBVENCIONS PER A ENTITATS DE CARÀCTER CULTURAL DEL MUNICIPI DE TREMP ANUALITAT 2026","fechaRecepcion":"2026-04-09","nivel1":"LOCAL","nivel2":"TREMP","nivel3":"AYUNTAMIENTO DE TREMP","codigoInvente":null},{"id":1099330,"mrr":false,"numeroConvocatoria":"897769","descripcion":"Subvención nominativa- Convenio de colaboración con Asociación Pankara Ecoglobal para Colaboración en proyectos medioambientales y en prácticas agrícolas sostenibles para un desarrollo más humano y sostenible (...)","descripcionLeng":null,"fechaRecepcion":"2026-04-09","nivel1":"LOCAL","nivel2":"VILA-REAL","nivel3":"AYUNTAMIENTO DE VILA-REAL","codigoInvente":null},{"id":1099328,"mrr":false,"numeroConvocatoria":"897767","descripcion":"RESOLUCIÓN de la directora general de Comercio, Artesanía y Consumo, por la cual se efectúa la convocatoria anticipada para el ejercicio 2023 de las ayudas en materia de comercio, consumo y artesanía.","descripcionLeng":"RESOLUCIÓ de la directora general de Comerç, Artesania i Consum, per la qual s'efectua la convocatòria anticipada per a l'exercici 2023 de les ajudes en matèria de comerç, consum i artesania.","fechaRecepcion":"2026-04-09","nivel1":"AUTONOMICA","nivel2":"COMUNITAT VALENCIANA","nivel3":"SECRETARIA AUTONÓMICA DE INDUSTRIA, COMERCIO Y CONSUMO","codigoInvente":null},{"id":1099327,"mrr":false,"numeroConvocatoria":"897766","descripcion":"CARRERAS POPULARES 2026","descripcionLeng":null,"fechaRecepcion":"2026-04-09","nivel1":"LOCAL","nivel2":"DIPUTACIÓN PROV. DE LEÓN","nivel3":"DIPUTACIÓN PROVINCIAL DE LEÓN","codigoInvente":null},{"id":1099325,"mrr":false,"numeroConvocatoria":"897764","descripcion":"Subvención nominativa- Convenio de colaboración con COMUNIDAD DE REGANTES DE VILLARREAL\n(Sindicato Riegos Vila-real) para Colaborar en los gastos de sostenimiento de proyectos y actividades culturales de difusión, sensibilización, investigación e (...)","descripcionLeng":null,"fechaRecepcion":"2026-04-09","nivel1":"LOCAL","nivel2":"VILA-REAL","nivel3":"AYUNTAMIENTO DE VILA-REAL","codigoInvente":null},{"id":1099323,"mrr":false,"numeroConvocatoria":"897762","descripcion":"CONVOCATORIA Y BASES VOLUNTARIADO 2026","descripcionLeng":"SUBVENCIONES VOLUNTARIADO 2024","fechaRecepcion":"2026-04-09","nivel1":"LOCAL","nivel2":"DIPUTACIÓN PROV. DE LEÓN","nivel3":"DIPUTACIÓN PROVINCIAL DE LEÓN","codigoInvente":null},{"id":1099322,"mrr":false,"numeroConvocatoria":"897761","descripcion":"Subvención nominativa- Convenio de colaboración con Universitat Jaume I de Castellón CAV para Colaboración económica con destino a la adquisición de materiales inventariables necesarios para el desarrollo de la actividad dirigida a la mejora de la (...)","descripcionLeng":null,"fechaRecepcion":"2026-04-09","nivel1":"LOCAL","nivel2":"VILA-REAL","nivel3":"AYUNTAMIENTO DE VILA-REAL","codigoInvente":null},{"id":1099321,"mrr":false,"numeroConvocatoria":"897760","descripcion":"Bases que han de regir el XVI Certamen Nacional de Monólogos de Humor \"En Tomelloso, todos contamos\".","descripcionLeng":null,"fechaRecepcion":"2026-04-09","nivel1":"LOCAL","nivel2":"TOMELLOSO","nivel3":"AYUNTAMIENTO DE TOMELLOSO","codigoInvente":null},{"id":1099318,"mrr":false,"numeroConvocatoria":"897757","descripcion":"Subvención nominativa- Convenio de colaboración con Universitat Jaume I de Castellón CAV para Colaborar en los gastos de investigación, la formación y la divulgación de métodos y estrategias dirigidas a la mejora de la salud y calidad de vida de (...)","descripcionLeng":null,"fechaRecepcion":"2026-04-09","nivel1":"LOCAL","nivel2":"VILA-REAL","nivel3":"AYUNTAMIENTO DE VILA-REAL","codigoInvente":null},{"id":1099317,"mrr":false,"numeroConvocatoria":"897756","descripcion":"CONVOCATORIA DE SUBVENCIONES PARA ENTIDADES DE CARACTER EDUCATIVO DEL MUNICIPIO DE TREMP ANUALIDAD 2026","descripcionLeng":"CONVOCATÒRIA DE SUBVENCIONS PER A ENTITATS DE CARÀCTER EDUCATIU DEL MUNICIPI DE TREMP ANUALITAT 2026","fechaRecepcion":"2026-04-09","nivel1":"LOCAL","nivel2":"TREMP","nivel3":"AYUNTAMIENTO DE TREMP","codigoInvente":null},{"id":1099316,"mrr":false,"numeroConvocatoria":"897755","descripcion":"202603801028 CONV_22.1_CONVOCATORIA PROYECTOS SERVICIOS SOCIALES","descripcionLeng":null,"fechaRecepcion":"2026-04-09","nivel1":"LOCAL","nivel2":"MURCIA","nivel3":"AYUNTAMIENTO DE MURCIA","codigoInvente":null},{"id":1099315,"mrr":false,"numeroConvocatoria":"897754","descripcion":"Subvención nominativa- Convenio de colaboración con Asociación Cultural Recreativa “Comissió de Penyes” de Villarreal para Sufragación de los gastos de sostenimiento de las actividades recreativas y espectáculos públicos, así como la colaboración en (...)","descripcionLeng":null,"fechaRecepcion":"2026-04-09","nivel1":"LOCAL","nivel2":"VILA-REAL","nivel3":"AYUNTAMIENTO DE VILA-REAL","codigoInvente":null},{"id":1099314,"mrr":false,"numeroConvocatoria":"897753","descripcion":"BASES REGULADORAS DE LA CONCESIÓN DE AYUDAS PARA LA CELEBRACIÓN DE FIESTAS PARROQUIALES PARA EL AÑO 2026","descripcionLeng":"BASES REGULADORAS DA CONCESIÓN DE AXUDAS PARA A¬ CELEBRACIÓN DE FESTAS PARROQUIAIS PARA O ANO 2026","fechaRecepcion":"2026-04-09","nivel1":"LOCAL","nivel2":"LALÍN","nivel3":"AYUNTAMIENTO DE LALÍN","codigoInvente":null},{"id":1099312,"mrr":false,"numeroConvocatoria":"897751","descripcion":"Subvención nominativa- Convenio de colaboración con ASSOCIACIO PER A L'ESTUDI, DIVULGACIO I CONSERVACIO DE LA NATURA/ FUNDACION OMACHA ESPAÑA para Colaboración en los gastos de sostenimiento de las actividades organizadas pro la mencionada asociación(...)","descripcionLeng":null,"fechaRecepcion":"2026-04-09","nivel1":"LOCAL","nivel2":"VILA-REAL","nivel3":"AYUNTAMIENTO DE VILA-REAL","codigoInvente":null},{"id":1099311,"mrr":false,"numeroConvocatoria":"897750","descripcion":"Convocatoria Programa Pyme Global 2026- Visita a la feria PLMA para empresas de la provincia de Córdoba","descripcionLeng":null,"fechaRecepcion":"2026-04-09","nivel1":"OTROS","nivel2":"CÁMARA DE COMERCIO DE CÓRDOBA","nivel3":null,"codigoInvente":null},{"id":1099309,"mrr":false,"numeroConvocatoria":"897748","descripcion":"Subvención nominativa- Convenio de colaboración con Asociación Cultural Deportiva de “Tir i Arrossegament” i competicions hípiques para colaborar en los gastos de sostenimiento de actividades y programas de deporte tradicional dirigidos al fomento, promo","descripcionLeng":null,"fechaRecepcion":"2026-04-09","nivel1":"LOCAL","nivel2":"VILA-REAL","nivel3":"AYUNTAMIENTO DE VILA-REAL","codigoInvente":null},{"id":1099306,"mrr":false,"numeroConvocatoria":"897745","descripcion":"Subvención nominativa- Convenio de colaboración con Asociación Cultural “El Trull” Villarreal para Ajudar a sufragar les despeses de sosteniment de la seua activitat, així com els programes musicals que estan dirigits al foment, promoció i difusió (...)","descripcionLeng":null,"fechaRecepcion":"2026-04-09","nivel1":"LOCAL","nivel2":"VILA-REAL","nivel3":"AYUNTAMIENTO DE VILA-REAL","codigoInvente":null},{"id":1099304,"mrr":false,"numeroConvocatoria":"897743","descripcion":"Subvención nominativa- Convenio de colaboración con Asociación Agrupación Cultural de Bombos y Tambores de Villarreal para Sufragar los gastos de sostenimiento de su actividad, así como las actuaciones y los programas musicales que están dirigidos (...)","descripcionLeng":null,"fechaRecepcion":"2026-04-09","nivel1":"LOCAL","nivel2":"VILA-REAL","nivel3":"AYUNTAMIENTO DE VILA-REAL","codigoInvente":null},{"id":1099303,"mrr":false,"numeroConvocatoria":"897742","descripcion":"Subvención nominativa- Convenio de colaboración con Congregación de Maria Inmaculada, San Luis Gonzaga y San Juan Berchmans (Congregació de Lluïsos) para Sufragar los gastos de mantenimiento de su actividad, así como las manifestaciones, actuaciones (...)","descripcionLeng":null,"fechaRecepcion":"2026-04-09","nivel1":"LOCAL","nivel2":"VILA-REAL","nivel3":"AYUNTAMIENTO DE VILA-REAL","codigoInvente":null},{"id":1099301,"mrr":false,"numeroConvocatoria":"897740","descripcion":"Convocatoria subvenciones a personas con discapacidad para adquisición de productos de soporte","descripcionLeng":"Convocatòria subvencions a persones amb discapacitat per adquisició de productes de suport","fechaRecepcion":"2026-04-09","nivel1":"LOCAL","nivel2":"POBLA DE MAFUMET, LA","nivel3":"AYUNTAMIENTO DE LA POBLA DE MAFUMET","codigoInvente":null},{"id":1099300,"mrr":false,"numeroConvocatoria":"897739","descripcion":"Subvención nominativa- Convenio de colaboración con Asoc. Deportiva “Club de cazadores Apaval” para Gastos de sostenimiento de la actividad y la realización de sus programas de cultura tradicional dirigidos al fomento, promoción y difusión de la (...)","descripcionLeng":null,"fechaRecepcion":"2026-04-09","nivel1":"LOCAL","nivel2":"VILA-REAL","nivel3":"AYUNTAMIENTO DE VILA-REAL","codigoInvente":null},{"id":1099297,"mrr":false,"numeroConvocatoria":"897736","descripcion":"Subvención nominativa- Convenio de colaboración con Asoc. “Agrupación Musical Virgen de Gracia” de Vila-real para Gastos de sostenimiento de la actividad así como los programas musicales que están dirigidos al fomento, promoción y difusión de la (...)","descripcionLeng":null,"fechaRecepcion":"2026-04-09","nivel1":"LOCAL","nivel2":"VILA-REAL","nivel3":"AYUNTAMIENTO DE VILA-REAL","codigoInvente":null},{"id":1099296,"mrr":false,"numeroConvocatoria":"897735","descripcion":"CONVOCATORIA SUBVENCIONES DE CULTURA 2025 (ACTUACIONES)","descripcionLeng":null,"fechaRecepcion":"2026-04-09","nivel1":"LOCAL","nivel2":"SANTA MARIA DE PALAUTORDERA","nivel3":"AYUNTAMIENTO DE SANTA MARIA DE PALAUTORDERA","codigoInvente":null},{"id":1099295,"mrr":false,"numeroConvocatoria":"897734","descripcion":"Subvención nominativa- Convenio de colaboración con Radio Espai Jove para Gestión y mantenimiento de una radio dirigida a la población joven.","descripcionLeng":null,"fechaRecepcion":"2026-04-09","nivel1":"LOCAL","nivel2":"VILA-REAL","nivel3":"AYUNTAMIENTO DE VILA-REAL","codigoInvente":null},{"id":1099294,"mrr":false,"numeroConvocatoria":"897733","descripcion":"Subvención nominativa- Convenio de colaboración con Asociación Juventud Antoniana para Embajada del Cartero Real de S.M. Los Reyes Magos y la Cabalgata de los Reyes Magos","descripcionLeng":null,"fechaRecepcion":"2026-04-09","nivel1":"LOCAL","nivel2":"VILA-REAL","nivel3":"AYUNTAMIENTO DE VILA-REAL","codigoInvente":null},{"id":1099293,"mrr":false,"numeroConvocatoria":"897732","descripcion":"III Concurso de Microrrelatos con motivo del Día de las Letras Gallegas","descripcionLeng":"III Concurso de Microrrelatos con motivo do Día das Letras Galegas","fechaRecepcion":"2026-04-09","nivel1":"LOCAL","nivel2":"VALGA","nivel3":"AYUNTAMIENTO DE VALGA","codigoInvente":null},{"id":1099290,"mrr":false,"numeroConvocatoria":"897729","descripcion":"Acuerdo de Junta de Gobierno Local 20-03-2026, por el que se aprueban las Bases que han de regir la convocatoria de los Premios Ciudad de Alcalá , en su LVII Edición, correspondientes al año 2026.","descripcionLeng":null,"fechaRecepcion":"2026-04-09","nivel1":"LOCAL","nivel2":"ALCALÁ DE HENARES","nivel3":"AYUNTAMIENTO DE ALCALÁ DE HENARES","codigoInvente":null},{"id":1099282,"mrr":false,"numeroConvocatoria":"897721","descripcion":"Resolución de 8 de abril de 2026, de la Universidad Internacional Menéndez Pelayo, por la que se convocan becas para la participación en las actividades académicas que se celebrarán en Santander en verano de 2026","descripcionLeng":null,"fechaRecepcion":"2026-04-08","nivel1":"ESTADO","nivel2":"MINISTERIO DE CIENCIA, INNOVACIÓN Y UNIVERSIDADES","nivel3":"UNIVERSIDAD INTERNACIONAL MENÉNDEZ PELAYO","codigoInvente":"INV00005356"},{"id":1099281,"mrr":false,"numeroConvocatoria":"897720","descripcion":"CONVOCATORIA DEL PROGRAMA UAH-SANTANDER DE BECAS DE RESIDENCIA “MARÍA DE GUZMÁN” PARA ESTUDIANTES INTERNACIONALES DE DOCTORADO EN RÉGIMEN DE COTUTELA CURSO 2026-2027","descripcionLeng":null,"fechaRecepcion":"2026-04-08","nivel1":"OTROS","nivel2":"UNIVERSIDAD DE ALCALÁ","nivel3":null,"codigoInvente":"INV00005328"},{"id":1099279,"mrr":false,"numeroConvocatoria":"897718","descripcion":"LVIII CONCURSO DE GAITAS DEL PAÍS – PONTEAREAS 2026","descripcionLeng":"LVIII CONCURSO DE GAITAS DO PAÍS – PONTEAREAS 2026","fechaRecepcion":"2026-04-08","nivel1":"LOCAL","nivel2":"PONTEAREAS","nivel3":"AYUNTAMIENTO DE PONTEAREAS","codigoInvente":null},{"id":1099278,"mrr":false,"numeroConvocatoria":"897717","descripcion":"DECRETO 202/2024, de 30 de diciembre, del Consell, por el que se aprueban las bases reguladoras de las ayudas dirigidas a complementar las prestaciones del Mecanismo RED de flexibilidad y estabilización del empleo para el sector de la automoción de la Com","descripcionLeng":null,"fechaRecepcion":"2026-04-08","nivel1":"AUTONOMICA","nivel2":"COMUNITAT VALENCIANA","nivel3":"DIRECCIÓN GENERAL DE EMPLEO Y FORMACIÓN","codigoInvente":null},{"id":1099273,"mrr":false,"numeroConvocatoria":"897712","descripcion":"CONVOCATORIA DE AYUDAS PARA PARTICIPAR EN EL PROGRAMA AÑORANZA-ASTURIAS 2026","descripcionLeng":null,"fechaRecepcion":"2026-04-08","nivel1":"AUTONOMICA","nivel2":"PRINCIPADO DE ASTURIAS","nivel3":"CONSEJERÍA DE PRESIDENCIA, RETO DEMOGRÁFICO, IGUALDAD Y TURISMO","codigoInvente":null},{"id":1099262,"mrr":false,"numeroConvocatoria":"897701","descripcion":"Resolución de 7 de abril de 2026 de la Consejería de Derechos Sociales y Bienestar, por la que se aprueba la convocatoria pública de subvenciones para la ejecución de proyectos de cooperación al desarrollo para el año 2026","descripcionLeng":null,"fechaRecepcion":"2026-04-08","nivel1":"AUTONOMICA","nivel2":"PRINCIPADO DE ASTURIAS","nivel3":"CONSEJERÍA DE DERECHOS SOCIALES Y BIENESTAR","codigoInvente":null},{"id":1099254,"mrr":false,"numeroConvocatoria":"897693","descripcion":"SUBVENCIONES DESTINADAS A LAS GALERIAS DE ARTE DE CANARIAS PARA SU PARTICIPACION EN FERIAS DE ARTES NACIONALES E INTERNACIONALES","descripcionLeng":null,"fechaRecepcion":"2026-04-08","nivel1":"AUTONOMICA","nivel2":"CANARIAS","nivel3":"CONSEJERÍA DE UNIVERSIDADES, CIENCIA E INNOVACIÓN Y CULTURA","codigoInvente":null},{"id":1099252,"mrr":false,"numeroConvocatoria":"897691","descripcion":"Ayudas para estudiantes de la isla de Ibiza para el año académico 2025-2026","descripcionLeng":null,"fechaRecepcion":"2026-04-08","nivel1":"LOCAL","nivel2":"CONSELL INSULAR D’EIVISSA","nivel3":"CONSELL INSULAR DE IBIZA","codigoInvente":null},{"id":1099251,"mrr":false,"numeroConvocatoria":"897690","descripcion":"Bases reguladoras de las ayudas a entidades deportivas sin ánimo de lucro para el año 2026","descripcionLeng":null,"fechaRecepcion":"2026-04-08","nivel1":"LOCAL","nivel2":"CONSELL INSULAR D’EIVISSA","nivel3":"CONSELL INSULAR DE IBIZA","codigoInvente":null},{"id":1099249,"mrr":false,"numeroConvocatoria":"897688","descripcion":"Orden de 7 de abril de 2026, Subv. en rég. de conc. compet., destinadas a la adquisición de instrumentos musicales para las bandas de música radicadas en Andalucía.","descripcionLeng":null,"fechaRecepcion":"2026-04-08","nivel1":"AUTONOMICA","nivel2":"ANDALUCÍA","nivel3":"CONSEJERÍA DE CULTURA Y DEPORTE","codigoInvente":null},{"id":1099248,"mrr":false,"numeroConvocatoria":"897687","descripcion":"CONVOCATORIA AYUDAS A LA MOVILIDAD DE ESTUDIANTES PALMEROS FUERA DE LA ISLA DE LA PALMA. CURSO 2025-2026.","descripcionLeng":null,"fechaRecepcion":"2026-04-08","nivel1":"LOCAL","nivel2":"CABILDO INSULAR DE LA PALMA","nivel3":"EXCMO. CABILDO INSULAR DE LA PALMA","codigoInvente":null},{"id":1099242,"mrr":false,"numeroConvocatoria":"897681","descripcion":"Ayudas para apoyar aquellas actuaciones desarrolladas por entidades gestoras de áreas industriales de la Comunitat Valenciana, que impulsen la modernización y la mejora de  la gestión de estas infraestructuras industriales. INENT2 2026","descripcionLeng":"Ajudes per a donar suport a aquelles actuacions desenvolupades per entitats gestores d'àrees industrials de la Comunitat Valenciana, que impulsen la modernització i la millora de la gestió d'estes infraestructures industrials. INENT2 2026","fechaRecepcion":"2026-04-08","nivel1":"AUTONOMICA","nivel2":"COMUNITAT VALENCIANA","nivel3":"SECRETARIA AUTONÓMICA DE INDUSTRIA, COMERCIO Y CONSUMO","codigoInvente":null},{"id":1099241,"mrr":false,"numeroConvocatoria":"897680","descripcion":"BASES REGULADORAS PROCESO SELECCIÓN PARTICIPANTES ADULTOS INSCRITOS EN LOS CURSOS DE LA UNIVERSIDAD POPULAR DE CAUDETE (BAILES DE SALÓN) PARA MOVILIDAD DE GRUPO A BRUSELAS EN EL MARCO DEL PROYECTO 2025-1-ES01-KA121-ADU-000327115 ACREDITACIÓN ERASMUS E","descripcionLeng":null,"fechaRecepcion":"2026-04-08","nivel1":"LOCAL","nivel2":"CAUDETE","nivel3":"AYUNTAMIENTO DE CAUDETE","codigoInvente":null},{"id":1099240,"mrr":false,"numeroConvocatoria":"897679","descripcion":"Resolución de 9 de Abril de 2026, de la S.G. de Familias, Igualdad, Violencia de Género y Diversidad, Convocatoria 2026 de subvenciones destinadas a formación, estudios y publicaciones en materia de violencia de género - Línea 2 Estudios y Publicaciones","descripcionLeng":null,"fechaRecepcion":"2026-04-08","nivel1":"AUTONOMICA","nivel2":"ANDALUCÍA","nivel3":"CONSEJERÍA DE INCLUSIÓN SOCIAL, JUVENTUD, FAMILIAS E IGUALDAD","codigoInvente":null},{"id":1099239,"mrr":false,"numeroConvocatoria":"897678","descripcion":"Resolución de 9 de Abril de 2026, de la S.G. de Familias, Igualdad, Violencia de Género y Diversidad, Convocatoria 2026 de subvenciones destinadas a formación, estudios y publicaciones en materia de violencia de género - Línea 1 Formación","descripcionLeng":null,"fechaRecepcion":"2026-04-08","nivel1":"AUTONOMICA","nivel2":"ANDALUCÍA","nivel3":"CONSEJERÍA DE INCLUSIÓN SOCIAL, JUVENTUD, FAMILIAS E IGUALDAD","codigoInvente":null}],"pageable":{"sort":{"sorted":true,"empty":false,"unsorted":false},"pageNumber":51,"pageSize":50,"offset":2550,"unpaged":false,"paged":true},"last":false,"totalElements":10000,"totalPages":200,"size":50,"number":51,"first":false,"sort":{"sorted":true,"empty":false,"unsorted":false},"numberOfElements":50,"empty":false,"advertencia":"La reutilización de los datos del Sistema Nacional de Publicidad de Subvenciones y Ayudas Públicas está sujeta a una serie de restricciones y consideraciones legales. Consulte el aviso legal en https://www.infosubvenciones.es/bdnstrans/GE/es/avisolegal.Además, el usuario debe ser consciente que la información presentada es de naturaleza dinámica, y que los datos pueden ser sometidos a correcciones, inserciones, modificaciones y eliminaciones en momentos posteriores a su extracción. Accesos al API del sistema Nacional de Publicidad de Subvenciones y Ayudas Públicas. La Administración Presupuestaria, para salvaguardar la protección del acceso libre e irrestricto de los ciudadanos a este Portal y a su información podrá adoptar medidas restrictivas de acceso al API ante situaciones de manifiesto abuso del servicio, riesgos de seguridad, o uso fraudulento de la información descargada, de acuerdo con las buenas prácticas de gestión de datos abiertos (https://datos.gob.es/es/blog/limitaciones-la-consulta-de-una-api) establecidas por el Ministerio para la Transformación Digital y de la Función Pública."}