{"content":[{"id":1099516,"mrr":false,"numeroConvocatoria":"897955","descripcion":"BASES REGULADORAS DE LA CONVOCATORIA PARA LA CONCESION DE SUBVENCIONES DE CARÁCTER ORDINARIO PARA EL AÑO 2026","descripcionLeng":"2026RAKO OHIKO DIRULAGUNTZAK EMATEKO DEIALDIAREN OINARRI ARAUTZAILEAK","fechaRecepcion":"2026-04-09","nivel1":"LOCAL","nivel2":"GORLIZ","nivel3":"AYUNTAMIENTO DE GORLIZ","codigoInvente":null},{"id":1099514,"mrr":false,"numeroConvocatoria":"897953","descripcion":"CONVOCATORIA Y BASES PARA LA CONCESIÓN DE SUBVENCIONES Y AYUDAS ECONÓMICAS EN APOYO DE INICIATIVAS DE ASOCIACIONES 2026","descripcionLeng":null,"fechaRecepcion":"2026-04-09","nivel1":"LOCAL","nivel2":"VILLACAÑAS","nivel3":"AYUNTAMIENTO DE VILLACAÑAS","codigoInvente":null},{"id":1099511,"mrr":false,"numeroConvocatoria":"897950","descripcion":"Convocatoria de la VI Maratón de Lectura en Valenciano en Xirivella","descripcionLeng":"Convocatòria de la VI Marató de Lectura en Valencià a Xirivella","fechaRecepcion":"2026-04-09","nivel1":"LOCAL","nivel2":"XIRIVELLA","nivel3":"AYUNTAMIENTO DE XIRIVELLA","codigoInvente":null},{"id":1099510,"mrr":false,"numeroConvocatoria":"897949","descripcion":"Convocatoria de subvenciones 2026 para entidades sin ánimo de lucro por edición de libros, fonogramas y audiovisuales","descripcionLeng":"Convocatòria de subvencions 2026 per a entitats sense ànim de lucre per edició de llibres, fonogrames i audiovisuals","fechaRecepcion":"2026-04-09","nivel1":"LOCAL","nivel2":"CONSEJO INSULAR DE MALLORCA","nivel3":"CONSELL INSULAR DE MALLORCA","codigoInvente":null},{"id":1099509,"mrr":false,"numeroConvocatoria":"897948","descripcion":"Ayudas a niños y jóvenes del núcleo de Sallent de Gállego por entrenamientos y cursillos de esquí, durante la temporada 2025-2026","descripcionLeng":null,"fechaRecepcion":"2026-04-09","nivel1":"LOCAL","nivel2":"SALLENT DE GÁLLEGO","nivel3":"AYUNTAMIENTO DE SALLENT DE GÁLLEGO","codigoInvente":null},{"id":1099508,"mrr":false,"numeroConvocatoria":"897947","descripcion":"Prestación de ayudas económicas individualizadas","descripcionLeng":null,"fechaRecepcion":"2026-04-09","nivel1":"LOCAL","nivel2":"ALBERIC","nivel3":"AYUNTAMIENTO DE ALBERIC","codigoInvente":null},{"id":1099507,"mrr":false,"numeroConvocatoria":"897946","descripcion":"Convocatoria ayudas centros educativos inscritos en el programa de reutilización de libros Curso 2025/2026","descripcionLeng":"Convocatòria ajudes centres educatius inscrits al programa de reutilització de llibres Curs 2025/2026","fechaRecepcion":"2026-04-09","nivel1":"LOCAL","nivel2":"ANDRATX","nivel3":"AYUNTAMIENTO DE ANDRATX","codigoInvente":null},{"id":1099506,"mrr":false,"numeroConvocatoria":"897945","descripcion":"Convocatoria de subvenciones para la organización y celebración de fiestas de los barrios. Ejercicio 2026.","descripcionLeng":"Auzoetako jaiak antolatu eta burutzeagatik diru-laguntza deialdia. 2026ko ekitaldia.","fechaRecepcion":"2026-04-09","nivel1":"LOCAL","nivel2":"ARAMAIO","nivel3":"AYUNTAMIENTO DE ARAMAIO","codigoInvente":null},{"id":1099505,"mrr":false,"numeroConvocatoria":"897944","descripcion":"Resolución de la Dirección General del Instituto de la Juventud, por la que se convocan las Ayudas Injuve para la Creación Joven, año 2026-2027","descripcionLeng":null,"fechaRecepcion":"2026-04-09","nivel1":"ESTADO","nivel2":"MINISTERIO DE JUVENTUD E INFANCIA","nivel3":"INSTITUTO DE LA JUVENTUD","codigoInvente":"INV00004173"},{"id":1099504,"mrr":false,"numeroConvocatoria":"897943","descripcion":"Convocatoria programa Pyme Innova 2026 - Cámara Comercio Mallorca","descripcionLeng":null,"fechaRecepcion":"2026-04-09","nivel1":"OTROS","nivel2":"CÁMARA DE COMERCIO DE MALLORCA","nivel3":null,"codigoInvente":null},{"id":1099503,"mrr":false,"numeroConvocatoria":"897942","descripcion":"Resolución de convocatoria para la concesión de subvenciones, en régimen de concurrencia competitiva, al emprendimiento cultural","descripcionLeng":"Resolució de convocatòria per a la concessió de subvencions, en règim deconcurrència competitiva, a l'emprenedoria cultural","fechaRecepcion":"2026-04-09","nivel1":"AUTONOMICA","nivel2":"CATALUÑA","nivel3":"INSTITUT CATALÀ DE LES EMPRESES CULTURALS (ICEC)","codigoInvente":"INV00003590"},{"id":1099502,"mrr":false,"numeroConvocatoria":"897941","descripcion":"CONCURSO DE POESÍA,  ILUSTRACIÓN Y CÓMIC en el marco de las VIII JORNADAS DE LITERATURA INFANTIL Y JUVENIL DE FUENGIROLA. Bases","descripcionLeng":null,"fechaRecepcion":"2026-04-09","nivel1":"LOCAL","nivel2":"FUENGIROLA","nivel3":"AYUNTAMIENTO DE FUENGIROLA","codigoInvente":null},{"id":1099497,"mrr":false,"numeroConvocatoria":"897936","descripcion":"Orden de 9 de abril de 2026, de la CEETA. Línea 3. Ayudas a personas trabajadoras autónomas o pymes cuyo domicilio de actividad no se encuentre recogido en el Anexo I y que hayan sido beneficiarias de la ayuda regulada en RDL 5/2026. MINIMIS PESCA Y ACUI","descripcionLeng":null,"fechaRecepcion":"2026-04-09","nivel1":"AUTONOMICA","nivel2":"ANDALUCÍA","nivel3":"CONSEJERÍA DE EMPLEO, EMPRESA Y TRABAJO AUTÓNOMO","codigoInvente":null},{"id":1099496,"mrr":false,"numeroConvocatoria":"897935","descripcion":"Orden de 9 de abril de 2026, de la CEETA. Línea 3. Ayudas a personas trabajadoras autónomas o pymes cuyo domicilio de actividad no se encuentre recogido en el Anexo I y que hayan sido beneficiarias de la ayuda regulada en RDL 5/2026. MINIMIS AGRÍCOLA","descripcionLeng":null,"fechaRecepcion":"2026-04-09","nivel1":"AUTONOMICA","nivel2":"ANDALUCÍA","nivel3":"CONSEJERÍA DE EMPLEO, EMPRESA Y TRABAJO AUTÓNOMO","codigoInvente":null},{"id":1099495,"mrr":false,"numeroConvocatoria":"897934","descripcion":"Orden de 9 de abril de 2026, de la CEETA. Línea 3. Ayudas a personas trabajadoras autónomas o pymes cuyo domicilio de actividad no se encuentre recogido en el Anexo I y que hayan sido beneficiarias de la ayuda regulada en RDL 5/2026. MINIMIS GENERAL","descripcionLeng":null,"fechaRecepcion":"2026-04-09","nivel1":"AUTONOMICA","nivel2":"ANDALUCÍA","nivel3":"CONSEJERÍA DE EMPLEO, EMPRESA Y TRABAJO AUTÓNOMO","codigoInvente":null},{"id":1099494,"mrr":false,"numeroConvocatoria":"897933","descripcion":"Orden de 9 de abril de 2026, de la CEETA. Línea 2. Ayudas a personas trabajadoras autónomas en el Sistema Especial Agrario o pymes cuyo domicilio de actividad se encuentre recogido en el Anexo II. MINIMIS GENERAL","descripcionLeng":null,"fechaRecepcion":"2026-04-09","nivel1":"AUTONOMICA","nivel2":"ANDALUCÍA","nivel3":"CONSEJERÍA DE EMPLEO, EMPRESA Y TRABAJO AUTÓNOMO","codigoInvente":null},{"id":1099493,"mrr":false,"numeroConvocatoria":"897932","descripcion":"Orden de 9 de abril de 2026, de la CEETA. Línea 2. Ayudas a personas trabajadoras autónomas en el Sistema Especial Agrario o pymes cuyo domicilio de actividad se encuentre recogido en el Anexo II. MINIMIS PESCA Y ACUICULTURA","descripcionLeng":null,"fechaRecepcion":"2026-04-09","nivel1":"AUTONOMICA","nivel2":"ANDALUCÍA","nivel3":"CONSEJERÍA DE EMPLEO, EMPRESA Y TRABAJO AUTÓNOMO","codigoInvente":null},{"id":1099492,"mrr":false,"numeroConvocatoria":"897931","descripcion":"Orden de 9 de abril de 2026, de la CEETA. Línea 2. Ayudas a personas trabajadoras autónomas en el Sistema Especial Agrario o pymes cuyo domicilio de actividad se encuentre recogido en el Anexo II. MINIMIS AGRÍCOLA","descripcionLeng":null,"fechaRecepcion":"2026-04-09","nivel1":"AUTONOMICA","nivel2":"ANDALUCÍA","nivel3":"CONSEJERÍA DE EMPLEO, EMPRESA Y TRABAJO AUTÓNOMO","codigoInvente":null},{"id":1099491,"mrr":false,"numeroConvocatoria":"897930","descripcion":"Resolución de 8 de abril de 2026, por la que se convocan subvenciones de concurrencia competitiva, a entidades privadas sin ánimo de lucro, destinadas al desarrollo de programas de adicciones en Andalucía - Línea 3.","descripcionLeng":null,"fechaRecepcion":"2026-04-09","nivel1":"AUTONOMICA","nivel2":"ANDALUCÍA","nivel3":"CONSEJERÍA DE SALUD Y CONSUMO","codigoInvente":null},{"id":1099490,"mrr":false,"numeroConvocatoria":"897929","descripcion":"BASES-CONVOCATORIA AYUDAS A DEPORTITAS INDIVIDUALES DE ILLESCAS POR RESULTADO 2025 A OTROGAR EN 2026","descripcionLeng":null,"fechaRecepcion":"2026-04-09","nivel1":"LOCAL","nivel2":"ILLESCAS","nivel3":"AYUNTAMIENTO DE ILLESCAS","codigoInvente":null},{"id":1099489,"mrr":false,"numeroConvocatoria":"897928","descripcion":"Convocatoria de subvenciones en el ámbito cultural, deportivo y social. Ejercicio 2026.","descripcionLeng":"Kultura, kirol eta gizarte arloko diru-laguntzetarako deialdia. 2026ko ekitaldia.","fechaRecepcion":"2026-04-09","nivel1":"LOCAL","nivel2":"ARAMAIO","nivel3":"AYUNTAMIENTO DE ARAMAIO","codigoInvente":null},{"id":1099488,"mrr":false,"numeroConvocatoria":"897927","descripcion":"Resolución de 8 de abril de 2026 por la que se convoca la linea 2 de subvenciones competiitivas en materia de adicciones dirigidas a entidades locales para prevención comunitaria \"ciudades ante las drogas\"","descripcionLeng":null,"fechaRecepcion":"2026-04-09","nivel1":"AUTONOMICA","nivel2":"ANDALUCÍA","nivel3":"CONSEJERÍA DE SALUD Y CONSUMO","codigoInvente":null},{"id":1099487,"mrr":false,"numeroConvocatoria":"897926","descripcion":"EXTRACTO DE LAS BASES DEL PREMIO PARA LA ORGANIZACIÓN DEL FESTIVAL ANUAL DE CHARANGAS DE GUADALAJARA (EJERCICIO 2026) LOS DÍAS 8 Y 9 DE MAYO DE 2026 POR PARTE DE ASOCIACIONES CULTURALES SIN ÁNIMO DE LUCRO DE LA CIUDAD DE GUADALAJARA","descripcionLeng":null,"fechaRecepcion":"2026-04-09","nivel1":"LOCAL","nivel2":"GUADALAJARA","nivel3":"AYUNTAMIENTO DE GUADALAJARA","codigoInvente":null},{"id":1099483,"mrr":false,"numeroConvocatoria":"897922","descripcion":"CONVOCATORIA PARA LA CONCESIÓN DE SUBVENCIONES DESTINADAS A PROYECTOS O PROGRAMAS DE COOPERACIÓN EN LOS PAÍSES EN VÍAS DE DESARROLLO. AÑO 2026.","descripcionLeng":null,"fechaRecepcion":"2026-04-09","nivel1":"LOCAL","nivel2":"TERUEL","nivel3":"AYUNTAMIENTO DE TERUEL","codigoInvente":null},{"id":1099478,"mrr":false,"numeroConvocatoria":"897917","descripcion":"CONVOCATORIA PÚBLICA PARA LA CONCESIÓN DE SUBVENCIONES EN MATERIA DE ACCIÓN SOCIAL. AÑO 2026","descripcionLeng":null,"fechaRecepcion":"2026-04-09","nivel1":"LOCAL","nivel2":"TERUEL","nivel3":"AYUNTAMIENTO DE TERUEL","codigoInvente":null},{"id":1099476,"mrr":false,"numeroConvocatoria":"897915","descripcion":"Orden de 9 de abril de 2026, de la CEETA. Línea 1. Ayudas a personas trabajadoras autónomas o pymes cuyo domicilio de actividad se encuentre recogido en el Anexo I. MINIMIS PESCA Y ACUICULTURA","descripcionLeng":null,"fechaRecepcion":"2026-04-09","nivel1":"AUTONOMICA","nivel2":"ANDALUCÍA","nivel3":"CONSEJERÍA DE EMPLEO, EMPRESA Y TRABAJO AUTÓNOMO","codigoInvente":null},{"id":1099475,"mrr":false,"numeroConvocatoria":"897914","descripcion":"Orden de 9 de abril de 2026, de la CEETA. Línea 1. Ayudas a personas trabajadoras autónomas o pymes cuyo domicilio de actividad se encuentre recogido en el Anexo I. MINIMIS AGRÍCOLA","descripcionLeng":null,"fechaRecepcion":"2026-04-09","nivel1":"AUTONOMICA","nivel2":"ANDALUCÍA","nivel3":"CONSEJERÍA DE EMPLEO, EMPRESA Y TRABAJO AUTÓNOMO","codigoInvente":null},{"id":1099474,"mrr":false,"numeroConvocatoria":"897913","descripcion":"Orden de 9 de abril de 2026, de la CEETA. Línea 1. Ayudas a personas trabajadoras autónomas o pymes cuyo domicilio de actividad se encuentre recogido en el Anexo I. MINIMIS GENERAL","descripcionLeng":null,"fechaRecepcion":"2026-04-09","nivel1":"AUTONOMICA","nivel2":"ANDALUCÍA","nivel3":"CONSEJERÍA DE EMPLEO, EMPRESA Y TRABAJO AUTÓNOMO","codigoInvente":null},{"id":1099473,"mrr":false,"numeroConvocatoria":"897912","descripcion":"RR por la que convocan Becas para la realización de Microcredenciales incluidas en el \"Plan de desarrollo de microcredenciales universitarias\" en el marco del componente 21, inversión 6 del PRTR financiado por la UNIÓN EUROPEA-Next Generation EU","descripcionLeng":"RR pola que convocan Bolsas para a realización de Microcredenciais incluídas no “Plan de desenvolvemento de microcredenciais universitarias” no marco do compoñente 21, investimento 6 do PRTR financiado pola UNIÓN EUROPEA-Next Generation EU","fechaRecepcion":"2026-04-09","nivel1":"OTROS","nivel2":"UNIVERSIDAD DE VIGO","nivel3":null,"codigoInvente":"INV00005352"},{"id":1099472,"mrr":false,"numeroConvocatoria":"897911","descripcion":"Resolución de 8 de abril de 2026, por la que se convocan subv. concurrencia competitiva para mantenimiento de sedes y sostenimiento de la actividad ordinaria de EEPP S.A.L del ábito de las adicciones ubicadas en Andalucía, Línea 1","descripcionLeng":null,"fechaRecepcion":"2026-04-09","nivel1":"AUTONOMICA","nivel2":"ANDALUCÍA","nivel3":"CONSEJERÍA DE SALUD Y CONSUMO","codigoInvente":null},{"id":1099470,"mrr":false,"numeroConvocatoria":"897909","descripcion":"SUBVENCIÓN A ASOCIACIONES ACTIVIDADES JUVENILES OCIO Y T.L. 2026","descripcionLeng":null,"fechaRecepcion":"2026-04-09","nivel1":"AUTONOMICA","nivel2":"COMUNIDAD DE MADRID","nivel3":"CONSEJERÍA DE FAMILIA, JUVENTUD Y ASUNTOS SOCIALES","codigoInvente":null},{"id":1099469,"mrr":false,"numeroConvocatoria":"897908","descripcion":"SUBVENCIÓN A ASOCIACIONES PROYECTOS JUVENILES FORMACIÓN 2026","descripcionLeng":null,"fechaRecepcion":"2026-04-09","nivel1":"AUTONOMICA","nivel2":"COMUNIDAD DE MADRID","nivel3":"CONSEJERÍA DE FAMILIA, JUVENTUD Y ASUNTOS SOCIALES","codigoInvente":null},{"id":1099468,"mrr":false,"numeroConvocatoria":"897907","descripcion":"SUBVENCIÓN MUNICIPIOS ACTIVIDADES OCIO Y TIEMPO LIBRE EDUCATIVO 2026","descripcionLeng":null,"fechaRecepcion":"2026-04-09","nivel1":"AUTONOMICA","nivel2":"COMUNIDAD DE MADRID","nivel3":"CONSEJERÍA DE FAMILIA, JUVENTUD Y ASUNTOS SOCIALES","codigoInvente":null},{"id":1099467,"mrr":false,"numeroConvocatoria":"897906","descripcion":"SUBVENCION A MUNICIPIOS PARA PROYECTOS FORMACIÓN Y SENSIBILIZACION 2026","descripcionLeng":null,"fechaRecepcion":"2026-04-09","nivel1":"AUTONOMICA","nivel2":"COMUNIDAD DE MADRID","nivel3":"CONSEJERÍA DE FAMILIA, JUVENTUD Y ASUNTOS SOCIALES","codigoInvente":null},{"id":1099466,"mrr":false,"numeroConvocatoria":"897905","descripcion":"CONVOCATORIA PÚBLICA PARA LA CONCESIÓN DE SUBVENCIONES DIRIGIDAS A UNIDADES FAMILIARES EN CUYO ÁMBITO EXISTAN UNA O MÁS PERSONAS CELIACAS O CON INTOLERANCIA AL GLUTEN. AÑO 2026","descripcionLeng":null,"fechaRecepcion":"2026-04-09","nivel1":"LOCAL","nivel2":"TERUEL","nivel3":"AYUNTAMIENTO DE TERUEL","codigoInvente":null},{"id":1099465,"mrr":false,"numeroConvocatoria":"897904","descripcion":"Subvención a organizaciones sindicales para la figura del agente de igualdad","descripcionLeng":null,"fechaRecepcion":"2026-04-09","nivel1":"AUTONOMICA","nivel2":"COMUNIDAD FORAL DE NAVARRA","nivel3":"DEPARTAMENTO DE DERECHOS SOCIALES, ECONOMIA SOCIAL Y EMPLEO","codigoInvente":null},{"id":1099464,"mrr":false,"numeroConvocatoria":"897903","descripcion":"Convenio con la AC de Carrossaires de Palamós por la organización y participación de las carrozas en las actividades del  Carnaval Palamós 2026","descripcionLeng":"Conveni amb l'AC Carrossaires de Palamós per l'organització i participació de les carrosses en les activitats del Carnaval Palamós 2026 ","fechaRecepcion":"2026-04-09","nivel1":"LOCAL","nivel2":"PALAMÓS","nivel3":"AYUNTAMIENTO DE PALAMÓS","codigoInvente":null},{"id":1099462,"mrr":false,"numeroConvocatoria":"897901","descripcion":"SUBVENCIÓN REDACCIÓN Y REVISIÓN DE LOS PLGR Y DE ASISTENCIA TÉCNICA PARA SEGUIMIENTO DE LOS SERVICIOS DE RECOGIDA DE RESIDUOS EN LAS ENTIDADES LOCALES DE LA PROVINCIA DE VALENCIA EJERCICIO 2026","descripcionLeng":"SUBVENCIÓ REDACCIÓ I REVISIÓ DELS PLGR I D'ASSISTÈNCIA TÈCNICA PER A SEGUIMENT DELS SERVICIS DE RECOLLIDA DE RESIDUS EN LES ENTITATS LOCALS DE LA PROVÍNCIA DE VALÈNCIA EXERCICI 2026","fechaRecepcion":"2026-04-09","nivel1":"LOCAL","nivel2":"DIPUTACIÓN PROV. DE VALENCIA","nivel3":"DIPUTACIÓN PROVINCIAL DE VALENCIA","codigoInvente":null},{"id":1099460,"mrr":false,"numeroConvocatoria":"897899","descripcion":"Proyectos de cooperación al desarrollo en ámbito internacional para el 2026","descripcionLeng":"Projectes de cooperació al desenvolupament en l’àmbit internacional per a l’any 2026","fechaRecepcion":"2026-04-09","nivel1":"LOCAL","nivel2":"GIRONA","nivel3":"AYUNTAMIENTO DE GIRONA","codigoInvente":null},{"id":1099457,"mrr":false,"numeroConvocatoria":"897896","descripcion":"CONVOCATORIA PARA LA CONCESIÓN DE SUBVENCIONES EN MATERIA DE FOMENTO DEL ASOCIACIONISMO Y LA PARTICIPACIÓN CIUDADANA, AÑO 2026","descripcionLeng":null,"fechaRecepcion":"2026-04-09","nivel1":"LOCAL","nivel2":"TERUEL","nivel3":"AYUNTAMIENTO DE TERUEL","codigoInvente":null},{"id":1099452,"mrr":false,"numeroConvocatoria":"897891","descripcion":"CONVOCATORIA DE SUBVENCIONES, EN RÉGIMEN DE CONCURRENCIA COMPETITIVA, PARA ENTIDADES SOCIALES PARA EL DESARROLLO DE PROYECTOS DE INTERÉS SOCIAL EN EL MUNICIPIO DE QUART DE POBLET PARA 2026","descripcionLeng":null,"fechaRecepcion":"2026-04-09","nivel1":"LOCAL","nivel2":"QUART DE POBLET","nivel3":"AYUNTAMIENTO DE QUART DE POBLET","codigoInvente":null},{"id":1099451,"mrr":false,"numeroConvocatoria":"897890","descripcion":"Decreto 595/2026 de 09-04-2026, que aprueba la convocatoria de AYUDAS ECONÓMICAS ESTUDIANTES RESIDENTES EN SAN SEBASTIÁN DE LA GOMERA QUE REALICEN ESTUDIOS SUPERIORES Y MEDIOS, UNIVERSITARIOS Y CICLOS FORMATIVOS REGLADOS FUERA DE LA ISLA, CURSO 2025-2026.","descripcionLeng":null,"fechaRecepcion":"2026-04-09","nivel1":"LOCAL","nivel2":"SAN SEBASTIÁN DE LA GOMERA","nivel3":"AYUNTAMIENTO DE SAN SEBASTIÁN DE LA GOMERA","codigoInvente":null},{"id":1099447,"mrr":false,"numeroConvocatoria":"897886","descripcion":"Convocatoria de becas de colaboración para la organización de los Cursos y Competiciones de Robótica de la UCLM para alumnos de enseñanza secundaria. Escuela Técnica Superior de Ingeniería Industrial de Ciudad Real de la Universidad de Castilla- La Mancha","descripcionLeng":null,"fechaRecepcion":"2026-04-09","nivel1":"OTROS","nivel2":"UNIVERSIDAD DE CASTILLA-LA MANCHA","nivel3":null,"codigoInvente":"INV00005334"},{"id":1099444,"mrr":false,"numeroConvocatoria":"897883","descripcion":"CONVOCATORIA PARA LA CONCESIÓN DE SUBVENCIONES EN RÉGIMEN DE CONCURRENCIA PARA EL EJERCICIO 2026 A OTORGAR POR EL AYUNTAMIENTO DE ALCOBENDAS A ASOCIACIONES DEL ÁMBITO DE SALUD Y BIENESTAR ANIMAL","descripcionLeng":null,"fechaRecepcion":"2026-04-09","nivel1":"LOCAL","nivel2":"ALCOBENDAS","nivel3":"AYUNTAMIENTO DE ALCOBENDAS","codigoInvente":null},{"id":1099443,"mrr":false,"numeroConvocatoria":"897882","descripcion":"CONV.SUBV. 2026 D.G. IGUALDAD Y CONTRA VIOLENCIA GENERO","descripcionLeng":null,"fechaRecepcion":"2026-04-09","nivel1":"LOCAL","nivel2":"MADRID","nivel3":"ÁREA DE GOBIERNO DE POLÍTICAS SOCIALES, FAMILIA E IGUALDAD","codigoInvente":null},{"id":1099442,"mrr":false,"numeroConvocatoria":"897881","descripcion":"Proyectos para la justicia global 2026","descripcionLeng":"Projectes per a justícia global 2026","fechaRecepcion":"2026-04-09","nivel1":"LOCAL","nivel2":"GIRONA","nivel3":"AYUNTAMIENTO DE GIRONA","codigoInvente":null},{"id":1099441,"mrr":false,"numeroConvocatoria":"897880","descripcion":"Convocatoria de subvenciones para promover la igualdad entre mujeres y hombres, así como el respecto a la diversidad en la orientación afectiva-sexual, en el municipio de Alzira para el año 2026","descripcionLeng":"Convocatòria de subvencions per a promoure la igualtat entre dones i hòmens, així com el respecte a la diversitat en l'orientació afectiva-sexual, en el municipi d'Alzira per a l'any 2026\n","fechaRecepcion":"2026-04-09","nivel1":"LOCAL","nivel2":"ALZIRA","nivel3":"AYUNTAMIENTO DE ALZIRA","codigoInvente":null},{"id":1099437,"mrr":false,"numeroConvocatoria":"897876","descripcion":"RECONOCIMIENTOS POR LA TRANSMISIÓN DE VALORES Y FORMAS CULTURALES A LOS\nMEJORES RENDIMIENTOS ACADÉMICOS Y SUPERACIÓN, CURSO 25/26","descripcionLeng":null,"fechaRecepcion":"2026-04-09","nivel1":"LOCAL","nivel2":"HUMANES DE MADRID","nivel3":"AYUNTAMIENTO DE HUMANES DE MADRID","codigoInvente":null},{"id":1099436,"mrr":false,"numeroConvocatoria":"897875","descripcion":"CONCESIÓN DE AYUDAS A LAS FAMILIAS PARA LA REALIZACIÓN DE ACTIVITADES DE OCIO DENTRO DEL PROGRAMA \"LLEURE PER A TOTHOM\" 2026","descripcionLeng":"CONCESSIÓ D'AJUTS A LES FAMÍLIES PER A LA REALITZACIÓ D'ACTIVITATS DE LLEURE DINS DEL PROGRAMA \"LLEURE PER TOTHOM\" 2026","fechaRecepcion":"2026-04-09","nivel1":"LOCAL","nivel2":"BANYOLES","nivel3":"AYUNTAMIENTO DE BANYOLES","codigoInvente":null},{"id":1099435,"mrr":false,"numeroConvocatoria":"897874","descripcion":"Subvención a organizaciones sindicales para la ejecución de proyectos sobre riesgos laborales","descripcionLeng":null,"fechaRecepcion":"2026-04-09","nivel1":"AUTONOMICA","nivel2":"COMUNIDAD FORAL DE NAVARRA","nivel3":"DEPARTAMENTO DE DERECHOS SOCIALES, ECONOMIA SOCIAL Y EMPLEO","codigoInvente":null}],"pageable":{"sort":{"sorted":true,"unsorted":false,"empty":false},"pageNumber":49,"pageSize":50,"offset":2450,"unpaged":false,"paged":true},"last":false,"totalElements":10000,"totalPages":200,"first":false,"sort":{"sorted":true,"unsorted":false,"empty":false},"numberOfElements":50,"size":50,"number":49,"empty":false,"advertencia":"La reutilización de los datos del Sistema Nacional de Publicidad de Subvenciones y Ayudas Públicas está sujeta a una serie de restricciones y consideraciones legales. Consulte el aviso legal en https://www.infosubvenciones.es/bdnstrans/GE/es/avisolegal.Además, el usuario debe ser consciente que la información presentada es de naturaleza dinámica, y que los datos pueden ser sometidos a correcciones, inserciones, modificaciones y eliminaciones en momentos posteriores a su extracción. Accesos al API del sistema Nacional de Publicidad de Subvenciones y Ayudas Públicas. La Administración Presupuestaria, para salvaguardar la protección del acceso libre e irrestricto de los ciudadanos a este Portal y a su información podrá adoptar medidas restrictivas de acceso al API ante situaciones de manifiesto abuso del servicio, riesgos de seguridad, o uso fraudulento de la información descargada, de acuerdo con las buenas prácticas de gestión de datos abiertos (https://datos.gob.es/es/blog/limitaciones-la-consulta-de-una-api) establecidas por el Ministerio para la Transformación Digital y de la Función Pública."}