{"content":[{"id":1104749,"mrr":false,"numeroConvocatoria":"903188","descripcion":"Convocatoria de subvenciones destinadas a facilitar el mantenimiento del servicio que prestan las oficinas de farmacia ubicadas en zonas básicas de salud de especial actuación farmacéutica y/o de especial actuación sanitaria, para el año 2026","descripcionLeng":null,"fechaRecepcion":"2026-05-04","nivel1":"AUTONOMICA","nivel2":"COMUNIDAD FORAL DE NAVARRA","nivel3":"SERVICIO NAVARRO DE SALUD - OSASUNBIDEA","codigoInvente":"INV00005055"},{"id":1104748,"mrr":false,"numeroConvocatoria":"903187","descripcion":"Convocatoria 2026 para la concesión de ayudas de estancia temporal en Residencia de Tercera Edad (Ex: 02/2026)","descripcionLeng":null,"fechaRecepcion":"2026-05-04","nivel1":"LOCAL","nivel2":"MASSAMAGRELL","nivel3":"AYUNTAMIENTO DE MASSAMAGRELL","codigoInvente":null},{"id":1104747,"mrr":false,"numeroConvocatoria":"903186","descripcion":"II CONCURSO (RALLY) FOTOGRÁFICO “LA RÁBIDA 2026”","descripcionLeng":null,"fechaRecepcion":"2026-05-04","nivel1":"LOCAL","nivel2":"DIPUTACIÓN PROV. DE HUELVA","nivel3":"DIPUTACIÓN PROVINCIAL DE HUELVA","codigoInvente":null},{"id":1104746,"mrr":false,"numeroConvocatoria":"903185","descripcion":"PLANTAS ORNAMENTALES. AYUDAS DESTINADADS A ENTIDADES LOCALES DE MENOS DE 5.000 HABITANTES DE LA PROVINCIA DE ZAMORA","descripcionLeng":null,"fechaRecepcion":"2026-05-04","nivel1":"LOCAL","nivel2":"DIPUTACIÓN PROV. DE ZAMORA","nivel3":"DIPUTACIÓN PROVINCIAL DE ZAMORA","codigoInvente":null},{"id":1104744,"mrr":false,"numeroConvocatoria":"903183","descripcion":"SUBVENCION A FAVOR DE MUNICIPIOS DE LA PROVINCIA DE SALAMANCA CON POBLACION INFERIOR A 20.000 HABITANTES, PARA LIMPIEZA DE TRAMOS URBANOS DE CAUCES. PLAN CAUCES 2026.","descripcionLeng":null,"fechaRecepcion":"2026-05-04","nivel1":"LOCAL","nivel2":"DIPUTACIÓN PROV. DE SALAMANCA","nivel3":"DIPUTACIÓN DE SALAMANCA","codigoInvente":null},{"id":1104742,"mrr":false,"numeroConvocatoria":"903181","descripcion":"SUBV. EN RÉGIMEN DE CONCURRENCIA COMPETITIVA COFINANCIADAS POR EL FSE+ DIRIGIDAS A ENTIDADES LOCALES Y ENTIDADES SIN ÁNIMO DE LUCRO PARA EL DESARROLLO DE NUEVOS MODELOS DE ATENCIÓN A PERSONAS CON TRASTORNO MENTAL GRAVE PRG. FSE + R. MURCIA 2021-2027","descripcionLeng":null,"fechaRecepcion":"2026-05-04","nivel1":"AUTONOMICA","nivel2":"REGIÓN DE MURCIA","nivel3":"INSTITUTO MURCIANO DE ACCIÓN SOCIAL (I.M.A.S.)","codigoInvente":"INV00003726"},{"id":1104740,"mrr":false,"numeroConvocatoria":"903179","descripcion":"SUBVENCIÓN PARA LA GESTIÓN DE COLONIAS FELINAS DEL MUNICIPIO DE L’ELIANA DE 2026","descripcionLeng":"SUBVENCIÓ PER A LA GESTIÓ DE COLÒNIES FELINES DEL MUNICIPI DE L'ELIANA DE 2026","fechaRecepcion":"2026-05-04","nivel1":"LOCAL","nivel2":"ELIANA, L'","nivel3":"AYUNTAMIENTO DE ELIANA, L'","codigoInvente":null},{"id":1104739,"mrr":false,"numeroConvocatoria":"903178","descripcion":"LÍNEA L10.3 SUBVENCIONES DESTINADAS A POTENCIAR EL ÉXITO EDUCATIVO Y LA PARTICIPACIÓN EN LAS ACTIVIDADES DEPORTIVAS EXTRAESCOLARES EN EL MARCO DEL PLAN EDUCATIVO DE ENTORNO (Línea 2 - Participación en las\nactividades deportivas extraescolares).","descripcionLeng":"LÍNIA L10.3 SUBVENCIONS DESTINADES A POTENCIAR L’ÈXIT EDUCATIU I LA PARTICIPACIÓ A LES ACTIVITATS ESPORTIVES EXTRAESCOLARS EN EL MARC DEL PLA EDUCATIU D’ENTORN (Línia 2 - Participació a les activitats esportives extraescolars).","fechaRecepcion":"2026-05-04","nivel1":"LOCAL","nivel2":"LLEIDA","nivel3":"AYUNTAMIENTO DE LLEIDA","codigoInvente":null},{"id":1104733,"mrr":false,"numeroConvocatoria":"903172","descripcion":"Convocatoria del XI Certamen de pintura de Pozuelo de Alarcón 2026","descripcionLeng":null,"fechaRecepcion":"2026-05-04","nivel1":"LOCAL","nivel2":"POZUELO DE ALARCÓN","nivel3":"AYUNTAMIENTO DE POZUELO DE ALARCÓN","codigoInvente":null},{"id":1104730,"mrr":false,"numeroConvocatoria":"903169","descripcion":"BASES DE AYUDAS EXTRAORDINARIAS DE APOYO SOCIAL PARA CONTINGENCIAS 2026","descripcionLeng":null,"fechaRecepcion":"2026-05-04","nivel1":"LOCAL","nivel2":"CASTUERA","nivel3":"AYUNTAMIENTO DE CASTUERA","codigoInvente":null},{"id":1104729,"mrr":false,"numeroConvocatoria":"903168","descripcion":"Convocatoria de ajudas individuales de comedor, curso 2026-2027.","descripcionLeng":"Convocatòria d'ajuts individuals de menjador, curs 2026-2027.","fechaRecepcion":"2026-05-04","nivel1":"AUTONOMICA","nivel2":"CATALUÑA","nivel3":"CONSORCI D'EDUCACIÓ DE BARCELONA","codigoInvente":"INV00001350"},{"id":1104728,"mrr":false,"numeroConvocatoria":"903167","descripcion":"CONVOCATORIA 2026 DE AYUDAS PARA EL CAMPAMENTO DE VERANO EN EL CAMPUS DE RABANALES DE LA UNIVERSIDAD DE CÓRDOBA","descripcionLeng":null,"fechaRecepcion":"2026-05-04","nivel1":"OTROS","nivel2":"UNIVERSIDAD DE CÓRDOBA","nivel3":null,"codigoInvente":"INV00005335"},{"id":1104723,"mrr":false,"numeroConvocatoria":"903162","descripcion":"DGBCE/26 PREMIOS EXTRAORDINARIOS EDUCACION PRIMARIA 2025-2026","descripcionLeng":null,"fechaRecepcion":"2026-05-04","nivel1":"AUTONOMICA","nivel2":"COMUNIDAD DE MADRID","nivel3":"CONSEJERÍA DE EDUCACIÓN, CIENCIA Y UNIVERSIDADES","codigoInvente":null},{"id":1104721,"mrr":false,"numeroConvocatoria":"903160","descripcion":"Expediente 2704047X: CONVOCATORIA SUBVENCIÓN BECAS DE LIBROS E.I. - 2026\n","descripcionLeng":"Expediente 2704047X: CONVOCATORIA SUBVENCIÓN BECAS DE LIBROS E.I. - 2026\n","fechaRecepcion":"2026-05-04","nivel1":"LOCAL","nivel2":"PICASSENT","nivel3":"AYUNTAMIENTO DE PICASSENT","codigoInvente":null},{"id":1104720,"mrr":false,"numeroConvocatoria":"903159","descripcion":"CONVOCATORIA DE SUBVENCIONES 2026-2027 PROY. DG. EDUCACION ,JUVENTUD Y VOLUNTARIADO EN MATERIA DE JUVENTUD","descripcionLeng":null,"fechaRecepcion":"2026-05-04","nivel1":"LOCAL","nivel2":"MADRID","nivel3":"ÁREA DE GOBIERNO DE POLÍTICAS SOCIALES, FAMILIA E IGUALDAD","codigoInvente":null},{"id":1104719,"mrr":false,"numeroConvocatoria":"903158","descripcion":"DGBCE/26 PREMIOS EXTRAORDINARIOS DE BACHILLERATO 2025-2026","descripcionLeng":null,"fechaRecepcion":"2026-05-04","nivel1":"AUTONOMICA","nivel2":"COMUNIDAD DE MADRID","nivel3":"CONSEJERÍA DE EDUCACIÓN, CIENCIA Y UNIVERSIDADES","codigoInvente":null},{"id":1104718,"mrr":false,"numeroConvocatoria":"903157","descripcion":"Acuerdo de la Junta de Gobierno Local, en sesión celebrada el día 21 de abril de 2026, por el que se aprueba la convocatoria del XXVIII Premio de pintura “Pastor Calpena”.","descripcionLeng":null,"fechaRecepcion":"2026-05-04","nivel1":"LOCAL","nivel2":"ASPE","nivel3":"AYUNTAMIENTO DE ASPE","codigoInvente":null},{"id":1104716,"mrr":false,"numeroConvocatoria":"903155","descripcion":"BASES DE LA CONVOCATORIA MUNICIPAL PARA LA CONCESION DE LAS PRESTACIONES ECONOMICAS INDIVIDUALIZADAS (PEIS) DE AYUNTAMIENTO DE ALQUERIAS DEL NIÑO PERDIDO","descripcionLeng":null,"fechaRecepcion":"2026-05-04","nivel1":"LOCAL","nivel2":"ALQUERIES, LES/ALQUERÍAS DEL NIÑO PERDIDO","nivel3":"AYUNTAMIENTO DE ALQUERIES, LES/ALQUERÍAS DEL NIÑO PERDIDO","codigoInvente":null},{"id":1104714,"mrr":false,"numeroConvocatoria":"903153","descripcion":"Resolución de 30 de abril de 2026 de la Presidencia del Centro para el Desarrollo Tecnológico y la Innovación E.P.E. (CDTI), por la que se aprueba la convocatoria para el año 2026 de ayudas destinadas a proyectos de I+D Misiones Ciencia e Innovación.","descripcionLeng":null,"fechaRecepcion":"2026-05-04","nivel1":"ESTADO","nivel2":"MINISTERIO DE CIENCIA, INNOVACIÓN Y UNIVERSIDADES","nivel3":"CENTRO PARA EL DESARROLLO TECNOLÓGICO Y LA INNOVACIÓN E.P.E","codigoInvente":"INV00001172"},{"id":1104712,"mrr":false,"numeroConvocatoria":"903151","descripcion":"Subvención para la formación a lo largo del 2026 de monitores/as que participan en asociaciones y clubes deportivos de Etxebarri","descripcionLeng":"Etxebarriko kirol elkarte eta klubetan parte hartzen duten monitoreek 2026 urtean zehar jasotako prestakuntzarako diru laguntza\n","fechaRecepcion":"2026-05-04","nivel1":"LOCAL","nivel2":"ETXEBARRI","nivel3":"AYUNTAMIENTO DE ETXEBARRI","codigoInvente":null},{"id":1104709,"mrr":false,"numeroConvocatoria":"903148","descripcion":"Ayudas para promover la participación del estudiantado en concursos, ferias y competiciones de interés institucional para la Universitat Jaume I para el curso 2025/2026.","descripcionLeng":"Ajudes per promoure la participació de l’estudiantat en concursos, fires i competicions d’interès institucional per a la Universitat Jaume I per al curs 2025/2026.","fechaRecepcion":"2026-05-04","nivel1":"OTROS","nivel2":"UNIVERSIDAD JAUME I DE CASTELLÓN","nivel3":null,"codigoInvente":"INV00005381"},{"id":1104707,"mrr":false,"numeroConvocatoria":"903146","descripcion":"CONVOCATORIA DE AYUDAS PARA EL AÑO 2026 DE LA LÍNEA SUBVENCIONADORA L-6.2 \"SUBVENCIONES DESTINADAS A PROYECTOS DE PEQUEÑA ESCALA Y DIMENSIÓN PARA EL FOMENTO DEL BIENESTAR SOCIAL DE\nFORMA PLURISECTORIAL EN LA CIUDAD DE LLEIDA\"\nPARTICIPA","descripcionLeng":"CONVOCATÒRIA D’AJUTS PER A L’ANY 2026 DE LA LÍNIA SUBVENCIONADORA L-6.2 “SUBVENCIONS DESTINADES A PROJECTES DE PETITA ESCALA I DIMENSIÓ PER AL FOMENT DEL BENESTAR SOCIAL DE FORMA PLURISECTORIAL A LA CIUTAT DE LLEIDA” ","fechaRecepcion":"2026-05-04","nivel1":"LOCAL","nivel2":"LLEIDA","nivel3":"AYUNTAMIENTO DE LLEIDA","codigoInvente":null},{"id":1104701,"mrr":false,"numeroConvocatoria":"903140","descripcion":"Bases reguladoras de la convocatoria de subvenciones 2026","descripcionLeng":"Bases reguladoras da convocatoria de subvencións 2026","fechaRecepcion":"2026-05-04","nivel1":"LOCAL","nivel2":"DUMBRÍA","nivel3":"AYUNTAMIENTO DE DUMBRÍA","codigoInvente":null},{"id":1104699,"mrr":false,"numeroConvocatoria":"903138","descripcion":"Orden de la Consejería de Empresa, Empleo y Economía Social por la que se convocan subvenciones destinadas a personas trabajadoras autónomas para la incapacidad temporal del autónomo en la Región de Murcia en el ejercicio 2026","descripcionLeng":null,"fechaRecepcion":"2026-05-04","nivel1":"AUTONOMICA","nivel2":"REGIÓN DE MURCIA","nivel3":"CONSEJERÍA DE EMPRESA, EMPLEO Y ECONOMÍA SOCIAL","codigoInvente":null},{"id":1104698,"mrr":false,"numeroConvocatoria":"903137","descripcion":"PLAN DE SUBVENCIONES DE EDUCACION PARA LA CIUDADANIA GLOBAL. EPCG .","descripcionLeng":null,"fechaRecepcion":"2026-05-04","nivel1":"LOCAL","nivel2":"CÁCERES","nivel3":"INSTITUTO MUNICIPAL DE ASUNTOS SOCIALES","codigoInvente":null},{"id":1104693,"mrr":false,"numeroConvocatoria":"903132","descripcion":"Convocatoria Delegac.  Rector  Respons. Soc. Universit.\nayudas programa  apoyo financiero  cooperación universitaria\ninternacional-Fondo de cooperación al desarrollo, modalidad  proyectos de\nCooperación técnica universitaria al desarrollo  terreno 2026","descripcionLeng":null,"fechaRecepcion":"2026-05-04","nivel1":"OTROS","nivel2":"UNIVERSIDAD DE VALLADOLID","nivel3":null,"codigoInvente":"INV00005351"},{"id":1104692,"mrr":false,"numeroConvocatoria":"903131","descripcion":"PROGRAMA DE AYUDAS DESTINADAS AL DESARROLLO Y AL FOMENTO DE LAS ACTIVIDADES DEPORTIVAS EN LA CIUDAD DE NAVALMORAL DE LA MATA DURANTE EL AÑO 2026","descripcionLeng":null,"fechaRecepcion":"2026-05-04","nivel1":"LOCAL","nivel2":"NAVALMORAL DE LA MATA","nivel3":"AYUNTAMIENTO DE NAVALMORAL DE LA MATA","codigoInvente":null},{"id":1104691,"mrr":false,"numeroConvocatoria":"903130","descripcion":"Beca d 'iniciació a la investigació (Projecte «STEREOLITHOGRAPHY 3D PRINTED DENTURE BASE PHOTOPOLYMERS FUNCTIONALIZED WITH LASER GENERATED ANTIMICROBIAL NANOPARTICLES» – Codi 24I476 – Dirigit per: Carlos Doñate Buendía, Institut Universitar","descripcionLeng":"Beca d 'iniciació a la investigació (Projecte «STEREOLITHOGRAPHY 3D PRINTED DENTURE BASE PHOTOPOLYMERS FUNCTIONALIZED WITH LASER GENERATED ANTIMICROBIAL NANOPARTICLES» – Codi 24I476 – Dirigit per: Carlos Doñate Buendía, Institut Universitar","fechaRecepcion":"2026-05-04","nivel1":"OTROS","nivel2":"UNIVERSIDAD JAUME I DE CASTELLÓN","nivel3":null,"codigoInvente":"INV00005381"},{"id":1104690,"mrr":false,"numeroConvocatoria":"903129","descripcion":"CONVOCATÒRIA DE AYUDAS PARA EL AÑO 2026 DE LA LINEA SUBVENCIONADORAL-6.1 \"SUBVENCIONES DESTINADAS A PROYECTOS PARA EL FOMENTO DE LA PARTICIPACIÓN COMUNITARIA Y EL VOLUNTARIADO EN LOS BARRIOS DE LA CIUDAD\"","descripcionLeng":"CONVOCATÒRIA D’AJUTS PER A L’ANY 2026 DE LA LÍNIA SUBVENCIONADORA L-6.1 “SUBVENCIONS DESTINADES A PROJECTES PER AL FOMENT DE LA PARTICIPACIÓ COMUNITÀRIA I EL VOLUNTARIAT ALS BARRIS DE LA CIUTAT”","fechaRecepcion":"2026-05-04","nivel1":"LOCAL","nivel2":"LLEIDA","nivel3":"AYUNTAMIENTO DE LLEIDA","codigoInvente":null},{"id":1104689,"mrr":false,"numeroConvocatoria":"903128","descripcion":"CONVOCATORIA DE SUBVENCIONES EN MATERIA DE JUVENTUD PARA AYUNTAMIENTOS DE LA COMARCA COMUNIDAD DE TERUEL DURANTE EL\nEJERCICIO 2026.","descripcionLeng":null,"fechaRecepcion":"2026-05-04","nivel1":"LOCAL","nivel2":"COMARCA COMUNIDAD DE TERUEL","nivel3":"COMARCA DE COMUNIDAD DE TERUEL","codigoInvente":null},{"id":1104688,"mrr":false,"numeroConvocatoria":"903127","descripcion":"AYUDAS A EMPRESAS SECT AGRI,GANAD,FOREST E INDUS DESARR PROY INV 2026","descripcionLeng":null,"fechaRecepcion":"2026-05-04","nivel1":"AUTONOMICA","nivel2":"COMUNIDAD DE MADRID","nivel3":"INSTITUTO MADRILEÑO DE INVESTIGACIÓN Y DESARROLLO RURAL, AGRARIO Y ALIMENTARIO (IMIDRA)","codigoInvente":null},{"id":1104680,"mrr":false,"numeroConvocatoria":"903119","descripcion":"Subvención destinada a los/as deportistas en proyección durante el año 2026 en el municipio de Etxebarri","descripcionLeng":"Etxebarriko udalerrian 2026 urtean zehar proiekzioan dauden kirolarien sustapenerako udal dirulaguntza\n","fechaRecepcion":"2026-05-04","nivel1":"LOCAL","nivel2":"ETXEBARRI","nivel3":"AYUNTAMIENTO DE ETXEBARRI","codigoInvente":null},{"id":1104676,"mrr":false,"numeroConvocatoria":"903115","descripcion":"DECRETO FORAL 46/2026 de 30 de abril de la Diputación Foral de Bizkaia que regula la convocatoria de subvenciones forales destinadas a entidades locales de Bizkaia para la realización de inversiones en instalaciones deportivas en 2026/2028.","descripcionLeng":"Bizkaiko Foru Aldundiaren 46/2026 FORU DEKRETUA, apirilalaren 30ekoa, 2026/2028an kirol instalazioetan inbertsioak egiteko Bizkaiko toki erakundeei emango zaizkien foru dirulaguntzen deialdia arautzen duena.","fechaRecepcion":"2026-05-04","nivel1":"LOCAL","nivel2":"DIPUTACIÓN FORAL DE BIZKAIA","nivel3":"DIPUTACIÓN FORAL DE BIZKAIA","codigoInvente":null},{"id":1104675,"mrr":false,"numeroConvocatoria":"903114","descripcion":"Ayudas a Ayuntamientos, SSB o Mancomunidades de Servicios Sociales para contratación de promotor/a escolar o mediador/a sociocultural que intervenga en los proyectos de inclusión socioeducativa que se desarrollen en centros públicos. Curso 2026/2027","descripcionLeng":null,"fechaRecepcion":"2026-05-04","nivel1":"AUTONOMICA","nivel2":"COMUNIDAD FORAL DE NAVARRA","nivel3":"DEPARTAMENTO DE EDUCACION","codigoInvente":null},{"id":1104674,"mrr":false,"numeroConvocatoria":"903113","descripcion":"PCEM PARA AYUDAS EXTRAORDINARIAS DE APOYO SOCIAL PARA CONTINGENCIAS DEL AYUNTAMIENTO DE DON BENITO PARA 2026","descripcionLeng":null,"fechaRecepcion":"2026-05-04","nivel1":"LOCAL","nivel2":"DON BENITO","nivel3":"AYUNTAMIENTO DE DON BENITO","codigoInvente":null},{"id":1104672,"mrr":false,"numeroConvocatoria":"903111","descripcion":"BASES REGULADORAS ESPECÍFICAS Y CONVOCATORIA DE SUBVENCIONES DEL SERVICIO DE DEPORTES DEL ÁREA DE CULTURA Y CIUDADANÍA DESTINADAS A DEPORTISTAS CON CONDICIÓN DE RENDIMIENTO, EN PRUEBAS DEPORTIVAS OLÍMPICAS Y PARALÍMPICAS (2026)","descripcionLeng":null,"fechaRecepcion":"2026-05-04","nivel1":"LOCAL","nivel2":"DIPUTACIÓN PROV. DE SEVILLA","nivel3":"DIPUTACIÓN PROVINCIAL DE SEVILLA","codigoInvente":null},{"id":1104670,"mrr":false,"numeroConvocatoria":"903109","descripcion":"Acuerdo de la Junta de Gobierno Local de fecha 21 de abril de 2026, por el que se aprueba la convocatoria del VIII certamen de pintura rápida.","descripcionLeng":null,"fechaRecepcion":"2026-05-04","nivel1":"LOCAL","nivel2":"ASPE","nivel3":"AYUNTAMIENTO DE ASPE","codigoInvente":null},{"id":1104669,"mrr":false,"numeroConvocatoria":"903108","descripcion":"CONVOCATORIA DE INCENTIVOS A AUTÓNOMOS, EMPRESAS Y ENTIDADES QUE REALICEN PLANES DE FORMACIÓN E INSERCIÓN LABORAL QUE LLEVEN APAREJADA CONTRATACIÓN DE PERSONAS EN SITUACIÓN DE DESEMPLEO 2026 -FORMA Y CONTRATA 2026-.","descripcionLeng":null,"fechaRecepcion":"2026-05-04","nivel1":"LOCAL","nivel2":"CÓRDOBA","nivel3":"INSTITUTO MUNICIPAL DE DESARROLLO ECONÓMICO Y EMPLEO DE CÓRDOBA (IMDEEC)","codigoInvente":null},{"id":1104666,"mrr":false,"numeroConvocatoria":"903105","descripcion":"Acuerdo de la JGL de 30-4-2026 por la que se aprueban las bases de la convocatoria para la concesión de subvenciones al fomento de proyectos de educación para el desarrollo, ciudadanía global y sensibilización, que realicen las ONGD, ejercicio 2026","descripcionLeng":"Acord de la JGL de 30-4-2026 per la qual s'aproven les bases de la convocatòria per a la concessió de subvencions al foment de projectes d'educació per al desenvolupament, ciutadania global i sensibilització, que realitzen les ONGD, exercici 2026","fechaRecepcion":"2026-05-04","nivel1":"LOCAL","nivel2":"CASTELLÓN DE LA PLANA/CASTELLÓ DE LA PLANA","nivel3":"AYUNTAMIENTO DE CASTELLÓN DE LA PLANA/CASTELLÓ DE LA PLANA","codigoInvente":null},{"id":1104665,"mrr":false,"numeroConvocatoria":"903104","descripcion":"Resolución de 29 de abril de 2026 por la que se convocan subvenciones a entidades de cualquier titularidad, sin ánimo de lucro, con destino a financiación de programas supracomunitarios de prevención y control de VIH y otras ITS para los años 2027 y 2028","descripcionLeng":null,"fechaRecepcion":"2026-05-04","nivel1":"ESTADO","nivel2":"MINISTERIO DE SANIDAD","nivel3":"DIRECCIÓN GENERAL DE SALUD PÚBLICA Y EQUIDAD EN SALUD","codigoInvente":null},{"id":1104661,"mrr":false,"numeroConvocatoria":"903100","descripcion":" Subvención a entidades locales del Pirineo para financiar acciones vinculadas al Plan del Pirineo ","descripcionLeng":null,"fechaRecepcion":"2026-05-04","nivel1":"AUTONOMICA","nivel2":"COMUNIDAD FORAL DE NAVARRA","nivel3":"DEPARTAMENTO DE COHESIÓN TERRITORIAL","codigoInvente":null},{"id":1104658,"mrr":false,"numeroConvocatoria":"903097","descripcion":"VIII Certamen Nacional de Filosofia - Universitat de València 2026","descripcionLeng":"VIII Certamen Nacional de Filosofia - Universitat de València 2026","fechaRecepcion":"2026-05-04","nivel1":"OTROS","nivel2":"UNIVERSITAT DE VALÈNCIA (ESTUDI GENERAL)","nivel3":null,"codigoInvente":"INV00005380"},{"id":1104656,"mrr":false,"numeroConvocatoria":"903095","descripcion":"CONVOCATORIA DE SUBVENCIONES DESTINADAS A LA EDICIÓN Y PUBLICACIÓN DE OBRAS SELECCIONADAS POR EL INSTITUTO DE ESTUDIOS ALMERIENSES, PARA EL EJERCICIO 2026 DECRETO 452 DE 4 DE MAYO","descripcionLeng":null,"fechaRecepcion":"2026-05-04","nivel1":"LOCAL","nivel2":"DIPUTACIÓN PROV. DE ALMERÍA","nivel3":"DIPUTACIÓN PROVINCIAL DE ALMERÍA","codigoInvente":null},{"id":1104655,"mrr":false,"numeroConvocatoria":"903094","descripcion":"CONVOCATORIA DE SUBVENCIONES DE LA LÍNEA 10.6 DESTINADAS AL IMPULSO DE COOPERATIVAS DE TRABAJO INTEGRADAS POR PERSONAS JÓVENES","descripcionLeng":"CONVOCATÒRIA DE SUBVENCIONS DE LA LÍNIA 10.6 DESTINADES A L’IMPULS DE COOPERATIVES DE TREBALL INTEGRADES PER PERSONES JOVES","fechaRecepcion":"2026-05-04","nivel1":"LOCAL","nivel2":"LLEIDA","nivel3":"AYUNTAMIENTO DE LLEIDA","codigoInvente":null},{"id":1104652,"mrr":false,"numeroConvocatoria":"903091","descripcion":"Subvenciones para organización de eventos deportivos extraordinarios en el territorio de Castilla y León para el año 2026. Minimis general. Reg.(UE) 2023/2831. Orden de 30 de abril de 2026 de la Consejería de Cultura, Turismo y Deporte.","descripcionLeng":null,"fechaRecepcion":"2026-05-04","nivel1":"AUTONOMICA","nivel2":"CASTILLA Y LEÓN","nivel3":"CONSEJERÍA DE CULTURA, TURISMO Y DEPORTE","codigoInvente":null},{"id":1104650,"mrr":false,"numeroConvocatoria":"903089","descripcion":"SUBV. LUCHA PROCESIONARIA DEL PINO","descripcionLeng":null,"fechaRecepcion":"2026-05-04","nivel1":"LOCAL","nivel2":"DIPUTACIÓN PROV. DE LEÓN","nivel3":"DIPUTACIÓN PROVINCIAL DE LEÓN","codigoInvente":null},{"id":1104648,"mrr":false,"numeroConvocatoria":"903087","descripcion":"DEPORTE FEDERADO 2026","descripcionLeng":null,"fechaRecepcion":"2026-05-04","nivel1":"LOCAL","nivel2":"DIPUTACIÓN PROV. DE LEÓN","nivel3":"DIPUTACIÓN PROVINCIAL DE LEÓN","codigoInvente":null},{"id":1104647,"mrr":false,"numeroConvocatoria":"903086","descripcion":"Subvenciones para organización de eventos deportivos extraordinarios en el territorio de Castilla y León para el año 2026. Personas sin actividad económica. Orden de 30 de abril de 2026 de la Consejería de Cultura, Turismo y Deporte.","descripcionLeng":null,"fechaRecepcion":"2026-05-04","nivel1":"AUTONOMICA","nivel2":"CASTILLA Y LEÓN","nivel3":"CONSEJERÍA DE CULTURA, TURISMO Y DEPORTE","codigoInvente":null},{"id":1104641,"mrr":false,"numeroConvocatoria":"903080","descripcion":"CONVOCATORIA DE SUBVENCIONES DE LA LÍNEA 10.5 SUBVENCIONES DESTINADAS A PROYECTOS DIRIGIDOS A CONSOLIDAR EL TEJIDO ASOCIATIVO JUVENIL","descripcionLeng":"CONVOCATÒRIA DE SUBVENCIONS DE LA LÍNIA 10.5- SUBVENCIONS DESTINADES A PROJECTES ADREÇATS A CONSOLIDAR EL TEIXIT ASSOCIATIU JUVENIL","fechaRecepcion":"2026-05-04","nivel1":"LOCAL","nivel2":"LLEIDA","nivel3":"AYUNTAMIENTO DE LLEIDA","codigoInvente":null},{"id":1104638,"mrr":false,"numeroConvocatoria":"903077","descripcion":"Orden de 30 de abril de 2026, de la Consejería de Cultura, Turismo y Deporte, por la que se convocan los Premios de Estudio e Investigación sobre Tauromaquia 2026.","descripcionLeng":null,"fechaRecepcion":"2026-05-04","nivel1":"AUTONOMICA","nivel2":"CASTILLA Y LEÓN","nivel3":"CONSEJERÍA DE CULTURA, TURISMO Y DEPORTE","codigoInvente":null}],"pageable":{"sort":{"sorted":true,"unsorted":false,"empty":false},"pageNumber":32,"pageSize":50,"offset":1600,"paged":true,"unpaged":false},"last":false,"totalElements":10000,"totalPages":200,"sort":{"sorted":true,"unsorted":false,"empty":false},"first":false,"numberOfElements":50,"size":50,"number":32,"empty":false,"advertencia":"La reutilización de los datos del Sistema Nacional de Publicidad de Subvenciones y Ayudas Públicas está sujeta a una serie de restricciones y consideraciones legales. Consulte el aviso legal en https://www.infosubvenciones.es/bdnstrans/GE/es/avisolegal.Además, el usuario debe ser consciente que la información presentada es de naturaleza dinámica, y que los datos pueden ser sometidos a correcciones, inserciones, modificaciones y eliminaciones en momentos posteriores a su extracción. Accesos al API del sistema Nacional de Publicidad de Subvenciones y Ayudas Públicas. La Administración Presupuestaria, para salvaguardar la protección del acceso libre e irrestricto de los ciudadanos a este Portal y a su información podrá adoptar medidas restrictivas de acceso al API ante situaciones de manifiesto abuso del servicio, riesgos de seguridad, o uso fraudulento de la información descargada, de acuerdo con las buenas prácticas de gestión de datos abiertos (https://datos.gob.es/es/blog/limitaciones-la-consulta-de-una-api) establecidas por el Ministerio para la Transformación Digital y de la Función Pública."}