{"content":[{"id":1103314,"mrr":false,"numeroConvocatoria":"901753","descripcion":"Convocatoria de Becas para jóvenes con Titulación 2026.","descripcionLeng":null,"fechaRecepcion":"2026-04-27","nivel1":"LOCAL","nivel2":"ALBACETE","nivel3":"AYUNTAMIENTO DE ALBACETE","codigoInvente":null},{"id":1103307,"mrr":false,"numeroConvocatoria":"901746","descripcion":"CONVOCATORIA DEL EXCMO AYUNTAMIENTO DE LA VALL D'UIXÓ, QUE REGIRÁ EL PROCESO DE CONCESIÓN DE SUBVENCIONES A LAS ASOCIACIONES Y ENTIDADES DE COMERCIANTES DE LA LOCALIDAD, PARA LA DINAMIZACIÓN Y PROMOCIÓN DEL COMERCIO, DURANTE EL EJERCICIO 2026.","descripcionLeng":null,"fechaRecepcion":"2026-04-27","nivel1":"LOCAL","nivel2":"VALL D'UIXÓ, LA","nivel3":"AYUNTAMIENTO DE VALL D'UIXÓ, LA","codigoInvente":null},{"id":1103302,"mrr":false,"numeroConvocatoria":"901741","descripcion":"AYUDAS PARA EL DUODÉCIMO PROGRAMA DE RESIDENCIAS DE CREACIÓN E INVESTIGACIÓN ARTÍSTICA DEL MUSEO DE LA UNIVERSIDAD DE ALICANTE 2026","descripcionLeng":null,"fechaRecepcion":"2026-04-27","nivel1":"OTROS","nivel2":"UNIVERSIDAD DE ALICANTE","nivel3":null,"codigoInvente":"INV00005329"},{"id":1103275,"mrr":false,"numeroConvocatoria":"901714","descripcion":"AYUNTAMIENTO DE GUADALAJARA - CONVOCATORIA DE SUBVENCIONES A ASOCIACIONES CULTURALES SIN ÁNIMO DE LUCRO","descripcionLeng":null,"fechaRecepcion":"2026-04-27","nivel1":"LOCAL","nivel2":"GUADALAJARA","nivel3":"AYUNTAMIENTO DE GUADALAJARA","codigoInvente":null},{"id":1103272,"mrr":false,"numeroConvocatoria":"901711","descripcion":"Decreto Presidencial nº 1919 de 20/04/2026, por el que se aprueba la convocatoria de ayudas a EELL territoriales de la prov. de AB y sus entes dependientes, para el desarrollo de proyectos de educ. popular y promoción socio-cultural (UUPP), durante 2026","descripcionLeng":null,"fechaRecepcion":"2026-04-27","nivel1":"LOCAL","nivel2":"DIPUTACIÓN PROV. DE ALBACETE","nivel3":"DIPUTACIÓN PROVINCIAL DE ALBACETE","codigoInvente":null},{"id":1103271,"mrr":false,"numeroConvocatoria":"901710","descripcion":"CONVOCATORIA AYUDAS ELX EMPLEA 2026.","descripcionLeng":"CONVOCATÒRIA AJUDES ELX EMPLEA 2026.","fechaRecepcion":"2026-04-27","nivel1":"LOCAL","nivel2":"ELCHE/ELX","nivel3":"AYUNTAMIENTO DE ELCHE/ELX","codigoInvente":null},{"id":1103266,"mrr":false,"numeroConvocatoria":"901705","descripcion":"Decreto de Alcaldía nº 879 de 22 de abril de 2026, por el que se convocan las subvenciones del Ayuntamiento de Sabiñánigo en régimen de concurrencia pública para el fomento de la actividad, año 2026.","descripcionLeng":null,"fechaRecepcion":"2026-04-27","nivel1":"LOCAL","nivel2":"SABIÑÁNIGO","nivel3":"AYUNTAMIENTO DE SABIÑÁNIGO","codigoInvente":null},{"id":1103263,"mrr":false,"numeroConvocatoria":"901702","descripcion":"Bases reguladoras y convocatoria para la concesión de subvenciones empresa - sector mercado municipal La Sínia para el año 2026.","descripcionLeng":"Bases reguladores i la convocatòria per la concessió de subvencions Empresa – sector Mercat municipal La Sínia per l'any 2026\n","fechaRecepcion":"2026-04-27","nivel1":"LOCAL","nivel2":"SANT PERE DE RIBES","nivel3":"AYUNTAMIENTO DE SANT PERE DE RIBES","codigoInvente":null},{"id":1103258,"mrr":false,"numeroConvocatoria":"901697","descripcion":"Convocatoria de becas en el marco del Programa de Becas China Three Gorges, para realizar estudios de Máster en universidades chinas, durante los cursos 2026/2027 y 2027/2028.","descripcionLeng":null,"fechaRecepcion":"2026-04-27","nivel1":"OTROS","nivel2":"UNIVERSIDAD DE SALAMANCA","nivel3":null,"codigoInvente":"INV00005348"},{"id":1103256,"mrr":false,"numeroConvocatoria":"901695","descripcion":"L0170. Resolución por la que se abre la convocatoria 2026 para la concesión de subvenciones en régimen de concurrencia competitiva a la movilidad para llevar a cabo actividades en el ámbito de las artes visuales, el diseño y la arquitectura","descripcionLeng":"L0170. Resolució per la qual s’obre la convocatòria 2026 per a la concessió de subvencions en règim de concurrència competitiva a la mobilitat per a dur a terme activitats en l'àmbit de les arts visuals, el disseny i l'arquitectura","fechaRecepcion":"2026-04-27","nivel1":"AUTONOMICA","nivel2":"CATALUÑA","nivel3":"INSTITUT RAMON LLULL","codigoInvente":null},{"id":1103253,"mrr":false,"numeroConvocatoria":"901692","descripcion":"Convocatoria de una ayuda a la producción de obra inédita en el marco de las VI Jornadas de Teatro Barroco `Bances Candamo`","descripcionLeng":null,"fechaRecepcion":"2026-04-27","nivel1":"LOCAL","nivel2":"AVILÉS","nivel3":"AYUNTAMIENTO DE AVILÉS","codigoInvente":null},{"id":1103246,"mrr":false,"numeroConvocatoria":"901685","descripcion":"Resolución de la Secretaría de Estado de Energía por la que se aprueba la convocatoria para la concesión de ayudas públicas en 2026 del Programa Nacional de Exploración Minera 2026-2030","descripcionLeng":null,"fechaRecepcion":"2026-04-27","nivel1":"ESTADO","nivel2":"MINISTERIO PARA LA TRANSICIÓN ECOLÓGICA Y EL RETO DEMOGRÁFICO","nivel3":"DIRECCIÓN GENERAL DE POLÍTICA ENERGÉTICA Y MINAS","codigoInvente":null},{"id":1103238,"mrr":false,"numeroConvocatoria":"901677","descripcion":"CONVOCATORIA 2026- SUBVENCIONES, EN CONCURRENCIA COMPETITIVA, FINANCIADAS INTEGRAMENTE POR LA EXCMA. DIPUTACIÓN DE BURGOS, PARA LA CONCESIÓN DE AYUDAS A ESTABLECIMIENTOS DE HOSTELERÍA Y COMERCIOS MINORISTAS, MAXIMO DOS ESTABLECIMIENTOS EN CADA SECTOR","descripcionLeng":null,"fechaRecepcion":"2026-04-27","nivel1":"LOCAL","nivel2":"DIPUTACIÓN PROV. DE BURGOS","nivel3":"DIPUTACIÓN PROVINCIAL DE BURGOS","codigoInvente":null},{"id":1103235,"mrr":false,"numeroConvocatoria":"901674","descripcion":"” Resolución de la Vicerrectora de Investigación de la Universidad de Oviedo para la contratación de personal investigador y técnico de apoyo, según artículo 23.bis de la Ley 14/2011 de la Ciencia, la Tecnología y la Innovación ( Marzo - 2026)","descripcionLeng":null,"fechaRecepcion":"2026-04-27","nivel1":"OTROS","nivel2":"UNIVERSIDAD DE OVIEDO","nivel3":null,"codigoInvente":"INV00005347"},{"id":1103230,"mrr":false,"numeroConvocatoria":"901669","descripcion":"Decreto 1917 de 20/04/2026 de aprobación de la convocatoria específica de ayudas a entes locales territoriales de la provincia de Albacete, para sostenimiento de escuelas infantiles municipales durante el curso 2025-26","descripcionLeng":null,"fechaRecepcion":"2026-04-27","nivel1":"LOCAL","nivel2":"DIPUTACIÓN PROV. DE ALBACETE","nivel3":"DIPUTACIÓN PROVINCIAL DE ALBACETE","codigoInvente":null},{"id":1103228,"mrr":false,"numeroConvocatoria":"901667","descripcion":"Convocatoria de subvenciones para la realización de actividades deportivas durante la temporada 2025/2026","descripcionLeng":null,"fechaRecepcion":"2026-04-27","nivel1":"LOCAL","nivel2":"SEGOVIA","nivel3":"INSTITUTO MUNICIPAL DE DEPORTES DEL AYUNTAMIENTO DE SEGOVIA","codigoInvente":"INV00003557"},{"id":1103221,"mrr":false,"numeroConvocatoria":"901660","descripcion":"CONVOCATORIA PÚBLICA DE SUBVENCIONES 2026 PARA INCENTIVAR EL EMPRENDIMIENTO EN LOS MERCADOS , LA INSTALACIÓN DE DETERMINADAS ACTIVIDADES DE INTERÉS PÚBLICO EN LOS MISMOS Y LA MODERNIZACIÓN O SUSTITUCIÓN DE LOS QUIOSCOS DE PRENSA","descripcionLeng":null,"fechaRecepcion":"2026-04-27","nivel1":"LOCAL","nivel2":"MADRID","nivel3":"ÁREA DE GOBIERNO DE ECONOMÍA, INNOVACIÓN Y HACIENDA","codigoInvente":null},{"id":1103220,"mrr":false,"numeroConvocatoria":"901659","descripcion":"CONVOCATORIA PÚBLICA DE SUBVENCIONES 2026 PARA INCENTIVAR EL EMPRENDIMIENTO EN LOS MERCADOS , LA INSTALACIÓN DE DETERMINADAS ACTIVIDADES DE INTERÉS PÚBLICO EN LOS MISMOS Y LA MODERNIZACIÓN O SUSTITUCIÓN DE LOS QUIOSCOS DE PRENSA","descripcionLeng":null,"fechaRecepcion":"2026-04-27","nivel1":"LOCAL","nivel2":"MADRID","nivel3":"ÁREA DE GOBIERNO DE ECONOMÍA, INNOVACIÓN Y HACIENDA","codigoInvente":null},{"id":1103219,"mrr":false,"numeroConvocatoria":"901658","descripcion":"CONVOCATORIA PÚBLICA DE SUBVENCIONES 2026 PARA INCENTIVAR EL EMPRENDIMIENTO EN LOS MERCADOS , LA INSTALACIÓN DE DETERMINADAS ACTIVIDADES DE INTERÉS PÚBLICO EN LOS MISMOS Y LA MODERNIZACIÓN O SUSTITUCIÓN DE LOS QUIOSCOS DE PRENSA","descripcionLeng":null,"fechaRecepcion":"2026-04-27","nivel1":"LOCAL","nivel2":"MADRID","nivel3":"ÁREA DE GOBIERNO DE ECONOMÍA, INNOVACIÓN Y HACIENDA","codigoInvente":null},{"id":1103218,"mrr":false,"numeroConvocatoria":"901657","descripcion":"RESOLUCIÓN DE 24 DE ABRIL DE 2026, DEL CENTRO DE INVESTIGACIONES SOCIOLÓGICAS, POR LA QUE SE CONVOCA EL «PREMIO\nNACIONAL DE SOCIOLOGÍA Y CIENCIA POLÍTICA 2026»","descripcionLeng":null,"fechaRecepcion":"2026-04-27","nivel1":"ESTADO","nivel2":"MINISTERIO DE LA PRESIDENCIA, JUSTICIA Y RELACIONES CON LAS CORTES","nivel3":"CENTRO DE INVESTIGACIONES SOCIOLÓGICAS","codigoInvente":"INV00001126"},{"id":1103217,"mrr":false,"numeroConvocatoria":"901656","descripcion":"Convocatoria de ayudas al fondo de cooperación cultural universitaria 2026","descripcionLeng":"Convocatòria d’ajuts al fons de cooperació cultural universitària 2026","fechaRecepcion":"2026-04-27","nivel1":"LOCAL","nivel2":"CONSEJO INSULAR DE MALLORCA","nivel3":"CONSELL INSULAR DE MALLORCA","codigoInvente":null},{"id":1103215,"mrr":false,"numeroConvocatoria":"901654","descripcion":"Ayudas 2026 destinadas a la producción de largometrajes de la Comunidad Autónoma de Extremadura,  s/ Resolución de fecha 6 de abril de 2026","descripcionLeng":null,"fechaRecepcion":"2026-04-27","nivel1":"AUTONOMICA","nivel2":"EXTREMADURA","nivel3":"SECRETARÍA GENERAL DE CULTURA","codigoInvente":null},{"id":1103214,"mrr":false,"numeroConvocatoria":"901653","descripcion":"Ayudas destinadas a fomentar las capturas de jabalí para contribuir a la prevención y lucha contra las patologías  pueden afectar a las especies ganaderas y a su acondicionamiento para la introducción de la carne en el circuito de comercialización","descripcionLeng":"Ajuts destinats a fomentar les captures de senglar per contribuir a la prevenció i la lluita contra les patologies que poden afectar les espècies ramaderes i el seu condicionament per a la introducció de la carn en el circuit de comercialització","fechaRecepcion":"2026-04-27","nivel1":"AUTONOMICA","nivel2":"CATALUÑA","nivel3":"DEPARTAMENT D'AGRICULTURA, RAMADERIA, PESCA I ALIMENTACIÓ","codigoInvente":null},{"id":1103212,"mrr":false,"numeroConvocatoria":"901651","descripcion":"CONVOCATORIA PARA El OTORGAMIENTO DE LAS AYUDAS INDIVIDUALES DE COMEDOR DIRIGIDOS AL ALUMNADO DE ENSEÑANZA OBLIGATORIA Y DE EDUCACIÓN INFANTIL ESCOLARIZADOS EN CENTROS EDUCATIVOS, SUFRAGADOS CON FONDOS PÚBLICOS, DE LA COMARCA DEL RIPOLLÈS PARA EL CURSO 20","descripcionLeng":"CONVOCATÒRIA PER A L’ATORGAMENT D’AJUTS INDIVIDUALS DE MENJADOR ADREÇATS A L’ALUMNAT D’ENSENYAMENT OBLIGATORI I D'EDUCACIÓ INFANTIL ESCOLARITZATS EN CENTRES EDUCATIUS, SUFRAGATS AMB FONS PÚBLICS, DE LA COMARCA DEL RIPOLLÈS, PER AL CURS ESCOLAR 2026-2027 ","fechaRecepcion":"2026-04-27","nivel1":"LOCAL","nivel2":"CONSELL COMARCAL DE RIPOLLÈS","nivel3":"CONSELL COMARCAL DE RIPOLLÈS","codigoInvente":null},{"id":1103211,"mrr":false,"numeroConvocatoria":"901650","descripcion":"SUBVENCIONES A LOS IES Y CENTROS PUBLICOS INTEGRADOS DE FORMACION PROFESIONAL DE AVILES PARA PROYECTOS INMERSION LINGÜISTICA 2026","descripcionLeng":null,"fechaRecepcion":"2026-04-27","nivel1":"LOCAL","nivel2":"AVILÉS","nivel3":"AYUNTAMIENTO DE AVILÉS","codigoInvente":null},{"id":1103210,"mrr":false,"numeroConvocatoria":"901649","descripcion":"Solicitud Única 2026","descripcionLeng":null,"fechaRecepcion":"2026-04-27","nivel1":"AUTONOMICA","nivel2":"COMUNIDAD FORAL DE NAVARRA","nivel3":"DEPARTAMENTO DE DESARROLLO RURAL Y MEDIO AMBIENTE","codigoInvente":null},{"id":1103209,"mrr":false,"numeroConvocatoria":"901648","descripcion":"Resolución de convocatoria para la concesión, en régimen de concurrencia competitiva, de los Premios Shortcat a los mejores cortometrajes cinematográficos","descripcionLeng":"Resolució de convocatòria per a la concessió, en règim de concurrència competitiva, dels Premis Shortcat als millors curtmetratges cinematogràfics","fechaRecepcion":"2026-04-27","nivel1":"AUTONOMICA","nivel2":"CATALUÑA","nivel3":"INSTITUT CATALÀ DE LES EMPRESES CULTURALS (ICEC)","codigoInvente":"INV00003590"},{"id":1103208,"mrr":false,"numeroConvocatoria":"901647","descripcion":"Convocatoria de los Premios al concurso de ECOESCOLES 2026.","descripcionLeng":"Convocatòria dels Premis al concurs d'ECOESCOLES 2026.","fechaRecepcion":"2026-04-27","nivel1":"LOCAL","nivel2":"ALZIRA","nivel3":"AYUNTAMIENTO DE ALZIRA","codigoInvente":null},{"id":1103207,"mrr":false,"numeroConvocatoria":"901646","descripcion":"SGBA - CONVOCATORIA BECAS BACHILLERATO 2026/2027","descripcionLeng":null,"fechaRecepcion":"2026-04-27","nivel1":"AUTONOMICA","nivel2":"COMUNIDAD DE MADRID","nivel3":"CONSEJERÍA DE EDUCACIÓN, CIENCIA Y UNIVERSIDADES","codigoInvente":null},{"id":1103206,"mrr":false,"numeroConvocatoria":"901645","descripcion":"X - Premio \"Begoña Caamaño\" a la acción cultural por la igualdad de género. (PREM-BC/2026)","descripcionLeng":"X - Premio \"Begoña Caamaño\" á acción cultural pola igualdade de xénero. (PREM-BC/2026)","fechaRecepcion":"2026-04-27","nivel1":"LOCAL","nivel2":"DIPUTACIÓN PROV. DE A CORUÑA","nivel3":"DIPUTACIÓN PROVINCIAL DE CORUÑA, A","codigoInvente":null},{"id":1103203,"mrr":false,"numeroConvocatoria":"901642","descripcion":"Resolución de convocatoria para la concesión de subvenciones, en régimen de concurrencia competitiva, a proyectos de internacionalización de empresas audiovisuales que contribuyan a la comercialización de la producción audiovisual","descripcionLeng":"Resolució de convocatòria per a la concessió de subvencions, en règim de concurrència competitiva, a projectes d'internacionalització d'empreses audiovisuals que contribueixin a la comercialització de la producció audiovisual","fechaRecepcion":"2026-04-27","nivel1":"AUTONOMICA","nivel2":"CATALUÑA","nivel3":"INSTITUT CATALÀ DE LES EMPRESES CULTURALS (ICEC)","codigoInvente":"INV00003590"},{"id":1103201,"mrr":false,"numeroConvocatoria":"901640","descripcion":"Bases reguladoras para la concesión de subvenciones a entidades sin ánimo de lucro de Parada de Sil y convocatoria para 2026","descripcionLeng":"Bases reguladoras para a concesión de subvencións a entidades sen ánimo de lucro de Parada de Sil e convocatoria para 2026","fechaRecepcion":"2026-04-27","nivel1":"LOCAL","nivel2":"PARADA DE SIL","nivel3":"AYUNTAMIENTO DE PARADA DE SIL","codigoInvente":null},{"id":1103199,"mrr":false,"numeroConvocatoria":"901638","descripcion":"Subvención concedita a Càritas Diocesana de Girona para el proyecto del Centro de distribución de Alimentos (CDA) de Figueres 2023","descripcionLeng":"Subvenció concedida a Càritas Diocesana de Girona per al projecte del Centre de Distribució d'Aliments (CDA) de Figueres 2023","fechaRecepcion":"2026-04-27","nivel1":"LOCAL","nivel2":"CONSELL COMARCAL DE ALT EMPORDÀ","nivel3":"CONSELL COMARCAL DE ALT EMPORDÀ","codigoInvente":null},{"id":1103198,"mrr":false,"numeroConvocatoria":"901637","descripcion":"CONVOCATORIA DE SUBVENCIONES A AYUNTAMIENTOS Y ENTIDADES LOCALES MENORES PARA LA GESTIÓN DE COLONIAS FELINAS. 2026","descripcionLeng":null,"fechaRecepcion":"2026-04-27","nivel1":"LOCAL","nivel2":"DIPUTACIÓN PROV. DE SORIA","nivel3":"DIPUTACIÓN PROVINCIAL DE SORIA","codigoInvente":null},{"id":1103197,"mrr":false,"numeroConvocatoria":"901636","descripcion":"Ayudas comedor escolar curso 2025-2026","descripcionLeng":null,"fechaRecepcion":"2026-04-27","nivel1":"LOCAL","nivel2":"ALCOBENDAS","nivel3":"AYUNTAMIENTO DE ALCOBENDAS","codigoInvente":null},{"id":1103186,"mrr":false,"numeroConvocatoria":"901625","descripcion":"DECRETO FORAL 42/2026, de 23 de abril, de la Diputación Foral de Bizkaia, por el que se aprueban las bases reguladoras y la  convocatoria de las subvenciones que se concedan en  el 2026 por el Departamento Foral de Medio Natural  y Agricultura para la re","descripcionLeng":"FORU DEKRETUA 42/2026, apirilaren 23koa, Bizkaiko Foru Aldundiarena, zeinaren bidez onartzen baitira Ingurune Naturala  eta Nekazaritza Sustatzeko Sailak Bizkaiko Lurralde Historikoko udaletako landa-bideak hobetzeko  jarduketak egiteko 2026an emango ditu","fechaRecepcion":"2026-04-27","nivel1":"LOCAL","nivel2":"DIPUTACIÓN FORAL DE BIZKAIA","nivel3":"DIPUTACIÓN FORAL DE BIZKAIA","codigoInvente":null},{"id":1103185,"mrr":false,"numeroConvocatoria":"901624","descripcion":"RESOLUCIÓN DE LA PRESIDENCIA DEL CONSEJO SUPERIOR DE DEPORTES, POR LA QUE SE CONVOCAN BECAS PARA DEPORTISTAS EN EL CENTRO DE ALTO RENDIMIENTO DE MADRID, DURANTE LA TEMPORADA 2026/2027.","descripcionLeng":null,"fechaRecepcion":"2026-04-27","nivel1":"ESTADO","nivel2":"MINISTERIO DE EDUCACIÓN, FORMACIÓN PROFESIONAL Y DEPORTES","nivel3":"CONSEJO SUPERIOR DE DEPORTES","codigoInvente":"INV00001300"},{"id":1103183,"mrr":false,"numeroConvocatoria":"901622","descripcion":"CONVOCATORIA DE AYUDAS SOCIALES PARA ABONOS DE TEMPORADA DE VERANO DE LAS PISCINAS MUNICIPALES DEL AYUNTAMIENTO DE ANSOÁIN EN EL AÑO 2026","descripcionLeng":"ANTSOAINGO UDALAREN IGERILEKUETAKO UDAKO DENBORALDIKO ABONUETARAKO GIZARTE LAGUNTZEN DEIALDIA 2026. URTEAN","fechaRecepcion":"2026-04-27","nivel1":"LOCAL","nivel2":"ANSOÁIN/ANTSOAIN","nivel3":"AYUNTAMIENTO DE ANSOÁIN/ANTSOAIN","codigoInvente":null},{"id":1103182,"mrr":false,"numeroConvocatoria":"901621","descripcion":"VIII Premio \"Luisa Villalta\" a proyectos por la igualdad. (PREM-LV/2026)","descripcionLeng":"VIII Premio \"Luisa Villalta\" a proxectos pola igualdade. (PREM-LV/2026)","fechaRecepcion":"2026-04-27","nivel1":"LOCAL","nivel2":"DIPUTACIÓN PROV. DE A CORUÑA","nivel3":"DIPUTACIÓN PROVINCIAL DE CORUÑA, A","codigoInvente":null},{"id":1103178,"mrr":false,"numeroConvocatoria":"901617","descripcion":"Subvenciones a personas físicas y jurídicas para la realización de intervenciones en inmuebles de valor cultural correspondiente al ejercicio 2026","descripcionLeng":null,"fechaRecepcion":"2026-04-27","nivel1":"LOCAL","nivel2":"CABILDO INSULAR DE TENERIFE","nivel3":"CABILDO INSULAR DE TENERIFE","codigoInvente":null},{"id":1103174,"mrr":false,"numeroConvocatoria":"901613","descripcion":"OTORGAMIENTO SUBVENCIÓN A LA ENTIDAD \"EL TURÓ SALUT MENTAL, ASSOCIACIÓ DE FAMILIARS I AMICS\" EJERCICIO 2026","descripcionLeng":"ATORGAMENT SUBVENCIÓ A LA ENTITAT \"EL TURÓ SALUT MENTAL, ASSOCIACIÓ DE FAMILIARS I AMICS\" EXERCICI 2026","fechaRecepcion":"2026-04-27","nivel1":"LOCAL","nivel2":"CASTELLET I LA GORNAL","nivel3":"AYUNTAMIENTO DE CASTELLET I LA GORNAL","codigoInvente":null},{"id":1103173,"mrr":false,"numeroConvocatoria":"901612","descripcion":"Subvenciones colectivos consumidores Navarra 2026","descripcionLeng":null,"fechaRecepcion":"2026-04-27","nivel1":"AUTONOMICA","nivel2":"COMUNIDAD FORAL DE NAVARRA","nivel3":"DEPARTAMENTO DE INDUSTRIA Y DE TRANSICION ECOLOGICA Y DIGITAL EMPRESARIAL","codigoInvente":null},{"id":1103172,"mrr":false,"numeroConvocatoria":"901611","descripcion":"Incentivos a la participación en el programa proyectos integrales para la inserción laboral del Ayuntamiento de Fuengirola","descripcionLeng":null,"fechaRecepcion":"2026-04-27","nivel1":"LOCAL","nivel2":"FUENGIROLA","nivel3":"AYUNTAMIENTO DE FUENGIROLA","codigoInvente":null},{"id":1103171,"mrr":false,"numeroConvocatoria":"901610","descripcion":"CONVOCATORIA PARA EL OTORGAMIENTO DE LAS AYUDAS INDIVIDUALES DE COMEDOR DIRIGIDOS AL ALUMNADO DE ENSEÑANZA OBLIGATORIA Y DE EDUCACIÓN INFANTIL ESCOLARIZADOS EN CENTROS EDUCATIVOS, SUFRAGADOS CON FONDOS PÚBLICOS, DE LA COMARCA DEL RIPOLLÈS 2026-2027","descripcionLeng":"CONVOCATÒRIA PER A L’ATORGAMENT D’AJUTS INDIVIDUALS DE MENJADOR ADREÇATS A L’ALUMNAT D’ENSENYAMENT OBLIGATORI I D'EDUCACIÓ INFANTIL ESCOLARITZATS EN CENTRES EDUCATIUS, SUFRAGATS AMB FONS PÚBLICS, DE LA COMARCA DEL RIPOLLÈS, PER AL CURS ESCOLAR 2026-2027 ","fechaRecepcion":"2026-04-27","nivel1":"LOCAL","nivel2":"CONSELL COMARCAL DE RIPOLLÈS","nivel3":"CONSELL COMARCAL DE RIPOLLÈS","codigoInvente":null},{"id":1103168,"mrr":false,"numeroConvocatoria":"901607","descripcion":"Convocatoria para el otorgamiento de subvenciones para los Ayuntamientos de la Comarca del Gironès para la organización de festivales con trascendencia supramunicipal y ferias de desarrollo local para el ejercicio 2026.","descripcionLeng":"Convocatòria per a l'atorgament de subvencions adreçades a ajuntaments de la comarca del Gironès per l'organització de festivals amb trascendència supramunicipal i fires locals per a l'exercici 2026.","fechaRecepcion":"2026-04-27","nivel1":"LOCAL","nivel2":"CONSELL COMARCAL DEL GIRONÈS","nivel3":"CONSELL COMARCAL DEL GIRONÈS","codigoInvente":null},{"id":1103167,"mrr":false,"numeroConvocatoria":"901606","descripcion":"Resolución de 17 de abril de 2026 por la que se establecen las bases reguladoras de las ayudas para programas de calidad desarrollados por consejos reguladores de denominaciones de calidad agroalimentarias y se convocan para 2026 (código de procedimiento ","descripcionLeng":null,"fechaRecepcion":"2026-04-27","nivel1":"AUTONOMICA","nivel2":"GALICIA","nivel3":"AGENCIA GALLEGA DE LA CALIDAD ALIMENTARIA (AGACAL)","codigoInvente":"INV00000112"},{"id":1103166,"mrr":false,"numeroConvocatoria":"901605","descripcion":"Concurso fotográfico “Alas del Odiel” 2026","descripcionLeng":null,"fechaRecepcion":"2026-04-27","nivel1":"LOCAL","nivel2":"HUELVA","nivel3":"AYUNTAMIENTO DE HUELVA","codigoInvente":null},{"id":1103165,"mrr":false,"numeroConvocatoria":"901604","descripcion":"CONVOCATORIA DE SUBVENCIONES A LAS ASOCIACIONES CULTURALES O SOCIALES SIN ÁNIMO DE LUCRO DEL MUNICIPIO DE ZARAUTZ 2026","descripcionLeng":"ZARAUZKO UDALERRIKO IRABAZI-ASMORIK GABEKO KULTURA- EDO GIZARTE-ELKARTEEI DIRULAGUNTZAK EMATEKO 2026. URTEKO DEIALDIA","fechaRecepcion":"2026-04-27","nivel1":"LOCAL","nivel2":"ZARAUTZ","nivel3":"AYUNTAMIENTO DE ZARAUTZ","codigoInvente":null},{"id":1103161,"mrr":false,"numeroConvocatoria":"901600","descripcion":"Resolución número 57, de 16 de abril, de la Alcaldesa del Ayuntamiento de Leoz se aprobó la convocatoria para la concesión de ayudas económicas para fiestas populares 2026","descripcionLeng":null,"fechaRecepcion":"2026-04-27","nivel1":"LOCAL","nivel2":"LEOZ/LEOTZ","nivel3":"AYUNTAMIENTO DE LEOZ/LEOTZ","codigoInvente":null},{"id":1103160,"mrr":false,"numeroConvocatoria":"901599","descripcion":"CONVOCATORIA DE SUBVENCIONES EN CONCURRENCIA COMPETITIVA PARA PROYECTOS DE INTERVENCIÓN SOCIAL 2026","descripcionLeng":null,"fechaRecepcion":"2026-04-27","nivel1":"LOCAL","nivel2":"DIPUTACIÓN PROV. DE CÁDIZ","nivel3":"DIPUTACIÓN PROVINCIAL DE CÁDIZ","codigoInvente":null}],"pageable":{"sort":{"sorted":true,"unsorted":false,"empty":false},"pageNumber":20,"pageSize":50,"offset":1000,"unpaged":false,"paged":true},"last":false,"totalElements":10000,"totalPages":200,"first":false,"sort":{"sorted":true,"unsorted":false,"empty":false},"numberOfElements":50,"size":50,"number":20,"empty":false,"advertencia":"La reutilización de los datos del Sistema Nacional de Publicidad de Subvenciones y Ayudas Públicas está sujeta a una serie de restricciones y consideraciones legales. Consulte el aviso legal en https://www.infosubvenciones.es/bdnstrans/GE/es/avisolegal.Además, el usuario debe ser consciente que la información presentada es de naturaleza dinámica, y que los datos pueden ser sometidos a correcciones, inserciones, modificaciones y eliminaciones en momentos posteriores a su extracción. Accesos al API del sistema Nacional de Publicidad de Subvenciones y Ayudas Públicas. La Administración Presupuestaria, para salvaguardar la protección del acceso libre e irrestricto de los ciudadanos a este Portal y a su información podrá adoptar medidas restrictivas de acceso al API ante situaciones de manifiesto abuso del servicio, riesgos de seguridad, o uso fraudulento de la información descargada, de acuerdo con las buenas prácticas de gestión de datos abiertos (https://datos.gob.es/es/blog/limitaciones-la-consulta-de-una-api) establecidas por el Ministerio para la Transformación Digital y de la Función Pública."}