{"content":[{"id":1117069,"mrr":false,"numeroConvocatoria":"915508","descripcion":"RESOLUCIÓN de 20 de octubre de 2025, de la directora general de Innovación e Inclusión Educativa, por la que se convocan ayudas económicas, en concepto de subvención, para con-tribuir a la financiación de los gastos de ejecución de los programas artístico","descripcionLeng":"RESOLUCIÓ de 20 d’octubre de 2025, de la directora general d’Innovació i Inclusió Educativa, per la qual es convoquen ajudes econòmiques, en concepte de subvenció, per a contribuir al finançament dels gastos d’execució dels programes artístics que confor","fechaRecepcion":"2026-06-25","nivel1":"AUTONOMICA","nivel2":"COMUNITAT VALENCIANA","nivel3":"SECRETARÍA AUTONÓMICA DE EDUCACIÓN","codigoInvente":null},{"id":1117066,"mrr":false,"numeroConvocatoria":"915505","descripcion":"Convocatoria del procedimiento de concesión de ayudas por la FECYT, en régimen de concurrencia competitiva, para estancias del personal investigador para la realización de actividades en el ámbito del fomento de la ciencia para las políticas públicas 2026","descripcionLeng":null,"fechaRecepcion":"2026-06-25","nivel1":"ESTADO","nivel2":"MINISTERIO DE CIENCIA, INNOVACIÓN Y UNIVERSIDADES","nivel3":"FUNDACIÓN ESPAÑOLA PARA LA CIENCIA Y LA TECNOLOGÍA","codigoInvente":"INV00002969"},{"id":1117061,"mrr":false,"numeroConvocatoria":"915500","descripcion":"Programa de Cooperación BenOurense Infancia- Servicios Complementarios 2026","descripcionLeng":" Programa de Cooperación BenOurense Infancia- Servizos Complementarios 2026","fechaRecepcion":"2026-06-25","nivel1":"LOCAL","nivel2":"DIPUTACIÓN PROV. DE OURENSE","nivel3":"DIPUTACIÓN PROVINCIAL DE OURENSE","codigoInvente":null},{"id":1117055,"mrr":false,"numeroConvocatoria":"915494","descripcion":"AYUDAS INDIVIDUALES PARA FAVORECER LA AUTONOMÍA PERSONAL, LA MEJORA DE LA ACCESIBILIDAD Y EL APOYO AL RESPIRO FAMILIAR.","descripcionLeng":null,"fechaRecepcion":"2026-06-25","nivel1":"LOCAL","nivel2":"RIBEIRA","nivel3":"AYUNTAMIENTO DE RIBEIRA","codigoInvente":null},{"id":1117054,"mrr":false,"numeroConvocatoria":"915493","descripcion":"Programa de cooperación BenOurense para el servicio de ayuda en el hogar – SAF básico para el ejercicio 2026","descripcionLeng":"Programa de cooperación BenOurense para o servizo de axuda no fogar – SAF básico para o exercicio 2026","fechaRecepcion":"2026-06-25","nivel1":"LOCAL","nivel2":"DIPUTACIÓN PROV. DE OURENSE","nivel3":"DIPUTACIÓN PROVINCIAL DE OURENSE","codigoInvente":null},{"id":1117047,"mrr":false,"numeroConvocatoria":"915486","descripcion":"MOVILIDAD DE CREADORES/AS 2026","descripcionLeng":"SORTZAILEEN MUGIKORTASUNA 2026","fechaRecepcion":"2026-06-25","nivel1":"AUTONOMICA","nivel2":"PAÍS VASCO","nivel3":"INSTITUTO VASCO ETXEPARE EUSKAL INSTITUTUA / BASQUE INSTITUTE","codigoInvente":"INV00003762"},{"id":1117046,"mrr":false,"numeroConvocatoria":"915485","descripcion":"AYUDAS AL FOMENTO DE EMPLEO DE PERSONAS CON DISCAPACIDAD  MERCADO ORDINARIO","descripcionLeng":"DESGAITASUNA DUTEN PERTSONEN ENPLEGUA SUSTATZEKO LAGUNTZAK MERKATU ARRUNTEA","fechaRecepcion":"2026-06-25","nivel1":"AUTONOMICA","nivel2":"PAÍS VASCO","nivel3":"LANBIDE-SERVICIO VASCO DE EMPLEO","codigoInvente":"INV00003816"},{"id":1117045,"mrr":false,"numeroConvocatoria":"915484","descripcion":"MEC-2026","descripcionLeng":"2026-MEC","fechaRecepcion":"2026-06-25","nivel1":"AUTONOMICA","nivel2":"PAÍS VASCO","nivel3":"DEPARTAMENTO DE TURISMO, COMERCIO Y CONSUMO","codigoInvente":null},{"id":1117044,"mrr":false,"numeroConvocatoria":"915483","descripcion":"Convocatoria del procedimiento de concesión de ayudas por la Fundación Española para la Ciencia y la Tecnología, F.S.P., en régimen de concurrencia competitiva, para el fomento de la cultura de la innovación pública 2026","descripcionLeng":null,"fechaRecepcion":"2026-06-25","nivel1":"ESTADO","nivel2":"MINISTERIO DE CIENCIA, INNOVACIÓN Y UNIVERSIDADES","nivel3":"FUNDACIÓN ESPAÑOLA PARA LA CIENCIA Y LA TECNOLOGÍA","codigoInvente":"INV00002969"},{"id":1117043,"mrr":false,"numeroConvocatoria":"915482","descripcion":"PREMIOS IX CONCURSO INTERNACIONAL DE POESIA  \"DAMA DE BAZA\" 2026","descripcionLeng":null,"fechaRecepcion":"2026-06-25","nivel1":"LOCAL","nivel2":"BAZA","nivel3":"AYUNTAMIENTO DE BAZA","codigoInvente":null},{"id":1117042,"mrr":false,"numeroConvocatoria":"915481","descripcion":"Programa de cooperación “BenOurense Personal Técnico 2026","descripcionLeng":"Programa de cooperación “BenOurense Persoal Técnico 2026","fechaRecepcion":"2026-06-25","nivel1":"LOCAL","nivel2":"DIPUTACIÓN PROV. DE OURENSE","nivel3":"DIPUTACIÓN PROVINCIAL DE OURENSE","codigoInvente":null},{"id":1117036,"mrr":false,"numeroConvocatoria":"915475","descripcion":"Extracto del acuerdo de 22 de junio de 2026, de la Junta de Gobierno Local del Ayuntamiento  de Benidorm,  por el que se convocan ayudas a estudiantes usuarios de transporte universitario no asociativo correspondiente al curso 2025-2026","descripcionLeng":null,"fechaRecepcion":"2026-06-25","nivel1":"LOCAL","nivel2":"BENIDORM","nivel3":"AYUNTAMIENTO DE BENIDORM","codigoInvente":null},{"id":1117035,"mrr":false,"numeroConvocatoria":"915474","descripcion":"Programa de cooperación BenOurense Infancia para los Puntos de Atención a la Infancia- PAI para el ejercicio 2026","descripcionLeng":"Programa de cooperación BenOurense Infancia para os Puntos de Atención á Infancia- PAI para o exercicio 2026, ","fechaRecepcion":"2026-06-25","nivel1":"LOCAL","nivel2":"DIPUTACIÓN PROV. DE OURENSE","nivel3":"DIPUTACIÓN PROVINCIAL DE OURENSE","codigoInvente":null},{"id":1117033,"mrr":false,"numeroConvocatoria":"915472","descripcion":"13ª EDICIÓN PREMIOS A LA EXCELENCIA EN EL ESTUDIO, CURSO 2025/2026","descripcionLeng":null,"fechaRecepcion":"2026-06-25","nivel1":"LOCAL","nivel2":"GALAPAGAR","nivel3":"AYUNTAMIENTO DE GALAPAGAR","codigoInvente":null},{"id":1117030,"mrr":false,"numeroConvocatoria":"915469","descripcion":"CONVOCATORIA DE SUBVENCIONES PARA FOMENTO DEL ASOCIACIONISMO Y FESTEJOS POPULARES DEL MUNICIPIO (AÑO 2026).-","descripcionLeng":"CONVOCATORIA DE SUBVENCIÓNS PARA FOMENTO DO ASOCIACIONISMO E ACTIVIDADES FESTEIRAS DO MUNICIPIO (ANO 2026).-","fechaRecepcion":"2026-06-25","nivel1":"LOCAL","nivel2":"NIGRÁN","nivel3":"AYUNTAMIENTO DE NIGRÁN","codigoInvente":null},{"id":1117027,"mrr":false,"numeroConvocatoria":"915466","descripcion":"CONVOCATORIA PARA LA CONCESIÓN DE SUBVENCIONES EN MATERIA DE CONCURRENCIA COMPETITIVA, CON DESTINO A LA ORGANIZACIÓN DE CAMPEONATOS Y PRUEBAS DEPORTIVAS DE ENTIDADES DEPORTIVAS SIN ÁNIMO DE LUCRO DE CALATAYUD, AÑO 2026.","descripcionLeng":null,"fechaRecepcion":"2026-06-25","nivel1":"LOCAL","nivel2":"CALATAYUD","nivel3":"AYUNTAMIENTO DE CALATAYUD","codigoInvente":null},{"id":1117022,"mrr":false,"numeroConvocatoria":"915461","descripcion":"CONVOCATORIA PARA LA CONCESIÓN DE SUBVENCIONES EN MATERIA DE CONCURRENCIA COMPETITIVA, CON DESTINO A LA REALIZACIÓN DE PROYECTOS DEPORTIVOS ANUALES DE ENTIDADES DEPORTIVAS SIN ÁNIMO DE LUCRO DE CALATAYUD, AÑO 2025.","descripcionLeng":null,"fechaRecepcion":"2026-06-25","nivel1":"LOCAL","nivel2":"CALATAYUD","nivel3":"AYUNTAMIENTO DE CALATAYUD","codigoInvente":null},{"id":1117014,"mrr":false,"numeroConvocatoria":"915453","descripcion":"CONVOCATORIA PARA LA CONCESIÓN DE SUBVENCIONES DE CONCURRENCIA COMPETITIVA, CON DESTINO A LA REALIZACIÓN DE PROYECTOS DEPORTIVOS ANUALES DE DEPORTISTAS DESTACADOS DE CALATAYUD. DURANTE EL AÑO 2025","descripcionLeng":null,"fechaRecepcion":"2026-06-25","nivel1":"LOCAL","nivel2":"CALATAYUD","nivel3":"AYUNTAMIENTO DE CALATAYUD","codigoInvente":null},{"id":1117011,"mrr":false,"numeroConvocatoria":"915450","descripcion":"Convocatoria de los Premios Mallorca de Fotografía Contemporánea 2026","descripcionLeng":"Convocatòria dels Premis Mallorca de Fotografia Contemporània 2026","fechaRecepcion":"2026-06-25","nivel1":"LOCAL","nivel2":"CONSEJO INSULAR DE MALLORCA","nivel3":"CONSELL INSULAR DE MALLORCA","codigoInvente":null},{"id":1117009,"mrr":false,"numeroConvocatoria":"915448","descripcion":"DECRETO FORAL 64/2026, de 25 de junio, de la Diputación Foral de Bizkaia, de ayudas económicas destinadas a las asociaciones de ganaderos y ganaderas de razas puras y asociaciones sectoriales de ganaderos y ganaderas del Territorio Histórico de Bizkaia","descripcionLeng":"Bizkaiko Foru Aldundiaren 64/2026 FORU DEKRETUA, ekainaren 25ekoa. Honen bidez  Bizkaiko Lurralde Historikoko arraza garbien abeltzain-elkarteei eta abeltzainen elkarte sektorialei emango zaizkien dirulaguntzak onesten dira eta 2026ko deialdia egiten da.","fechaRecepcion":"2026-06-25","nivel1":"LOCAL","nivel2":"DIPUTACIÓN FORAL DE BIZKAIA","nivel3":"DIPUTACIÓN FORAL DE BIZKAIA","codigoInvente":null},{"id":1117008,"mrr":false,"numeroConvocatoria":"915447","descripcion":"Convocatoria 2026 de concesión de subvenciones a entidades ciudadanas de Tarragona para la realización de actividades","descripcionLeng":"Convocatòria 2026 de concessió de subvencions a entitats ciutadanes de Tarragona per a la realització d'activitats","fechaRecepcion":"2026-06-25","nivel1":"LOCAL","nivel2":"TARRAGONA","nivel3":"AYUNTAMIENTO DE TARRAGONA","codigoInvente":null},{"id":1117001,"mrr":false,"numeroConvocatoria":"915440","descripcion":"Subvenciones a Ayuntamientos de la Isla, o sus entidades dependientes, para la realización de proyectos que coadyuven al establecimiento de políticas efectivas de igualdad de género en el territorio insular, ejercicio 2026.","descripcionLeng":null,"fechaRecepcion":"2026-06-25","nivel1":"LOCAL","nivel2":"CABILDO INSULAR DE TENERIFE","nivel3":"CABILDO INSULAR DE TENERIFE","codigoInvente":null},{"id":1117000,"mrr":false,"numeroConvocatoria":"915439","descripcion":"CONVOCATORIA COLABORACIÓN CORPORACIONES LOCALES 2026","descripcionLeng":null,"fechaRecepcion":"2026-06-25","nivel1":"ESTADO","nivel2":"MINISTERIO DE TRABAJO Y ECONOMÍA SOCIAL","nivel3":"DIRECCIÓN PROVINCIAL DEL SEPE DE CEUTA","codigoInvente":null},{"id":1116999,"mrr":false,"numeroConvocatoria":"915438","descripcion":"Bases Reguladoras para la concesión de Subvenciones a Escuelas de Música o Educandos curso 2025/2026","descripcionLeng":null,"fechaRecepcion":"2026-06-25","nivel1":"LOCAL","nivel2":"BENIDORM","nivel3":"AYUNTAMIENTO DE BENIDORM","codigoInvente":null},{"id":1116994,"mrr":false,"numeroConvocatoria":"915433","descripcion":"BASES PARA LA CONVOCATORIA DE CONCESIÓN DE PRESTACIONES ECONÓMICAS DE ESCUELAS INFANTILES DEL MUNICIPIO DE LAS ROZAS DE MADRID 2026 -2027","descripcionLeng":null,"fechaRecepcion":"2026-06-25","nivel1":"LOCAL","nivel2":"ROZAS DE MADRID, LAS","nivel3":"AYUNTAMIENTO DE ROZAS DE MADRID, LAS","codigoInvente":null},{"id":1116993,"mrr":false,"numeroConvocatoria":"915432","descripcion":"SUBVENCIÓN ASOCIACIONES DEPORTIVAS COMPETICIONES PERSONAS CON DISCAPACIDAD","descripcionLeng":null,"fechaRecepcion":"2026-06-25","nivel1":"AUTONOMICA","nivel2":"COMUNIDAD DE MADRID","nivel3":"CONSEJERÍA DE CULTURA, TURISMO Y DEPORTE","codigoInvente":null},{"id":1116991,"mrr":false,"numeroConvocatoria":"915430","descripcion":"Subvenciones a programas y actividades de asociaciones de mujeres del Concejo de Carreño año 2026.","descripcionLeng":null,"fechaRecepcion":"2026-06-25","nivel1":"LOCAL","nivel2":"CARREÑO","nivel3":"AYUNTAMIENTO DE CARREÑO","codigoInvente":null},{"id":1116983,"mrr":false,"numeroConvocatoria":"915422","descripcion":"Acuerdo de la Junta de Gobierno de 24 de junio de 2026, punto III.1., de aprobación de la 6ª Convocatoria de selección de participantes de itinerarios de formación incentivada del proyecto EnRuta, financiado por el FSE+","descripcionLeng":null,"fechaRecepcion":"2026-06-25","nivel1":"LOCAL","nivel2":"DIPUTACIÓN PROV. DE MÁLAGA","nivel3":"DIPUTACIÓN PROVINCIAL DE MÁLAGA","codigoInvente":null},{"id":1116973,"mrr":false,"numeroConvocatoria":"915412","descripcion":"Convocatoria  para el ejercicio 2026 ayudas EDLP FEMPA  (no MINIMIS)","descripcionLeng":"Convocatòria a per a l'exercici 2026 ajudes EDLP FEMPA (no MINIMIS)","fechaRecepcion":"2026-06-25","nivel1":"AUTONOMICA","nivel2":"COMUNITAT VALENCIANA","nivel3":"SECRETARÍA AUTONÓMICA DE AGRICULTURA, GANADERÍA Y PESCA","codigoInvente":null},{"id":1116966,"mrr":false,"numeroConvocatoria":"915405","descripcion":"Subvenciones a Entidades y Programas Deportivos año 2026","descripcionLeng":null,"fechaRecepcion":"2026-06-25","nivel1":"LOCAL","nivel2":"CARREÑO","nivel3":"AYUNTAMIENTO DE CARREÑO","codigoInvente":null},{"id":1116960,"mrr":false,"numeroConvocatoria":"915399","descripcion":"Convocatoria  para el ejercicio 2026 ayudas EDLP FEMPA (MINIMIS)","descripcionLeng":"Convocatòria a per a l'exercici 2026 ajudes EDLP FEMPA (MINIMIS)","fechaRecepcion":"2026-06-25","nivel1":"AUTONOMICA","nivel2":"COMUNITAT VALENCIANA","nivel3":"SECRETARÍA AUTONÓMICA DE AGRICULTURA, GANADERÍA Y PESCA","codigoInvente":null},{"id":1116926,"mrr":false,"numeroConvocatoria":"915365","descripcion":"CELEBRACIÓN DE EVENTO AUDITORIO JOVEN FERIA \nDE SAN JUAN 2026","descripcionLeng":null,"fechaRecepcion":"2026-06-25","nivel1":"LOCAL","nivel2":"BENALMÁDENA","nivel3":"AYUNTAMIENTO DE BENALMÁDENA","codigoInvente":null},{"id":1116898,"mrr":false,"numeroConvocatoria":"915337","descripcion":"Resolución del Vicerrectorado de Estudiantes de la ULL, por la que se convocan 40 becas dentro del “Programa de Becas Santander / Ayuda Económica para Prácticas 2026 II Edición”.","descripcionLeng":null,"fechaRecepcion":"2026-06-25","nivel1":"OTROS","nivel2":"UNIVERSIDAD DE LA LAGUNA","nivel3":null,"codigoInvente":"INV00005341"},{"id":1116854,"mrr":false,"numeroConvocatoria":"915293","descripcion":"Resolución del Vicerrectorado de Estudiantes de la ULL, por la que se convoca una beca dentro del “Programa de Becas Santander / Excelencia 360º”, año 2026.","descripcionLeng":null,"fechaRecepcion":"2026-06-25","nivel1":"OTROS","nivel2":"UNIVERSIDAD DE LA LAGUNA","nivel3":null,"codigoInvente":"INV00005341"},{"id":1116853,"mrr":false,"numeroConvocatoria":"915292","descripcion":"Bases reguladoras y convocatoria de subvenciones para Proyectos de Cooperación al Desarrollo para el año 2026","descripcionLeng":"Bases reguladores i convocatòria de subvencions per a Projectes de Cooperació al Desenvolupament per l'any 2026","fechaRecepcion":"2026-06-25","nivel1":"LOCAL","nivel2":"SANT PERE DE RIBES","nivel3":"AYUNTAMIENTO DE SANT PERE DE RIBES","codigoInvente":null},{"id":1116843,"mrr":false,"numeroConvocatoria":"915282","descripcion":"Ayudas de minimis destinadas a la ejecución de programas de sanidad animal en el sector de los équidos correspondientes a 2026","descripcionLeng":"Ajuts de minimis destinats a l'execució de programes de sanitat animal en el sector dels èquids corresponents a 2026","fechaRecepcion":"2026-06-25","nivel1":"AUTONOMICA","nivel2":"CATALUÑA","nivel3":"DEPARTAMENT D'AGRICULTURA, RAMADERIA, PESCA I ALIMENTACIÓ","codigoInvente":null},{"id":1116837,"mrr":false,"numeroConvocatoria":"915276","descripcion":"Convocatoria de ayudas a las universidades del sistema universitario de Cataluña para actuaciones de fomento y uso de las lenguas en el ámbito universitario (INTERLINGUA 2026)","descripcionLeng":"Convocatòria d’ajuts a les universitats del sistema universitari de Catalunya per a actuacions de foment i ús de les llengües en l’àmbit universitari (INTERLINGUA 2026)","fechaRecepcion":"2026-06-25","nivel1":"AUTONOMICA","nivel2":"CATALUÑA","nivel3":"AGÈNCIA DE GESTIÓ D'AJUTS UNIVERSITARIS I DE RECERCA (AGAUR)","codigoInvente":"INV00000068"},{"id":1116835,"mrr":false,"numeroConvocatoria":"915274","descripcion":"INCENDIOS. Bases reguladoras de la convocatoria de subvenciones destinadas a ganaderos en activo afectados por los grandes incendios forestales de 2025 en Zamora","descripcionLeng":null,"fechaRecepcion":"2026-06-25","nivel1":"LOCAL","nivel2":"DIPUTACIÓN PROV. DE ZAMORA","nivel3":"DIPUTACIÓN PROVINCIAL DE ZAMORA","codigoInvente":null},{"id":1116834,"mrr":false,"numeroConvocatoria":"915273","descripcion":"CONVOCATORIA DE AYUDAS EN ESPECIE \"BONO DE COMERCIO JOVEN\" DESTINADA A INCENTIVAR LAS COMPRAS ENTRE LOS JÓVENES DEL MUNICIPIO.","descripcionLeng":null,"fechaRecepcion":"2026-06-25","nivel1":"LOCAL","nivel2":"RINCONADA, LA","nivel3":"AYUNTAMIENTO DE RINCONADA, LA","codigoInvente":null},{"id":1116810,"mrr":false,"numeroConvocatoria":"915249","descripcion":"VI Certamen Nacional de Pintura Rápida´26 “Alfonso Parras","descripcionLeng":null,"fechaRecepcion":"2026-06-25","nivel1":"LOCAL","nivel2":"TORREDELCAMPO","nivel3":"AYUNTAMIENTO DE TORREDELCAMPO","codigoInvente":null},{"id":1116808,"mrr":false,"numeroConvocatoria":"915247","descripcion":"BOLSAS DE COMEDOR, MATERIAL ESCOLAR Y ACTIVIDADES EXTRAESCOLARES DEL AYUNTAMIENTO DE SANTIAGO DE COMPOSTELA. CURSO 2026-2027","descripcionLeng":"BOLSAS DE COMEDOR, MATERIAL ESCOLAR E ACTIVIDADES EXTRAESCOLARES DO CONCELLO DE SANTIAGO DE COMPOSTELA.CURSO 2026-2027","fechaRecepcion":"2026-06-25","nivel1":"LOCAL","nivel2":"SANTIAGO DE COMPOSTELA","nivel3":"AYUNTAMIENTO DE SANTIAGO DE COMPOSTELA","codigoInvente":null},{"id":1116797,"mrr":false,"numeroConvocatoria":"915236","descripcion":"ACUERDO DE LA JUNTA DE GOBIERNO LOCAL DEL AYUNTAMIENTO DE TOLEDO POR EL QUE SE APRUEBA LA CONVOCATORIA DE SUBVENCIONES PARA PROYECTOS DE EMERGENCIA Y ACCIÓN HUMANITARIA 2026.","descripcionLeng":null,"fechaRecepcion":"2026-06-24","nivel1":"LOCAL","nivel2":"TOLEDO","nivel3":"AYUNTAMIENTO DE TOLEDO","codigoInvente":null},{"id":1116788,"mrr":false,"numeroConvocatoria":"915227","descripcion":"SUBVENCIONES ASOCIACIONES DEPORTIVAS AYUNTAMIENTO DE TARAZONA 2026","descripcionLeng":null,"fechaRecepcion":"2026-06-24","nivel1":"LOCAL","nivel2":"TARAZONA","nivel3":"AYUNTAMIENTO DE TARAZONA","codigoInvente":null},{"id":1116786,"mrr":false,"numeroConvocatoria":"915225","descripcion":"CONVOCATORIA SUBVENCIONES A ENTIDADES CULTURALES Y DEPORTIVAS EN REGIMEN DE CONCURRENCIA COMPETITIVA  AÑO 2026","descripcionLeng":null,"fechaRecepcion":"2026-06-24","nivel1":"LOCAL","nivel2":"SALAS","nivel3":"AYUNTAMIENTO DE SALAS","codigoInvente":null},{"id":1116782,"mrr":false,"numeroConvocatoria":"915221","descripcion":"Acuerdo del Consejo Ejecutivo de 14.04.2025, relativo a las bases de las ayudas de minimis del Consejo Insular de Menorca al tejido productivo, cooperativo, comercial y determinadas empresas de servicios de Menorca y convocatoria 2025","descripcionLeng":"Acord del Consell Executiu de 14.04.2025, relatiu a les bases dels ajuts de minimis del Consell Insular de Menorca al teixit productiu, cooperatiu, comercial i determinades empreses de serveis de Menorca y convocatoria 2025","fechaRecepcion":"2026-06-24","nivel1":"LOCAL","nivel2":"CONSEJO INSULAR DE MENORCA","nivel3":"CONSELL INSULAR DE MENORCA","codigoInvente":null},{"id":1116781,"mrr":false,"numeroConvocatoria":"915220","descripcion":"Orden de 24 de junio de 2026, por la que se conviocan Subvenciones a EE Privadas para la realización de actuaciones de interés general para atender fines sociales con cargo a 0,7% del IRPF, 2026-Linea 2 Inversión Obras","descripcionLeng":null,"fechaRecepcion":"2026-06-24","nivel1":"AUTONOMICA","nivel2":"ANDALUCÍA","nivel3":"CONSEJERÍA DE INCLUSIÓN SOCIAL, JUVENTUD, FAMILIAS E IGUALDAD","codigoInvente":null},{"id":1116779,"mrr":false,"numeroConvocatoria":"915218","descripcion":"AYUDAS MERCADOS Y GALERÍAS COMERCIALES 2026","descripcionLeng":null,"fechaRecepcion":"2026-06-24","nivel1":"AUTONOMICA","nivel2":"COMUNIDAD DE MADRID","nivel3":"CONSEJERÍA ECONOMÍA, HACIENDA Y EMPLEO","codigoInvente":null},{"id":1116772,"mrr":false,"numeroConvocatoria":"915211","descripcion":"Convocatoria de las subvenciones \"Tenerife Joven en Acción - Impulso a Iniciativas Juveniles de Empresas, Asociaciones y Agrupaciones Informales 2026”","descripcionLeng":null,"fechaRecepcion":"2026-06-24","nivel1":"LOCAL","nivel2":"CABILDO INSULAR DE TENERIFE","nivel3":"CABILDO INSULAR DE TENERIFE","codigoInvente":null},{"id":1116771,"mrr":false,"numeroConvocatoria":"915210","descripcion":"Convocatoria  de subvenciones a clubes, sociedades anónimas deportivas de máximo nivel de la provincia de Burgos y delegaciones provinciales de Burgos de las distintas federaciones durante la temporada 2025/26 o 2026","descripcionLeng":null,"fechaRecepcion":"2026-06-24","nivel1":"LOCAL","nivel2":"DIPUTACIÓN PROV. DE BURGOS","nivel3":"INSTITUTO PARA EL DEPORTE Y JUVENTUD","codigoInvente":"INV00002441"},{"id":1116770,"mrr":false,"numeroConvocatoria":"915209","descripcion":"Orden de 24 de junio de 2026, pro la que se convocan subvenciones con cargo al 0,7% IRPF e Impuesto de Sociedades. LINEA 1 Programas de ámbito supraprovincial","descripcionLeng":null,"fechaRecepcion":"2026-06-24","nivel1":"AUTONOMICA","nivel2":"ANDALUCÍA","nivel3":"CONSEJERÍA DE INCLUSIÓN SOCIAL, JUVENTUD, FAMILIAS E IGUALDAD","codigoInvente":null}],"pageable":{"sort":{"sorted":true,"unsorted":false,"empty":false},"pageNumber":13,"pageSize":50,"offset":650,"unpaged":false,"paged":true},"last":false,"totalPages":200,"totalElements":10000,"first":false,"sort":{"sorted":true,"unsorted":false,"empty":false},"numberOfElements":50,"size":50,"number":13,"empty":false,"advertencia":"La reutilización de los datos del Sistema Nacional de Publicidad de Subvenciones y Ayudas Públicas está sujeta a una serie de restricciones y consideraciones legales. Consulte el aviso legal en https://www.infosubvenciones.es/bdnstrans/GE/es/avisolegal.Además, el usuario debe ser consciente que la información presentada es de naturaleza dinámica, y que los datos pueden ser sometidos a correcciones, inserciones, modificaciones y eliminaciones en momentos posteriores a su extracción. Accesos al API del sistema Nacional de Publicidad de Subvenciones y Ayudas Públicas. La Administración Presupuestaria, para salvaguardar la protección del acceso libre e irrestricto de los ciudadanos a este Portal y a su información podrá adoptar medidas restrictivas de acceso al API ante situaciones de manifiesto abuso del servicio, riesgos de seguridad, o uso fraudulento de la información descargada, de acuerdo con las buenas prácticas de gestión de datos abiertos (https://datos.gob.es/es/blog/limitaciones-la-consulta-de-una-api) establecidas por el Ministerio para la Transformación Digital y de la Función Pública."}