{"content":[{"id":1109430,"mrr":false,"numeroConvocatoria":"907869","descripcion":"Ayudas al transporte por la realización de prácticas externas curriculares curso 2025-26 para estudiantes de grado y máster de la Facultat de CC Socials","descripcionLeng":"Ajudes al transport per la realització de pràctiques externes curriculars curs 2025-26 per a estudiants de grau i màster de la Facultat de CC Socials","fechaRecepcion":"2026-05-25","nivel1":"OTROS","nivel2":"UNIVERSITAT DE VALÈNCIA (ESTUDI GENERAL)","nivel3":null,"codigoInvente":"INV00005380"},{"id":1109427,"mrr":false,"numeroConvocatoria":"907866","descripcion":"Bases de la convocatoria del programa de subvenciones dirigidas la entidades deportivas para la financiación de proyectos de organización y participación en fases de ascenso a competiciones nacionales y campeonatos de España durante el año 2026","descripcionLeng":"Bases da convocatoria do programa de subvencións dirixidas a entidades deportivas para a financiación de proxectos de participación en fases de ascenso a competicións nacionais e campionatos de España durante o ano 2026","fechaRecepcion":"2026-05-25","nivel1":"LOCAL","nivel2":"CARBALLO","nivel3":"AYUNTAMIENTO DE CARBALLO","codigoInvente":null},{"id":1109423,"mrr":false,"numeroConvocatoria":"907862","descripcion":"Bases de la convocatoria del programa de subvenciones dirigidas la entidades deportivas para la financiación de proyectos de organización de eventos deportivos y actividades deportivas de carácter extraordinario durante el año 2026","descripcionLeng":"Bases da convocatoria do programa de subvencións dirixidas a entidades deportivas para a financiación de proxectos de Eventos Deportivos e actividades deportivas de carácter extraordinario durante o ano 2026","fechaRecepcion":"2026-05-25","nivel1":"LOCAL","nivel2":"CARBALLO","nivel3":"AYUNTAMIENTO DE CARBALLO","codigoInvente":null},{"id":1109422,"mrr":false,"numeroConvocatoria":"907861","descripcion":"Resolución 1415/2026 de 19/05/2026 por la que se convocan para la anualidad 2026 subvenciones destinadas a Asociaciones Vecinales de Santa Cruz de La Palma para el desarrollo de proyectos socioculturales y gastos de funcionamiento y gestión","descripcionLeng":null,"fechaRecepcion":"2026-05-25","nivel1":"LOCAL","nivel2":"SANTA CRUZ DE LA PALMA","nivel3":"AYUNTAMIENTO DE SANTA CRUZ DE LA PALMA","codigoInvente":null},{"id":1109421,"mrr":false,"numeroConvocatoria":"907860","descripcion":"RESOLUCIÓN DE ALCALDÍA PARA CONVOCAR AYUDA FOMENTO AUTOEMPLEO 2026","descripcionLeng":null,"fechaRecepcion":"2026-05-25","nivel1":"LOCAL","nivel2":"ROCAFORT","nivel3":"AYUNTAMIENTO DE ROCAFORT","codigoInvente":null},{"id":1109420,"mrr":false,"numeroConvocatoria":"907859","descripcion":"CONVOCATORIA DE AYUDAS MEDIANTE ACTIVIDADES PARA FORMACIÓN PROFESIONAL Y ADQUISICIÓN DE COMPETENCIAS (7201_01), EN EL SECTOR AGRARIO, AGROALIMENTARIO, FORESTAL Y EL MEDIO RURAL (PEPAC) 2023-2027, ANUALIDADES 2026 A 2028","descripcionLeng":null,"fechaRecepcion":"2026-05-25","nivel1":"AUTONOMICA","nivel2":"REGIÓN DE MURCIA","nivel3":"CONSEJERÍA DE AGUA, AGRICULTURA, GANADERÍA Y PESCA","codigoInvente":null},{"id":1109418,"mrr":false,"numeroConvocatoria":"907857","descripcion":"Convocatoria de subvenciones a AMPAs del ámbito municipal de Balmaseda, para la realización de actividades extraescolares durante 2026 en Balmaseda","descripcionLeng":"2026. urtean zehar Balmasedako udalerrian guraso elkarteek eskolatik kanpoko ekintzak antolatzeko diru-laguntzen deialdia.","fechaRecepcion":"2026-05-25","nivel1":"LOCAL","nivel2":"BALMASEDA","nivel3":"AYUNTAMIENTO DE BALMASEDA","codigoInvente":null},{"id":1109414,"mrr":false,"numeroConvocatoria":"907853","descripcion":"RESOLUCIÓN DE ALCALDÍA PARA CONVOCAR AYUDA ECONÓMICA A DESEMPLEADOS PARA LA OBTENCIÓN DEL PERMISO DE CONDUCIR 2026","descripcionLeng":null,"fechaRecepcion":"2026-05-25","nivel1":"LOCAL","nivel2":"ROCAFORT","nivel3":"AYUNTAMIENTO DE ROCAFORT","codigoInvente":null},{"id":1109410,"mrr":false,"numeroConvocatoria":"907849","descripcion":"Beca de Arqueología José Llorca 2026-2027","descripcionLeng":null,"fechaRecepcion":"2026-05-25","nivel1":"LOCAL","nivel2":"VALENCIA","nivel3":"AYUNTAMIENTO DE VALENCIA","codigoInvente":null},{"id":1109408,"mrr":false,"numeroConvocatoria":"907847","descripcion":"Programa de subvenciones a entidades deportivas de la provincia, sin ánimo de lucro, para el desarrollo de eventos deportivos de competición oficial en el territorio provincial de A Coruña durante o ano 2026. (FO103E/2026)","descripcionLeng":"Programa de subvencións a entidades deportivas da provincia, sen ánimo de lucro, para o desenvolvemento de eventos deportivos de competición oficial no territorio provincial da Coruña durante o ano 2026. (FO103E/2026)","fechaRecepcion":"2026-05-25","nivel1":"LOCAL","nivel2":"DIPUTACIÓN PROV. DE A CORUÑA","nivel3":"DIPUTACIÓN PROVINCIAL DE CORUÑA, A","codigoInvente":null},{"id":1109407,"mrr":false,"numeroConvocatoria":"907846","descripcion":"Extracto de la convocatoria para el otorgamiento de subvenciones en régimen de concurrencia competitiva dirigida a conceder ayudas a las actividades de verano socioeducativas inclusivas para familias empadronadas en Torroella de Montgrí y Estartit.","descripcionLeng":"Extracte de la convocatòria per a l’atorgament de subvencions en règim de concurrència competitiva adreçada concedir l’atorgament d’ajuts per a activitats d’estiu socioeducatives inclusives per a famílies empadronades a Torroella de Montgrí i l’Estartit.","fechaRecepcion":"2026-05-25","nivel1":"LOCAL","nivel2":"TORROELLA DE MONTGRÍ","nivel3":"AYUNTAMIENTO DE TORROELLA DE MONTGRÍ","codigoInvente":null},{"id":1109399,"mrr":false,"numeroConvocatoria":"907838","descripcion":"Extracto de la convocatoria para concesión de ayudas económicas destinadas a la garantía energética año 2026","descripcionLeng":null,"fechaRecepcion":"2026-05-25","nivel1":"LOCAL","nivel2":"LLANERA","nivel3":"AYUNTAMIENTO DE LLANERA","codigoInvente":null},{"id":1109396,"mrr":false,"numeroConvocatoria":"907835","descripcion":"Subvenciones en régimen de concurrencia competitiva destinadas al desarrollo de proyectos vinculados a la actividad educativa por parte de asociaciones de madres y padres de alumnos y alumnas del municipio de Santa Cruz de La Palma para la anualidad 2026","descripcionLeng":null,"fechaRecepcion":"2026-05-25","nivel1":"LOCAL","nivel2":"SANTA CRUZ DE LA PALMA","nivel3":"AYUNTAMIENTO DE SANTA CRUZ DE LA PALMA","codigoInvente":null},{"id":1109395,"mrr":false,"numeroConvocatoria":"907834","descripcion":"SUBVENCIONES PARA EMPRESAS 2026_LINEA 2: SUBVENCIONES PARA AYUDAR A LOS ESTABLECIMIENTOS COMERCIALES Y DE SERVICIOS EN LA MEJORA DE SUS ESTABLECIMIENTOS","descripcionLeng":"SUBVENCIONS PER A EMPRESES 2026_LINIA 2: SUBVENCIONS PER AJUDAR ALS ESTABLIMENTS COMENCIALS I DE SERVEIS A LA MILLORA DELS SEUS ESTABLIMENTS.","fechaRecepcion":"2026-05-25","nivel1":"LOCAL","nivel2":"IGUALADA","nivel3":"AYUNTAMIENTO DE IGUALADA","codigoInvente":null},{"id":1109394,"mrr":false,"numeroConvocatoria":"907833","descripcion":"SUBVENCIONES PARA EMPRESAS 2026_LINEA 1: SUBVENCIONES PARA EMPRESAS DE CREACIÓN RECIENTE.","descripcionLeng":"SUBVENCIONS PER A EMPRESES 2026_LINIA 1: SUBVENCIONES PER A EMPRESES DE CREACIÓ RECENT.","fechaRecepcion":"2026-05-25","nivel1":"LOCAL","nivel2":"IGUALADA","nivel3":"AYUNTAMIENTO DE IGUALADA","codigoInvente":null},{"id":1109393,"mrr":false,"numeroConvocatoria":"907832","descripcion":"ASISTENCIA ECONÓMICA 2026 PARA EL SERVICIO DE TRANSPORTE, DESTINADA A ENTIDADES LOCALES DE LA PROVINCIA DE ALMERÍA ADSCRITAS A LAS LIGAS EDUCATIVAS DE LOS JUEGOS DEPORTIVOS PROVINCIALES  2025/26 Y AL PROYECTO DE SENDEROS DEL PROGRAMA ALMERÍA ACTIVA NATURA","descripcionLeng":null,"fechaRecepcion":"2026-05-25","nivel1":"LOCAL","nivel2":"DIPUTACIÓN PROV. DE ALMERÍA","nivel3":"DIPUTACIÓN PROVINCIAL DE ALMERÍA","codigoInvente":null},{"id":1109391,"mrr":false,"numeroConvocatoria":"907830","descripcion":"CONVOCATORIA SUBVENCIONES ESTUDIOS UNIVERSITARIOS 2025.","descripcionLeng":null,"fechaRecepcion":"2026-05-25","nivel1":"LOCAL","nivel2":"SALOU","nivel3":"AYUNTAMIENTO DE SALOU","codigoInvente":null},{"id":1109390,"mrr":false,"numeroConvocatoria":"907829","descripcion":"Bases de la convocatoria del programa de subvenciones dirigidas la entidades deportivas para la financiación de proyectos de actividad general durante el año 2026","descripcionLeng":"Bases da convocatoria do programa de subvencións dirixidas a entidades deportivas para a financiación de proxectos de actividade xeral durante o ano 2026","fechaRecepcion":"2026-05-25","nivel1":"LOCAL","nivel2":"CARBALLO","nivel3":"AYUNTAMIENTO DE CARBALLO","codigoInvente":null},{"id":1109386,"mrr":false,"numeroConvocatoria":"907825","descripcion":"BASES REGULADORAS PLAN DE AYUDAS A LA INNOVACIÓN Y AL USO DE LAS NNTT ÁMBITO EMPRESARIAL 2026","descripcionLeng":null,"fechaRecepcion":"2026-05-25","nivel1":"LOCAL","nivel2":"COLMENAR VIEJO","nivel3":"AYUNTAMIENTO DE COLMENAR VIEJO","codigoInvente":null},{"id":1109385,"mrr":false,"numeroConvocatoria":"907824","descripcion":"CONVO SUBV. CABALGATA REYES 2027","descripcionLeng":null,"fechaRecepcion":"2026-05-25","nivel1":"LOCAL","nivel2":"SANTA PERPÈTUA DE MOGODA","nivel3":"AYUNTAMIENTO DE SANTA PERPÈTUA DE MOGODA","codigoInvente":null},{"id":1109381,"mrr":false,"numeroConvocatoria":"907820","descripcion":"Convocatoria de subvenciones de libre concurrencia para la realización de programas festivos para el año 2026.","descripcionLeng":"2026. urtean jai egitasmoak bideratzeko dirulaguntzen deialdia, lehia askeko araubidean","fechaRecepcion":"2026-05-25","nivel1":"LOCAL","nivel2":"LAUDIO/LLODIO","nivel3":"AYUNTAMIENTO DE LAUDIO/LLODIO","codigoInvente":null},{"id":1109379,"mrr":false,"numeroConvocatoria":"907818","descripcion":"Resolución de 25 de mayo de 2026. Línea 4c) Subvención a salas de exhibición escénica de gestión privada ubicadas en Andalucía para el desarrollo de una programación estable de espectáculos de teatro, danza y circo dirigidos a público adulto, familiar, in","descripcionLeng":null,"fechaRecepcion":"2026-05-25","nivel1":"AUTONOMICA","nivel2":"ANDALUCÍA","nivel3":"AGENCIA ANDALUZA DE INSTITUCIONES CULTURALES","codigoInvente":"INV00000046"},{"id":1109378,"mrr":false,"numeroConvocatoria":"907817","descripcion":"Resolución de 25 de mayo de 2026. Línea 4b) Organización de eventos culturales de exhibición de espectáculos de teatro, danza y circo en formato de ferias, ciclos, festivales.","descripcionLeng":null,"fechaRecepcion":"2026-05-25","nivel1":"AUTONOMICA","nivel2":"ANDALUCÍA","nivel3":"AGENCIA ANDALUZA DE INSTITUCIONES CULTURALES","codigoInvente":"INV00000046"},{"id":1109377,"mrr":false,"numeroConvocatoria":"907816","descripcion":"Resolución de 25 de mayo de 2026. Línea 4a) Proyectos de gestión, mediación y promoción cultural  encuentros, jornadas, seminarios, congresos.","descripcionLeng":null,"fechaRecepcion":"2026-05-25","nivel1":"AUTONOMICA","nivel2":"ANDALUCÍA","nivel3":"AGENCIA ANDALUZA DE INSTITUCIONES CULTURALES","codigoInvente":"INV00000046"},{"id":1109376,"mrr":false,"numeroConvocatoria":"907815","descripcion":"Resolución de 25 de mayo de 2026. Línea 3b) Ayudas a personas físicas o empresas dedicadas a la distribución de teatro, danza y circo para la asistencia a mercados, ferias y otros eventos de artes escénicas relacionados con la actividad de distribución.","descripcionLeng":null,"fechaRecepcion":"2026-05-25","nivel1":"AUTONOMICA","nivel2":"ANDALUCÍA","nivel3":"AGENCIA ANDALUZA DE INSTITUCIONES CULTURALES","codigoInvente":"INV00000046"},{"id":1109375,"mrr":false,"numeroConvocatoria":"907814","descripcion":"Resolución de 25 de mayo de 2026. Línea 3a) Ayudas para proyectos de gira y asistencia a festivales o a eventos de exhibición de especial interés con espectáculos de teatro, danza o circo.","descripcionLeng":null,"fechaRecepcion":"2026-05-25","nivel1":"AUTONOMICA","nivel2":"ANDALUCÍA","nivel3":"AGENCIA ANDALUZA DE INSTITUCIONES CULTURALES","codigoInvente":"INV00000046"},{"id":1109374,"mrr":false,"numeroConvocatoria":"907813","descripcion":"Resolución de 25 de mayo de 2026. Línea 2d) Proyectos de producción anual de circo.","descripcionLeng":null,"fechaRecepcion":"2026-05-25","nivel1":"AUTONOMICA","nivel2":"ANDALUCÍA","nivel3":"AGENCIA ANDALUZA DE INSTITUCIONES CULTURALES","codigoInvente":"INV00000046"},{"id":1109373,"mrr":false,"numeroConvocatoria":"907812","descripcion":"Resolución de 25 de mayo de 2026. Línea 2c) Proyectos de producción anual de danza.","descripcionLeng":null,"fechaRecepcion":"2026-05-25","nivel1":"AUTONOMICA","nivel2":"ANDALUCÍA","nivel3":"AGENCIA ANDALUZA DE INSTITUCIONES CULTURALES","codigoInvente":"INV00000046"},{"id":1109372,"mrr":false,"numeroConvocatoria":"907811","descripcion":"Resolución de 25 de mayo de 2026. Línea 2b) Proyectos de producción anual de teatro.","descripcionLeng":null,"fechaRecepcion":"2026-05-25","nivel1":"AUTONOMICA","nivel2":"ANDALUCÍA","nivel3":"AGENCIA ANDALUZA DE INSTITUCIONES CULTURALES","codigoInvente":"INV00000046"},{"id":1109370,"mrr":false,"numeroConvocatoria":"907809","descripcion":"Resolución de 25 de mayo de 2026. Línea 2a) Proyectos de producción bienal de espectáculos de teatro, danza y circo dirigidos a público adulto, infantil o juvenil.","descripcionLeng":null,"fechaRecepcion":"2026-05-25","nivel1":"AUTONOMICA","nivel2":"ANDALUCÍA","nivel3":"AGENCIA ANDALUZA DE INSTITUCIONES CULTURALES","codigoInvente":"INV00000046"},{"id":1109368,"mrr":false,"numeroConvocatoria":"907807","descripcion":"Resolución de 25 de mayo de 2026. Línea 1.Ayudas para programas de creación, experimentación e investigación en todos los ámbitos y prácticas de la cultura escénica contemporánea del teatro, la danza y el circo, vinculados a un espacio especializado de GP","descripcionLeng":null,"fechaRecepcion":"2026-05-25","nivel1":"AUTONOMICA","nivel2":"ANDALUCÍA","nivel3":"AGENCIA ANDALUZA DE INSTITUCIONES CULTURALES","codigoInvente":"INV00000046"},{"id":1109367,"mrr":false,"numeroConvocatoria":"907806","descripcion":"CONVOCATORIA DE ASISTENCIA ECONÓMICA A ENTIDADES LOCALES DE LA PROVINCIA DE ALMERÍA MENORES DE 20.000 HABITANTES, PARA LA REHABILITACIÓN Y MANTENIMIENTO DE LA RED DE SENDEROS MUNICIPALES 2026","descripcionLeng":null,"fechaRecepcion":"2026-05-25","nivel1":"LOCAL","nivel2":"DIPUTACIÓN PROV. DE ALMERÍA","nivel3":"DIPUTACIÓN PROVINCIAL DE ALMERÍA","codigoInvente":null},{"id":1109366,"mrr":false,"numeroConvocatoria":"907805","descripcion":"RESOLUCIÓN DE ALCALDÍA PARA CONVOCAR CHEQUE BEBÉ 2026","descripcionLeng":null,"fechaRecepcion":"2026-05-25","nivel1":"LOCAL","nivel2":"ROCAFORT","nivel3":"AYUNTAMIENTO DE ROCAFORT","codigoInvente":null},{"id":1109361,"mrr":false,"numeroConvocatoria":"907800","descripcion":"Orden de 21 de mayo de 2026 de la consejería de Turismo, Cultura, Juventud y Deportes convocatoria de subvenciones para la financiación de proyectos de Entidades Juveniles, Entidades Prestadoras de Servicios de Juventud y Consejos Locales de Juventud.","descripcionLeng":null,"fechaRecepcion":"2026-05-25","nivel1":"AUTONOMICA","nivel2":"REGIÓN DE MURCIA","nivel3":"CONSEJERÍA DE TURISMO, CULTURA, JUVENTUD Y DEPORTES","codigoInvente":null},{"id":1109359,"mrr":false,"numeroConvocatoria":"907798","descripcion":"Ayudas destinadas a compensar las dificultades de recogida de la leche en explotaciones de vacuno de alta montaña, y zonas con especial dificultad, acogidas al régimen de minimis, año 2026","descripcionLeng":null,"fechaRecepcion":"2026-05-25","nivel1":"AUTONOMICA","nivel2":"COMUNIDAD FORAL DE NAVARRA","nivel3":"DEPARTAMENTO DE DESARROLLO RURAL Y MEDIO AMBIENTE","codigoInvente":null},{"id":1109358,"mrr":false,"numeroConvocatoria":"907797","descripcion":"CONVOCATORIA DE SUBVENCIONES DEL AYUNTAMIENTO DE VALJUNQUERA 2026","descripcionLeng":null,"fechaRecepcion":"2026-05-25","nivel1":"LOCAL","nivel2":"VALJUNQUERA","nivel3":"AYUNTAMIENTO DE VALJUNQUERA","codigoInvente":null},{"id":1109353,"mrr":false,"numeroConvocatoria":"907792","descripcion":"CONVOCATORIA DE SUBVENCIONES PARA LA ORGANIZACIÓN DE CIRCUITOS DEPORTIVOS DIPUTACIÓN PROVINCIAL DE ALMERÍA QUE SE DESARROLLEN EN LA PROVINCIA DE ALMERÍA DURANTE EL AÑO 2026","descripcionLeng":null,"fechaRecepcion":"2026-05-25","nivel1":"LOCAL","nivel2":"DIPUTACIÓN PROV. DE ALMERÍA","nivel3":"DIPUTACIÓN PROVINCIAL DE ALMERÍA","codigoInvente":null},{"id":1109351,"mrr":false,"numeroConvocatoria":"907790","descripcion":"Concesión de subvenciones a asociaciones culturales y deportivas ejercicio 2026","descripcionLeng":null,"fechaRecepcion":"2026-05-25","nivel1":"LOCAL","nivel2":"AINZÓN","nivel3":"AYUNTAMIENTO DE AINZÓN","codigoInvente":null},{"id":1109350,"mrr":false,"numeroConvocatoria":"907789","descripcion":"Convocatoria de subvenciones de libre concurrencia para la realización de programas deportivos para el año 2026","descripcionLeng":"2026. urtean kirol-egitasmoak bideratzeko dirulaguntzen deialdia, lehia askeko araubidean.","fechaRecepcion":"2026-05-25","nivel1":"LOCAL","nivel2":"LAUDIO/LLODIO","nivel3":"AYUNTAMIENTO DE LAUDIO/LLODIO","codigoInvente":null},{"id":1109349,"mrr":false,"numeroConvocatoria":"907788","descripcion":"Convocatoria Subvenciones DEPORTISTAS Temporada 2025-2026 (Expte. 3424/2026)","descripcionLeng":null,"fechaRecepcion":"2026-05-25","nivel1":"LOCAL","nivel2":"TEULADA","nivel3":"AYUNTAMIENTO DE TEULADA","codigoInvente":null},{"id":1109347,"mrr":false,"numeroConvocatoria":"907786","descripcion":"CONCURSO DE ENGALANAMIENTO DE FACHADAS Y RINCONES CANARIOS - FIESTAS PATRONALES DE SAN JUAN BAUTISTA DE ARUCAS 2026","descripcionLeng":null,"fechaRecepcion":"2026-05-25","nivel1":"LOCAL","nivel2":"ARUCAS","nivel3":"AYUNTAMIENTO DE ARUCAS","codigoInvente":null},{"id":1109346,"mrr":false,"numeroConvocatoria":"907785","descripcion":"Convocatoria de subvenciones de libre concurrencia para la realización de programas culturales para el año 2026.","descripcionLeng":"2026. urtean kultura-egitasmoak bideratzeko dirulaguntzen deialdia, lehia askeko araubidean.","fechaRecepcion":"2026-05-25","nivel1":"LOCAL","nivel2":"LAUDIO/LLODIO","nivel3":"AYUNTAMIENTO DE LAUDIO/LLODIO","codigoInvente":null},{"id":1109345,"mrr":false,"numeroConvocatoria":"907784","descripcion":"Resolución de la Dirección General de Turismo, Comercio y Artesanía, por la que se convocan las ayudas destinadas a la digitalización y a la promoción de la actividad comercial y productiva del sector artesano de Castilla-La Mancha, ejercicio 2026.","descripcionLeng":null,"fechaRecepcion":"2026-05-25","nivel1":"AUTONOMICA","nivel2":"CASTILLA-LA MANCHA","nivel3":"DIRECCIÓN GENERAL DE TURISMO, COMERCIO Y ARTESANÍA","codigoInvente":null},{"id":1109344,"mrr":false,"numeroConvocatoria":"907783","descripcion":"Subvenciones a la producción de uva en el municipio de Arafo para la obtención de uva de calidad amparado por la Denominación de Origen Valle de Güímar y/o por la Denominación de Origen Protegida “Islas Canarias”","descripcionLeng":null,"fechaRecepcion":"2026-05-25","nivel1":"LOCAL","nivel2":"ARAFO","nivel3":"AYUNTAMIENTO DE ARAFO","codigoInvente":null},{"id":1109342,"mrr":false,"numeroConvocatoria":"907781","descripcion":"Ayudas a la Organización de Olimpiadas Científicas de la Región de Murcia","descripcionLeng":null,"fechaRecepcion":"2026-05-25","nivel1":"AUTONOMICA","nivel2":"REGIÓN DE MURCIA","nivel3":"FUNDACIÓN SÉNECA (AGENCIA REGIONAL DE CIENCIA Y TECNOLOGÍA)","codigoInvente":"INV00003181"},{"id":1109341,"mrr":false,"numeroConvocatoria":"907780","descripcion":"Convocatoria Pyme global 2026 Visita a la feria internacional SIAL París, del 17 al 21 de octubre del 2026, para empresas de la provincia de Santa Cruz de Tenerife","descripcionLeng":null,"fechaRecepcion":"2026-05-25","nivel1":"OTROS","nivel2":"CÁMARA DE COMERCIO DE TENERIFE","nivel3":null,"codigoInvente":null},{"id":1109340,"mrr":false,"numeroConvocatoria":"907779","descripcion":"SUBVENCION EN MATERIA DE CULTURA BIENESTAR SOCIAL JUVENTUD TERCERA EDAD PARA 2026","descripcionLeng":null,"fechaRecepcion":"2026-05-25","nivel1":"LOCAL","nivel2":"LECIÑENA","nivel3":"AYUNTAMIENTO DE LECIÑENA","codigoInvente":null},{"id":1109338,"mrr":false,"numeroConvocatoria":"907777","descripcion":"BECA ERASMUS, CONVENIO 2025-2027 A DANIELA MÓNICA TUDOR BAICU","descripcionLeng":null,"fechaRecepcion":"2026-05-25","nivel1":"LOCAL","nivel2":"DIPUTACIÓN PROV. DE BADAJOZ","nivel3":"DIPUTACIÓN PROVINCIAL DE BADAJOZ","codigoInvente":null},{"id":1109337,"mrr":false,"numeroConvocatoria":"907776","descripcion":"SUBVENCION DEPORTES 2026","descripcionLeng":null,"fechaRecepcion":"2026-05-25","nivel1":"LOCAL","nivel2":"LECIÑENA","nivel3":"AYUNTAMIENTO DE LECIÑENA","codigoInvente":null},{"id":1109336,"mrr":false,"numeroConvocatoria":"907775","descripcion":"Ayudas para la difusión de conocimiento científico en Ciencias Sociales para estudiantes de doctorado y máster 2025","descripcionLeng":"Ajudes per a la difusió de coneixement científic en Ciències Socials per a estudiants de doctorat i master 2025","fechaRecepcion":"2026-05-25","nivel1":"OTROS","nivel2":"UNIVERSITAT DE VALÈNCIA (ESTUDI GENERAL)","nivel3":null,"codigoInvente":"INV00005380"}],"pageable":{"sort":{"sorted":true,"unsorted":false,"empty":false},"pageNumber":38,"pageSize":50,"offset":1900,"unpaged":false,"paged":true},"last":false,"totalElements":10000,"totalPages":200,"sort":{"sorted":true,"unsorted":false,"empty":false},"first":false,"numberOfElements":50,"size":50,"number":38,"empty":false,"advertencia":"La reutilización de los datos del Sistema Nacional de Publicidad de Subvenciones y Ayudas Públicas está sujeta a una serie de restricciones y consideraciones legales. Consulte el aviso legal en https://www.infosubvenciones.es/bdnstrans/GE/es/avisolegal.Además, el usuario debe ser consciente que la información presentada es de naturaleza dinámica, y que los datos pueden ser sometidos a correcciones, inserciones, modificaciones y eliminaciones en momentos posteriores a su extracción. Accesos al API del sistema Nacional de Publicidad de Subvenciones y Ayudas Públicas. La Administración Presupuestaria, para salvaguardar la protección del acceso libre e irrestricto de los ciudadanos a este Portal y a su información podrá adoptar medidas restrictivas de acceso al API ante situaciones de manifiesto abuso del servicio, riesgos de seguridad, o uso fraudulento de la información descargada, de acuerdo con las buenas prácticas de gestión de datos abiertos (https://datos.gob.es/es/blog/limitaciones-la-consulta-de-una-api) establecidas por el Ministerio para la Transformación Digital y de la Función Pública."}