{"content":[{"id":1120075,"mrr":false,"numeroConvocatoria":"918514","descripcion":"Bases específiques de la convocatòria de subvencions en el àmbit  de l´ Àrea de serveis a la Persona i drets socials i media ambient del  Ajuntament de Sant Joan Despi. Any 2024 (Annex 8 Gent Gran )","descripcionLeng":"Bases específiques de la convocatòria de subvencions en el àmbit  de l´ Àrea de serveis a la Persona i drets socials i media ambient del  Ajuntament de Sant Joan Despi. Any 2024 (Annex 8 Gent Gran )","fechaRecepcion":"2026-07-10","nivel1":"LOCAL","nivel2":"SANT JOAN DESPÍ","nivel3":"AYUNTAMIENTO DE SANT JOAN DESPÍ","codigoInvente":null},{"id":1120073,"mrr":false,"numeroConvocatoria":"918512","descripcion":"Bases específiques de la convocatòria de subvencions en el àmbit  de l´ Àrea de serveis a la Persona i drets socials i media ambient del  Ajuntament de Sant Joan Despi. Any 2024 (Annex 10 CONVENIS ANUALS I/O SUBVENCIONS PUNTUALS)","descripcionLeng":"Bases específiques de la convocatòria de subvencions en el àmbit  de l´ Àrea de serveis a la Persona i drets socials i media ambient del  Ajuntament de Sant Joan Despi. Any 2024 (Annex 10 CONVENIS ANUALS I/O SUBVENCIONS PUNTUALS)","fechaRecepcion":"2026-07-10","nivel1":"LOCAL","nivel2":"SANT JOAN DESPÍ","nivel3":"AYUNTAMIENTO DE SANT JOAN DESPÍ","codigoInvente":null},{"id":1120072,"mrr":false,"numeroConvocatoria":"918511","descripcion":"Acuerdo Junta de Gobierno Local del 03-07-2026 por el que se aprueban las bases reguladoras para el Concurso de Comparsas  de la cabalgata de Feria y Fiestas 2026 en Alcalá de Henares.","descripcionLeng":null,"fechaRecepcion":"2026-07-10","nivel1":"LOCAL","nivel2":"ALCALÁ DE HENARES","nivel3":"AYUNTAMIENTO DE ALCALÁ DE HENARES","codigoInvente":null},{"id":1120069,"mrr":false,"numeroConvocatoria":"918508","descripcion":"Projectes educatius dels centres","descripcionLeng":"Projectes educatius dels centres","fechaRecepcion":"2026-07-10","nivel1":"LOCAL","nivel2":"SANT JOAN DESPÍ","nivel3":"AYUNTAMIENTO DE SANT JOAN DESPÍ","codigoInvente":null},{"id":1120068,"mrr":false,"numeroConvocatoria":"918507","descripcion":"Convenis Anuals, Sanitat  2024","descripcionLeng":"Convenis Anuals, Sanitat 2024","fechaRecepcion":"2026-07-10","nivel1":"LOCAL","nivel2":"SANT JOAN DESPÍ","nivel3":"AYUNTAMIENTO DE SANT JOAN DESPÍ","codigoInvente":null},{"id":1120067,"mrr":false,"numeroConvocatoria":"918506","descripcion":"CONVENIS ANUALS BENESTAR ANIMAL","descripcionLeng":"CONVENIS ANUALS BENESTAR ANIMAL","fechaRecepcion":"2026-07-10","nivel1":"LOCAL","nivel2":"SANT JOAN DESPÍ","nivel3":"AYUNTAMIENTO DE SANT JOAN DESPÍ","codigoInvente":null},{"id":1120066,"mrr":false,"numeroConvocatoria":"918505","descripcion":"Decreto nº 1886/26, por el que se aprueba la convocatoria de subvenciones para la instalación, mejora o sustitución de equipos de tratamiento de agua de consumo procedente de manantial, ejercicio 2026.","descripcionLeng":"1886/26 Dekretuarena, iturburutik datorren kontsumorako ura tratatzeko ekipoak instalatu, hobetu edo ordezteko dirulaguntzen deialdia onartzen duena, 2026ko ekitaldia.","fechaRecepcion":"2026-07-10","nivel1":"LOCAL","nivel2":"ERANDIO","nivel3":"AYUNTAMIENTO DE ERANDIO","codigoInvente":null},{"id":1120064,"mrr":false,"numeroConvocatoria":"918503","descripcion":"CONVOCATORIA DE AYUDAS PARA APOYAR LA COMPRA DEL PRIMER BARCO POR JÓVENES PESCADORES, COFINANCIADAS POR EL FONDO EUROPEO MARÍTIMO, DE PESCA Y DE ACUICULTURA (FEMPA).","descripcionLeng":null,"fechaRecepcion":"2026-07-10","nivel1":"AUTONOMICA","nivel2":"CANTABRIA","nivel3":"CONSEJERÍA DE DESARROLLO RURAL, GANADERÍA, PESCA Y ALIMENTACIÓN","codigoInvente":null},{"id":1120063,"mrr":false,"numeroConvocatoria":"918502","descripcion":"Ayudas para la puesta en marcha de grupos de cooperación para la innovación en digitalización y gestión sostenible de explotaciones ganaderas 2026","descripcionLeng":null,"fechaRecepcion":"2026-07-10","nivel1":"AUTONOMICA","nivel2":"ILLES BALEARS","nivel3":"FONDO DE GARANTÍA AGRARIA Y PESQUERA DE LAS ISLAS BALEARES (FOGAIBA)","codigoInvente":"INV00002669"},{"id":1120059,"mrr":false,"numeroConvocatoria":"918498","descripcion":"Concesión de las ayudas 2026 al impulso económico y la recuperación de los espacios agrícolas de Massamagrell","descripcionLeng":null,"fechaRecepcion":"2026-07-10","nivel1":"LOCAL","nivel2":"MASSAMAGRELL","nivel3":"AYUNTAMIENTO DE MASSAMAGRELL","codigoInvente":null},{"id":1120058,"mrr":false,"numeroConvocatoria":"918497","descripcion":"SUBVENCIONES PARA ESTUDIOS SUPERIORES 2026","descripcionLeng":null,"fechaRecepcion":"2026-07-10","nivel1":"LOCAL","nivel2":"PORTAJE","nivel3":"AYUNTAMIENTO DE PORTAJE","codigoInvente":null},{"id":1120057,"mrr":false,"numeroConvocatoria":"918496","descripcion":"Participació al cicle festiu: Rua de Carnaval 2025","descripcionLeng":"Participació al cicle festiu: Rua de Carnaval 2025","fechaRecepcion":"2026-07-10","nivel1":"LOCAL","nivel2":"SANT JOAN DESPÍ","nivel3":"AYUNTAMIENTO DE SANT JOAN DESPÍ","codigoInvente":null},{"id":1120055,"mrr":false,"numeroConvocatoria":"918494","descripcion":"Subvencions a l'associacionisme en la participació d'activitats de lleure: colònies i campaments.","descripcionLeng":"Subvencions a l'associacionisme en la participació d'activitats de lleure: colònies i campaments.","fechaRecepcion":"2026-07-10","nivel1":"LOCAL","nivel2":"SANT JOAN DESPÍ","nivel3":"AYUNTAMIENTO DE SANT JOAN DESPÍ","codigoInvente":null},{"id":1120053,"mrr":false,"numeroConvocatoria":"918492","descripcion":"Projectes educatius dels centres","descripcionLeng":"Projectes educatius dels centres","fechaRecepcion":"2026-07-10","nivel1":"LOCAL","nivel2":"SANT JOAN DESPÍ","nivel3":"AYUNTAMIENTO DE SANT JOAN DESPÍ","codigoInvente":null},{"id":1120051,"mrr":false,"numeroConvocatoria":"918490","descripcion":"Bases específiques de la convocatòria de subvencions en el àmbit  de l´ Àrea de serveis a la Persona i drets socials i media ambient del  Ajuntament de Sant Joan Despi. Any 2025 (Annex 4 Serveis socials, diversitat funcional i salut mental )","descripcionLeng":"Bases específiques de la convocatòria de subvencions en el àmbit  de l´ Àrea de serveis a la Persona i drets socials i media ambient del  Ajuntament de Sant Joan Despi. Any 2024 (Annex 4 Serveis socials, diversitat funcional i salut mental )","fechaRecepcion":"2026-07-10","nivel1":"LOCAL","nivel2":"SANT JOAN DESPÍ","nivel3":"AYUNTAMIENTO DE SANT JOAN DESPÍ","codigoInvente":null},{"id":1120049,"mrr":false,"numeroConvocatoria":"918488","descripcion":"Bases específiques de la convocatòria de subvencions en el àmbit  de l´ Àrea de serveis a la Persona i drets socials i media ambient del  Ajuntament de Sant Joan Despi. Any 2025 (Annex 6 )Convenis Joventut","descripcionLeng":"Bases específiques de la convocatòria de subvencions en el àmbit  de l´ Àrea de serveis a la Persona i drets socials i media ambient del  Ajuntament de Sant Joan Despi. Any 2025 (Annex 6 Convenis Joventut )","fechaRecepcion":"2026-07-10","nivel1":"LOCAL","nivel2":"SANT JOAN DESPÍ","nivel3":"AYUNTAMIENTO DE SANT JOAN DESPÍ","codigoInvente":null},{"id":1120047,"mrr":false,"numeroConvocatoria":"918486","descripcion":"Bases específiques de la convocatòria de subvencions en el àmbit  de l´ Àrea de serveis a la Persona i drets socials i media ambient del  Ajuntament de Sant Joan Despi. Any 2025 (Annex 8 Gent Gran )\n","descripcionLeng":"Bases específiques de la convocatòria de subvencions en el àmbit  de l´ Àrea de serveis a la Persona i drets socials i media ambient del  Ajuntament de Sant Joan Despi. Any 2025 (Annex 8 Gent Gran )\n","fechaRecepcion":"2026-07-10","nivel1":"LOCAL","nivel2":"SANT JOAN DESPÍ","nivel3":"AYUNTAMIENTO DE SANT JOAN DESPÍ","codigoInvente":null},{"id":1120041,"mrr":false,"numeroConvocatoria":"918480","descripcion":"Bases específiques de la convocatòria de subvencions en el àmbit  de l'Àrea de serveis a la Persona i drets socials i media ambient del  Ajuntament de Sant Joan Despi. Any 2025 (Annex 7.2 PROJECTES D'EDUCACIÓ PER LA CIUTADANIA GLOBAL)","descripcionLeng":"Bases específiques de la convocatòria de subvencions en el àmbit  de l'Àrea de serveis a la Persona i drets socials i media ambient del  Ajuntament de Sant Joan Despi. Any 2025 (Annex 7.2 PROJECTES D'EDUCACIÓ PER LA CIUTADANIA GLOBAL)","fechaRecepcion":"2026-07-10","nivel1":"LOCAL","nivel2":"SANT JOAN DESPÍ","nivel3":"AYUNTAMIENTO DE SANT JOAN DESPÍ","codigoInvente":null},{"id":1120040,"mrr":false,"numeroConvocatoria":"918479","descripcion":"Concesión de ayudas económicas para el Concurso de Diseño del Cartel de la “LXXIX Fira de Ramaderia i Maquinària Agrícola de Nules” aprobado por Resolución de Alcaldía 2026-2724 de fecha 09-07-2026.","descripcionLeng":null,"fechaRecepcion":"2026-07-10","nivel1":"LOCAL","nivel2":"NULES","nivel3":"AYUNTAMIENTO DE NULES","codigoInvente":null},{"id":1120037,"mrr":false,"numeroConvocatoria":"918476","descripcion":"Bases específiques de la convocatòria de subvencions en el àmbit  de l´ Àrea de serveis a la Persona i drets socials i media ambient del  Ajuntament de Sant Joan Despi. Any 2025 (Annex 7.2) PROJECTES DE COOPERACIÓ per a la ciutadania global)","descripcionLeng":"Bases específiques de la convocatòria de subvencions en el àmbit  de l´ Àrea de serveis a la Persona i drets socials i media ambient del  Ajuntament de Sant Joan Despi. Any 2025 (Annex 7.2) PROJECTES DE COOPERACIÓ per a la ciutadania global)","fechaRecepcion":"2026-07-10","nivel1":"LOCAL","nivel2":"SANT JOAN DESPÍ","nivel3":"AYUNTAMIENTO DE SANT JOAN DESPÍ","codigoInvente":null},{"id":1120036,"mrr":false,"numeroConvocatoria":"918475","descripcion":"2026 AYUDAS URGENCIA SOCIAL","descripcionLeng":null,"fechaRecepcion":"2026-07-10","nivel1":"LOCAL","nivel2":"OLÈRDOLA","nivel3":"AYUNTAMIENTO DE OLÈRDOLA","codigoInvente":null},{"id":1120035,"mrr":false,"numeroConvocatoria":"918474","descripcion":"Convocatoria de subvenciones 2026 para la colocación de rótulos en Euskera en establecimientos comerciales de Bermeo.","descripcionLeng":"Bermeoko Merkataritza establezimenduetan errotuloak Euskeraz ipintzeko 2026.urteko dirulaguntzen deialdia","fechaRecepcion":"2026-07-10","nivel1":"LOCAL","nivel2":"BERMEO","nivel3":"AYUNTAMIENTO DE BERMEO","codigoInvente":null},{"id":1120034,"mrr":false,"numeroConvocatoria":"918473","descripcion":"Convenis anuals.2025 Benestar animal","descripcionLeng":"Convenis anuals.2025 Benestar animal","fechaRecepcion":"2026-07-10","nivel1":"LOCAL","nivel2":"SANT JOAN DESPÍ","nivel3":"AYUNTAMIENTO DE SANT JOAN DESPÍ","codigoInvente":null},{"id":1120033,"mrr":false,"numeroConvocatoria":"918472","descripcion":"Suport a entitats del municipi pel desenvolupament de programes i activitats d’interès\nambiental per a la ciutat i per al medi ambient, emmarcats dins de l’àmbit de l’educació\nambiental a les escoles i de l’agricultura de producció integrada","descripcionLeng":"Suport a entitats del municipi pel desenvolupament de programes i activitats d’interès\nambiental per a la ciutat i per al medi ambient, emmarcats dins de l’àmbit de l’educació\nambiental a les escoles i de l’agricultura de producció integrada","fechaRecepcion":"2026-07-10","nivel1":"LOCAL","nivel2":"SANT JOAN DESPÍ","nivel3":"AYUNTAMIENTO DE SANT JOAN DESPÍ","codigoInvente":null},{"id":1120022,"mrr":false,"numeroConvocatoria":"918461","descripcion":"Subvencions per als desplaçaments en transport public per a joves menors de 30 anys que cursin estudis superiors el curs 2024/2025","descripcionLeng":"Subvencions per als desplaçaments en transport public per a joves menors de 30 anys que cursin estudis superiors el curs 2024/2025","fechaRecepcion":"2026-07-10","nivel1":"LOCAL","nivel2":"SANT JOAN DESPÍ","nivel3":"AYUNTAMIENTO DE SANT JOAN DESPÍ","codigoInvente":null},{"id":1120014,"mrr":false,"numeroConvocatoria":"918453","descripcion":"Ayudas a entidades colaboradoras de pesca continental para el fomento de la riqueza piscícola y se fija una segunda convocatoria para el año 2026 (procedimiento MT808A)","descripcionLeng":"Axudas a entidades colaboradoras de pesca continental para o fomento da riqueza piscícola e se fixa unha segunda convocatoria para o ano 2026 (procedemento MT808A)","fechaRecepcion":"2026-07-10","nivel1":"AUTONOMICA","nivel2":"GALICIA","nivel3":"CONSELLERÍA DE MEDIO AMBIENTE Y CAMBIO CLIMÁTICO","codigoInvente":null},{"id":1120010,"mrr":false,"numeroConvocatoria":"918449","descripcion":"CONVOCATORIA PÚBLICA DE SUBVENCIONES DE SALUD EJERCICIO 2026.","descripcionLeng":null,"fechaRecepcion":"2026-07-10","nivel1":"LOCAL","nivel2":"CHICLANA DE LA FRONTERA","nivel3":"AYUNTAMIENTO DE CHICLANA DE LA FRONTERA","codigoInvente":null},{"id":1120001,"mrr":false,"numeroConvocatoria":"918440","descripcion":"Convocatoria y bases específicas para la concesión subvenciones destinadas a la organización de actividades o eventos deportivos realizados en la ciudad de Castellón de la Plana, desde el 1 de octubre de 2025 al 30 de septiembre de 2026.","descripcionLeng":"Convocatòria i bases específiques per a la concessió subvencions destinades a l'organització d'activitats o esdeveniments esportius realitzats en la ciutat de Castelló de la Plana, des de l'1 d'octubre de 2025 al 30 de setembre de 2026.","fechaRecepcion":"2026-07-10","nivel1":"LOCAL","nivel2":"CASTELLÓN DE LA PLANA/CASTELLÓ DE LA PLANA","nivel3":"PATRONATO MUNICIPAL DE DEPORTES DE CASTELLÓN","codigoInvente":null},{"id":1119992,"mrr":false,"numeroConvocatoria":"918431","descripcion":"V Festival internacional de mediometrajes de Manzanares El Real. FIMMER 2026","descripcionLeng":null,"fechaRecepcion":"2026-07-10","nivel1":"LOCAL","nivel2":"MANZANARES EL REAL","nivel3":"AYUNTAMIENTO DE MANZANARES EL REAL","codigoInvente":null},{"id":1119989,"mrr":false,"numeroConvocatoria":"918428","descripcion":"Ayudas 2026  Enfoque Leader para apoyo a la innovación social, la gobernanza multinivel y la dinamización social y económica.(Intervención 7119 PEPAC), s/ II Convo (PEPAC 2023-2027) G.A.L. ADEME","descripcionLeng":null,"fechaRecepcion":"2026-07-10","nivel1":"AUTONOMICA","nivel2":"EXTREMADURA","nivel3":"DIRECCIÓN GENERAL DE DESARROLLO RURAL","codigoInvente":null},{"id":1119988,"mrr":false,"numeroConvocatoria":"918427","descripcion":"Ayudas 2026  Enfoque Leader a inversiones en acciones a mantenimiento, recuperación y rehabilitación del patrimonio rural.(Intervención 7119 PEPAC), s/ II Convo (PEPAC 2023-2027) G.A.L. ADEME","descripcionLeng":null,"fechaRecepcion":"2026-07-10","nivel1":"AUTONOMICA","nivel2":"EXTREMADURA","nivel3":"DIRECCIÓN GENERAL DE DESARROLLO RURAL","codigoInvente":null},{"id":1119987,"mrr":false,"numeroConvocatoria":"918426","descripcion":"Ayudas 2026  Enfoque Leader a inversiones en acciones a servicios básicos para la economía y la población rural (Intervención 7119 PEPAC), s/ II Convo (PEPAC 2023-2027) G.A.L. ADEME","descripcionLeng":null,"fechaRecepcion":"2026-07-10","nivel1":"AUTONOMICA","nivel2":"EXTREMADURA","nivel3":"DIRECCIÓN GENERAL DE DESARROLLO RURAL","codigoInvente":null},{"id":1119984,"mrr":false,"numeroConvocatoria":"918423","descripcion":"Bases reguladoras del concurso de `Calles Engalanadas` de las Fiestas de Hogueras y Barracas 2026","descripcionLeng":null,"fechaRecepcion":"2026-07-10","nivel1":"LOCAL","nivel2":"SAN VICENTE DEL RASPEIG/SANT VICENT DEL RASPEIG","nivel3":"AYUNTAMIENTO DE SAN VICENTE DEL RASPEIG/SANT VICENT DEL RASPEIG","codigoInvente":null},{"id":1119978,"mrr":false,"numeroConvocatoria":"918417","descripcion":"Resolución del consejero de Educación y Universidades por la que se convocan los Premios Extraordinarios de Educación Secundaria Obligatoria en las Illes Balears correspondientes al curso 2025-2026","descripcionLeng":"Resolució del conseller d'Educació i Universitats per la qual es convoquen el Premis Extraordinaris d'Educació Secundària Obligatòria a les Illes Balears corresponents al curs 2025-2026","fechaRecepcion":"2026-07-10","nivel1":"AUTONOMICA","nivel2":"ILLES BALEARS","nivel3":"DIRECCIÓN GENERAL DE FORMACIÓN PROFESIONAL Y FORMACIÓN DEL PROFESORADO","codigoInvente":null},{"id":1119977,"mrr":false,"numeroConvocatoria":"918416","descripcion":"Resolución del consejero de Educación y Universidades por la que se convocan los Premios Extraordinarios de Bachillerato en las Illes Balears correspondientes al curso 2025-2026","descripcionLeng":"Resolució del conseller d'Educació i Universitats per la qual es convoquen el Premis Extraordinaris de Batxillerat a les Illes Balears corresponents al curs 2025-2026","fechaRecepcion":"2026-07-10","nivel1":"AUTONOMICA","nivel2":"ILLES BALEARS","nivel3":"DIRECCIÓN GENERAL DE FORMACIÓN PROFESIONAL Y FORMACIÓN DEL PROFESORADO","codigoInvente":null},{"id":1119976,"mrr":false,"numeroConvocatoria":"918415","descripcion":"ADQ. VIVIENDA MENORES 40 AÑOS","descripcionLeng":"ADQ. VIVIENDE MENORS 40 ANYS","fechaRecepcion":"2026-07-10","nivel1":"AUTONOMICA","nivel2":"ILLES BALEARS","nivel3":"DIRECCIÓN GENERAL DE ARQUITECTURA Y VIVIENDA","codigoInvente":null},{"id":1119974,"mrr":false,"numeroConvocatoria":"918413","descripcion":"convocatoria de subvenciones para ejecutar proyectos de estancias para personas profesionales o colaboradoras de ONGD para el año 2026","descripcionLeng":"convocatòria de subvencions per executar projectes d’estades per a persones professionals o col·laboradores d’ONGD per a l’any 2026","fechaRecepcion":"2026-07-10","nivel1":"AUTONOMICA","nivel2":"ILLES BALEARS","nivel3":"DIRECCIÓN GENERAL DE INMIGRACIÓN Y COOPERACIÓN AL DESARROLLO","codigoInvente":null},{"id":1119970,"mrr":false,"numeroConvocatoria":"918409","descripcion":"PARTICIPACIÓN EN COMPETICIONES DEPORTIVAS (26/27)","descripcionLeng":"KIROL LEHIAKETETAN PARTE HARTZEA (26/27)","fechaRecepcion":"2026-07-09","nivel1":"AUTONOMICA","nivel2":"PAÍS VASCO","nivel3":"DEPARTAMENTO DE CULTURA Y POLITICA LINGÜISTICA","codigoInvente":null},{"id":1119968,"mrr":false,"numeroConvocatoria":"918407","descripcion":"Programa de subvenciones a cofradías de pescadores, federaciones provinciales de cofradías y agrupaciones de mariscadoras y mariscadores de la provincia de A Coruña para actividades en el año 2026 (FO027A/2026) - RELACIONADA CON LA CONVOCATORIA 867971","descripcionLeng":"Programa de subvencións a confrarías de pescadores, federacións provinciais de confrarías e agrupacións de mariscadoras e mariscadores da provincia da Coruña para actividades no ano 2026 (FO027A/2026) - RELACIONADA COA CONVOCATORIA 867971","fechaRecepcion":"2026-07-09","nivel1":"LOCAL","nivel2":"DIPUTACIÓN PROV. DE A CORUÑA","nivel3":"DIPUTACIÓN PROVINCIAL DE CORUÑA, A","codigoInvente":null},{"id":1119964,"mrr":false,"numeroConvocatoria":"918403","descripcion":"BASES REGULADORAS DEL CONCURSO DE CARTELES DE LA FERIA Y FIESTAS DE LA MAGDALENA 2027","descripcionLeng":"BASES REGULADORES DEL CONCURS DE CARTELLS DE LA FIRA I FESTES DE LA MAGDALENA 2027","fechaRecepcion":"2026-07-09","nivel1":"LOCAL","nivel2":"CASTELLÓN DE LA PLANA/CASTELLÓ DE LA PLANA","nivel3":"PATRONATO MUNICIPAL DE FIESTAS DE CASTELLÓN","codigoInvente":"INV00004437"},{"id":1119963,"mrr":false,"numeroConvocatoria":"918402","descripcion":"CONVOCATORIA Y BASES ESPECÍFICAS PARA LA CONCESIÓN DE SUBVENCIONES POR PARTE DEL PATRONATO MUNICIPAL DE FIESTAS DE CASTELLÓN DE LA PLANA, DESTINADAS A FINANCIAR LAS FIESTAS DE LOS BARRIOS Y GRUPOS PERIFÉRICOS DE LA CIUDAD DE CASTELLÓN DE LA PLANA, 2026","descripcionLeng":"CONVOCATÒRIA I BASES ESPECÍFIQUES PER A LA CONCESSIÓ DE SUBVENCIONS PER PART DEL PATRONAT MUNICIPAL DE FESTES DE CASTELLÓ DE LA PLANA,\nDESTINADES A FINANÇAR LES FESTES DELS BARRIS I GRUPS PERIFÈRICS DE LA CIUTAT DE CASTELLÓ DE LA PLANA, 2026.","fechaRecepcion":"2026-07-09","nivel1":"LOCAL","nivel2":"CASTELLÓN DE LA PLANA/CASTELLÓ DE LA PLANA","nivel3":"PATRONATO MUNICIPAL DE FIESTAS DE CASTELLÓN","codigoInvente":"INV00004437"},{"id":1119962,"mrr":false,"numeroConvocatoria":"918401","descripcion":"CONVOCATORIA Y BASES ESPECÍFICAS PARA LA CONCESIÓN DE SUBVENCIONES POR PARTE DEL PATRONATO MUNICIPAL DE FIESTAS DE CASTELLÓN DE LA PLANA, DESTINADAS A FINANCIAR LAS TRADICIONALES «FESTES DE CARRER» DE LA CIUDAD DE CASTELLÓN DE LA PLANA, EJERCICIO 2026","descripcionLeng":"CONVOCATÒRIA I BASES ESPECÍFIQUES PER A LA CONCESSIÓ DE SUBVENCIONS PER PART DEL PATRONAT MUNICIPAL DE FESTES DE CASTELLÓ DE LA PLANA, DESTINADES A FINANÇAR LES TRADICIONALS «FESTES DE CARRER» DE LA CIUTAT DE CASTELLÓ DE LA PLANA, EXERCICI 2026.","fechaRecepcion":"2026-07-09","nivel1":"LOCAL","nivel2":"CASTELLÓN DE LA PLANA/CASTELLÓ DE LA PLANA","nivel3":"PATRONATO MUNICIPAL DE FIESTAS DE CASTELLÓN","codigoInvente":"INV00004437"},{"id":1119959,"mrr":false,"numeroConvocatoria":"918398","descripcion":"Convocatoria de cesión de uso temporal de vivienda destinada a cubrir necesidades de emergencia habitacional 2026","descripcionLeng":null,"fechaRecepcion":"2026-07-09","nivel1":"LOCAL","nivel2":"SILLA","nivel3":"AYUNTAMIENTO DE SILLA","codigoInvente":null},{"id":1119954,"mrr":false,"numeroConvocatoria":"918393","descripcion":"Resolución Convocatoria Subvenciones proyectos de Inclusión Sociolaboral 2026-2027","descripcionLeng":null,"fechaRecepcion":"2026-07-09","nivel1":"AUTONOMICA","nivel2":"PRINCIPADO DE ASTURIAS","nivel3":"SERVICIO PÚBLICO DE EMPLEO DEL PRINCIPADO DE ASTURIAS","codigoInvente":"INV00005057"},{"id":1119953,"mrr":false,"numeroConvocatoria":"918392","descripcion":"Resolución de 7 de julio de 2026 de la Dirección de la Agencia Española de Cooperación Internacional para el Desarrollo por la que se convocan subvenciones en concurrencia competitiva para acciones y proyectos de cooperación del Programa Democracia 2026","descripcionLeng":null,"fechaRecepcion":"2026-07-09","nivel1":"ESTADO","nivel2":"MINISTERIO DE ASUNTOS EXTERIORES, UNIÓN EUROPEA Y COOPERACIÓN","nivel3":"AGENCIA ESTATAL AGENCIA ESPAÑOLA DE COOPERACIÓN INTERNACIONAL PARA EL DESARROLLO","codigoInvente":"INV00000095"},{"id":1119936,"mrr":false,"numeroConvocatoria":"918375","descripcion":"PROGRAMA DE FOMENTO DE EMPLEO AGRARIO 2026","descripcionLeng":null,"fechaRecepcion":"2026-07-09","nivel1":"LOCAL","nivel2":"DIPUTACIÓN PROV. DE JAÉN","nivel3":"DIPUTACIÓN PROVINCIAL DE JAÉN","codigoInvente":null},{"id":1119934,"mrr":false,"numeroConvocatoria":"918373","descripcion":"Resolución de la Agencia Española de Protección de Datos por la que se aprueban las bases reguladoras y se convoca el Premio de Privacidad y Protección de Datos en Iberoamérica, para el año 2026","descripcionLeng":null,"fechaRecepcion":"2026-07-09","nivel1":"OTROS","nivel2":"AGENCIA ESPAÑOLA DE PROTECCIÓN DE DATOS","nivel3":null,"codigoInvente":null},{"id":1119933,"mrr":false,"numeroConvocatoria":"918372","descripcion":"Resolución de la Agencia Española de Protección de Datos por la que se aprueban las bases reguladoras y se convoca el Premio Comunicación de Protección de Datos Personales, para el año 2026","descripcionLeng":null,"fechaRecepcion":"2026-07-09","nivel1":"OTROS","nivel2":"AGENCIA ESPAÑOLA DE PROTECCIÓN DE DATOS","nivel3":null,"codigoInvente":null},{"id":1119931,"mrr":false,"numeroConvocatoria":"918370","descripcion":"Resolución de la Agencia Española de Protección de Datos por la que se aprueban las bases reguladoras y se convoca el Premio a la difusión del derecho fundamental a la protección de datos personales en redes sociales, para el año 2026","descripcionLeng":null,"fechaRecepcion":"2026-07-09","nivel1":"OTROS","nivel2":"AGENCIA ESPAÑOLA DE PROTECCIÓN DE DATOS","nivel3":null,"codigoInvente":null},{"id":1119923,"mrr":false,"numeroConvocatoria":"918362","descripcion":"Resolución de la Agencia Española de Protección de Datos, por la que se aprueban las bases reguladoras y se convoca el Premio de Investigación jurídica en Protección de Datos Personales «Emilio Aced», para el año 2026.","descripcionLeng":null,"fechaRecepcion":"2026-07-09","nivel1":"OTROS","nivel2":"AGENCIA ESPAÑOLA DE PROTECCIÓN DE DATOS","nivel3":null,"codigoInvente":null}],"pageable":{"sort":{"sorted":true,"unsorted":false,"empty":false},"pageNumber":14,"pageSize":50,"offset":700,"unpaged":false,"paged":true},"last":false,"totalElements":10000,"totalPages":200,"first":false,"sort":{"sorted":true,"unsorted":false,"empty":false},"numberOfElements":50,"size":50,"number":14,"empty":false,"advertencia":"La reutilización de los datos del Sistema Nacional de Publicidad de Subvenciones y Ayudas Públicas está sujeta a una serie de restricciones y consideraciones legales. Consulte el aviso legal en https://www.infosubvenciones.es/bdnstrans/GE/es/avisolegal.Además, el usuario debe ser consciente que la información presentada es de naturaleza dinámica, y que los datos pueden ser sometidos a correcciones, inserciones, modificaciones y eliminaciones en momentos posteriores a su extracción. Accesos al API del sistema Nacional de Publicidad de Subvenciones y Ayudas Públicas. La Administración Presupuestaria, para salvaguardar la protección del acceso libre e irrestricto de los ciudadanos a este Portal y a su información podrá adoptar medidas restrictivas de acceso al API ante situaciones de manifiesto abuso del servicio, riesgos de seguridad, o uso fraudulento de la información descargada, de acuerdo con las buenas prácticas de gestión de datos abiertos (https://datos.gob.es/es/blog/limitaciones-la-consulta-de-una-api) establecidas por el Ministerio para la Transformación Digital y de la Función Pública."}