{"content":[{"id":1114186,"mrr":false,"numeroConvocatoria":"912625","descripcion":"Convocatoria subvenciones para la realización de conciertos de música de cámara","descripcionLeng":"Convocatòria subvencions per a la realització de concerts de música de cambra","fechaRecepcion":"2026-06-12","nivel1":"LOCAL","nivel2":"DIPUTACIÓN PROV. DE VALENCIA","nivel3":"DIPUTACIÓN PROVINCIAL DE VALENCIA","codigoInvente":null},{"id":1114183,"mrr":false,"numeroConvocatoria":"912622","descripcion":"CONVOCATORIA SUBVENCIONES SMART CITIES 2025 - IOM","descripcionLeng":"CONVOCATORIA SUBVENCIONES SMART CITIES 2025 - IOM","fechaRecepcion":"2026-06-12","nivel1":"LOCAL","nivel2":"DIPUTACIÓN PROV. DE VALENCIA","nivel3":"DIPUTACIÓN PROVINCIAL DE VALENCIA","codigoInvente":null},{"id":1114179,"mrr":false,"numeroConvocatoria":"912618","descripcion":"Convocatoria subv. smart city 2025 (FCO.CAMPOS)","descripcionLeng":"Convocatoria subv. smart city 2025 (FCO.CAMPOS)","fechaRecepcion":"2026-06-12","nivel1":"LOCAL","nivel2":"DIPUTACIÓN PROV. DE VALENCIA","nivel3":"DIPUTACIÓN PROVINCIAL DE VALENCIA","codigoInvente":null},{"id":1114177,"mrr":false,"numeroConvocatoria":"912616","descripcion":"CONVOCATORIA SUBV. SMART CITIES 2025 - DAVID","descripcionLeng":"CONVOCATORIA SUBV. SMART CITIES 2025 - DAVID","fechaRecepcion":"2026-06-12","nivel1":"LOCAL","nivel2":"DIPUTACIÓN PROV. DE VALENCIA","nivel3":"DIPUTACIÓN PROVINCIAL DE VALENCIA","codigoInvente":null},{"id":1114175,"mrr":false,"numeroConvocatoria":"912614","descripcion":"CONVOCATORIA SMART 2025","descripcionLeng":"CONVOCATORIA SMART 2025","fechaRecepcion":"2026-06-12","nivel1":"LOCAL","nivel2":"DIPUTACIÓN PROV. DE VALENCIA","nivel3":"DIPUTACIÓN PROVINCIAL DE VALENCIA","codigoInvente":null},{"id":1114174,"mrr":false,"numeroConvocatoria":"912613","descripcion":"CONVOCATORIA SMART CITIES 2025","descripcionLeng":"CONVOCATORIA SMART CITIES 2025","fechaRecepcion":"2026-06-12","nivel1":"LOCAL","nivel2":"DIPUTACIÓN PROV. DE VALENCIA","nivel3":"DIPUTACIÓN PROVINCIAL DE VALENCIA","codigoInvente":null},{"id":1114173,"mrr":false,"numeroConvocatoria":"912612","descripcion":"CONVOCATORIA SMART CITIES 2025","descripcionLeng":"CONVOCATORIA SMART CITIES 2025","fechaRecepcion":"2026-06-12","nivel1":"LOCAL","nivel2":"DIPUTACIÓN PROV. DE VALENCIA","nivel3":"DIPUTACIÓN PROVINCIAL DE VALENCIA","codigoInvente":null},{"id":1114172,"mrr":false,"numeroConvocatoria":"912611","descripcion":"convocatoria smarts cities 2025","descripcionLeng":"convocatoria smarts cities 2025","fechaRecepcion":"2026-06-12","nivel1":"LOCAL","nivel2":"DIPUTACIÓN PROV. DE VALENCIA","nivel3":"DIPUTACIÓN PROVINCIAL DE VALENCIA","codigoInvente":null},{"id":1114171,"mrr":false,"numeroConvocatoria":"912610","descripcion":"CONVOCATORIA SMART CITY 2025","descripcionLeng":"CONVOCATORIA SMART CITY 2025","fechaRecepcion":"2026-06-12","nivel1":"LOCAL","nivel2":"DIPUTACIÓN PROV. DE VALENCIA","nivel3":"DIPUTACIÓN PROVINCIAL DE VALENCIA","codigoInvente":null},{"id":1114168,"mrr":false,"numeroConvocatoria":"912607","descripcion":"CONVOCATORIA SUBV. SMART CITIES 2026","descripcionLeng":"CONVOCATORIA SUBV. SMART CITIES 2026","fechaRecepcion":"2026-06-12","nivel1":"LOCAL","nivel2":"DIPUTACIÓN PROV. DE VALENCIA","nivel3":"DIPUTACIÓN PROVINCIAL DE VALENCIA","codigoInvente":null},{"id":1114167,"mrr":false,"numeroConvocatoria":"912606","descripcion":"Subvención curso - Carmina","descripcionLeng":"Subvenció curs - Carmina","fechaRecepcion":"2026-06-12","nivel1":"LOCAL","nivel2":"DIPUTACIÓN PROV. DE VALENCIA","nivel3":"DIPUTACIÓN PROVINCIAL DE VALENCIA","codigoInvente":null},{"id":1114166,"mrr":false,"numeroConvocatoria":"912605","descripcion":"Convocatoria subvenciones para la realización de conciertos de música de cámara","descripcionLeng":"Convocatòria subvencions per a la realització de concerts de música de cambra","fechaRecepcion":"2026-06-12","nivel1":"LOCAL","nivel2":"DIPUTACIÓN PROV. DE VALENCIA","nivel3":"DIPUTACIÓN PROVINCIAL DE VALENCIA","codigoInvente":null},{"id":1114165,"mrr":false,"numeroConvocatoria":"912604","descripcion":"CONVOCATORIA SUBVENCIONES SMART CITIES 2025 - IOM","descripcionLeng":"CONVOCATORIA SUBVENCIONES SMART CITIES 2025 - IOM","fechaRecepcion":"2026-06-12","nivel1":"LOCAL","nivel2":"DIPUTACIÓN PROV. DE VALENCIA","nivel3":"DIPUTACIÓN PROVINCIAL DE VALENCIA","codigoInvente":null},{"id":1114163,"mrr":false,"numeroConvocatoria":"912602","descripcion":"Convocatoria subv. smart city 2025 (FCO.CAMPOS)","descripcionLeng":"Convocatoria subv. smart city 2025 (FCO.CAMPOS)","fechaRecepcion":"2026-06-12","nivel1":"LOCAL","nivel2":"DIPUTACIÓN PROV. DE VALENCIA","nivel3":"DIPUTACIÓN PROVINCIAL DE VALENCIA","codigoInvente":null},{"id":1114162,"mrr":false,"numeroConvocatoria":"912601","descripcion":"CONVOCATORIA SUBV. SMART CITIES 2025 - DAVID","descripcionLeng":"CONVOCATORIA SUBV. SMART CITIES 2025 - DAVID","fechaRecepcion":"2026-06-12","nivel1":"LOCAL","nivel2":"DIPUTACIÓN PROV. DE VALENCIA","nivel3":"DIPUTACIÓN PROVINCIAL DE VALENCIA","codigoInvente":null},{"id":1114161,"mrr":false,"numeroConvocatoria":"912600","descripcion":"CONVOCATORIA SMART 2025","descripcionLeng":"CONVOCATORIA SMART 2025","fechaRecepcion":"2026-06-12","nivel1":"LOCAL","nivel2":"DIPUTACIÓN PROV. DE VALENCIA","nivel3":"DIPUTACIÓN PROVINCIAL DE VALENCIA","codigoInvente":null},{"id":1114160,"mrr":false,"numeroConvocatoria":"912599","descripcion":"CONVOCATORIA SMART CITIES 2025","descripcionLeng":"CONVOCATORIA SMART CITIES 2025","fechaRecepcion":"2026-06-12","nivel1":"LOCAL","nivel2":"DIPUTACIÓN PROV. DE VALENCIA","nivel3":"DIPUTACIÓN PROVINCIAL DE VALENCIA","codigoInvente":null},{"id":1114159,"mrr":false,"numeroConvocatoria":"912598","descripcion":"CONVOCATORIA SMART CITIES 2025","descripcionLeng":"CONVOCATORIA SMART CITIES 2025","fechaRecepcion":"2026-06-12","nivel1":"LOCAL","nivel2":"DIPUTACIÓN PROV. DE VALENCIA","nivel3":"DIPUTACIÓN PROVINCIAL DE VALENCIA","codigoInvente":null},{"id":1114158,"mrr":false,"numeroConvocatoria":"912597","descripcion":"convocatoria smarts cities 2025","descripcionLeng":"convocatoria smarts cities 2025","fechaRecepcion":"2026-06-12","nivel1":"LOCAL","nivel2":"DIPUTACIÓN PROV. DE VALENCIA","nivel3":"DIPUTACIÓN PROVINCIAL DE VALENCIA","codigoInvente":null},{"id":1114157,"mrr":false,"numeroConvocatoria":"912596","descripcion":"CONVOCATORIA SMART CITY 2025","descripcionLeng":"CONVOCATORIA SMART CITY 2025","fechaRecepcion":"2026-06-12","nivel1":"LOCAL","nivel2":"DIPUTACIÓN PROV. DE VALENCIA","nivel3":"DIPUTACIÓN PROVINCIAL DE VALENCIA","codigoInvente":null},{"id":1114155,"mrr":false,"numeroConvocatoria":"912594","descripcion":"CONVOCATORIA SUBV. SMART CITIES 2026","descripcionLeng":"CONVOCATORIA SUBV. SMART CITIES 2026","fechaRecepcion":"2026-06-12","nivel1":"LOCAL","nivel2":"DIPUTACIÓN PROV. DE VALENCIA","nivel3":"DIPUTACIÓN PROVINCIAL DE VALENCIA","codigoInvente":null},{"id":1114154,"mrr":false,"numeroConvocatoria":"912593","descripcion":"SUBVENCIÓN A CLUBS DEPORTIVOS DE OLEIROS PARA LA ADQUISICIÓN DE EQUIPAMENTO DEPORTIVO EN EL AÑO 2026","descripcionLeng":"SUBVENCIÓNS A CLUBS DEPORTIVOS DE OLEIROS PARA A ADQUISICIÓN DE EQUIPAMENTO DEPORTIVO NO ANO 2026","fechaRecepcion":"2026-06-12","nivel1":"LOCAL","nivel2":"OLEIROS","nivel3":"AYUNTAMIENTO DE OLEIROS","codigoInvente":null},{"id":1114153,"mrr":false,"numeroConvocatoria":"912592","descripcion":"Subvención curso - Carmina","descripcionLeng":"Subvenció curs - Carmina","fechaRecepcion":"2026-06-12","nivel1":"LOCAL","nivel2":"DIPUTACIÓN PROV. DE VALENCIA","nivel3":"DIPUTACIÓN PROVINCIAL DE VALENCIA","codigoInvente":null},{"id":1114152,"mrr":false,"numeroConvocatoria":"912591","descripcion":"Convocatoria subvenciones para la realización de conciertos de música de cámara","descripcionLeng":"Convocatòria subvencions per a la realització de concerts de música de cambra","fechaRecepcion":"2026-06-12","nivel1":"LOCAL","nivel2":"DIPUTACIÓN PROV. DE VALENCIA","nivel3":"DIPUTACIÓN PROVINCIAL DE VALENCIA","codigoInvente":null},{"id":1114151,"mrr":false,"numeroConvocatoria":"912590","descripcion":"CONVOCATORIA SUBVENCIONES SMART CITIES 2025 - IOM","descripcionLeng":"CONVOCATORIA SUBVENCIONES SMART CITIES 2025 - IOM","fechaRecepcion":"2026-06-12","nivel1":"LOCAL","nivel2":"DIPUTACIÓN PROV. DE VALENCIA","nivel3":"DIPUTACIÓN PROVINCIAL DE VALENCIA","codigoInvente":null},{"id":1114150,"mrr":false,"numeroConvocatoria":"912589","descripcion":"Convocatoria subv. smart city 2025 (FCO.CAMPOS)","descripcionLeng":"Convocatoria subv. smart city 2025 (FCO.CAMPOS)","fechaRecepcion":"2026-06-12","nivel1":"LOCAL","nivel2":"DIPUTACIÓN PROV. DE VALENCIA","nivel3":"DIPUTACIÓN PROVINCIAL DE VALENCIA","codigoInvente":null},{"id":1114149,"mrr":false,"numeroConvocatoria":"912588","descripcion":"CONVOCATORIA SUBV. SMART CITIES 2025 - DAVID","descripcionLeng":"CONVOCATORIA SUBV. SMART CITIES 2025 - DAVID","fechaRecepcion":"2026-06-12","nivel1":"LOCAL","nivel2":"DIPUTACIÓN PROV. DE VALENCIA","nivel3":"DIPUTACIÓN PROVINCIAL DE VALENCIA","codigoInvente":null},{"id":1114148,"mrr":false,"numeroConvocatoria":"912587","descripcion":"Resolución de 11 de junio de 2026 de la Dirección General del CDTI E.P.E., por la que se aprueba la concesión directa de ayudas a proyectos de I+D del Programa Estratégico Corea-España 2026","descripcionLeng":null,"fechaRecepcion":"2026-06-12","nivel1":"ESTADO","nivel2":"MINISTERIO DE CIENCIA, INNOVACIÓN Y UNIVERSIDADES","nivel3":"CENTRO PARA EL DESARROLLO TECNOLÓGICO Y LA INNOVACIÓN E.P.E","codigoInvente":"INV00001172"},{"id":1114147,"mrr":false,"numeroConvocatoria":"912586","descripcion":"CONVOCATORIA SMART 2025","descripcionLeng":"CONVOCATORIA SMART 2025","fechaRecepcion":"2026-06-12","nivel1":"LOCAL","nivel2":"DIPUTACIÓN PROV. DE VALENCIA","nivel3":"DIPUTACIÓN PROVINCIAL DE VALENCIA","codigoInvente":null},{"id":1114146,"mrr":false,"numeroConvocatoria":"912585","descripcion":"CONVOCATORIA SMART CITIES 2025","descripcionLeng":"CONVOCATORIA SMART CITIES 2025","fechaRecepcion":"2026-06-12","nivel1":"LOCAL","nivel2":"DIPUTACIÓN PROV. DE VALENCIA","nivel3":"DIPUTACIÓN PROVINCIAL DE VALENCIA","codigoInvente":null},{"id":1114145,"mrr":false,"numeroConvocatoria":"912584","descripcion":"CONVOCATORIA SMART CITIES 2025","descripcionLeng":"CONVOCATORIA SMART CITIES 2025","fechaRecepcion":"2026-06-12","nivel1":"LOCAL","nivel2":"DIPUTACIÓN PROV. DE VALENCIA","nivel3":"DIPUTACIÓN PROVINCIAL DE VALENCIA","codigoInvente":null},{"id":1114144,"mrr":false,"numeroConvocatoria":"912583","descripcion":"convocatoria smarts cities 2025","descripcionLeng":"convocatoria smarts cities 2025","fechaRecepcion":"2026-06-12","nivel1":"LOCAL","nivel2":"DIPUTACIÓN PROV. DE VALENCIA","nivel3":"DIPUTACIÓN PROVINCIAL DE VALENCIA","codigoInvente":null},{"id":1114143,"mrr":false,"numeroConvocatoria":"912582","descripcion":"CONVOCATORIA SMART CITY 2025","descripcionLeng":"CONVOCATORIA SMART CITY 2025","fechaRecepcion":"2026-06-12","nivel1":"LOCAL","nivel2":"DIPUTACIÓN PROV. DE VALENCIA","nivel3":"DIPUTACIÓN PROVINCIAL DE VALENCIA","codigoInvente":null},{"id":1114142,"mrr":true,"numeroConvocatoria":"912581","descripcion":"Bases específiques de la convocatòria de subvencions en el àmbit  de l´ Àrea de serveis a la Persona i drets socials i media ambient del  Ajuntament de Sant Joan Despi. Any 2025 (Annex 7.1 PROJECTES DE COOPERACIÓ INTERNACIONAL)","descripcionLeng":"Bases específiques de la convocatòria de subvencions en el àmbit  de l´ Àrea de serveis a la Persona i drets socials i media ambient del  Ajuntament de Sant Joan Despi. Any 2025 (Annex 7.1 PROJECTES DE COOPERACIÓ INTERNACIONAL)","fechaRecepcion":"2026-06-12","nivel1":"LOCAL","nivel2":"SANT JOAN DESPÍ","nivel3":"AYUNTAMIENTO DE SANT JOAN DESPÍ","codigoInvente":null},{"id":1114141,"mrr":false,"numeroConvocatoria":"912580","descripcion":"CONVOCATORIA SUBV. SMART CITIES 2026","descripcionLeng":"CONVOCATORIA SUBV. SMART CITIES 2026","fechaRecepcion":"2026-06-12","nivel1":"LOCAL","nivel2":"DIPUTACIÓN PROV. DE VALENCIA","nivel3":"DIPUTACIÓN PROVINCIAL DE VALENCIA","codigoInvente":null},{"id":1114140,"mrr":false,"numeroConvocatoria":"912579","descripcion":"Subvención curso - Carmina","descripcionLeng":"Subvenció curs - Carmina","fechaRecepcion":"2026-06-12","nivel1":"LOCAL","nivel2":"DIPUTACIÓN PROV. DE VALENCIA","nivel3":"DIPUTACIÓN PROVINCIAL DE VALENCIA","codigoInvente":null},{"id":1114139,"mrr":false,"numeroConvocatoria":"912578","descripcion":"Convocatoria subvenciones para la realización de conciertos de música de cámara","descripcionLeng":"Convocatòria subvencions per a la realització de concerts de música de cambra","fechaRecepcion":"2026-06-12","nivel1":"LOCAL","nivel2":"DIPUTACIÓN PROV. DE VALENCIA","nivel3":"DIPUTACIÓN PROVINCIAL DE VALENCIA","codigoInvente":null},{"id":1114138,"mrr":false,"numeroConvocatoria":"912577","descripcion":"CONVOCATORIA SUBVENCIONES SMART CITIES 2025 - IOM","descripcionLeng":"CONVOCATORIA SUBVENCIONES SMART CITIES 2025 - IOM","fechaRecepcion":"2026-06-12","nivel1":"LOCAL","nivel2":"DIPUTACIÓN PROV. DE VALENCIA","nivel3":"DIPUTACIÓN PROVINCIAL DE VALENCIA","codigoInvente":null},{"id":1114137,"mrr":false,"numeroConvocatoria":"912576","descripcion":"Convocatoria subv. smart city 2025 (FCO.CAMPOS)","descripcionLeng":"Convocatoria subv. smart city 2025 (FCO.CAMPOS)","fechaRecepcion":"2026-06-12","nivel1":"LOCAL","nivel2":"DIPUTACIÓN PROV. DE VALENCIA","nivel3":"DIPUTACIÓN PROVINCIAL DE VALENCIA","codigoInvente":null},{"id":1114136,"mrr":false,"numeroConvocatoria":"912575","descripcion":"CONVOCATORIA SUBV. SMART CITIES 2025 - DAVID","descripcionLeng":"CONVOCATORIA SUBV. SMART CITIES 2025 - DAVID","fechaRecepcion":"2026-06-12","nivel1":"LOCAL","nivel2":"DIPUTACIÓN PROV. DE VALENCIA","nivel3":"DIPUTACIÓN PROVINCIAL DE VALENCIA","codigoInvente":null},{"id":1114135,"mrr":false,"numeroConvocatoria":"912574","descripcion":"CONVOCATORIA SMART 2025","descripcionLeng":"CONVOCATORIA SMART 2025","fechaRecepcion":"2026-06-12","nivel1":"LOCAL","nivel2":"DIPUTACIÓN PROV. DE VALENCIA","nivel3":"DIPUTACIÓN PROVINCIAL DE VALENCIA","codigoInvente":null},{"id":1114134,"mrr":false,"numeroConvocatoria":"912573","descripcion":"CONVOCATORIA SMART CITIES 2025","descripcionLeng":"CONVOCATORIA SMART CITIES 2025","fechaRecepcion":"2026-06-12","nivel1":"LOCAL","nivel2":"DIPUTACIÓN PROV. DE VALENCIA","nivel3":"DIPUTACIÓN PROVINCIAL DE VALENCIA","codigoInvente":null},{"id":1114133,"mrr":false,"numeroConvocatoria":"912572","descripcion":"CONVOCATORIA SMART CITIES 2025","descripcionLeng":"CONVOCATORIA SMART CITIES 2025","fechaRecepcion":"2026-06-12","nivel1":"LOCAL","nivel2":"DIPUTACIÓN PROV. DE VALENCIA","nivel3":"DIPUTACIÓN PROVINCIAL DE VALENCIA","codigoInvente":null},{"id":1114132,"mrr":false,"numeroConvocatoria":"912571","descripcion":"convocatoria smarts cities 2025","descripcionLeng":"convocatoria smarts cities 2025","fechaRecepcion":"2026-06-12","nivel1":"LOCAL","nivel2":"DIPUTACIÓN PROV. DE VALENCIA","nivel3":"DIPUTACIÓN PROVINCIAL DE VALENCIA","codigoInvente":null},{"id":1114131,"mrr":false,"numeroConvocatoria":"912570","descripcion":"CONVOCATORIA SMART CITY 2025","descripcionLeng":"CONVOCATORIA SMART CITY 2025","fechaRecepcion":"2026-06-12","nivel1":"LOCAL","nivel2":"DIPUTACIÓN PROV. DE VALENCIA","nivel3":"DIPUTACIÓN PROVINCIAL DE VALENCIA","codigoInvente":null},{"id":1114127,"mrr":false,"numeroConvocatoria":"912566","descripcion":"CONVOCATORIA DE AYUDAS MUNICIPALES A LA INVESTIGACIÓN: 5ª EDICIÓN “PREMIO DE INVESTIGACIÓN RAFELBUNYOL” PARA EL  EJERCICIO 2025","descripcionLeng":"CONVOCATÒRIA D’AJUDES MUNICIPALS A LA INVESTIGACIÓ: 5a EDICIÓ “PREMI D’INVESTIGACIÓ RAFELBUNYOL” PER AL EXERCICI 2026","fechaRecepcion":"2026-06-12","nivel1":"LOCAL","nivel2":"RAFELBUNYOL","nivel3":"AYUNTAMIENTO DE RAFELBUNYOL","codigoInvente":null},{"id":1114101,"mrr":false,"numeroConvocatoria":"912540","descripcion":"Convocatoria de las subvenciones 2026 en régimen de concurrencia competitiva para el pago de cuotas hipotecarias del año 2025","descripcionLeng":"Convocatòria de les subvencions 2026 en règim de concurrència competitiva per al pagament de quotes hipotecàries de l'any 2025","fechaRecepcion":"2026-06-12","nivel1":"LOCAL","nivel2":"RIPOLLET","nivel3":"AYUNTAMIENTO DE RIPOLLET","codigoInvente":null},{"id":1114097,"mrr":false,"numeroConvocatoria":"912536","descripcion":"Resolución de convocatoria para la concesión de subvenciones, en régimen de concurrencia competitiva, para la programación de música en vivo de carácter profesional","descripcionLeng":"Resolució de convocatòria per a la concessió de subvencions, en règim de concurrència competitiva, per a la programació de música en viu de caràcter professional","fechaRecepcion":"2026-06-12","nivel1":"AUTONOMICA","nivel2":"CATALUÑA","nivel3":"INSTITUT CATALÀ DE LES EMPRESES CULTURALS (ICEC)","codigoInvente":"INV00003590"},{"id":1114094,"mrr":false,"numeroConvocatoria":"912533","descripcion":"Resolución del consejero de Cultura, Turismo y Deporte por la que se convocan subvenciones públicas, en régimen de concurrencia competitiva, a las Entidades Locales de Cantabria para la adquisición de fondos bibliográficos.","descripcionLeng":null,"fechaRecepcion":"2026-06-12","nivel1":"AUTONOMICA","nivel2":"CANTABRIA","nivel3":"CONSEJERÍA DE CULTURA, TURISMO Y DEPORTE","codigoInvente":null},{"id":1114088,"mrr":false,"numeroConvocatoria":"912527","descripcion":"Convocatoria para el otorgamiento de subvenciones para entidades sin ánimo de lucro que realizan proyectos o actuaciones de cariz social 2026","descripcionLeng":"Convocatòria per a l'atorgament de subvencions per a entitats sense ànim de lucre que realitzen projectes o actuacions de caire social 2026","fechaRecepcion":"2026-06-12","nivel1":"LOCAL","nivel2":"SANT FELIU DE GUÍXOLS","nivel3":"AYUNTAMIENTO DE SANT FELIU DE GUIXOLS","codigoInvente":null}],"pageable":{"sort":{"sorted":true,"unsorted":false,"empty":false},"pageNumber":1,"pageSize":50,"offset":50,"unpaged":false,"paged":true},"last":false,"totalPages":200,"totalElements":10000,"sort":{"sorted":true,"unsorted":false,"empty":false},"first":false,"numberOfElements":50,"size":50,"number":1,"empty":false,"advertencia":"La reutilización de los datos del Sistema Nacional de Publicidad de Subvenciones y Ayudas Públicas está sujeta a una serie de restricciones y consideraciones legales. Consulte el aviso legal en https://www.infosubvenciones.es/bdnstrans/GE/es/avisolegal.Además, el usuario debe ser consciente que la información presentada es de naturaleza dinámica, y que los datos pueden ser sometidos a correcciones, inserciones, modificaciones y eliminaciones en momentos posteriores a su extracción. Accesos al API del sistema Nacional de Publicidad de Subvenciones y Ayudas Públicas. La Administración Presupuestaria, para salvaguardar la protección del acceso libre e irrestricto de los ciudadanos a este Portal y a su información podrá adoptar medidas restrictivas de acceso al API ante situaciones de manifiesto abuso del servicio, riesgos de seguridad, o uso fraudulento de la información descargada, de acuerdo con las buenas prácticas de gestión de datos abiertos (https://datos.gob.es/es/blog/limitaciones-la-consulta-de-una-api) establecidas por el Ministerio para la Transformación Digital y de la Función Pública."}