{"content":[{"id":1107528,"mrr":false,"numeroConvocatoria":"905967","descripcion":"Subvenciones en materia de Sepelio 2026","descripcionLeng":null,"fechaRecepcion":"2026-05-15","nivel1":"LOCAL","nivel2":"SECASTILLA","nivel3":"AYUNTAMIENTO DE SECASTILLA","codigoInvente":null},{"id":1107526,"mrr":false,"numeroConvocatoria":"905965","descripcion":"Convocatoria abierta de subvenciones destinadas a las asociaciones y entidades privadas para la realización de inversiones durante 2026","descripcionLeng":null,"fechaRecepcion":"2026-05-15","nivel1":"LOCAL","nivel2":"DIPUTACIÓN PROV. DE ALBACETE","nivel3":"DIPUTACIÓN PROVINCIAL DE ALBACETE","codigoInvente":null},{"id":1107521,"mrr":false,"numeroConvocatoria":"905960","descripcion":"LAS BASES Y LA CONVOCATORIA DEL XXVIII CONCURSO DE PINTURA AL AIRE LIBRE. AYUNTAMIENTO DE CIUDAD RODRIGO 2026","descripcionLeng":null,"fechaRecepcion":"2026-05-15","nivel1":"LOCAL","nivel2":"CIUDAD RODRIGO","nivel3":"AYUNTAMIENTO DE CIUDAD RODRIGO","codigoInvente":null},{"id":1107520,"mrr":false,"numeroConvocatoria":"905959","descripcion":"BASES DEL CONCURSO PARA LA ELECCIÓN DEL CARTEL DE LA FERIA DE CALAÑAS 2026","descripcionLeng":null,"fechaRecepcion":"2026-05-15","nivel1":"LOCAL","nivel2":"CALAÑAS","nivel3":"AYUNTAMIENTO DE CALAÑAS","codigoInvente":null},{"id":1107519,"mrr":false,"numeroConvocatoria":"905958","descripcion":"CONVOCATORIA DE SUBVENCIONES PARA EL FOMENTO DE ACTIVIDADES DE UTILIDAD PÚBLICA O INTERÉS SOCIAL QUE COADYUVEN O COMPLEMENTEN AQUELLAS DE COMPETENCIA MUNICIPAL DURANTE EL EJERCICIO 2026","descripcionLeng":null,"fechaRecepcion":"2026-05-15","nivel1":"LOCAL","nivel2":"MIRANDA DE EBRO","nivel3":"AYUNTAMIENTO DE MIRANDA DE EBRO","codigoInvente":null},{"id":1107517,"mrr":false,"numeroConvocatoria":"905956","descripcion":"Convocatoria y bases de las ayudas para la realización de actividades deportivas en el término municipal de Es Mercadal para entidades sin ánimo de lucro","descripcionLeng":null,"fechaRecepcion":"2026-05-15","nivel1":"LOCAL","nivel2":"MERCADAL, ES","nivel3":"AYUNTAMIENTO DE ES MERCADAL","codigoInvente":null},{"id":1107512,"mrr":false,"numeroConvocatoria":"905951","descripcion":"AYUDAS BANCO SANTANDER-UNIVERSIDAD DE ALICANTE PARA ESTANCIAS DE INVESTIGACIÓN EN EL EXTRANJERO DIRIGIDAS A ALUMNADO DE GRADO, MÁSTER Y DOCTORADO DE LA UNIVERSIDAD DE ALICANTE - 2026","descripcionLeng":null,"fechaRecepcion":"2026-05-15","nivel1":"OTROS","nivel2":"UNIVERSIDAD DE ALICANTE","nivel3":null,"codigoInvente":"INV00005329"},{"id":1107511,"mrr":false,"numeroConvocatoria":"905950","descripcion":"XII Concurso de escaparates de Trapagaran 2026","descripcionLeng":"Trapagarango 2026ko XII.Erakusleiho-Lehiaketa","fechaRecepcion":"2026-05-15","nivel1":"LOCAL","nivel2":"VALLE DE TRÁPAGA-TRAPAGARAN","nivel3":"AYUNTAMIENTO DE VALLE DE TRÁPAGA-TRAPAGARAN","codigoInvente":null},{"id":1107510,"mrr":false,"numeroConvocatoria":"905949","descripcion":"Resolución de 7 de mayo de 2026, del Presidente del Servicio Público de Empleo de Castilla y León, por la que se convocan subvenciones destinadas a la financiación de oferta formativa asociada al C.N.C.P. para trabajadores desempleados en Castilla y León","descripcionLeng":null,"fechaRecepcion":"2026-05-15","nivel1":"AUTONOMICA","nivel2":"CASTILLA Y LEÓN","nivel3":"SERVICIO PÚBLICO DE EMPLEO DE CASTILLA Y LEÓN","codigoInvente":null},{"id":1107507,"mrr":false,"numeroConvocatoria":"905946","descripcion":"CONCURSO CARTEL ANUNCIADOR-FERIA DE EL SANTO 2026.","descripcionLeng":null,"fechaRecepcion":"2026-05-15","nivel1":"LOCAL","nivel2":"MONTILLA","nivel3":"AYUNTAMIENTO DE MONTILLA","codigoInvente":null},{"id":1107506,"mrr":false,"numeroConvocatoria":"905945","descripcion":"Convocatoria de subvenciones ordinarias para entidades deportivas Sarrià de Ter 2026","descripcionLeng":"Convocatòria de subvencions per entitats esportives de Sarrià de Ter 2026","fechaRecepcion":"2026-05-15","nivel1":"LOCAL","nivel2":"SARRIÀ DE TER","nivel3":"AYUNTAMIENTO DE SARRIÀ DE TER","codigoInvente":null},{"id":1107504,"mrr":false,"numeroConvocatoria":"905943","descripcion":"CONVOCATORIA CONCESION BECAS ESCUELAS INFANTILES JULIO 2026","descripcionLeng":null,"fechaRecepcion":"2026-05-15","nivel1":"LOCAL","nivel2":"MISLATA","nivel3":"AYUNTAMIENTO DE MISLATA","codigoInvente":null},{"id":1107503,"mrr":false,"numeroConvocatoria":"905942","descripcion":"CONCURSO DE CARTELES ANUNCIADORES DE LAS FIESTAS DE SEPTIEMBRE 2026 EN HONOR A SAN ANTONIO DE PADUA","descripcionLeng":null,"fechaRecepcion":"2026-05-15","nivel1":"LOCAL","nivel2":"PRADEJÓN","nivel3":"AYUNTAMIENTO DE PRADEJÓN","codigoInvente":null},{"id":1107483,"mrr":false,"numeroConvocatoria":"905922","descripcion":"PT15 2026 Convocatòria de subvenció per finançament de socorrisme a piscines d`ús públic de titularitat i/o gestió municipal","descripcionLeng":null,"fechaRecepcion":"2026-05-15","nivel1":"LOCAL","nivel2":"DIPUTACIÓN PROV. DE GIRONA","nivel3":"SALUT PÚBLICA DE LA DIPUTACIÓ DE GIRONA (DIPSALUT)","codigoInvente":"INV00004125"},{"id":1107481,"mrr":false,"numeroConvocatoria":"905920","descripcion":"PT08 2026 Convocatòria de subvencions per finançament de la vigilància, la seguretat, el salvament i el socorrisme a les platges de la demarcació Girona","descripcionLeng":null,"fechaRecepcion":"2026-05-15","nivel1":"LOCAL","nivel2":"DIPUTACIÓN PROV. DE GIRONA","nivel3":"SALUT PÚBLICA DE LA DIPUTACIÓ DE GIRONA (DIPSALUT)","codigoInvente":"INV00004125"},{"id":1107480,"mrr":false,"numeroConvocatoria":"905919","descripcion":"Convocatorias de ayudas económicas para conciliar la vida personal, familiar y laboral 2026","descripcionLeng":null,"fechaRecepcion":"2026-05-15","nivel1":"LOCAL","nivel2":"PRADEJÓN","nivel3":"AYUNTAMIENTO DE PRADEJÓN","codigoInvente":null},{"id":1107477,"mrr":false,"numeroConvocatoria":"905916","descripcion":"Convocatória de subvenciones para casales de verano 2026","descripcionLeng":"Convocatòria de subvencions per casal d'estiu 2026","fechaRecepcion":"2026-05-15","nivel1":"LOCAL","nivel2":"SARRIÀ DE TER","nivel3":"AYUNTAMIENTO DE SARRIÀ DE TER","codigoInvente":null},{"id":1107471,"mrr":false,"numeroConvocatoria":"905910","descripcion":"Ayudas destinadas a complementar, en determinados gastos, el tratamiento de personas con daño cerebral adquirido (DCAI) 2026","descripcionLeng":null,"fechaRecepcion":"2026-05-15","nivel1":"AUTONOMICA","nivel2":"COMUNIDAD FORAL DE NAVARRA","nivel3":"DEPARTAMENTO DE SALUD","codigoInvente":null},{"id":1107467,"mrr":false,"numeroConvocatoria":"905906","descripcion":"Convocatoria Misión comercial directa a Rumania y Moldavia","descripcionLeng":null,"fechaRecepcion":"2026-05-15","nivel1":"AUTONOMICA","nivel2":"CASTILLA-LA MANCHA","nivel3":"INSTITUTO DE PROMOCIÓN EXTERIOR DE CASTILLA-LA MANCHA","codigoInvente":null},{"id":1107466,"mrr":false,"numeroConvocatoria":"905905","descripcion":"Presentación producto vino en Méjico          \n","descripcionLeng":null,"fechaRecepcion":"2026-05-15","nivel1":"AUTONOMICA","nivel2":"CASTILLA-LA MANCHA","nivel3":"INSTITUTO DE PROMOCIÓN EXTERIOR DE CASTILLA-LA MANCHA","codigoInvente":null},{"id":1107462,"mrr":false,"numeroConvocatoria":"905901","descripcion":"Resolución de 13/05/2026, por la que se aprueba la convocatoria de concesión de subvenciones para la realización de acciones de formación profesional en el ámbito laboral, dirigidas a personas trabajadoras desempleadas (Modalidad II), anualidad 2026.","descripcionLeng":null,"fechaRecepcion":"2026-05-15","nivel1":"AUTONOMICA","nivel2":"CASTILLA-LA MANCHA","nivel3":"DIRECCIÓN GENERAL FORMACIÓN PROFESIONAL EN EL ÁMBITO LABORAL","codigoInvente":null},{"id":1107461,"mrr":false,"numeroConvocatoria":"905900","descripcion":"AYUDA COMPLEMENTARIA PARA EL TRANSPORTE PARA ESTUDIOS FUERA DEL MUNICIPIO. CURSO 2025-2026","descripcionLeng":null,"fechaRecepcion":"2026-05-15","nivel1":"LOCAL","nivel2":"ÁGUILAS","nivel3":"AYUNTAMIENTO DE ÁGUILAS","codigoInvente":null},{"id":1107460,"mrr":false,"numeroConvocatoria":"905899","descripcion":"LÍNEA S0144 Resolución  del conseller de Sanidad, por la que se efectúa la convocatoria de ayudas en materia de proyectos y programas  para el despliegue del Plan de Salud Comunitat Valenciana en sus municipios.","descripcionLeng":"Resolució del conseller de Sanitat  per la qual s'efectua la convocatòria de les ajudes en matèria de projectes y programes per el desplegament del Pla de Salut de la Comunitat Valenciana en els seus municipis.","fechaRecepcion":"2026-05-15","nivel1":"AUTONOMICA","nivel2":"COMUNITAT VALENCIANA","nivel3":"SECRETARÍA AUTONÓMICA DE SALUD PÚBLICA Y DEL SISTEMA SANITARIO PÚBLICO","codigoInvente":null},{"id":1107457,"mrr":false,"numeroConvocatoria":"905896","descripcion":"Convocatoria “becas Santander estudios-Equality 2026/2027” para estudiantes de grado","descripcionLeng":null,"fechaRecepcion":"2026-05-15","nivel1":"OTROS","nivel2":"UNIVERSIDAD DE CASTILLA-LA MANCHA","nivel3":null,"codigoInvente":"INV00005334"},{"id":1107456,"mrr":false,"numeroConvocatoria":"905895","descripcion":"CONVOCATORIAS DE AYUDAS DE  APOYO SOCIAL CONTINGENCIAS PARA EL AÑO 2.026.","descripcionLeng":null,"fechaRecepcion":"2026-05-15","nivel1":"LOCAL","nivel2":"ALCUÉSCAR","nivel3":"AYUNTAMIENTO DE ALCUÉSCAR","codigoInvente":null},{"id":1107454,"mrr":false,"numeroConvocatoria":"905893","descripcion":"CONVOCATORIAS DE AYUDAS ECONÓMICAS PARA GARANTIZAR A LOS/AS CIUDADANOS/AS DE ALCUÉSCAR EL DERECHO DE ACCESO DE SUMINSITRO DE MÍNIMOS VITALES PARA EL AÑO 2.026.","descripcionLeng":null,"fechaRecepcion":"2026-05-15","nivel1":"LOCAL","nivel2":"ALCUÉSCAR","nivel3":"AYUNTAMIENTO DE ALCUÉSCAR","codigoInvente":null},{"id":1107453,"mrr":false,"numeroConvocatoria":"905892","descripcion":"CONVOCATORIA SUBVENCIONS EFICIENCIA ENERGETICA 2026","descripcionLeng":null,"fechaRecepcion":"2026-05-15","nivel1":"LOCAL","nivel2":"GURB","nivel3":"AYUNTAMIENTO DE GURB","codigoInvente":null},{"id":1107451,"mrr":false,"numeroConvocatoria":"905890","descripcion":"Convocatoria 2026 de ayudas para el pago de trámites administrativos por la realización de obras en viviendas como consecuencia de las inundaciones del 29 de octubre de 2024.","descripcionLeng":"Convocatòria 2026  d'ajudes  per  al  pagament  de  tràmits  administratius  per  la  realització  d’obres  en  habitatges  com  a  conseqüència de les inundacions del 29 d’octubre de 2024.","fechaRecepcion":"2026-05-15","nivel1":"LOCAL","nivel2":"PICANYA","nivel3":"AYUNTAMIENTO DE PICANYA","codigoInvente":null},{"id":1107450,"mrr":false,"numeroConvocatoria":"905889","descripcion":"CONVOCATORIA SUBVENCIONS ASFALT DE CAMINS 2026","descripcionLeng":null,"fechaRecepcion":"2026-05-15","nivel1":"LOCAL","nivel2":"GURB","nivel3":"AYUNTAMIENTO DE GURB","codigoInvente":null},{"id":1107448,"mrr":false,"numeroConvocatoria":"905887","descripcion":"AYUDA COMPLEMENTARIA PARA LIBROS O MATERIAL DIDÁCTICO PARA ALUMNOS Y ALUMNAS DE 2.º CICLO DE EDUCACIÓN INFANTIL DEL MUNICIPIO DE ÁGUILAS. CURSO 2026-2027","descripcionLeng":null,"fechaRecepcion":"2026-05-15","nivel1":"LOCAL","nivel2":"ÁGUILAS","nivel3":"AYUNTAMIENTO DE ÁGUILAS","codigoInvente":null},{"id":1107447,"mrr":false,"numeroConvocatoria":"905886","descripcion":"ORDEN de 11 de mayo de 2026 por la que se establecen las bases reguladoras generales y se convocan para el año 2026, en régimen de concurrencia competitiva, ayudas a proyectos colectivos, cofinanciados por el FEMPA (cód proc. PE209P)","descripcionLeng":"ORDE do 11 de maio de 2026 pola que se establecen as bases reguladoras xerais e se convocan para o ano 2026, en réxime de concorrencia competitiva, axudas a proxectos colectivos, cofinanciados polo FEMPA  (cód proc. PE209P)","fechaRecepcion":"2026-05-15","nivel1":"AUTONOMICA","nivel2":"GALICIA","nivel3":"CONSELLERÍA DEL MAR","codigoInvente":null},{"id":1107446,"mrr":false,"numeroConvocatoria":"905885","descripcion":"Convocatoria de becas para la formación y perfeccionamiento de músicos y bailarines en centros de formación en el ámbito de la música i la danza de raíz tradicional","descripcionLeng":"Convocatòria de beques per a la formació i perfeccionament de músics i dansaires en centres de formació en l'àmbit de la música i la dansa d'arrel tradicional","fechaRecepcion":"2026-05-15","nivel1":"AUTONOMICA","nivel2":"CATALUÑA","nivel3":"OFICINA DE SUPORT A LA INICIATIVA CULTURAL","codigoInvente":null},{"id":1107444,"mrr":false,"numeroConvocatoria":"905883","descripcion":"LÍNEA S0146. Resolución del Conseller de Sanidad, por la que efectúa la convocatoria de las ayudas destinadas a promover proyectos de promoción de la salud perinatal y primera infancia","descripcionLeng":"RESOLUCIÓ  del conseller de Sanitat, per la qual s'efectua la convocatòria de les ajudes destinades a promoure projectes de promoció  de la  salut perinatal i primera infància.","fechaRecepcion":"2026-05-15","nivel1":"AUTONOMICA","nivel2":"COMUNITAT VALENCIANA","nivel3":"SECRETARÍA AUTONÓMICA DE SALUD PÚBLICA Y DEL SISTEMA SANITARIO PÚBLICO","codigoInvente":null},{"id":1107431,"mrr":false,"numeroConvocatoria":"905870","descripcion":"Convocatoria de becas de colaboración para realización de tareas de apoyo a la Cátedra participativa de cambio climático y sostenibilidad del sector primario de la universidad de Castilla-La Mancha. Año 2026","descripcionLeng":null,"fechaRecepcion":"2026-05-15","nivel1":"OTROS","nivel2":"UNIVERSIDAD DE CASTILLA-LA MANCHA","nivel3":null,"codigoInvente":"INV00005334"},{"id":1107429,"mrr":false,"numeroConvocatoria":"905868","descripcion":"CONVOCATORIA DE SUBVENCION PARA LAS ASOCIACIONES MUNICIPALES DE BOECILLO PARA EL EJERCICIO DEL 2026","descripcionLeng":null,"fechaRecepcion":"2026-05-15","nivel1":"LOCAL","nivel2":"BOECILLO","nivel3":"AYUNTAMIENTO DE BOECILLO","codigoInvente":null},{"id":1107412,"mrr":false,"numeroConvocatoria":"905851","descripcion":"ACUERDO DE JUNTA DE GOBIERNO LOCAL DE 8 DE MAYO DE 2026 APRUEBA CONVOCATORIA SUBVENCIONES A PROFESIONALES DEL TAXI POR LA ADQUISICIÓN DE VEHÍCULOS CON DISTINTIVO ECO Y CERO EMISIONES ADQUIRIDOS EN 2025","descripcionLeng":null,"fechaRecepcion":"2026-05-15","nivel1":"LOCAL","nivel2":"ALMERÍA","nivel3":"AYUNTAMIENTO DE ALMERÍA","codigoInvente":null},{"id":1107411,"mrr":false,"numeroConvocatoria":"905850","descripcion":"Resolución Alcaldia nºº 814/2026 aprobación  de les bases de la convocatoria dels I Premis a l'Ús del Valencià en el comerCIO","descripcionLeng":"Resolució Alcaldia n´º 814/2026 aprobació  de les bases de la convocatòria dels I Premis a l'Ús del Valencià en el comerç","fechaRecepcion":"2026-05-15","nivel1":"LOCAL","nivel2":"ALGINET","nivel3":"AYUNTAMIENTO DE ALGINET","codigoInvente":null},{"id":1107410,"mrr":false,"numeroConvocatoria":"905849","descripcion":"Convocatoria Pyme Global 2026 de Misión Comercial a Angola, Sudáfrica, Mauricio, Reunión y Comores para empresas de Castilla-La Mancha","descripcionLeng":null,"fechaRecepcion":"2026-05-15","nivel1":"OTROS","nivel2":"CÁMARA DE COMERCIO DE CIUDAD REAL","nivel3":null,"codigoInvente":null},{"id":1107409,"mrr":true,"numeroConvocatoria":"905848","descripcion":"Convocatoria de ayudas directas a personas pertenecientes a colectivos vulnerables para la realización de Microcredenciales Universitarias en el marco del Plan Microcreds (PRTR).","descripcionLeng":null,"fechaRecepcion":"2026-05-14","nivel1":"OTROS","nivel2":"UNIVERSIDAD DE OVIEDO","nivel3":null,"codigoInvente":"INV00005347"},{"id":1107408,"mrr":false,"numeroConvocatoria":"905847","descripcion":"SUBV. PROYECTOS GENERACIÓN CONOCIMIENTO CONSERVACIÓN PATRIMONIO","descripcionLeng":"2026an natura-ondarearen kontserbazioan ezagutza sortzeko proiektuak dirul.","fechaRecepcion":"2026-05-14","nivel1":"AUTONOMICA","nivel2":"PAÍS VASCO","nivel3":"DEPARTAMENTO DE INDUSTRIA, TRANSICIÓN ENERGÉTICA Y SOSTENIBILIDAD","codigoInvente":null},{"id":1107397,"mrr":false,"numeroConvocatoria":"905836","descripcion":"Orden por la que se convocan para 2026, subvenciones destinadas a apoyar a Asociaciones Profesionales Agrarias - Sin Ánimo de Lucro","descripcionLeng":null,"fechaRecepcion":"2026-05-14","nivel1":"AUTONOMICA","nivel2":"CANARIAS","nivel3":"CONSEJERÍA DE AGRICULTURA, GANADERÍA, PESCA Y SOBERANÍA ALIMENTARIA","codigoInvente":null},{"id":1107396,"mrr":false,"numeroConvocatoria":"905835","descripcion":"SUBVENCIONES PARA LA CONTRATACIÓN LABORAL DE PERSONAS JÓVENES DESEMPLEADAS","descripcionLeng":null,"fechaRecepcion":"2026-05-14","nivel1":"AUTONOMICA","nivel2":"CANARIAS","nivel3":"CONSEJERÍA DE BIENESTAR SOCIAL, IGUALDAD, JUVENTUD, INFANCIA Y FAMILIAS","codigoInvente":null},{"id":1107389,"mrr":false,"numeroConvocatoria":"905828","descripcion":"PRIMERA EDICIÓN DEL“PREMIO PARA LAS PRÁCTICAS LOCALES DE ABORDAJE DEL EDADISMO\nHACIA LAS PERSONAS MAYORES: PREMIO EDADISMO CERO”","descripcionLeng":"PRIMERA EDICIÓ DEL “PREMI PER A PRÀCTIQUES LOCALS D’ABORDATGE DE L’EDATISME\nENVERS LES PERSONES GRANS: PREMI EDATISME ZERO\"","fechaRecepcion":"2026-05-14","nivel1":"LOCAL","nivel2":"DIPUTACIÓN PROV. DE BARCELONA","nivel3":"DIPUTACIÓN PROVINCIAL DE BARCELONA","codigoInvente":null},{"id":1107382,"mrr":false,"numeroConvocatoria":"905821","descripcion":"Convocatoria de subvenciones para salas comerciales de exhibición cinematográfica que subtitulen largometrajes en lengua catalana para el año 2026","descripcionLeng":"Convocatòria de subvencions per a sales comercials d'exhibició cinematogràfica que subtitulin llargmetratges en llengua catalana per a l'any 2026","fechaRecepcion":"2026-05-14","nivel1":"AUTONOMICA","nivel2":"CATALUÑA","nivel3":"OFICINA DE SUPORT A LA INICIATIVA CULTURAL","codigoInvente":null},{"id":1107381,"mrr":false,"numeroConvocatoria":"905820","descripcion":"Convocatoria de subvenciones para proyectos de apoyo a la investigación y la creación de artes escénicas y artes visuales de carácter profesional","descripcionLeng":"Convocatòria de subvencions per a projectes de suport a la recerca i la creació d'arts escèniques i arts visuals de caràcter professional","fechaRecepcion":"2026-05-14","nivel1":"AUTONOMICA","nivel2":"CATALUÑA","nivel3":"OFICINA DE SUPORT A LA INICIATIVA CULTURAL","codigoInvente":null},{"id":1107380,"mrr":false,"numeroConvocatoria":"905819","descripcion":"FINANCIACION ESTATAL - AYUDAS UNIDADES APOYO ACTIVIDAD PROFESIONAL_CEE","descripcionLeng":null,"fechaRecepcion":"2026-05-14","nivel1":"AUTONOMICA","nivel2":"COMUNIDAD DE MADRID","nivel3":"CONSEJERÍA ECONOMÍA, HACIENDA Y EMPLEO","codigoInvente":null},{"id":1107379,"mrr":false,"numeroConvocatoria":"905818","descripcion":"Prestaciones económicas para el apoyo a la familia e infancia en el periodo estival en el ejercicio 2026","descripcionLeng":null,"fechaRecepcion":"2026-05-14","nivel1":"LOCAL","nivel2":"ALCORA, L'","nivel3":"AYUNTAMIENTO DE ALCORA, L'","codigoInvente":null},{"id":1107378,"mrr":false,"numeroConvocatoria":"905817","descripcion":"Subvención para proyectos comunitarios de interés social, AUZOLAN","descripcionLeng":null,"fechaRecepcion":"2026-05-14","nivel1":"AUTONOMICA","nivel2":"COMUNIDAD FORAL DE NAVARRA","nivel3":"INSTITUTO NAVARRO DE JUVENTUD","codigoInvente":null},{"id":1107373,"mrr":false,"numeroConvocatoria":"905812","descripcion":"CONCESIÓN DE AYUDAS EN ESPECIE DESTINADAS A PERSONAS EN SITUACIÓN DE DEPENDENCIA MEDIANTE EL PROGRAMA DE RESPIRO FAMILIAR EN EL HOGAR “ZAINDUZ” Y CONVOCATORIA PARA EL EJERCICIO 2026","descripcionLeng":"\"ZAINDUZ\" ETXEAN ATSEDEN HARTZEKO PROGRAMAREN BIDEZ MENDEKOTASUNA DUTEN PERTSONEI GAUZAZKO LAGUNTZAK 2026. EKITALDIRAKO DEIALDIA","fechaRecepcion":"2026-05-14","nivel1":"LOCAL","nivel2":"URDUÑA/ORDUÑA","nivel3":"AYUNTAMIENTO DE URDUÑA/ORDUÑA","codigoInvente":null},{"id":1107372,"mrr":false,"numeroConvocatoria":"905811","descripcion":"CONVOCATORIA PÚBLICA PARA LA  CONCESIÓN DE SUBVENCIONES A LAS ASOCIACIONES DE COMERCIANTES Y HOSTELEROS DEL MUNICIPIO DE XÀTIVA. EJERCICIO 2026","descripcionLeng":"CONVOCATÒRIA PÚBLICA PER A LA  CONCESSIÓ DE SUBVENCIONS A LES ASSOCIACIONS DE COMERCIANTS I HOSTALERS DEL MUNICIPI DE XÀTIVA. EXERCICI 2026","fechaRecepcion":"2026-05-14","nivel1":"LOCAL","nivel2":"XÀTIVA","nivel3":"AYUNTAMIENTO DE XÀTIVA","codigoInvente":null}],"pageable":{"sort":{"sorted":true,"unsorted":false,"empty":false},"pageNumber":11,"pageSize":50,"offset":550,"paged":true,"unpaged":false},"last":false,"totalElements":10000,"totalPages":200,"sort":{"sorted":true,"unsorted":false,"empty":false},"first":false,"numberOfElements":50,"size":50,"number":11,"empty":false,"advertencia":"La reutilización de los datos del Sistema Nacional de Publicidad de Subvenciones y Ayudas Públicas está sujeta a una serie de restricciones y consideraciones legales. Consulte el aviso legal en https://www.infosubvenciones.es/bdnstrans/GE/es/avisolegal.Además, el usuario debe ser consciente que la información presentada es de naturaleza dinámica, y que los datos pueden ser sometidos a correcciones, inserciones, modificaciones y eliminaciones en momentos posteriores a su extracción. Accesos al API del sistema Nacional de Publicidad de Subvenciones y Ayudas Públicas. La Administración Presupuestaria, para salvaguardar la protección del acceso libre e irrestricto de los ciudadanos a este Portal y a su información podrá adoptar medidas restrictivas de acceso al API ante situaciones de manifiesto abuso del servicio, riesgos de seguridad, o uso fraudulento de la información descargada, de acuerdo con las buenas prácticas de gestión de datos abiertos (https://datos.gob.es/es/blog/limitaciones-la-consulta-de-una-api) establecidas por el Ministerio para la Transformación Digital y de la Función Pública."}