{"content":[{"id":1104707,"mrr":false,"numeroConvocatoria":"903146","descripcion":"CONVOCATORIA DE AYUDAS PARA EL AÑO 2026 DE LA LÍNEA SUBVENCIONADORA L-6.2 \"SUBVENCIONES DESTINADAS A PROYECTOS DE PEQUEÑA ESCALA Y DIMENSIÓN PARA EL FOMENTO DEL BIENESTAR SOCIAL DE\nFORMA PLURISECTORIAL EN LA CIUDAD DE LLEIDA\"\nPARTICIPA","descripcionLeng":"CONVOCATÒRIA D’AJUTS PER A L’ANY 2026 DE LA LÍNIA SUBVENCIONADORA L-6.2 “SUBVENCIONS DESTINADES A PROJECTES DE PETITA ESCALA I DIMENSIÓ PER AL FOMENT DEL BENESTAR SOCIAL DE FORMA PLURISECTORIAL A LA CIUTAT DE LLEIDA” ","fechaRecepcion":"2026-05-04","nivel1":"LOCAL","nivel2":"LLEIDA","nivel3":"AYUNTAMIENTO DE LLEIDA","codigoInvente":null},{"id":1104701,"mrr":false,"numeroConvocatoria":"903140","descripcion":"Bases reguladoras de la convocatoria de subvenciones 2026","descripcionLeng":"Bases reguladoras da convocatoria de subvencións 2026","fechaRecepcion":"2026-05-04","nivel1":"LOCAL","nivel2":"DUMBRÍA","nivel3":"AYUNTAMIENTO DE DUMBRÍA","codigoInvente":null},{"id":1104699,"mrr":false,"numeroConvocatoria":"903138","descripcion":"Orden de la Consejería de Empresa, Empleo y Economía Social por la que se convocan subvenciones destinadas a personas trabajadoras autónomas para la incapacidad temporal del autónomo en la Región de Murcia en el ejercicio 2026","descripcionLeng":null,"fechaRecepcion":"2026-05-04","nivel1":"AUTONOMICA","nivel2":"REGIÓN DE MURCIA","nivel3":"CONSEJERÍA DE EMPRESA, EMPLEO Y ECONOMÍA SOCIAL","codigoInvente":null},{"id":1104698,"mrr":false,"numeroConvocatoria":"903137","descripcion":"PLAN DE SUBVENCIONES DE EDUCACION PARA LA CIUDADANIA GLOBAL. EPCG .","descripcionLeng":null,"fechaRecepcion":"2026-05-04","nivel1":"LOCAL","nivel2":"CÁCERES","nivel3":"INSTITUTO MUNICIPAL DE ASUNTOS SOCIALES","codigoInvente":null},{"id":1104693,"mrr":false,"numeroConvocatoria":"903132","descripcion":"Convocatoria Delegac.  Rector  Respons. Soc. Universit.\nayudas programa  apoyo financiero  cooperación universitaria\ninternacional-Fondo de cooperación al desarrollo, modalidad  proyectos de\nCooperación técnica universitaria al desarrollo  terreno 2026","descripcionLeng":null,"fechaRecepcion":"2026-05-04","nivel1":"OTROS","nivel2":"UNIVERSIDAD DE VALLADOLID","nivel3":null,"codigoInvente":"INV00005351"},{"id":1104692,"mrr":false,"numeroConvocatoria":"903131","descripcion":"PROGRAMA DE AYUDAS DESTINADAS AL DESARROLLO Y AL FOMENTO DE LAS ACTIVIDADES DEPORTIVAS EN LA CIUDAD DE NAVALMORAL DE LA MATA DURANTE EL AÑO 2026","descripcionLeng":null,"fechaRecepcion":"2026-05-04","nivel1":"LOCAL","nivel2":"NAVALMORAL DE LA MATA","nivel3":"AYUNTAMIENTO DE NAVALMORAL DE LA MATA","codigoInvente":null},{"id":1104691,"mrr":false,"numeroConvocatoria":"903130","descripcion":"Beca d 'iniciació a la investigació (Projecte «STEREOLITHOGRAPHY 3D PRINTED DENTURE BASE PHOTOPOLYMERS FUNCTIONALIZED WITH LASER GENERATED ANTIMICROBIAL NANOPARTICLES» – Codi 24I476 – Dirigit per: Carlos Doñate Buendía, Institut Universitar","descripcionLeng":"Beca d 'iniciació a la investigació (Projecte «STEREOLITHOGRAPHY 3D PRINTED DENTURE BASE PHOTOPOLYMERS FUNCTIONALIZED WITH LASER GENERATED ANTIMICROBIAL NANOPARTICLES» – Codi 24I476 – Dirigit per: Carlos Doñate Buendía, Institut Universitar","fechaRecepcion":"2026-05-04","nivel1":"OTROS","nivel2":"UNIVERSIDAD JAUME I DE CASTELLÓN","nivel3":null,"codigoInvente":"INV00005381"},{"id":1104690,"mrr":false,"numeroConvocatoria":"903129","descripcion":"CONVOCATÒRIA DE AYUDAS PARA EL AÑO 2026 DE LA LINEA SUBVENCIONADORAL-6.1 \"SUBVENCIONES DESTINADAS A PROYECTOS PARA EL FOMENTO DE LA PARTICIPACIÓN COMUNITARIA Y EL VOLUNTARIADO EN LOS BARRIOS DE LA CIUDAD\"","descripcionLeng":"CONVOCATÒRIA D’AJUTS PER A L’ANY 2026 DE LA LÍNIA SUBVENCIONADORA L-6.1 “SUBVENCIONS DESTINADES A PROJECTES PER AL FOMENT DE LA PARTICIPACIÓ COMUNITÀRIA I EL VOLUNTARIAT ALS BARRIS DE LA CIUTAT”","fechaRecepcion":"2026-05-04","nivel1":"LOCAL","nivel2":"LLEIDA","nivel3":"AYUNTAMIENTO DE LLEIDA","codigoInvente":null},{"id":1104689,"mrr":false,"numeroConvocatoria":"903128","descripcion":"CONVOCATORIA DE SUBVENCIONES EN MATERIA DE JUVENTUD PARA AYUNTAMIENTOS DE LA COMARCA COMUNIDAD DE TERUEL DURANTE EL\nEJERCICIO 2026.","descripcionLeng":null,"fechaRecepcion":"2026-05-04","nivel1":"LOCAL","nivel2":"COMARCA COMUNIDAD DE TERUEL","nivel3":"COMARCA DE COMUNIDAD DE TERUEL","codigoInvente":null},{"id":1104688,"mrr":false,"numeroConvocatoria":"903127","descripcion":"AYUDAS A EMPRESAS SECT AGRI,GANAD,FOREST E INDUS DESARR PROY INV 2026","descripcionLeng":null,"fechaRecepcion":"2026-05-04","nivel1":"AUTONOMICA","nivel2":"COMUNIDAD DE MADRID","nivel3":"INSTITUTO MADRILEÑO DE INVESTIGACIÓN Y DESARROLLO RURAL, AGRARIO Y ALIMENTARIO (IMIDRA)","codigoInvente":null},{"id":1104680,"mrr":false,"numeroConvocatoria":"903119","descripcion":"Subvención destinada a los/as deportistas en proyección durante el año 2026 en el municipio de Etxebarri","descripcionLeng":"Etxebarriko udalerrian 2026 urtean zehar proiekzioan dauden kirolarien sustapenerako udal dirulaguntza\n","fechaRecepcion":"2026-05-04","nivel1":"LOCAL","nivel2":"ETXEBARRI","nivel3":"AYUNTAMIENTO DE ETXEBARRI","codigoInvente":null},{"id":1104676,"mrr":false,"numeroConvocatoria":"903115","descripcion":"DECRETO FORAL 46/2026 de 30 de abril de la Diputación Foral de Bizkaia que regula la convocatoria de subvenciones forales destinadas a entidades locales de Bizkaia para la realización de inversiones en instalaciones deportivas en 2026/2028.","descripcionLeng":"Bizkaiko Foru Aldundiaren 46/2026 FORU DEKRETUA, apirilalaren 30ekoa, 2026/2028an kirol instalazioetan inbertsioak egiteko Bizkaiko toki erakundeei emango zaizkien foru dirulaguntzen deialdia arautzen duena.","fechaRecepcion":"2026-05-04","nivel1":"LOCAL","nivel2":"DIPUTACIÓN FORAL DE BIZKAIA","nivel3":"DIPUTACIÓN FORAL DE BIZKAIA","codigoInvente":null},{"id":1104675,"mrr":false,"numeroConvocatoria":"903114","descripcion":"Ayudas a Ayuntamientos, SSB o Mancomunidades de Servicios Sociales para contratación de promotor/a escolar o mediador/a sociocultural que intervenga en los proyectos de inclusión socioeducativa que se desarrollen en centros públicos. Curso 2026/2027","descripcionLeng":null,"fechaRecepcion":"2026-05-04","nivel1":"AUTONOMICA","nivel2":"COMUNIDAD FORAL DE NAVARRA","nivel3":"DEPARTAMENTO DE EDUCACION","codigoInvente":null},{"id":1104674,"mrr":false,"numeroConvocatoria":"903113","descripcion":"PCEM PARA AYUDAS EXTRAORDINARIAS DE APOYO SOCIAL PARA CONTINGENCIAS DEL AYUNTAMIENTO DE DON BENITO PARA 2026","descripcionLeng":null,"fechaRecepcion":"2026-05-04","nivel1":"LOCAL","nivel2":"DON BENITO","nivel3":"AYUNTAMIENTO DE DON BENITO","codigoInvente":null},{"id":1104672,"mrr":false,"numeroConvocatoria":"903111","descripcion":"BASES REGULADORAS ESPECÍFICAS Y CONVOCATORIA DE SUBVENCIONES DEL SERVICIO DE DEPORTES DEL ÁREA DE CULTURA Y CIUDADANÍA DESTINADAS A DEPORTISTAS CON CONDICIÓN DE RENDIMIENTO, EN PRUEBAS DEPORTIVAS OLÍMPICAS Y PARALÍMPICAS (2026)","descripcionLeng":null,"fechaRecepcion":"2026-05-04","nivel1":"LOCAL","nivel2":"DIPUTACIÓN PROV. DE SEVILLA","nivel3":"DIPUTACIÓN PROVINCIAL DE SEVILLA","codigoInvente":null},{"id":1104670,"mrr":false,"numeroConvocatoria":"903109","descripcion":"Acuerdo de la Junta de Gobierno Local de fecha 21 de abril de 2026, por el que se aprueba la convocatoria del VIII certamen de pintura rápida.","descripcionLeng":null,"fechaRecepcion":"2026-05-04","nivel1":"LOCAL","nivel2":"ASPE","nivel3":"AYUNTAMIENTO DE ASPE","codigoInvente":null},{"id":1104669,"mrr":false,"numeroConvocatoria":"903108","descripcion":"CONVOCATORIA DE INCENTIVOS A AUTÓNOMOS, EMPRESAS Y ENTIDADES QUE REALICEN PLANES DE FORMACIÓN E INSERCIÓN LABORAL QUE LLEVEN APAREJADA CONTRATACIÓN DE PERSONAS EN SITUACIÓN DE DESEMPLEO 2026 -FORMA Y CONTRATA 2026-.","descripcionLeng":null,"fechaRecepcion":"2026-05-04","nivel1":"LOCAL","nivel2":"CÓRDOBA","nivel3":"INSTITUTO MUNICIPAL DE DESARROLLO ECONÓMICO Y EMPLEO DE CÓRDOBA (IMDEEC)","codigoInvente":null},{"id":1104666,"mrr":false,"numeroConvocatoria":"903105","descripcion":"Acuerdo de la JGL de 30-4-2026 por la que se aprueban las bases de la convocatoria para la concesión de subvenciones al fomento de proyectos de educación para el desarrollo, ciudadanía global y sensibilización, que realicen las ONGD, ejercicio 2026","descripcionLeng":"Acord de la JGL de 30-4-2026 per la qual s'aproven les bases de la convocatòria per a la concessió de subvencions al foment de projectes d'educació per al desenvolupament, ciutadania global i sensibilització, que realitzen les ONGD, exercici 2026","fechaRecepcion":"2026-05-04","nivel1":"LOCAL","nivel2":"CASTELLÓN DE LA PLANA/CASTELLÓ DE LA PLANA","nivel3":"AYUNTAMIENTO DE CASTELLÓN DE LA PLANA/CASTELLÓ DE LA PLANA","codigoInvente":null},{"id":1104665,"mrr":false,"numeroConvocatoria":"903104","descripcion":"Resolución de 29 de abril de 2026 por la que se convocan subvenciones a entidades de cualquier titularidad, sin ánimo de lucro, con destino a financiación de programas supracomunitarios de prevención y control de VIH y otras ITS para los años 2027 y 2028","descripcionLeng":null,"fechaRecepcion":"2026-05-04","nivel1":"ESTADO","nivel2":"MINISTERIO DE SANIDAD","nivel3":"DIRECCIÓN GENERAL DE SALUD PÚBLICA Y EQUIDAD EN SALUD","codigoInvente":null},{"id":1104661,"mrr":false,"numeroConvocatoria":"903100","descripcion":" Subvención a entidades locales del Pirineo para financiar acciones vinculadas al Plan del Pirineo ","descripcionLeng":null,"fechaRecepcion":"2026-05-04","nivel1":"AUTONOMICA","nivel2":"COMUNIDAD FORAL DE NAVARRA","nivel3":"DEPARTAMENTO DE COHESIÓN TERRITORIAL","codigoInvente":null},{"id":1104658,"mrr":false,"numeroConvocatoria":"903097","descripcion":"VIII Certamen Nacional de Filosofia - Universitat de València 2026","descripcionLeng":"VIII Certamen Nacional de Filosofia - Universitat de València 2026","fechaRecepcion":"2026-05-04","nivel1":"OTROS","nivel2":"UNIVERSITAT DE VALÈNCIA (ESTUDI GENERAL)","nivel3":null,"codigoInvente":"INV00005380"},{"id":1104656,"mrr":false,"numeroConvocatoria":"903095","descripcion":"CONVOCATORIA DE SUBVENCIONES DESTINADAS A LA EDICIÓN Y PUBLICACIÓN DE OBRAS SELECCIONADAS POR EL INSTITUTO DE ESTUDIOS ALMERIENSES, PARA EL EJERCICIO 2026 DECRETO 452 DE 4 DE MAYO","descripcionLeng":null,"fechaRecepcion":"2026-05-04","nivel1":"LOCAL","nivel2":"DIPUTACIÓN PROV. DE ALMERÍA","nivel3":"DIPUTACIÓN PROVINCIAL DE ALMERÍA","codigoInvente":null},{"id":1104655,"mrr":false,"numeroConvocatoria":"903094","descripcion":"CONVOCATORIA DE SUBVENCIONES DE LA LÍNEA 10.6 DESTINADAS AL IMPULSO DE COOPERATIVAS DE TRABAJO INTEGRADAS POR PERSONAS JÓVENES","descripcionLeng":"CONVOCATÒRIA DE SUBVENCIONS DE LA LÍNIA 10.6 DESTINADES A L’IMPULS DE COOPERATIVES DE TREBALL INTEGRADES PER PERSONES JOVES","fechaRecepcion":"2026-05-04","nivel1":"LOCAL","nivel2":"LLEIDA","nivel3":"AYUNTAMIENTO DE LLEIDA","codigoInvente":null},{"id":1104652,"mrr":false,"numeroConvocatoria":"903091","descripcion":"Subvenciones para organización de eventos deportivos extraordinarios en el territorio de Castilla y León para el año 2026. Minimis general. Reg.(UE) 2023/2831. Orden de 30 de abril de 2026 de la Consejería de Cultura, Turismo y Deporte.","descripcionLeng":null,"fechaRecepcion":"2026-05-04","nivel1":"AUTONOMICA","nivel2":"CASTILLA Y LEÓN","nivel3":"CONSEJERÍA DE CULTURA, TURISMO Y DEPORTE","codigoInvente":null},{"id":1104650,"mrr":false,"numeroConvocatoria":"903089","descripcion":"SUBV. LUCHA PROCESIONARIA DEL PINO","descripcionLeng":null,"fechaRecepcion":"2026-05-04","nivel1":"LOCAL","nivel2":"DIPUTACIÓN PROV. DE LEÓN","nivel3":"DIPUTACIÓN PROVINCIAL DE LEÓN","codigoInvente":null},{"id":1104648,"mrr":false,"numeroConvocatoria":"903087","descripcion":"DEPORTE FEDERADO 2026","descripcionLeng":null,"fechaRecepcion":"2026-05-04","nivel1":"LOCAL","nivel2":"DIPUTACIÓN PROV. DE LEÓN","nivel3":"DIPUTACIÓN PROVINCIAL DE LEÓN","codigoInvente":null},{"id":1104647,"mrr":false,"numeroConvocatoria":"903086","descripcion":"Subvenciones para organización de eventos deportivos extraordinarios en el territorio de Castilla y León para el año 2026. Personas sin actividad económica. Orden de 30 de abril de 2026 de la Consejería de Cultura, Turismo y Deporte.","descripcionLeng":null,"fechaRecepcion":"2026-05-04","nivel1":"AUTONOMICA","nivel2":"CASTILLA Y LEÓN","nivel3":"CONSEJERÍA DE CULTURA, TURISMO Y DEPORTE","codigoInvente":null},{"id":1104641,"mrr":false,"numeroConvocatoria":"903080","descripcion":"CONVOCATORIA DE SUBVENCIONES DE LA LÍNEA 10.5 SUBVENCIONES DESTINADAS A PROYECTOS DIRIGIDOS A CONSOLIDAR EL TEJIDO ASOCIATIVO JUVENIL","descripcionLeng":"CONVOCATÒRIA DE SUBVENCIONS DE LA LÍNIA 10.5- SUBVENCIONS DESTINADES A PROJECTES ADREÇATS A CONSOLIDAR EL TEIXIT ASSOCIATIU JUVENIL","fechaRecepcion":"2026-05-04","nivel1":"LOCAL","nivel2":"LLEIDA","nivel3":"AYUNTAMIENTO DE LLEIDA","codigoInvente":null},{"id":1104638,"mrr":false,"numeroConvocatoria":"903077","descripcion":"Orden de 30 de abril de 2026, de la Consejería de Cultura, Turismo y Deporte, por la que se convocan los Premios de Estudio e Investigación sobre Tauromaquia 2026.","descripcionLeng":null,"fechaRecepcion":"2026-05-04","nivel1":"AUTONOMICA","nivel2":"CASTILLA Y LEÓN","nivel3":"CONSEJERÍA DE CULTURA, TURISMO Y DEPORTE","codigoInvente":null},{"id":1104632,"mrr":false,"numeroConvocatoria":"903071","descripcion":"CONVOCATORIA LA RAYA","descripcionLeng":null,"fechaRecepcion":"2026-05-04","nivel1":"LOCAL","nivel2":"DIPUTACIÓN PROV. DE ZAMORA","nivel3":"DIPUTACIÓN PROVINCIAL DE ZAMORA","codigoInvente":null},{"id":1104631,"mrr":false,"numeroConvocatoria":"903070","descripcion":"CONVOCATORIA PERMANENTE DE AYUDAS A LA MOVILIDAD ERASMUS+ CON FINES DE DOCENCIA DEL PDI Y DE FORMACIÓN DEL PDI Y DEL PTGAS Y BASES REGULADORAS. Cursos 2025-2026 y 2026-2027 \n(Proyecto Erasmus+ 2025)","descripcionLeng":null,"fechaRecepcion":"2026-05-04","nivel1":"OTROS","nivel2":"UNIVERSIDAD DE LEÓN","nivel3":null,"codigoInvente":"INV00005344"},{"id":1104629,"mrr":false,"numeroConvocatoria":"903068","descripcion":"CONVOCATORIA DE SUBVENCIONES A ENTIDADES DEPORTIVAS PARA LA ORGANIZACIÓN DE EVENTOS DEPORTIVOS EN LA PROVINCIA DE ALMERÍA 2026","descripcionLeng":null,"fechaRecepcion":"2026-05-04","nivel1":"LOCAL","nivel2":"DIPUTACIÓN PROV. DE ALMERÍA","nivel3":"DIPUTACIÓN PROVINCIAL DE ALMERÍA","codigoInvente":null},{"id":1104628,"mrr":false,"numeroConvocatoria":"903067","descripcion":"AYUDA PARA UN PROYECTO DE INVESTIGACIÓN EN TROMBOSIS Y HEMOSTASIA (Código de subvención: 12-543-4-2026-0173-S)","descripcionLeng":"AJUDA PER A UN PROJECTE D'INVESTIGACIÓ EN TROMBOSI I HEMOSTÀSIA (Codi de subvenció: 12-543-4-2026-0173-S)","fechaRecepcion":"2026-05-04","nivel1":"OTROS","nivel2":"UNIVERSIDAD MIGUEL HERNÁNDEZ DE ELCHE","nivel3":null,"codigoInvente":"INV00005357"},{"id":1104627,"mrr":false,"numeroConvocatoria":"903066","descripcion":"Orden de 6 de mayo de 2026,  Convocatoria Subvenciones Comunidades Andaluzas en el Exterior LÍNEAS FEDCO 2026","descripcionLeng":null,"fechaRecepcion":"2026-05-04","nivel1":"AUTONOMICA","nivel2":"ANDALUCÍA","nivel3":"CONSEJERÍA DE TURISMO Y ANDALUCÍA EXTERIOR","codigoInvente":null},{"id":1104626,"mrr":false,"numeroConvocatoria":"903065","descripcion":"Orden de 6 de mayo de 2026, Convocatoria Subvenciones Comunidades Andaluzas en el Exterior LÍNEA COAN","descripcionLeng":null,"fechaRecepcion":"2026-05-04","nivel1":"AUTONOMICA","nivel2":"ANDALUCÍA","nivel3":"CONSEJERÍA DE TURISMO Y ANDALUCÍA EXTERIOR","codigoInvente":null},{"id":1104625,"mrr":false,"numeroConvocatoria":"903064","descripcion":"Convocatoria de la Universidad de León, del 04/05/26 por la que se convocan 52 ayudas económicas dentro del Programa Ayuda Económica Santander para estudiantes matriculados en el 26/27 en Grado o Máster oficial con los mejores expedientes académicos.","descripcionLeng":null,"fechaRecepcion":"2026-05-04","nivel1":"OTROS","nivel2":"UNIVERSIDAD DE LEÓN","nivel3":null,"codigoInvente":"INV00005344"},{"id":1104620,"mrr":false,"numeroConvocatoria":"903059","descripcion":"RESOLUCIÓN del director de Transferencia e Innovación, de 29 de abril de 2026, por la que se publican las BBRR y se convoca la II Edición de los Premios al mejor Trabajo Fin de Grado y Trabajo Fin de Máster en la Cátedra de Economía Social de la UGR","descripcionLeng":null,"fechaRecepcion":"2026-05-04","nivel1":"OTROS","nivel2":"UNIVERSIDAD DE GRANADA","nivel3":null,"codigoInvente":"INV00005337"},{"id":1104618,"mrr":false,"numeroConvocatoria":"903057","descripcion":"Subvenciones a clubes deportivos y sociedades anónimas deportivas para el desarrollo de su actividad deportiva. “Programa Cantera” para el año 2026. Minimis Reg.(UE) 2023/2831. Orden de 30 de abril de 2026 de la Consejería de Cultura, Turismo y Deporte.","descripcionLeng":null,"fechaRecepcion":"2026-05-04","nivel1":"AUTONOMICA","nivel2":"CASTILLA Y LEÓN","nivel3":"CONSEJERÍA DE CULTURA, TURISMO Y DEPORTE","codigoInvente":null},{"id":1104615,"mrr":false,"numeroConvocatoria":"903054","descripcion":"Resolución de la Secretaría de Estado de Cultura por la que se convocan las ayudas, en régimen de concurrencia competitiva, para la promoción de la fotografía, correspondientes al año 2026","descripcionLeng":null,"fechaRecepcion":"2026-05-04","nivel1":"ESTADO","nivel2":"MINISTERIO DE CULTURA","nivel3":"DIRECCIÓN GENERAL DE PATRIMONIO CULTURAL Y BELLAS ARTES","codigoInvente":null},{"id":1104614,"mrr":false,"numeroConvocatoria":"903053","descripcion":"Resolución de 30 de abril de 2026, del Presidente del Servicio Público de Empleo de Castilla y León, por la que se convocan subvenciones del Programa de formación profesional específica con compromiso de contratación (FEMP) para el periodo 2026-2027.","descripcionLeng":null,"fechaRecepcion":"2026-05-04","nivel1":"AUTONOMICA","nivel2":"CASTILLA Y LEÓN","nivel3":"SERVICIO PÚBLICO DE EMPLEO DE CASTILLA Y LEÓN","codigoInvente":null},{"id":1104613,"mrr":false,"numeroConvocatoria":"903052","descripcion":"Orden de 30 de abril de 2026, de la Consejería de Cultura, Turismo y Deporte,  por la que se convocan subvenciones destinadas a financiar la creación de empresas y la innovación tecnológica en el sector de la enseñanza del español para extranjeros.","descripcionLeng":null,"fechaRecepcion":"2026-05-04","nivel1":"AUTONOMICA","nivel2":"CASTILLA Y LEÓN","nivel3":"CONSEJERÍA DE CULTURA, TURISMO Y DEPORTE","codigoInvente":null},{"id":1104611,"mrr":false,"numeroConvocatoria":"903050","descripcion":"Subvenciones a clubes deportivos y sociedades anónimas deportivas para el desarrollo de su actividad deportiva. “Programa Cantera” para el año 2026. PSAE. Orden de 30 de abril de 2026 de la Consejería de Cultura, Turismo y Deporte.","descripcionLeng":null,"fechaRecepcion":"2026-05-04","nivel1":"AUTONOMICA","nivel2":"CASTILLA Y LEÓN","nivel3":"CONSEJERÍA DE CULTURA, TURISMO Y DEPORTE","codigoInvente":null},{"id":1104609,"mrr":false,"numeroConvocatoria":"903048","descripcion":"Convocatoria de subvenciones en materia de EDUCACIÓN AMBIENTAL, año 2026","descripcionLeng":null,"fechaRecepcion":"2026-05-04","nivel1":"LOCAL","nivel2":"BURGOS","nivel3":"AYUNTAMIENTO DE BURGOS","codigoInvente":null},{"id":1104608,"mrr":false,"numeroConvocatoria":"903047","descripcion":"EMERGENCIA SOCIAL EXPEDIENTE SIUSS 3979","descripcionLeng":"EMERXENCIA SOCIAL EXPEDIENTE SIUSS 3979","fechaRecepcion":"2026-05-04","nivel1":"LOCAL","nivel2":"GUARDA, A","nivel3":"AYUNTAMIENTO DE GUARDA, A","codigoInvente":null},{"id":1104605,"mrr":false,"numeroConvocatoria":"903044","descripcion":"CONVOCATORIA 2026. BECAS A DEPORTISTAS FEDERADOS DEL 2026","descripcionLeng":"CONVOCATORIA 2026. BOLSAS A DEPORTISTAS FEDERADOS DEL 2026\n","fechaRecepcion":"2026-05-04","nivel1":"LOCAL","nivel2":"BOIRO","nivel3":"AYUNTAMIENTO DE BOIRO","codigoInvente":null},{"id":1104604,"mrr":false,"numeroConvocatoria":"903043","descripcion":"CONVOCATORIA DE SUBVENCIONES MUNICIPALES A ENTIDADES SOCIO-CULTURALES SIN FINES DE LUCRO PARA EL AÑO 2026","descripcionLeng":"CONVOCATORIA DE SUBVENCIÓNS MUNICIPAIS A ENTIDADES SOCIO-CULTURAIS SEN FINS DE LUCRO PARA O ANO 2026","fechaRecepcion":"2026-05-04","nivel1":"LOCAL","nivel2":"CAMBADOS","nivel3":"AYUNTAMIENTO DE CAMBADOS","codigoInvente":null},{"id":1104603,"mrr":false,"numeroConvocatoria":"903042","descripcion":"Convocatoria para la concesión de subvenciones destinadas a la financiación de proyectos de Cooperación para el Desarrollo","descripcionLeng":null,"fechaRecepcion":"2026-05-04","nivel1":"LOCAL","nivel2":"DIPUTACIÓN PROV. DE HUESCA","nivel3":"DIPUTACIÓN PROVINCIAL DE HUESCA","codigoInvente":null},{"id":1104602,"mrr":false,"numeroConvocatoria":"903041","descripcion":"Becas de formación en el Observatorio Estatal de Violencia sobre la Mujer para el periodo 2026-2027.","descripcionLeng":null,"fechaRecepcion":"2026-05-04","nivel1":"ESTADO","nivel2":"MINISTERIO DE IGUALDAD","nivel3":"DELEGACIÓN DEL GOBIERNO CONTRA LA VIOLENCIA DE GÉNERO","codigoInvente":null},{"id":1104600,"mrr":false,"numeroConvocatoria":"903039","descripcion":"Resolución 1494/2026 de 30 de Abril de 2026 donde se aprueban  las Bases Reguladoras y la Convocatoria para la concesión de ayudas para libros de texto y material escolar para el curso 2026-2027","descripcionLeng":null,"fechaRecepcion":"2026-05-04","nivel1":"LOCAL","nivel2":"MAIRENA DEL ALJARAFE","nivel3":"AYUNTAMIENTO DE MAIRENA DEL ALJARAFE","codigoInvente":null},{"id":1104599,"mrr":false,"numeroConvocatoria":"903038","descripcion":"CONVOCATORIA SUBVENCIONES ESTUDIANTES DE EUSKERA","descripcionLeng":"EUSKARA IKASLEENTZAKO DIRULAGUNTZEN DEIALDIA","fechaRecepcion":"2026-05-04","nivel1":"LOCAL","nivel2":"MANCOMUNIDAD DE SAKANA","nivel3":"MANCOMUNIDAD DE SAKANA","codigoInvente":null}],"pageable":{"sort":{"sorted":true,"unsorted":false,"empty":false},"pageNumber":28,"pageSize":50,"offset":1400,"paged":true,"unpaged":false},"last":false,"totalElements":10000,"totalPages":200,"sort":{"sorted":true,"unsorted":false,"empty":false},"first":false,"numberOfElements":50,"size":50,"number":28,"empty":false,"advertencia":"La reutilización de los datos del Sistema Nacional de Publicidad de Subvenciones y Ayudas Públicas está sujeta a una serie de restricciones y consideraciones legales. Consulte el aviso legal en https://www.infosubvenciones.es/bdnstrans/GE/es/avisolegal.Además, el usuario debe ser consciente que la información presentada es de naturaleza dinámica, y que los datos pueden ser sometidos a correcciones, inserciones, modificaciones y eliminaciones en momentos posteriores a su extracción. Accesos al API del sistema Nacional de Publicidad de Subvenciones y Ayudas Públicas. La Administración Presupuestaria, para salvaguardar la protección del acceso libre e irrestricto de los ciudadanos a este Portal y a su información podrá adoptar medidas restrictivas de acceso al API ante situaciones de manifiesto abuso del servicio, riesgos de seguridad, o uso fraudulento de la información descargada, de acuerdo con las buenas prácticas de gestión de datos abiertos (https://datos.gob.es/es/blog/limitaciones-la-consulta-de-una-api) establecidas por el Ministerio para la Transformación Digital y de la Función Pública."}