{"content":[{"id":1104632,"mrr":false,"numeroConvocatoria":"903071","descripcion":"CONVOCATORIA LA RAYA","descripcionLeng":null,"fechaRecepcion":"2026-05-04","nivel1":"LOCAL","nivel2":"DIPUTACIÓN PROV. DE ZAMORA","nivel3":"DIPUTACIÓN PROVINCIAL DE ZAMORA","codigoInvente":null},{"id":1104631,"mrr":false,"numeroConvocatoria":"903070","descripcion":"CONVOCATORIA PERMANENTE DE AYUDAS A LA MOVILIDAD ERASMUS+ CON FINES DE DOCENCIA DEL PDI Y DE FORMACIÓN DEL PDI Y DEL PTGAS Y BASES REGULADORAS. Cursos 2025-2026 y 2026-2027 \n(Proyecto Erasmus+ 2025)","descripcionLeng":null,"fechaRecepcion":"2026-05-04","nivel1":"OTROS","nivel2":"UNIVERSIDAD DE LEÓN","nivel3":null,"codigoInvente":"INV00005344"},{"id":1104629,"mrr":false,"numeroConvocatoria":"903068","descripcion":"CONVOCATORIA DE SUBVENCIONES A ENTIDADES DEPORTIVAS PARA LA ORGANIZACIÓN DE EVENTOS DEPORTIVOS EN LA PROVINCIA DE ALMERÍA 2026","descripcionLeng":null,"fechaRecepcion":"2026-05-04","nivel1":"LOCAL","nivel2":"DIPUTACIÓN PROV. DE ALMERÍA","nivel3":"DIPUTACIÓN PROVINCIAL DE ALMERÍA","codigoInvente":null},{"id":1104628,"mrr":false,"numeroConvocatoria":"903067","descripcion":"AYUDA PARA UN PROYECTO DE INVESTIGACIÓN EN TROMBOSIS Y HEMOSTASIA (Código de subvención: 12-543-4-2026-0173-S)","descripcionLeng":"AJUDA PER A UN PROJECTE D'INVESTIGACIÓ EN TROMBOSI I HEMOSTÀSIA (Codi de subvenció: 12-543-4-2026-0173-S)","fechaRecepcion":"2026-05-04","nivel1":"OTROS","nivel2":"UNIVERSIDAD MIGUEL HERNÁNDEZ DE ELCHE","nivel3":null,"codigoInvente":"INV00005357"},{"id":1104627,"mrr":false,"numeroConvocatoria":"903066","descripcion":"Orden de 6 de mayo de 2026,  Convocatoria Subvenciones Comunidades Andaluzas en el Exterior LÍNEAS FEDCO 2026","descripcionLeng":null,"fechaRecepcion":"2026-05-04","nivel1":"AUTONOMICA","nivel2":"ANDALUCÍA","nivel3":"CONSEJERÍA DE TURISMO Y ANDALUCÍA EXTERIOR","codigoInvente":null},{"id":1104626,"mrr":false,"numeroConvocatoria":"903065","descripcion":"Orden de 6 de mayo de 2026, Convocatoria Subvenciones Comunidades Andaluzas en el Exterior LÍNEA COAN","descripcionLeng":null,"fechaRecepcion":"2026-05-04","nivel1":"AUTONOMICA","nivel2":"ANDALUCÍA","nivel3":"CONSEJERÍA DE TURISMO Y ANDALUCÍA EXTERIOR","codigoInvente":null},{"id":1104625,"mrr":false,"numeroConvocatoria":"903064","descripcion":"Convocatoria de la Universidad de León, del 04/05/26 por la que se convocan 52 ayudas económicas dentro del Programa Ayuda Económica Santander para estudiantes matriculados en el 26/27 en Grado o Máster oficial con los mejores expedientes académicos.","descripcionLeng":null,"fechaRecepcion":"2026-05-04","nivel1":"OTROS","nivel2":"UNIVERSIDAD DE LEÓN","nivel3":null,"codigoInvente":"INV00005344"},{"id":1104620,"mrr":false,"numeroConvocatoria":"903059","descripcion":"RESOLUCIÓN del director de Transferencia e Innovación, de 29 de abril de 2026, por la que se publican las BBRR y se convoca la II Edición de los Premios al mejor Trabajo Fin de Grado y Trabajo Fin de Máster en la Cátedra de Economía Social de la UGR","descripcionLeng":null,"fechaRecepcion":"2026-05-04","nivel1":"OTROS","nivel2":"UNIVERSIDAD DE GRANADA","nivel3":null,"codigoInvente":"INV00005337"},{"id":1104618,"mrr":false,"numeroConvocatoria":"903057","descripcion":"Subvenciones a clubes deportivos y sociedades anónimas deportivas para el desarrollo de su actividad deportiva. “Programa Cantera” para el año 2026. Minimis Reg.(UE) 2023/2831. Orden de 30 de abril de 2026 de la Consejería de Cultura, Turismo y Deporte.","descripcionLeng":null,"fechaRecepcion":"2026-05-04","nivel1":"AUTONOMICA","nivel2":"CASTILLA Y LEÓN","nivel3":"CONSEJERÍA DE CULTURA, TURISMO Y DEPORTE","codigoInvente":null},{"id":1104615,"mrr":false,"numeroConvocatoria":"903054","descripcion":"Resolución de la Secretaría de Estado de Cultura por la que se convocan las ayudas, en régimen de concurrencia competitiva, para la promoción de la fotografía, correspondientes al año 2026","descripcionLeng":null,"fechaRecepcion":"2026-05-04","nivel1":"ESTADO","nivel2":"MINISTERIO DE CULTURA","nivel3":"DIRECCIÓN GENERAL DE PATRIMONIO CULTURAL Y BELLAS ARTES","codigoInvente":null},{"id":1104614,"mrr":false,"numeroConvocatoria":"903053","descripcion":"Resolución de 30 de abril de 2026, del Presidente del Servicio Público de Empleo de Castilla y León, por la que se convocan subvenciones del Programa de formación profesional específica con compromiso de contratación (FEMP) para el periodo 2026-2027.","descripcionLeng":null,"fechaRecepcion":"2026-05-04","nivel1":"AUTONOMICA","nivel2":"CASTILLA Y LEÓN","nivel3":"SERVICIO PÚBLICO DE EMPLEO DE CASTILLA Y LEÓN","codigoInvente":null},{"id":1104613,"mrr":false,"numeroConvocatoria":"903052","descripcion":"Orden de 30 de abril de 2026, de la Consejería de Cultura, Turismo y Deporte,  por la que se convocan subvenciones destinadas a financiar la creación de empresas y la innovación tecnológica en el sector de la enseñanza del español para extranjeros.","descripcionLeng":null,"fechaRecepcion":"2026-05-04","nivel1":"AUTONOMICA","nivel2":"CASTILLA Y LEÓN","nivel3":"CONSEJERÍA DE CULTURA, TURISMO Y DEPORTE","codigoInvente":null},{"id":1104611,"mrr":false,"numeroConvocatoria":"903050","descripcion":"Subvenciones a clubes deportivos y sociedades anónimas deportivas para el desarrollo de su actividad deportiva. “Programa Cantera” para el año 2026. PSAE. Orden de 30 de abril de 2026 de la Consejería de Cultura, Turismo y Deporte.","descripcionLeng":null,"fechaRecepcion":"2026-05-04","nivel1":"AUTONOMICA","nivel2":"CASTILLA Y LEÓN","nivel3":"CONSEJERÍA DE CULTURA, TURISMO Y DEPORTE","codigoInvente":null},{"id":1104609,"mrr":false,"numeroConvocatoria":"903048","descripcion":"Convocatoria de subvenciones en materia de EDUCACIÓN AMBIENTAL, año 2026","descripcionLeng":null,"fechaRecepcion":"2026-05-04","nivel1":"LOCAL","nivel2":"BURGOS","nivel3":"AYUNTAMIENTO DE BURGOS","codigoInvente":null},{"id":1104608,"mrr":false,"numeroConvocatoria":"903047","descripcion":"EMERGENCIA SOCIAL EXPEDIENTE SIUSS 3979","descripcionLeng":"EMERXENCIA SOCIAL EXPEDIENTE SIUSS 3979","fechaRecepcion":"2026-05-04","nivel1":"LOCAL","nivel2":"GUARDA, A","nivel3":"AYUNTAMIENTO DE GUARDA, A","codigoInvente":null},{"id":1104605,"mrr":false,"numeroConvocatoria":"903044","descripcion":"CONVOCATORIA 2026. BECAS A DEPORTISTAS FEDERADOS DEL 2026","descripcionLeng":"CONVOCATORIA 2026. BOLSAS A DEPORTISTAS FEDERADOS DEL 2026\n","fechaRecepcion":"2026-05-04","nivel1":"LOCAL","nivel2":"BOIRO","nivel3":"AYUNTAMIENTO DE BOIRO","codigoInvente":null},{"id":1104604,"mrr":false,"numeroConvocatoria":"903043","descripcion":"CONVOCATORIA DE SUBVENCIONES MUNICIPALES A ENTIDADES SOCIO-CULTURALES SIN FINES DE LUCRO PARA EL AÑO 2026","descripcionLeng":"CONVOCATORIA DE SUBVENCIÓNS MUNICIPAIS A ENTIDADES SOCIO-CULTURAIS SEN FINS DE LUCRO PARA O ANO 2026","fechaRecepcion":"2026-05-04","nivel1":"LOCAL","nivel2":"CAMBADOS","nivel3":"AYUNTAMIENTO DE CAMBADOS","codigoInvente":null},{"id":1104603,"mrr":false,"numeroConvocatoria":"903042","descripcion":"Convocatoria para la concesión de subvenciones destinadas a la financiación de proyectos de Cooperación para el Desarrollo","descripcionLeng":null,"fechaRecepcion":"2026-05-04","nivel1":"LOCAL","nivel2":"DIPUTACIÓN PROV. DE HUESCA","nivel3":"DIPUTACIÓN PROVINCIAL DE HUESCA","codigoInvente":null},{"id":1104602,"mrr":false,"numeroConvocatoria":"903041","descripcion":"Becas de formación en el Observatorio Estatal de Violencia sobre la Mujer para el periodo 2026-2027.","descripcionLeng":null,"fechaRecepcion":"2026-05-04","nivel1":"ESTADO","nivel2":"MINISTERIO DE IGUALDAD","nivel3":"DELEGACIÓN DEL GOBIERNO CONTRA LA VIOLENCIA DE GÉNERO","codigoInvente":null},{"id":1104600,"mrr":false,"numeroConvocatoria":"903039","descripcion":"Resolución 1494/2026 de 30 de Abril de 2026 donde se aprueban  las Bases Reguladoras y la Convocatoria para la concesión de ayudas para libros de texto y material escolar para el curso 2026-2027","descripcionLeng":null,"fechaRecepcion":"2026-05-04","nivel1":"LOCAL","nivel2":"MAIRENA DEL ALJARAFE","nivel3":"AYUNTAMIENTO DE MAIRENA DEL ALJARAFE","codigoInvente":null},{"id":1104599,"mrr":false,"numeroConvocatoria":"903038","descripcion":"CONVOCATORIA SUBVENCIONES ESTUDIANTES DE EUSKERA","descripcionLeng":"EUSKARA IKASLEENTZAKO DIRULAGUNTZEN DEIALDIA","fechaRecepcion":"2026-05-04","nivel1":"LOCAL","nivel2":"MANCOMUNIDAD DE SAKANA","nivel3":"MANCOMUNIDAD DE SAKANA","codigoInvente":null},{"id":1104598,"mrr":false,"numeroConvocatoria":"903037","descripcion":"Convocatoria de subvenciones a entidades sin ánimo de lucro que trabajen en el ámbito de las Toxicomanías","descripcionLeng":null,"fechaRecepcion":"2026-05-04","nivel1":"LOCAL","nivel2":"DIPUTACIÓN PROV. DE HUESCA","nivel3":"DIPUTACIÓN PROVINCIAL DE HUESCA","codigoInvente":null},{"id":1104596,"mrr":false,"numeroConvocatoria":"903035","descripcion":"Orden de 30 de abril de 2026 de la Consejería de Cultura, Turismo y Deporte por la que se convocan subvenciones para la realización de proyectos de producción editorial y la puesta en marcha de proyectos de internacionalización editorial.","descripcionLeng":null,"fechaRecepcion":"2026-05-04","nivel1":"AUTONOMICA","nivel2":"CASTILLA Y LEÓN","nivel3":"CONSEJERÍA DE CULTURA, TURISMO Y DEPORTE","codigoInvente":null},{"id":1104594,"mrr":false,"numeroConvocatoria":"903033","descripcion":"Convocatoria de subvenciones destinadas a la financiación de proyectos de desarrollo y fomento de la cultura que realicen las asociaciones culturales durante el periodo comprendido entre el 1 de enero y el 31 de diciembre de 2026","descripcionLeng":"Convocatòria de subvencions destinades al finançament de projectes de desenvolupament i foment de la cultura que realitzen les associacions culturals durant el període comprés entre l'1 de gener i el 31 de desembre de 2026","fechaRecepcion":"2026-05-04","nivel1":"LOCAL","nivel2":"CASTELLÓN DE LA PLANA/CASTELLÓ DE LA PLANA","nivel3":"AYUNTAMIENTO DE CASTELLÓN DE LA PLANA/CASTELLÓ DE LA PLANA","codigoInvente":null},{"id":1104593,"mrr":false,"numeroConvocatoria":"903032","descripcion":"BASES Y CONVOCATORIA DE LOS PREMIOS PARA EL II CONCURSO MUNICIPAL DE AUTOS-LOCOS DE LAS FIESTAS PATRONALES VILLANUEVA DE LA TORRE 2026","descripcionLeng":null,"fechaRecepcion":"2026-05-04","nivel1":"LOCAL","nivel2":"VILLANUEVA DE LA TORRE","nivel3":"AYUNTAMIENTO DE VILLANUEVA DE LA TORRE","codigoInvente":null},{"id":1104592,"mrr":false,"numeroConvocatoria":"903031","descripcion":"Resolución de 28 de abril de 2026, de la Dirección del Instituto de las Mujeres, por la que se convocan subvenciones para el fomento de la igualdad entre mujeres y hombres a través de las prácticas artísticas y la cultura comunitaria, para el año 2026.","descripcionLeng":null,"fechaRecepcion":"2026-05-04","nivel1":"ESTADO","nivel2":"MINISTERIO DE IGUALDAD","nivel3":"INSTITUTO DE LAS MUJERES","codigoInvente":"INV00003697"},{"id":1104591,"mrr":false,"numeroConvocatoria":"903030","descripcion":"CONVOCATORIA DEL LVIII CONCURSO INTERNACIONAL DE FOTOGRAFÍA DE FIESTAS DE SEPTIEMBRE 2026","descripcionLeng":null,"fechaRecepcion":"2026-05-04","nivel1":"LOCAL","nivel2":"MONÓVAR/MONÒVER","nivel3":"AYUNTAMIENTO DE MONÓVAR/MONÒVER","codigoInvente":null},{"id":1104589,"mrr":false,"numeroConvocatoria":"903028","descripcion":"CONVOCATORIA DE AYUDAS PARA LA ENSEÑANZA Y EL TRANSPORTE DEL AYUNTAMIENTO DE CAMBADOS CURSO 2026/2027","descripcionLeng":"CONVOCATORIA DE AXUDAS PARA O ENSINO E O TRANSPORTE DO CONCELLO DE CAMBADOS CURSO 2026/2027","fechaRecepcion":"2026-05-04","nivel1":"LOCAL","nivel2":"CAMBADOS","nivel3":"AYUNTAMIENTO DE CAMBADOS","codigoInvente":null},{"id":1104587,"mrr":false,"numeroConvocatoria":"903026","descripcion":"Resolución de 28 de abril de 2026, de la Directora del Instituto de las Mujeres, por la que se convocan subvenciones para el fomento de la igualdad de género, destinadas a la promoción de la creación, producción y difusión artística y cultural, para 2026.","descripcionLeng":null,"fechaRecepcion":"2026-05-04","nivel1":"ESTADO","nivel2":"MINISTERIO DE IGUALDAD","nivel3":"INSTITUTO DE LAS MUJERES","codigoInvente":"INV00003697"},{"id":1104584,"mrr":false,"numeroConvocatoria":"903023","descripcion":"CONVOCATORIA DE SUBVENCIONES A ENTIDADES DEPORTIVAS PARA EL FOMENTO Y LA PROMOCIÓN DEL DEPORTE DE RUGBY. ANUALIDAD 2026 (LINEA 3).","descripcionLeng":null,"fechaRecepcion":"2026-05-04","nivel1":"LOCAL","nivel2":"VILLAJOYOSA/VILA JOIOSA, LA","nivel3":"AYUNTAMIENTO DE VILLAJOYOSA/VILA JOIOSA, LA","codigoInvente":null},{"id":1104579,"mrr":false,"numeroConvocatoria":"903018","descripcion":"CONVOCATORIA SUBVENCIONES AYTOS PROYECTOIS PROTECCIÓN CIVIL ALVPC 2026","descripcionLeng":null,"fechaRecepcion":"2026-05-04","nivel1":"LOCAL","nivel2":"DIPUTACIÓN PROV. DE CÓRDOBA","nivel3":"DIPUTACIÓN PROVINCIAL DE CÓRDOBA","codigoInvente":null},{"id":1104576,"mrr":false,"numeroConvocatoria":"903015","descripcion":"Convocatoria de ayudas escolares y extraescolares para el curso 2026-2027","descripcionLeng":"Convocatòria d'ajudes escolars i extraescolars pel curs 2026-2027","fechaRecepcion":"2026-05-04","nivel1":"LOCAL","nivel2":"LLIÇÀ DE VALL","nivel3":"AYUNTAMIENTO DE LLIÇÀ DE VALL","codigoInvente":null},{"id":1104575,"mrr":false,"numeroConvocatoria":"903014","descripcion":"BASES Y CONVOCATORÍA SUBVENCIONES A ASOCIACIONES JUVENILES CULTURALES Y DEPORTIVAS 2026","descripcionLeng":null,"fechaRecepcion":"2026-05-04","nivel1":"LOCAL","nivel2":"VILLAMURIEL DE CERRATO","nivel3":"AYUNTAMIENTO DE VILLAMURIEL DE CERRATO","codigoInvente":null},{"id":1104574,"mrr":false,"numeroConvocatoria":"903013","descripcion":"BASES REGULADORAS ESPECÍFICAS Y CONVOCATORIA DE SUBVENCIONES DEL SERVICIO DE DEPORTES DEL ÁREA DE CULTURA Y CIUDADANÍA DESTINADAS A GASTOS DE DESPLAZAMIENTOS, SEDES Y ORGANIZACIÓN PARA EL FOMENTO DE ACTIVIDADES DEPORTIVAS (2025)","descripcionLeng":null,"fechaRecepcion":"2026-05-04","nivel1":"LOCAL","nivel2":"DIPUTACIÓN PROV. DE SEVILLA","nivel3":"DIPUTACIÓN PROVINCIAL DE SEVILLA","codigoInvente":null},{"id":1104572,"mrr":false,"numeroConvocatoria":"903011","descripcion":"2026 Infraestructuras de mercados de alimentación","descripcionLeng":"2026 Elikagai-azoketako azpiegiturak","fechaRecepcion":"2026-05-04","nivel1":"LOCAL","nivel2":"DIPUTACIÓN FORAL DE BIZKAIA","nivel3":"DIPUTACIÓN FORAL DE BIZKAIA","codigoInvente":null},{"id":1104571,"mrr":false,"numeroConvocatoria":"903010","descripcion":"DECRETO FORAL 47/2026, de 30 de abril, de la Diputación Foral de Bizkaia por el que se aprueban las bases reguladoras y la convocatoria de becas de artes plásticas y visuales, para el ejercicio 2026.","descripcionLeng":"Bizkaiko Foru Aldundiaren, apirilaren 30eko, 47/2026 FORU DEKRETUA, zeinaren bidez, oinarri arautzaileak eta deialdia onesten baitira 2026ko ekitaldian arte plastiko eta ikusmen-arteen beketarako.","fechaRecepcion":"2026-05-04","nivel1":"LOCAL","nivel2":"DIPUTACIÓN FORAL DE BIZKAIA","nivel3":"DIPUTACIÓN FORAL DE BIZKAIA","codigoInvente":null},{"id":1104569,"mrr":false,"numeroConvocatoria":"903008","descripcion":"BASES REGULADORAS ESPECÍFICAS Y CONVOCATORIA DE SUBVENCIONES DEL SERVICIO DE DEPORTES DEL ÁREA DE CULTURA Y CIUDADANÍA DESTINADAS A LA COOPERACIÓN EN EL SOSTENIMIENTO DE TÉCNICOS Y DINAMIZADORES DEPORTIVOS (2026)","descripcionLeng":null,"fechaRecepcion":"2026-05-04","nivel1":"LOCAL","nivel2":"DIPUTACIÓN PROV. DE SEVILLA","nivel3":"DIPUTACIÓN PROVINCIAL DE SEVILLA","codigoInvente":null},{"id":1104567,"mrr":false,"numeroConvocatoria":"903006","descripcion":"Plan Provincial Córdoba Red de Municipios por la Conciliación y la Corresponsabilidad 4.0 2025/2026","descripcionLeng":null,"fechaRecepcion":"2026-05-04","nivel1":"LOCAL","nivel2":"DIPUTACIÓN PROV. DE CÓRDOBA","nivel3":"DIPUTACIÓN PROVINCIAL DE CÓRDOBA","codigoInvente":null},{"id":1104566,"mrr":false,"numeroConvocatoria":"903005","descripcion":"Convocatoria Programa Desarrollo de Capacidades 2026","descripcionLeng":null,"fechaRecepcion":"2026-05-04","nivel1":"LOCAL","nivel2":"DIPUTACIÓN PROV. DE CÓRDOBA","nivel3":"DIPUTACIÓN PROVINCIAL DE CÓRDOBA","codigoInvente":null},{"id":1104563,"mrr":false,"numeroConvocatoria":"903002","descripcion":"Resolución 30/04/2026, del Vicerrectorado de Estudiantes y Cultura de la UCO, por la que se convocan ayudas de la Junta de Andalucía para la adquisición de niveles de competencia lingüística en estudios oficiales de Grado para el curso 2025/2026.","descripcionLeng":null,"fechaRecepcion":"2026-05-03","nivel1":"OTROS","nivel2":"UNIVERSIDAD DE CÓRDOBA","nivel3":null,"codigoInvente":"INV00005335"},{"id":1104561,"mrr":false,"numeroConvocatoria":"903000","descripcion":"Resolución de la Secretaría de Estado de Asuntos Exteriores y Globales por la que se convocan subvenciones correspondientes al año 2026 para la realización de actividades dirigidas a la divulgación, promoción y protección de los derechos humanos","descripcionLeng":null,"fechaRecepcion":"2026-05-03","nivel1":"ESTADO","nivel2":"MINISTERIO DE ASUNTOS EXTERIORES, UNIÓN EUROPEA Y COOPERACIÓN","nivel3":"SECRETARÍA DE ESTADO DE ASUNTOS EXTERIORES Y GLOBALES","codigoInvente":null},{"id":1104559,"mrr":false,"numeroConvocatoria":"902998","descripcion":"EXTRACTO CONVOCATORIA PLAN AVANZAMOS DE OBRAS Y EQUIPAMIENTOS, EMPLEO Y OTROS GASTOS CORRIENTES DE LA DIPUTACIÓN DE BADAJOZ PARA 2026 DIRIGIDOS A AYTOS Y EELL MENORES DE LA PROVINCIA","descripcionLeng":null,"fechaRecepcion":"2026-05-01","nivel1":"LOCAL","nivel2":"DIPUTACIÓN PROV. DE BADAJOZ","nivel3":"DIPUTACIÓN PROVINCIAL DE BADAJOZ","codigoInvente":null},{"id":1104558,"mrr":false,"numeroConvocatoria":"902997","descripcion":"CONVOCATORIA DE SUBVENCIONES A CLUBES DEPORTIVOS Y DEPORTISTAS DE COMPETICIÓN DEL CONCEJO DE RIBADESELLA, EJERCICIO 2026.","descripcionLeng":null,"fechaRecepcion":"2026-05-01","nivel1":"LOCAL","nivel2":"RIBADESELLA","nivel3":"AYUNTAMIENTO DE RIBADESELLA","codigoInvente":null},{"id":1104557,"mrr":false,"numeroConvocatoria":"902996","descripcion":"LEHEN AUKERA-AYUDAS PARA CONTRATACIÓN JOV. DESEMPLEADOS/AS 2026-2027","descripcionLeng":"LEHEN AUKERA-LAGUNTZEN DEIALDIA, GAZTE LANGABEAK KONTRATATZEKO 2026-2027","fechaRecepcion":"2026-04-30","nivel1":"AUTONOMICA","nivel2":"PAÍS VASCO","nivel3":"LANBIDE-SERVICIO VASCO DE EMPLEO","codigoInvente":"INV00003816"},{"id":1104556,"mrr":false,"numeroConvocatoria":"902995","descripcion":"Ayudas contratación de personas mayores de 50 años en desempleo 2026-2027","descripcionLeng":"50 urtetik gorako langabeak kontratatzeko dirulaguntzak 2026-2027","fechaRecepcion":"2026-04-30","nivel1":"AUTONOMICA","nivel2":"PAÍS VASCO","nivel3":"LANBIDE-SERVICIO VASCO DE EMPLEO","codigoInvente":"INV00003816"},{"id":1104555,"mrr":false,"numeroConvocatoria":"902994","descripcion":"SUBVENCIONES DESTINADAS A FINANCIAR CICLOS Y FESTIVALES ARTÍSTICOS ORGANIZADOS POR EMPRESAS PRIVADAS DEL SECTOR CULTURAL, DURANTE EL AÑO 2026 POR UN IMPORTE DE 175.000 EUROS.","descripcionLeng":"SUBVENCIONS DESTINADES A FINANÇAR CICLES I FESTIVALS ARTÍSTICS ORGANITZATS PER EMPRESES PRIVADES DEL SECTOR CULTURAL, DURANT L'ANY 2026 PER UN IMPORT DE 175.000 EUROS.","fechaRecepcion":"2026-04-30","nivel1":"LOCAL","nivel2":"DIPUTACIÓN PROV. DE BARCELONA","nivel3":"DIPUTACIÓN PROVINCIAL DE BARCELONA","codigoInvente":null},{"id":1104542,"mrr":false,"numeroConvocatoria":"902981","descripcion":"SUBV. CONCILIACIÓN VIDA FAMILIAR Y LABORAL PERSONAS TRABAJADORAS AUTÓNOMAS","descripcionLeng":null,"fechaRecepcion":"2026-04-30","nivel1":"AUTONOMICA","nivel2":"CANARIAS","nivel3":"SERVICIO CANARIO DE EMPLEO","codigoInvente":null},{"id":1104541,"mrr":false,"numeroConvocatoria":"902980","descripcion":"SUBV. CONCILIACIÓN VIDA FAMILIAR Y LABORAL PERS. TRAB. AUTÓNOMAS","descripcionLeng":null,"fechaRecepcion":"2026-04-30","nivel1":"AUTONOMICA","nivel2":"CANARIAS","nivel3":"SERVICIO CANARIO DE EMPLEO","codigoInvente":null},{"id":1104540,"mrr":false,"numeroConvocatoria":"902979","descripcion":"SUBV. CONCILIACIÓN VIDA FAMILIAR Y LABORAL PERSONAS TRABAJADORAS AUTÓNOMAS","descripcionLeng":null,"fechaRecepcion":"2026-04-30","nivel1":"AUTONOMICA","nivel2":"CANARIAS","nivel3":"SERVICIO CANARIO DE EMPLEO","codigoInvente":null},{"id":1104538,"mrr":false,"numeroConvocatoria":"902977","descripcion":"Convocatoria de subvenciones para fomentar actividades en el ámbito de la red de parques naturales de la Diputación de Barcelona. Año 2027","descripcionLeng":"Convocatòria de subvencions per fomentar activitats en l'àmbit de la xarxa de parcs naturals de la Diputació de Barcelona. Any 2027","fechaRecepcion":"2026-04-30","nivel1":"LOCAL","nivel2":"DIPUTACIÓN PROV. DE BARCELONA","nivel3":"DIPUTACIÓN PROVINCIAL DE BARCELONA","codigoInvente":null}],"pageable":{"sort":{"sorted":true,"unsorted":false,"empty":false},"pageNumber":33,"pageSize":50,"offset":1650,"paged":true,"unpaged":false},"last":false,"totalElements":10000,"totalPages":200,"sort":{"sorted":true,"unsorted":false,"empty":false},"first":false,"numberOfElements":50,"size":50,"number":33,"empty":false,"advertencia":"La reutilización de los datos del Sistema Nacional de Publicidad de Subvenciones y Ayudas Públicas está sujeta a una serie de restricciones y consideraciones legales. Consulte el aviso legal en https://www.infosubvenciones.es/bdnstrans/GE/es/avisolegal.Además, el usuario debe ser consciente que la información presentada es de naturaleza dinámica, y que los datos pueden ser sometidos a correcciones, inserciones, modificaciones y eliminaciones en momentos posteriores a su extracción. Accesos al API del sistema Nacional de Publicidad de Subvenciones y Ayudas Públicas. La Administración Presupuestaria, para salvaguardar la protección del acceso libre e irrestricto de los ciudadanos a este Portal y a su información podrá adoptar medidas restrictivas de acceso al API ante situaciones de manifiesto abuso del servicio, riesgos de seguridad, o uso fraudulento de la información descargada, de acuerdo con las buenas prácticas de gestión de datos abiertos (https://datos.gob.es/es/blog/limitaciones-la-consulta-de-una-api) establecidas por el Ministerio para la Transformación Digital y de la Función Pública."}