{"content":[{"id":1099873,"mrr":false,"numeroConvocatoria":"898312","descripcion":"Resolución de 25 de marzo de 2026, la Presidencia del Consejo Superior de Deportes, por la que se convocan subvenciones a FFDDEE para desplazamientos a competiciones internacionales convocadas por la FISU en el año 2026.","descripcionLeng":null,"fechaRecepcion":"2026-04-13","nivel1":"ESTADO","nivel2":"MINISTERIO DE EDUCACIÓN, FORMACIÓN PROFESIONAL Y DEPORTES","nivel3":"CONSEJO SUPERIOR DE DEPORTES","codigoInvente":"INV00001300"},{"id":1099871,"mrr":false,"numeroConvocatoria":"898310","descripcion":"CONVOCATORIA DE SUBVENCIONES A ENTIDADES SIN ÁNIMO DE LUCRO EN MATERIA DE INFANCIA 2026","descripcionLeng":null,"fechaRecepcion":"2026-04-13","nivel1":"LOCAL","nivel2":"VALLADOLID","nivel3":"AYUNTAMIENTO DE VALLADOLID","codigoInvente":null},{"id":1099869,"mrr":false,"numeroConvocatoria":"898308","descripcion":"(CHE) Cheque Innovación Europa (Reg.MinimisP 717/2014)","descripcionLeng":null,"fechaRecepcion":"2026-04-13","nivel1":"AUTONOMICA","nivel2":"LA RIOJA","nivel3":"AGENCIA DE DESARROLLO ECONÓMICO DE LA RIOJA","codigoInvente":"INV00000065"},{"id":1099868,"mrr":false,"numeroConvocatoria":"898307","descripcion":"(CHE) Cheque Innovación Europa (Reg.Minimis 2023/2831)","descripcionLeng":null,"fechaRecepcion":"2026-04-13","nivel1":"AUTONOMICA","nivel2":"LA RIOJA","nivel3":"AGENCIA DE DESARROLLO ECONÓMICO DE LA RIOJA","codigoInvente":"INV00000065"},{"id":1099867,"mrr":false,"numeroConvocatoria":"898306","descripcion":"(TE2) Cheque Innov. Economía Circular (Reg. Minimis P 717/2014)","descripcionLeng":null,"fechaRecepcion":"2026-04-13","nivel1":"AUTONOMICA","nivel2":"LA RIOJA","nivel3":"AGENCIA DE DESARROLLO ECONÓMICO DE LA RIOJA","codigoInvente":"INV00000065"},{"id":1099866,"mrr":false,"numeroConvocatoria":"898305","descripcion":"(TE2) Cheque Innov. Economía Circular (Reg. Minimis 2023/2831)","descripcionLeng":null,"fechaRecepcion":"2026-04-13","nivel1":"AUTONOMICA","nivel2":"LA RIOJA","nivel3":"AGENCIA DE DESARROLLO ECONÓMICO DE LA RIOJA","codigoInvente":"INV00000065"},{"id":1099860,"mrr":false,"numeroConvocatoria":"898299","descripcion":"Concesión de subvención nominativa al Ayuntamiento de Fasnia para la realización del \"Saneamiento y Depuración en los Roques de Fasnia\"","descripcionLeng":null,"fechaRecepcion":"2026-04-13","nivel1":"LOCAL","nivel2":"CABILDO INSULAR DE TENERIFE","nivel3":"CABILDO INSULAR DE TENERIFE","codigoInvente":null},{"id":1099857,"mrr":false,"numeroConvocatoria":"898296","descripcion":"XXXIV CERTAMEN DE PINTURA “VILLA DE MONTELLANO”","descripcionLeng":null,"fechaRecepcion":"2026-04-13","nivel1":"LOCAL","nivel2":"MONTELLANO","nivel3":"AYUNTAMIENTO DE MONTELLANO","codigoInvente":null},{"id":1099856,"mrr":false,"numeroConvocatoria":"898295","descripcion":"CONVOCATORIA PARA LA CONCESIÓN DE SUBVENCIONES A LOS PROGRAMAS DE ACTIVIDADES Y FORMACIÓN EN MATERIA DEPORTIVA DEL EXCMO. AYUNTAMIENTO DE ZALAMEA LA REAL 2026.","descripcionLeng":null,"fechaRecepcion":"2026-04-13","nivel1":"LOCAL","nivel2":"ZALAMEA LA REAL","nivel3":"AYUNTAMIENTO DE ZALAMEA LA REAL","codigoInvente":null},{"id":1099855,"mrr":false,"numeroConvocatoria":"898294","descripcion":"Convocatoria de ayudas a entidades de voluntariado o con programas, en el ámbito deportivo y de la actividad física 2026","descripcionLeng":null,"fechaRecepcion":"2026-04-13","nivel1":"AUTONOMICA","nivel2":"COMUNIDAD FORAL DE NAVARRA","nivel3":"INSTITUTO NAVARRO DE DEPORTE","codigoInvente":"INV00003736"},{"id":1099854,"mrr":false,"numeroConvocatoria":"898293","descripcion":"Resolución EMT/   /2026, de , por la que se abre la convocatoria para el año 2026 en relación con la concesión de subvenciones para movilidades al extranjero para el aprendizaje para las personas participantes en el Programa Erasmus+ ITER Mobility","descripcionLeng":"Resolució EMT/   /2026, de , per la qual s'obre la convocatòria per a l'any 2026 en relació amb la concessió de subvencions per a mobilitats a l'estranger per a l'aprenentatge per a les persones participants en el Programa Erasmus+ ITER Mobility","fechaRecepcion":"2026-04-13","nivel1":"AUTONOMICA","nivel2":"CATALUÑA","nivel3":"SERVICIO PÚBLICO DE EMPLEO DE CATALUÑA","codigoInvente":"INV00005019"},{"id":1099853,"mrr":false,"numeroConvocatoria":"898292","descripcion":"Ayudas Extremadura Avante a empresas para participación agrupada en la Misión Comercial Directa a Marruecos 2026, según el Acuerdo de 10 de abril de 2026 que las convoca.","descripcionLeng":null,"fechaRecepcion":"2026-04-13","nivel1":"AUTONOMICA","nivel2":"EXTREMADURA","nivel3":"EXTREMADURA AVANTE SERVICIOS AVANZADOS A PYMES, S.L.U.","codigoInvente":"INV00002179"},{"id":1099852,"mrr":false,"numeroConvocatoria":"898291","descripcion":"Orde de 30 de marzo de 2026 de la Consellería de Cultura, Lengua y Juventud por la que se establecen las bases reguladoras para la concesión de subvenciones para la participación de profesionales de la creación literaria gallega en residencias literarias ","descripcionLeng":null,"fechaRecepcion":"2026-04-13","nivel1":"AUTONOMICA","nivel2":"GALICIA","nivel3":"CONSELLERÍA DE CULTURA, LENGUA Y JUVENTUD","codigoInvente":null},{"id":1099845,"mrr":false,"numeroConvocatoria":"898284","descripcion":"Convocatoria de beca Erasmus para PDI con el fin de realizar estancias de corta duración del BIP en “Geriatrics, 4th edition”, en la Universidade de Porto (Portugal), curso 2025/2026.","descripcionLeng":null,"fechaRecepcion":"2026-04-13","nivel1":"OTROS","nivel2":"UNIVERSIDAD DE SALAMANCA","nivel3":null,"codigoInvente":"INV00005348"},{"id":1099840,"mrr":false,"numeroConvocatoria":"898279","descripcion":"Convocatoria de becas para estudiantes del Máster Universitario de Química Fina y Molecular de la Universidad de Murcia. Curso 2025/2026.","descripcionLeng":null,"fechaRecepcion":"2026-04-13","nivel1":"OTROS","nivel2":"UNIVERSIDAD DE MURCIA","nivel3":null,"codigoInvente":"INV00005346"},{"id":1099837,"mrr":false,"numeroConvocatoria":"898276","descripcion":"CONVOCATORIA PARA LA CONCESIÓN DE SUBVENCIONES A LAS ASOCIACIONES DE MAYORES EN RÉGIMEN DE CONCURRENCIA COMPETITIVA DE LA CONCEJALÍA DE BIENESTAR SOCIAL - 2026","descripcionLeng":null,"fechaRecepcion":"2026-04-13","nivel1":"LOCAL","nivel2":"ORIHUELA","nivel3":"AYUNTAMIENTO DE ORIHUELA","codigoInvente":null},{"id":1099833,"mrr":false,"numeroConvocatoria":"898272","descripcion":"CONVOCATORIA PARA LA CONCESIÓN DE SUBVENCIONES A LOS PROGRAMAS DE ACTIVIDADES Y FORMACIÓN EN MATERIA CULTURAL DEL EXCMO. AYUNTAMIENTO DE ZALAMEA LA REAL 2026.","descripcionLeng":null,"fechaRecepcion":"2026-04-13","nivel1":"LOCAL","nivel2":"ZALAMEA LA REAL","nivel3":"AYUNTAMIENTO DE ZALAMEA LA REAL","codigoInvente":null},{"id":1099830,"mrr":false,"numeroConvocatoria":"898269","descripcion":"Acuerdo de 27/03/2026 del C.R. del ILC, por el que se convocan subvenciones para Equipamiento de Espacios Culturales 2026","descripcionLeng":null,"fechaRecepcion":"2026-04-13","nivel1":"LOCAL","nivel2":"DIPUTACIÓN PROV. DE LEÓN","nivel3":"INSTITUTO LEONES DE CULTURA","codigoInvente":"INV00003509"},{"id":1099829,"mrr":false,"numeroConvocatoria":"898268","descripcion":"Acuerdo de 27/03/2026, del C.R. del ILC, por el que se convocan subvenciones para Festivales y Proyectos Culturales 2026","descripcionLeng":null,"fechaRecepcion":"2026-04-13","nivel1":"LOCAL","nivel2":"DIPUTACIÓN PROV. DE LEÓN","nivel3":"INSTITUTO LEONES DE CULTURA","codigoInvente":"INV00003509"},{"id":1099826,"mrr":false,"numeroConvocatoria":"898265","descripcion":"Acuerdo de 27/03/2026 del C.R. del ILC. por el que se convocan subvenciones para Contratació-Nombramiento Personal Museos 2026","descripcionLeng":"Acuerdo de 27/03/2026 del C.R. del ILC, por el que se convocan subvenciones para Contratación-Nombramiento de Personal Museos 2026","fechaRecepcion":"2026-04-13","nivel1":"LOCAL","nivel2":"DIPUTACIÓN PROV. DE LEÓN","nivel3":"INSTITUTO LEONES DE CULTURA","codigoInvente":"INV00003509"},{"id":1099825,"mrr":false,"numeroConvocatoria":"898264","descripcion":"Acuerdo de 27/03/2026 del C.R. del ILC, por el que se convocan subvenciones para Asociaciones Culturales 2026","descripcionLeng":null,"fechaRecepcion":"2026-04-13","nivel1":"LOCAL","nivel2":"DIPUTACIÓN PROV. DE LEÓN","nivel3":"INSTITUTO LEONES DE CULTURA","codigoInvente":"INV00003509"},{"id":1099824,"mrr":false,"numeroConvocatoria":"898263","descripcion":"Acuerdo de 27/03/2026 del C.R. del ILC, por el que se convocan subvenciones para Restauración de Arquitectura Tradicional Leonesa 2026","descripcionLeng":null,"fechaRecepcion":"2026-04-13","nivel1":"LOCAL","nivel2":"DIPUTACIÓN PROV. DE LEÓN","nivel3":"INSTITUTO LEONES DE CULTURA","codigoInvente":"INV00003509"},{"id":1099822,"mrr":false,"numeroConvocatoria":"898261","descripcion":"Convocatoria de ayudas de movilidades de alumnado Erasmus+ para prácticas-SMT del curso académico 2026-2027 en el marco del Programa Erasmus+.","descripcionLeng":null,"fechaRecepcion":"2026-04-13","nivel1":"OTROS","nivel2":"UNIVERSIDAD DE LA LAGUNA","nivel3":null,"codigoInvente":"INV00005341"},{"id":1099821,"mrr":false,"numeroConvocatoria":"898260","descripcion":"Acuerdo de 27/03/2026 del C.R. del ILC, por el que se convocan subvenciones para Escuelas Municipales de Música 2026","descripcionLeng":null,"fechaRecepcion":"2026-04-13","nivel1":"LOCAL","nivel2":"DIPUTACIÓN PROV. DE LEÓN","nivel3":"INSTITUTO LEONES DE CULTURA","codigoInvente":"INV00003509"},{"id":1099820,"mrr":false,"numeroConvocatoria":"898259","descripcion":"Acuerdo de 27/03/2026 del C.R. del ILC, por el que se convocan subvenciones para Bandas Municipales de Música 2026","descripcionLeng":null,"fechaRecepcion":"2026-04-13","nivel1":"LOCAL","nivel2":"DIPUTACIÓN PROV. DE LEÓN","nivel3":"INSTITUTO LEONES DE CULTURA","codigoInvente":"INV00003509"},{"id":1099819,"mrr":false,"numeroConvocatoria":"898258","descripcion":"Acuerdo de 27/03/2026 del C.R. del ILC, por el que se convocan subvenciones con destino al Plan Iglesia Abierta 2025-2026","descripcionLeng":null,"fechaRecepcion":"2026-04-13","nivel1":"LOCAL","nivel2":"DIPUTACIÓN PROV. DE LEÓN","nivel3":"INSTITUTO LEONES DE CULTURA","codigoInvente":"INV00003509"},{"id":1099814,"mrr":false,"numeroConvocatoria":"898253","descripcion":"Foment activitats culturals, tradicionals i festives a la ciutat de Reus","descripcionLeng":null,"fechaRecepcion":"2026-04-13","nivel1":"LOCAL","nivel2":"REUS","nivel3":"INSTITUTO MUNICIPAL REUS CULTURA (IMRC)","codigoInvente":"INV00003633"},{"id":1099811,"mrr":false,"numeroConvocatoria":"898250","descripcion":"FOMENT D`ACTIVITATS D`INTERÈS JUVENIL A LA CIUTAT DE REUS","descripcionLeng":null,"fechaRecepcion":"2026-04-13","nivel1":"LOCAL","nivel2":"REUS","nivel3":"AYUNTAMIENTO DE REUS","codigoInvente":null},{"id":1099810,"mrr":false,"numeroConvocatoria":"898249","descripcion":"Convocatoria de subvenciones a Ayuntamientos de la provincia de Palencia para Desarrollo Turístico","descripcionLeng":null,"fechaRecepcion":"2026-04-13","nivel1":"LOCAL","nivel2":"DIPUTACIÓN PROV. DE PALENCIA","nivel3":"DIPUTACIÓN PROVINCIAL DE PALENCIA","codigoInvente":null},{"id":1099808,"mrr":false,"numeroConvocatoria":"898247","descripcion":"Convocatoria de ayudas económicas destinadas a participantes en programas intensivos combinados (BIPs) pertenecientes al catálogo de la alianza europea de universidades STARSEU, con el fin de contribuir a sufragar los gastos de movilidad a dicho programa.","descripcionLeng":null,"fechaRecepcion":"2026-04-13","nivel1":"OTROS","nivel2":"UNIVERSIDAD DE LA LAGUNA","nivel3":null,"codigoInvente":"INV00005341"},{"id":1099807,"mrr":false,"numeroConvocatoria":"898246","descripcion":"CONVOCATORIA PÚBLICA PARA LA CONCESIÓN DE AYUDAS Y SUBVENCIONES A ENTIDADES Y PERSONAS FÍSICAS EN EL CAMPO DEL MEDIO AMBIENTE EN EL MUNICIPIO DE VILAFRANCA DEL PENEDÈS, AÑO 2026","descripcionLeng":"CONVOCATÒRIA PÚBLICA PER A LA CONCESSIÓ D'AJUTS I SUBVENCIONS A ENTITATS I PERSONES FÍSIQUES EN EL CAMP DEL MEDI AMBIENT AL MUNICIPI DE VILAFRANCA DEL PENEDÈS, ANY 2026","fechaRecepcion":"2026-04-13","nivel1":"LOCAL","nivel2":"VILAFRANCA DEL PENEDÈS","nivel3":"AYUNTAMIENTO DE VILAFRANCA DEL PENEDÈS","codigoInvente":null},{"id":1099802,"mrr":false,"numeroConvocatoria":"898241","descripcion":"Convocatoria de subvenciones a Centro de Iniciativas Turísticas, Asociaciones y Entidades Turísticas sin ánimo de lucro de la provincia de Palencia para Desarrollo Turístico","descripcionLeng":null,"fechaRecepcion":"2026-04-13","nivel1":"LOCAL","nivel2":"DIPUTACIÓN PROV. DE PALENCIA","nivel3":"DIPUTACIÓN PROVINCIAL DE PALENCIA","codigoInvente":null},{"id":1099800,"mrr":false,"numeroConvocatoria":"898239","descripcion":"Convocatoria Pyme Sostenible 2026 - Cámara de Comercio de Ciudad Real","descripcionLeng":null,"fechaRecepcion":"2026-04-13","nivel1":"OTROS","nivel2":"CÁMARA DE COMERCIO DE CIUDAD REAL","nivel3":null,"codigoInvente":null},{"id":1099797,"mrr":false,"numeroConvocatoria":"898236","descripcion":"Resolución de 10 de abril de 2026, de la Dirección del Instituto de las Mujeres, por la que se convoca la concesión de las subvenciones públicas destinadas a la realización de Investigaciones Feministas, para el año 2026.","descripcionLeng":null,"fechaRecepcion":"2026-04-13","nivel1":"ESTADO","nivel2":"MINISTERIO DE IGUALDAD","nivel3":"INSTITUTO DE LAS MUJERES","codigoInvente":"INV00003697"},{"id":1099786,"mrr":false,"numeroConvocatoria":"898225","descripcion":"Convocatoria Pyme Innova 2026 - Cámara de Comercio de Ciudad Real","descripcionLeng":null,"fechaRecepcion":"2026-04-13","nivel1":"OTROS","nivel2":"CÁMARA DE COMERCIO DE CIUDAD REAL","nivel3":null,"codigoInvente":null},{"id":1099784,"mrr":false,"numeroConvocatoria":"898223","descripcion":"CONVOCATORIA DEL XVI CONCURSO DE FOTOGRAFÍA DIGITAL DE FIESTAS PATRONALES “FOTOFESTA”,  “MEMORIAL HELIODORO CORBÍ SIRVENT”","descripcionLeng":null,"fechaRecepcion":"2026-04-13","nivel1":"LOCAL","nivel2":"PETRER","nivel3":"AYUNTAMIENTO DE PETRER","codigoInvente":null},{"id":1099783,"mrr":false,"numeroConvocatoria":"898222","descripcion":"Convocatoria de subvenciones a Ayuntamientos de la provincia de Palencia para apertura de Oficinas Municipales de Turismo y Puntos de Información Turística","descripcionLeng":null,"fechaRecepcion":"2026-04-13","nivel1":"LOCAL","nivel2":"DIPUTACIÓN PROV. DE PALENCIA","nivel3":"DIPUTACIÓN PROVINCIAL DE PALENCIA","codigoInvente":null},{"id":1099782,"mrr":false,"numeroConvocatoria":"898221","descripcion":"RESOLUCIÓN DEL VICERRECTOR DE ESTUDIANTES Y VIDA UNIVERSITARIA POR LA QUE SE PUBLICAN LAS BBRR Y SE CONVOCAN LAS “BECAS SANTANDER | AYUDA ECONÓMICA 2026” PARA ESTUDIANTES MATRICULADOS EN TITULACIONES OFICIALES DE GRADO, EN EL CURSO 2026/2027","descripcionLeng":null,"fechaRecepcion":"2026-04-13","nivel1":"OTROS","nivel2":"UNIVERSIDAD DE GRANADA","nivel3":null,"codigoInvente":"INV00005337"},{"id":1099775,"mrr":false,"numeroConvocatoria":"898214","descripcion":"IX CONCURSO PINTURA SIGLO DE ORO","descripcionLeng":null,"fechaRecepcion":"2026-04-13","nivel1":"LOCAL","nivel2":"ROQUETAS DE MAR","nivel3":"AYUNTAMIENTO DE ROQUETAS DE MAR","codigoInvente":null},{"id":1099773,"mrr":false,"numeroConvocatoria":"898212","descripcion":"Convocatoria de subvenciones del Banco de Recursos Provincial de Sensibilización y Educación 2026","descripcionLeng":null,"fechaRecepcion":"2026-04-13","nivel1":"LOCAL","nivel2":"DIPUTACIÓN PROV. DE CÓRDOBA","nivel3":"DIPUTACIÓN PROVINCIAL DE CÓRDOBA","codigoInvente":null},{"id":1099772,"mrr":false,"numeroConvocatoria":"898211","descripcion":"SUBVENCIÓN A PROPIETARIOS DE VIVIENDAS QUE LAS CEDAN A LA BOLSA DE ALQUILER 2026","descripcionLeng":null,"fechaRecepcion":"2026-04-12","nivel1":"AUTONOMICA","nivel2":"COMUNIDAD FORAL DE NAVARRA","nivel3":"DEPARTAMENTO DE VIVIENDA, JUVENTUD Y POLÍTICAS MIGRATORIAS","codigoInvente":null},{"id":1099771,"mrr":false,"numeroConvocatoria":"898210","descripcion":"Resolución del consejero de Educación y Universidades por la cual se convocan ayudas de promoción de la excelencia académica del alumnado universitario que haya finalizado estudios oficiales de grado o máster universitario en cualquier universidad español","descripcionLeng":"Resolució del conseller d’Educació i Universitats per la qual es convoquen ajudes de promoció de l’excel·lència acadèmica de l’alumnat universitari que hagi finalitzat estudis oficials de grau o màster universitari a qualsevol universitat espanyola","fechaRecepcion":"2026-04-12","nivel1":"AUTONOMICA","nivel2":"ILLES BALEARS","nivel3":"DIRECCIÓN GENERAL DE UNIVERSIDADES, INVESTIGACIÓN Y ENSEÑANZAS ARTÍSTICAS SUPERIORES","codigoInvente":null},{"id":1099770,"mrr":false,"numeroConvocatoria":"898209","descripcion":"Subvenciones para la organización de actividades de educación en el tiempo libre infantil y juvenil que realicen entidades locales y asociaciones de familias de alumnado de las Illes Balears para facilitar la conciliación de la vida familiar y laboral","descripcionLeng":"Subvenció per a l'organització d'activitats d'educació en el temps lliure infantil i juvenil que duguin a terme entitats locals i associacions de families d'alumnat de les I.B. per facilitar la conciliació","fechaRecepcion":"2026-04-12","nivel1":"AUTONOMICA","nivel2":"ILLES BALEARS","nivel3":"DIRECCIÓN GENERAL DE MENORES Y FAMILIAS","codigoInvente":null},{"id":1099769,"mrr":false,"numeroConvocatoria":"898208","descripcion":"EJERCICIO 2026: ORDENANZA REGULADORA DE LAS PRESTACIONES SOCIALES DE CARÁCTER ECONÓMICO","descripcionLeng":null,"fechaRecepcion":"2026-04-11","nivel1":"LOCAL","nivel2":"VILLALBILLA","nivel3":"AYUNTAMIENTO DE VILLALBILLA","codigoInvente":null},{"id":1099768,"mrr":false,"numeroConvocatoria":"898207","descripcion":"Convocatoria para la concesión de ayudas de matrícula destinadas a estudiantes del Programa de Doctorado en Género y Diversidad de la Universidad de Oviedo, curso académico 2025-2026","descripcionLeng":null,"fechaRecepcion":"2026-04-11","nivel1":"OTROS","nivel2":"UNIVERSIDAD DE OVIEDO","nivel3":null,"codigoInvente":"INV00005347"},{"id":1099767,"mrr":false,"numeroConvocatoria":"898206","descripcion":"Convocatoria de ayudas de matrícula a estudiantes del Máster Universitario en Género y Diversidad y del Máster Erasmus Mundus en Estudios de las Mujeres y de Género-GEMMA de la Universidad de Oviedo (2025-2026)","descripcionLeng":null,"fechaRecepcion":"2026-04-11","nivel1":"OTROS","nivel2":"UNIVERSIDAD DE OVIEDO","nivel3":null,"codigoInvente":"INV00005347"},{"id":1099764,"mrr":false,"numeroConvocatoria":"898203","descripcion":"Apoyo a asociaciones protectoras para la adopcion de animales de compañia","descripcionLeng":null,"fechaRecepcion":"2026-04-10","nivel1":"AUTONOMICA","nivel2":"LA RIOJA","nivel3":"CONSEJERÍA DE AGRICULTURA, GANADERÍA, MUNDO RURAL Y MEDIO AMBIENTE","codigoInvente":null},{"id":1099763,"mrr":false,"numeroConvocatoria":"898202","descripcion":"Convocatória de subvenciones a empresas y entidades con ánimo de lucro para la promoción y difusión del producto de Mallorca 2026","descripcionLeng":"Convocatòria de subvencions a empreses i entitats amb ànim de lucre per a la promoció i difusió del producte de Mallorca 2026","fechaRecepcion":"2026-04-10","nivel1":"LOCAL","nivel2":"CONSEJO INSULAR DE MALLORCA","nivel3":"DEPARTAMENTO DE PROMOCIÓN ECONÓMICA Y DESARROLLO LOCAL","codigoInvente":null},{"id":1099762,"mrr":false,"numeroConvocatoria":"898201","descripcion":"Convocatoria de contratos de personal investigador predoctoral en formación asociado a Proyectos de Generación de Conocimiento 2024.","descripcionLeng":null,"fechaRecepcion":"2026-04-10","nivel1":"OTROS","nivel2":"UNIVERSIDAD DE LAS PALMAS DE GRAN CANARIA","nivel3":null,"codigoInvente":"INV00005343"},{"id":1099759,"mrr":false,"numeroConvocatoria":"898198","descripcion":"Resolución por la que se convocan subvenciones para actuaciones de interés en materia de seguridad y salud laboral y se aprueba el gasto correspondiente para el año 2026","descripcionLeng":null,"fechaRecepcion":"2026-04-10","nivel1":"AUTONOMICA","nivel2":"PRINCIPADO DE ASTURIAS","nivel3":"INSTITUTO ASTURIANO DE PREVENCIÓN DE RIESGOS LABORALES","codigoInvente":"INV00003659"}],"pageable":{"sort":{"sorted":true,"unsorted":false,"empty":false},"pageNumber":52,"pageSize":50,"offset":2600,"unpaged":false,"paged":true},"last":false,"totalElements":10000,"totalPages":200,"first":false,"sort":{"sorted":true,"unsorted":false,"empty":false},"numberOfElements":50,"size":50,"number":52,"empty":false,"advertencia":"La reutilización de los datos del Sistema Nacional de Publicidad de Subvenciones y Ayudas Públicas está sujeta a una serie de restricciones y consideraciones legales. Consulte el aviso legal en https://www.infosubvenciones.es/bdnstrans/GE/es/avisolegal.Además, el usuario debe ser consciente que la información presentada es de naturaleza dinámica, y que los datos pueden ser sometidos a correcciones, inserciones, modificaciones y eliminaciones en momentos posteriores a su extracción. Accesos al API del sistema Nacional de Publicidad de Subvenciones y Ayudas Públicas. La Administración Presupuestaria, para salvaguardar la protección del acceso libre e irrestricto de los ciudadanos a este Portal y a su información podrá adoptar medidas restrictivas de acceso al API ante situaciones de manifiesto abuso del servicio, riesgos de seguridad, o uso fraudulento de la información descargada, de acuerdo con las buenas prácticas de gestión de datos abiertos (https://datos.gob.es/es/blog/limitaciones-la-consulta-de-una-api) establecidas por el Ministerio para la Transformación Digital y de la Función Pública."}