{"content":[{"id":1099624,"mrr":false,"numeroConvocatoria":"898063","descripcion":"CONVOCATORIA PARA EL OTORGAMIENTO DE AYUDAS ECONOMICAS TEMPORALES INDIVIDUALES Y DE EMERGENCIA SOCIAL DEL AYUNTAMIENTO DE CUNIT PARA EL AÑO 2026","descripcionLeng":"CONVOCATORIA PER A L’ATORGAMENT D’AJUTS ECONOMICS TEMPORALS INDIVIDUALS I D’EMERGÈNCIA SOCIAL DE L’AJUNTAMENT DE CUNIT PER L’ANY 2026","fechaRecepcion":"2026-04-10","nivel1":"LOCAL","nivel2":"CUNIT","nivel3":"AYUNTAMIENTO DE CUNIT","codigoInvente":null},{"id":1099623,"mrr":false,"numeroConvocatoria":"898062","descripcion":"Resolución de 10 de abril de 2026, por la que se convocan subvenciones en régimen de concurrencia competitiva de los Programas de Orientación y acompañamiento 2026","descripcionLeng":null,"fechaRecepcion":"2026-04-10","nivel1":"AUTONOMICA","nivel2":"ANDALUCÍA","nivel3":"SERVICIO ANDALUZ DE EMPLEO","codigoInvente":"INV00005037"},{"id":1099621,"mrr":false,"numeroConvocatoria":"898060","descripcion":"RESOLUCIÓN de 8 de abril de 2026, de la presidenta del Instituto Valenciano de Competitividad Empresarial (IVACE), por la que se convocan ayudas destinadas al fomento de instalaciones de autoconsumo de energía eléctrica en los municipios de la C.V., 2026","descripcionLeng":"RESOLUCIÓ de 8 d’abril de 2026, de la presidenta de l'Institut Valencià de Competitivitat Empresarial (IVACE), per la qual es convoquen ajudes destinades al foment d'instal·lacions d'autoconsum d'energia elèctrica en els municipis de la C.V.,2026.","fechaRecepcion":"2026-04-10","nivel1":"AUTONOMICA","nivel2":"COMUNITAT VALENCIANA","nivel3":"INSTITUTO VALENCIANO DE COMPETITIVIDAD EMPRESARIAL (IVACE)","codigoInvente":"INV00003755"},{"id":1099620,"mrr":false,"numeroConvocatoria":"898059","descripcion":"Subvenciones para la ejecución de Escuelas Taller durante 2026, 2027 y 2028","descripcionLeng":null,"fechaRecepcion":"2026-04-10","nivel1":"AUTONOMICA","nivel2":"COMUNIDAD FORAL DE NAVARRA","nivel3":"SERVICIO NAVARRO DE EMPLEO - NAFAR LANSARE","codigoInvente":"INV00005054"},{"id":1099619,"mrr":false,"numeroConvocatoria":"898058","descripcion":"Convocatoria de subvención para AVV 2026","descripcionLeng":"Convocatoria de subvencións para AVV 2026","fechaRecepcion":"2026-04-10","nivel1":"LOCAL","nivel2":"PONTES DE GARCÍA RODRÍGUEZ, AS","nivel3":"AYUNTAMIENTO DE AS PONTES DE GARCÍA RODRÍGUEZ","codigoInvente":null},{"id":1099614,"mrr":false,"numeroConvocatoria":"898053","descripcion":"Convocatoria de una beca de colaboración para asuntos internacionales. Escuela de Ingeniería Minera e Industrial de Almadén (EIMIA) de la Universidad de Castilla-La Mancha. Año 2026","descripcionLeng":null,"fechaRecepcion":"2026-04-10","nivel1":"OTROS","nivel2":"UNIVERSIDAD DE CASTILLA-LA MANCHA","nivel3":null,"codigoInvente":"INV00005334"},{"id":1099612,"mrr":false,"numeroConvocatoria":"898051","descripcion":"Ayudas 2026 a actuaciones de Dinamización y Promoción empresarial, L2_Eventos, según Resolución de 6 de abril de 2026 que las convoca.","descripcionLeng":null,"fechaRecepcion":"2026-04-10","nivel1":"AUTONOMICA","nivel2":"EXTREMADURA","nivel3":"DIRECCIÓN GENERAL DE EMPRESA","codigoInvente":null},{"id":1099611,"mrr":false,"numeroConvocatoria":"898050","descripcion":"Ayudas 2026 a actuaciones de Dinamización y Promoción empresarial,  L1_Asesoramiento, según Resolución de 6 de abril de 2026 que las convoca.","descripcionLeng":null,"fechaRecepcion":"2026-04-10","nivel1":"AUTONOMICA","nivel2":"EXTREMADURA","nivel3":"DIRECCIÓN GENERAL DE EMPRESA","codigoInvente":null},{"id":1099607,"mrr":false,"numeroConvocatoria":"898046","descripcion":"Subvenciones de concurrencia no competitiva para obras de arreglo de viviendas vacías para destinarlo al alquiler dentro de la bolsa de viviendas de la Oficina Municipal 2026","descripcionLeng":"Subvencions de concurrencia no competitiva per a obres d'arranjament d'habitatges buits per a destinar-los al lloguer dins de la borsa d'habitatges de l'Oficina Municipal 2026","fechaRecepcion":"2026-04-10","nivel1":"LOCAL","nivel2":"VILA-SECA","nivel3":"AYUNTAMIENTO DE VILA-SECA","codigoInvente":null},{"id":1099602,"mrr":false,"numeroConvocatoria":"898041","descripcion":"Subvenciones correspondientes a la plantación de especies arbóreas autóctonas dentro del término municipal de Elgoibar 2026.","descripcionLeng":"2026 Elgoibarko udal barrutiaren barruan zuhaitz espezie autoktonoak landatzeko dirulaguntzak ","fechaRecepcion":"2026-04-10","nivel1":"LOCAL","nivel2":"ELGOIBAR","nivel3":"AYUNTAMIENTO DE ELGOIBAR","codigoInvente":null},{"id":1099601,"mrr":false,"numeroConvocatoria":"898040","descripcion":"Orden de la Consejera de Política Social, Familias e Igualdad, por la que se convocan subvenciones para entidades del Tercer Sector de Acción Social, destinadas al desarrollo de actuaciones en la Lucha contra la Pobreza y la Exclusión Social CARM 2026","descripcionLeng":null,"fechaRecepcion":"2026-04-10","nivel1":"AUTONOMICA","nivel2":"REGIÓN DE MURCIA","nivel3":"CONSEJERÍA DE POLÍTICA SOCIAL, FAMILIAS E IGUALDAD","codigoInvente":null},{"id":1099600,"mrr":false,"numeroConvocatoria":"898039","descripcion":"RESOLUCIÓN DE 09 DE ABRIL DE 2026 DEL RECTOR DE LA UNIVERSIDAD DE OVIEDO, POR LA QUE SE AUTORIZA EL GASTO Y SE APRUEBA LA CONVOCATORIA DE CONTRATOS PREDOCTORALES PARA PERSONAL INVESTIGADOR EN FORMACIÓN DE LA UNIVERSIDAD DE OVIEDO, AÑO 2026.","descripcionLeng":null,"fechaRecepcion":"2026-04-10","nivel1":"OTROS","nivel2":"UNIVERSIDAD DE OVIEDO","nivel3":null,"codigoInvente":"INV00005347"},{"id":1099599,"mrr":false,"numeroConvocatoria":"898038","descripcion":"Convocatoria de premios del concurso Marta Mayordomo a la actividad económica.","descripcionLeng":"Convocatòria de premis del concurs Marta Mayordomo a l'activitat econòmica.","fechaRecepcion":"2026-04-10","nivel1":"LOCAL","nivel2":"PRAT DE LLOBREGAT, EL","nivel3":"AYUNTAMIENTO DE PRAT DE LLOBREGAT, EL","codigoInvente":null},{"id":1099592,"mrr":false,"numeroConvocatoria":"898031","descripcion":"Decreto de Presidencia nº 1750/2026 de 7 de abril de 2026, por el que se aprueba la convocatoria de la XLIII Muestra de Teatro de la Provincia de Valladolid, año 2026.","descripcionLeng":null,"fechaRecepcion":"2026-04-10","nivel1":"LOCAL","nivel2":"DIPUTACIÓN PROV. DE VALLADOLID","nivel3":"DIPUTACIÓN PROVINCIAL DE VALLADOLID","codigoInvente":null},{"id":1099587,"mrr":false,"numeroConvocatoria":"898026","descripcion":"CONVOCATORIA DEL XXXII FESTIVAL PEDRO POP LAS PALAS 2026","descripcionLeng":null,"fechaRecepcion":"2026-04-10","nivel1":"LOCAL","nivel2":"FUENTE ÁLAMO DE MURCIA","nivel3":"AYUNTAMIENTO DE FUENTE ÁLAMO DE MURCIA","codigoInvente":null},{"id":1099585,"mrr":false,"numeroConvocatoria":"898024","descripcion":"Resolución de Alcaldía nº 2026/00001399, de fecha 09/04/2026, del Ayuntamiento de Pozoblanco, por la que se convoca Subvención de Concurrencia Competitiva para Concurso Cruces de Mayo 2026.","descripcionLeng":null,"fechaRecepcion":"2026-04-10","nivel1":"LOCAL","nivel2":"POZOBLANCO","nivel3":"AYUNTAMIENTO DE POZOBLANCO","codigoInvente":null},{"id":1099582,"mrr":false,"numeroConvocatoria":"898021","descripcion":"CONVOCATORIA DEL \"XII CONCURSO INTERNACIONAL DE PIANO ANTÓN GARCÍA ABRIL\" A TRAVÉS DE CONVENIO DE COLABORACIÓN ENTRE EL AYTO. DE TERUEL, FUNDACIÓN IBERCAJA Y BOLAMAR EDICIONES MUSICALES, S.L.","descripcionLeng":null,"fechaRecepcion":"2026-04-10","nivel1":"LOCAL","nivel2":"TERUEL","nivel3":"AYUNTAMIENTO DE TERUEL","codigoInvente":null},{"id":1099581,"mrr":false,"numeroConvocatoria":"898020","descripcion":"CONVENIO DE COLABORACIÓN ENTRE EL AYUNTAMIENTO DE CAMBRILS I CARITAS PARROQUIAL DE SANTA MARIA EN RELACIÓN A LAS AYUDAS PARA AFRONTAR GASTOS ESENCIALES Y BÁSICOS (ALIMENTACIÓN, PRODUCTOS DE LIMPIEZA, HIGIENE PERSONAL Y PAÑALES) AÑO 2026.","descripcionLeng":"CONVENI DE COL·LABORACIÓ ENTRE L'AJUNTAMENT DE CAMBRILS I CARITAS PARROQUIAL DE SANTA MARIA EN RELACIÓ ALS AJUTS PER AFRONTAR DESPESES BÁSIQUES (ALIMENTACIÓ, PRODUCTES DE NETEJA, HIGIENE PERSONAL I BOLQUERS) ANY 2026.","fechaRecepcion":"2026-04-10","nivel1":"LOCAL","nivel2":"CAMBRILS","nivel3":"AYUNTAMIENTO DE CAMBRILS","codigoInvente":null},{"id":1099580,"mrr":false,"numeroConvocatoria":"898019","descripcion":"BASES PARA LA VI CONVOCATORIA PARA EL DESARROLLO DE PROYECTOS DE TRANSFORMACIÓN DE PATIOS ESCOLARES EN CENTROS EDUCATIVOS DE EDUCACIÓN INFANTIL Y PRIMARIA E INSTITUTOS DE EDUCACIÓN SECUNDARIA","descripcionLeng":null,"fechaRecepcion":"2026-04-10","nivel1":"LOCAL","nivel2":"ALCÁZAR DE SAN JUAN","nivel3":"AYUNTAMIENTO DE ALCÁZAR DE SAN JUAN","codigoInvente":null},{"id":1099578,"mrr":false,"numeroConvocatoria":"898017","descripcion":"BASES REGULADORAS Y CONVOCATORIA DEL II CERTAME DE TEATRO AMATEUR AYUNTAMIENTO DE ARTEIXO. PREMIOS amArte 2026","descripcionLeng":"BASES REGULADORAS E CONVOCATORIA DO II CERTAME DE TEATRO AMADOR CONCELLO DE ARTEIXO. PREMIOS amArte 2026","fechaRecepcion":"2026-04-10","nivel1":"LOCAL","nivel2":"ARTEIXO","nivel3":"AYUNTAMIENTO DE ARTEIXO","codigoInvente":null},{"id":1099576,"mrr":false,"numeroConvocatoria":"898015","descripcion":"RESOLUCIÓN DE 09 DE ABRIL DE 2026 DE LA VICERRECTORA DE LA UNIVERSIDAD DE OVIEDO POR LA QUE SE AUTORIZA EL GASTO Y SE APRUEBA LA CONVOCATORIA PÚBLICA DE AYUDAS ECONÓMICAS DESTINADAS A FINANCIAR LA DIFUSIÓN DE RESULTADOS DE LA INVESTIGACIÓN - 2026","descripcionLeng":null,"fechaRecepcion":"2026-04-10","nivel1":"OTROS","nivel2":"UNIVERSIDAD DE OVIEDO","nivel3":null,"codigoInvente":"INV00005347"},{"id":1099575,"mrr":false,"numeroConvocatoria":"898014","descripcion":"Ayudas de minimis del sector de interés económico general para el fomento de la transformación del sistema agroalimentario catalán alineado con el Plan estratégico de la alimentación de Cataluña 2021-2026.","descripcionLeng":"Ajuts de minimis del sector d'interès econòmic general per al foment de la transformació del sistema agroalimentari català alineat amb el Pla estratègic de l'alimentació de Catalunya 2021-2026.","fechaRecepcion":"2026-04-10","nivel1":"AUTONOMICA","nivel2":"CATALUÑA","nivel3":"DEPARTAMENT D'AGRICULTURA, RAMADERIA, PESCA I ALIMENTACIÓ","codigoInvente":null},{"id":1099571,"mrr":false,"numeroConvocatoria":"898010","descripcion":"Ayudas de minimis para la utilización de mosto concentrado rectificado en la elaboración de vinos espumosos de calidad correspondientes a 2026","descripcionLeng":"Ajuts de minimis per a la utilització de most concentrat rectificat en l'elaboració de vins escumosos de qualitat corresponents a 2026","fechaRecepcion":"2026-04-10","nivel1":"AUTONOMICA","nivel2":"CATALUÑA","nivel3":"DEPARTAMENT D'AGRICULTURA, RAMADERIA, PESCA I ALIMENTACIÓ","codigoInvente":null},{"id":1099570,"mrr":false,"numeroConvocatoria":"898009","descripcion":"Convocatoria subvenciones dinerarias Prevención Incendios Forestales Municipios Provincia de Alicante para la redacción y ejecución de los Planes Locales de Prevención de Incendios Forestales aprobados por la Generalitat Valenciana y en vigencia, 2026.","descripcionLeng":null,"fechaRecepcion":"2026-04-10","nivel1":"LOCAL","nivel2":"DIPUTACIÓN PROV. DE ALICANTE","nivel3":"DIPUTACIÓN PROVINCIAL DE ALACANT/ALICANTE","codigoInvente":null},{"id":1099569,"mrr":false,"numeroConvocatoria":"898008","descripcion":"Ayudas a los centros tecnológicos de la región, destinadas a los programas de fomento del desarrollo tecnológico y de participación I+D+I. 2021-2027","descripcionLeng":null,"fechaRecepcion":"2026-04-10","nivel1":"AUTONOMICA","nivel2":"CASTILLA-LA MANCHA","nivel3":"AGENCIA DE INVESTIGACIÓN E INNOVACIÓN DE CASTILLA-LA MANCHA","codigoInvente":null},{"id":1099567,"mrr":false,"numeroConvocatoria":"898006","descripcion":"I CONCURSO FOTOGRAFIA JM MARÍTIM 2026","descripcionLeng":null,"fechaRecepcion":"2026-04-10","nivel1":"LOCAL","nivel2":"VALENCIA","nivel3":"AYUNTAMIENTO DE VALENCIA","codigoInvente":null},{"id":1099566,"mrr":false,"numeroConvocatoria":"898005","descripcion":"BASES REGULADORAS PARA LA CONCESIÓN DE AYUDAS ECONÓMICAS PARA LA MEJORA DE LA ACCESIBILIDAD DEL BAÑO EN VIVIENDAS EN SUELO URBANO. AÑO 2026","descripcionLeng":null,"fechaRecepcion":"2026-04-10","nivel1":"LOCAL","nivel2":"ALCÁZAR DE SAN JUAN","nivel3":"AYUNTAMIENTO DE ALCÁZAR DE SAN JUAN","codigoInvente":null},{"id":1099564,"mrr":false,"numeroConvocatoria":"898003","descripcion":"Acuerdo de Junta de Gobierno de 8 de abril  de 2026, punto 1.3.1., referente a Aprobación de la convocatoria para la concesión de las líneas 1 y 2 de subvenciones en régimen de concurrencia no competitiva \"Málaga Compite\", anualidad 2026.","descripcionLeng":null,"fechaRecepcion":"2026-04-10","nivel1":"LOCAL","nivel2":"DIPUTACIÓN PROV. DE MÁLAGA","nivel3":"DIPUTACIÓN PROVINCIAL DE MÁLAGA","codigoInvente":null},{"id":1099563,"mrr":false,"numeroConvocatoria":"898002","descripcion":"Proyectos o servicios dirigidos a la juventud","descripcionLeng":"Gazteei zuzendutako proiektuak edo zerbitzuak","fechaRecepcion":"2026-04-10","nivel1":"LOCAL","nivel2":"VITORIA-GASTEIZ","nivel3":"AYUNTAMIENTO DE VITORIA-GASTEIZ","codigoInvente":null},{"id":1099561,"mrr":false,"numeroConvocatoria":"898000","descripcion":"Convocatoria de subvenciones para el material escolar curso 2025-2026","descripcionLeng":"Convocatòria de subvencions per al material escolar curs 2025-2026","fechaRecepcion":"2026-04-10","nivel1":"LOCAL","nivel2":"CANTALLOPS","nivel3":"AYUNTAMIENTO DE CANTALLOPS","codigoInvente":null},{"id":1099558,"mrr":false,"numeroConvocatoria":"897997","descripcion":"Subvención transporte adaptado 2026","descripcionLeng":"Subvenció transport adaptat 2026","fechaRecepcion":"2026-04-10","nivel1":"LOCAL","nivel2":"CANTALLOPS","nivel3":"AYUNTAMIENTO DE CANTALLOPS","codigoInvente":null},{"id":1099556,"mrr":false,"numeroConvocatoria":"897995","descripcion":"Bases reguladoras y convocatoria del programa Bonos Meliana Recicla Primavera 2026 para la sensibilización medioambiental de la población de Meliana","descripcionLeng":null,"fechaRecepcion":"2026-04-10","nivel1":"LOCAL","nivel2":"MELIANA","nivel3":"AYUNTAMIENTO DE MELIANA","codigoInvente":null},{"id":1099555,"mrr":false,"numeroConvocatoria":"897994","descripcion":"onvocatoria ayudas dirigidas a la mejora de la capacidad de innovación de las pymes, creación de Agrupaciones Empresariales Innovadoras (AEI), digitalización para las pymes, aceleración e innovación abierta, organización de eventos relacionados e innovac","descripcionLeng":"Convocatòria ajudes dirigides a la millora de la capacitat d'innovació de les pimes, creació d'Agrupacions Empresarials Innovadores (AEI), digitalització per a les pimes, acceleració i innovació oberta, organització d'esdeveniments relacionats i innovació","fechaRecepcion":"2026-04-10","nivel1":"AUTONOMICA","nivel2":"ILLES BALEARS","nivel3":"DIRECCIÓN GENERAL DE INVESTIGACIÓN, INNOVACIÓN Y TRANSFORMACIÓN DIGITAL","codigoInvente":null},{"id":1099554,"mrr":false,"numeroConvocatoria":"897993","descripcion":"Ayudas para actuaciones de política estratégica universitaria que dinamicen la vida universitaria de las Illes Balears","descripcionLeng":"Ayudes per a actuacions de política estratègica universitària que dinamitzin la vida universitària de les Illes Balears","fechaRecepcion":"2026-04-10","nivel1":"AUTONOMICA","nivel2":"ILLES BALEARS","nivel3":"DIRECCIÓN GENERAL DE UNIVERSIDADES, INVESTIGACIÓN Y ENSEÑANZAS ARTÍSTICAS SUPERIORES","codigoInvente":null},{"id":1099551,"mrr":true,"numeroConvocatoria":"897990","descripcion":"Cuarta convocatoria de concurrencia simple de subvenciones a la rehabilitación de actuaciones incluidas en el programa de ayuda a las actuaciones a nivel de BARRIO del Plan de Recuperación, Transformación y Resiliencia, financiado por la Unión Europea- Ne","descripcionLeng":"Cuarta convocatoria de concorrencia simple de subvencións á rehabilitación de actuacións incluídas no programa de axuda ás actuacións a nivel de BARRIO do Plan de Recuperación, Transformación e Resiliencia, financiado pola Unión Europea- NextGenerationEU","fechaRecepcion":"2026-04-09","nivel1":"LOCAL","nivel2":"VIGO","nivel3":"AYUNTAMIENTO DE VIGO","codigoInvente":null},{"id":1099550,"mrr":false,"numeroConvocatoria":"897989","descripcion":"(CHS) Cheque Innov. Seguridad (Reg.Minimis P 717/2014)","descripcionLeng":null,"fechaRecepcion":"2026-04-09","nivel1":"AUTONOMICA","nivel2":"LA RIOJA","nivel3":"AGENCIA DE DESARROLLO ECONÓMICO DE LA RIOJA","codigoInvente":"INV00000065"},{"id":1099549,"mrr":false,"numeroConvocatoria":"897988","descripcion":"(CHS) Cheque Innov. Seguridad (Reg.Minimis 2023/2831)","descripcionLeng":null,"fechaRecepcion":"2026-04-09","nivel1":"AUTONOMICA","nivel2":"LA RIOJA","nivel3":"AGENCIA DE DESARROLLO ECONÓMICO DE LA RIOJA","codigoInvente":"INV00000065"},{"id":1099548,"mrr":false,"numeroConvocatoria":"897987","descripcion":"Ayudas a estudiantes desplazados fuera del término municipal de Panticosa y deportistas de alto nivel.","descripcionLeng":null,"fechaRecepcion":"2026-04-09","nivel1":"LOCAL","nivel2":"PANTICOSA","nivel3":"AYUNTAMIENTO DE PANTICOSA","codigoInvente":null},{"id":1099547,"mrr":false,"numeroConvocatoria":"897986","descripcion":"Convocatoria de subvenciones destinada a las entidades locales de la provincia de Albacete para la adquisición de vehículos y maquinaria durante el año 2026","descripcionLeng":null,"fechaRecepcion":"2026-04-09","nivel1":"LOCAL","nivel2":"DIPUTACIÓN PROV. DE ALBACETE","nivel3":"DIPUTACIÓN PROVINCIAL DE ALBACETE","codigoInvente":null},{"id":1099546,"mrr":false,"numeroConvocatoria":"897985","descripcion":"(COC) Plan Competitividad del Comercio Minorista (Reg. Minimis 2023/2831)","descripcionLeng":null,"fechaRecepcion":"2026-04-09","nivel1":"AUTONOMICA","nivel2":"LA RIOJA","nivel3":"AGENCIA DE DESARROLLO ECONÓMICO DE LA RIOJA","codigoInvente":"INV00000065"},{"id":1099545,"mrr":false,"numeroConvocatoria":"897984","descripcion":"Becas al deporte 2026","descripcionLeng":null,"fechaRecepcion":"2026-04-09","nivel1":"LOCAL","nivel2":"PANTICOSA","nivel3":"AYUNTAMIENTO DE PANTICOSA","codigoInvente":null},{"id":1099544,"mrr":false,"numeroConvocatoria":"897983","descripcion":"Convocatoria Pyme Global 2026 Misión comercial directa a Costa de Marfil, del 15 al 18 de junio del 2026, para empresas de la provincia de Santa Cruz de Tenerife","descripcionLeng":null,"fechaRecepcion":"2026-04-09","nivel1":"OTROS","nivel2":"CÁMARA DE COMERCIO DE TENERIFE","nivel3":null,"codigoInvente":null},{"id":1099538,"mrr":false,"numeroConvocatoria":"897977","descripcion":"Subvención Familia, Mujer, Inmigración y LGTBI","descripcionLeng":null,"fechaRecepcion":"2026-04-09","nivel1":"LOCAL","nivel2":"ALCOBENDAS","nivel3":"AYUNTAMIENTO DE ALCOBENDAS","codigoInvente":null},{"id":1099535,"mrr":false,"numeroConvocatoria":"897974","descripcion":"Extracto de la Orden de 9 de abril de 2026 del Ministerio de Agricultura, Pesca y Alimentación por la que se convoca el Premio\nAlimentos de España a los Mejores Jamones, año 2026.","descripcionLeng":null,"fechaRecepcion":"2026-04-09","nivel1":"ESTADO","nivel2":"MINISTERIO DE AGRICULTURA, PESCA Y ALIMENTACIÓN","nivel3":"DIRECCIÓN GENERAL DE ALIMENTACIÓN","codigoInvente":null},{"id":1099533,"mrr":false,"numeroConvocatoria":"897972","descripcion":"Convocatoria de subvenciones destinada a las entidades locales de la provincia de Albacete para la celebración de los festejos populares y tradicionales durante el año 2026","descripcionLeng":null,"fechaRecepcion":"2026-04-09","nivel1":"LOCAL","nivel2":"DIPUTACIÓN PROV. DE ALBACETE","nivel3":"DIPUTACIÓN PROVINCIAL DE ALBACETE","codigoInvente":null},{"id":1099526,"mrr":false,"numeroConvocatoria":"897965","descripcion":"ONC 2026 Convocatòria de subvencions projec.serveis persones afectades malalties oncològiques per organitzacions sense ànim de lucre","descripcionLeng":null,"fechaRecepcion":"2026-04-09","nivel1":"LOCAL","nivel2":"DIPUTACIÓN PROV. DE GIRONA","nivel3":"SALUT PÚBLICA DE LA DIPUTACIÓ DE GIRONA (DIPSALUT)","codigoInvente":"INV00004125"},{"id":1099524,"mrr":false,"numeroConvocatoria":"897963","descripcion":"PREMIOS EMPRENDE E INNOVA 2026","descripcionLeng":null,"fechaRecepcion":"2026-04-09","nivel1":"LOCAL","nivel2":"DIPUTACIÓN PROV. DE JAÉN","nivel3":"DIPUTACIÓN PROVINCIAL DE JAÉN","codigoInvente":null},{"id":1099523,"mrr":false,"numeroConvocatoria":"897962","descripcion":"BASES REGULADORAS PARA LA CONCESIÓN DE AYUDAS ECONÓMICAS PARA TRATAMIENTOS DE ODONTOLOGIA AÑO 2026","descripcionLeng":null,"fechaRecepcion":"2026-04-09","nivel1":"LOCAL","nivel2":"ALCÁZAR DE SAN JUAN","nivel3":"AYUNTAMIENTO DE ALCÁZAR DE SAN JUAN","codigoInvente":null},{"id":1099519,"mrr":false,"numeroConvocatoria":"897958","descripcion":"Convocatoria para la Concesión de Premios del Concurso de Carteles Feria de Mollina 2026 y Feria del Libro 2026.","descripcionLeng":null,"fechaRecepcion":"2026-04-09","nivel1":"LOCAL","nivel2":"MOLLINA","nivel3":"AYUNTAMIENTO DE MOLLINA","codigoInvente":null},{"id":1099517,"mrr":false,"numeroConvocatoria":"897956","descripcion":"Convocatoria programa pyme sostenible 2026 - Cámara Comercio Mallorca","descripcionLeng":null,"fechaRecepcion":"2026-04-09","nivel1":"OTROS","nivel2":"CÁMARA DE COMERCIO DE MALLORCA","nivel3":null,"codigoInvente":null}],"pageable":{"sort":{"sorted":true,"unsorted":false,"empty":false},"pageNumber":48,"pageSize":50,"offset":2400,"paged":true,"unpaged":false},"last":false,"totalElements":10000,"totalPages":200,"first":false,"sort":{"sorted":true,"unsorted":false,"empty":false},"numberOfElements":50,"size":50,"number":48,"empty":false,"advertencia":"La reutilización de los datos del Sistema Nacional de Publicidad de Subvenciones y Ayudas Públicas está sujeta a una serie de restricciones y consideraciones legales. Consulte el aviso legal en https://www.infosubvenciones.es/bdnstrans/GE/es/avisolegal.Además, el usuario debe ser consciente que la información presentada es de naturaleza dinámica, y que los datos pueden ser sometidos a correcciones, inserciones, modificaciones y eliminaciones en momentos posteriores a su extracción. Accesos al API del sistema Nacional de Publicidad de Subvenciones y Ayudas Públicas. La Administración Presupuestaria, para salvaguardar la protección del acceso libre e irrestricto de los ciudadanos a este Portal y a su información podrá adoptar medidas restrictivas de acceso al API ante situaciones de manifiesto abuso del servicio, riesgos de seguridad, o uso fraudulento de la información descargada, de acuerdo con las buenas prácticas de gestión de datos abiertos (https://datos.gob.es/es/blog/limitaciones-la-consulta-de-una-api) establecidas por el Ministerio para la Transformación Digital y de la Función Pública."}