{"content":[{"id":1108065,"mrr":false,"numeroConvocatoria":"906504","descripcion":"Orden de 18 de mayo de 2026, de la Consejería de Industria, Comercio y Empleo, por la que se convocan subvenciones dirigidas a la organización de ferias comerciales en Castilla y León.","descripcionLeng":null,"fechaRecepcion":"2026-05-19","nivel1":"AUTONOMICA","nivel2":"CASTILLA Y LEÓN","nivel3":"CONSEJERÍA DE INDUSTRIA, COMERCIO Y EMPLEO","codigoInvente":null},{"id":1108062,"mrr":false,"numeroConvocatoria":"906501","descripcion":"Decreto de alcaldía  2026-0302,  de 18 de mayo de 2026 del Ayuntamiento de Derio, por el que se aprueba la convocatoria por concurrencia competitiva de ayudas para la limpieza de fachadas de edificios del municipio de Derio","descripcionLeng":"Derioko Udalaren 2026ko maiatzaren 19ko Alkatetzaren 2026-0302 Dekretuaren bitartez honako laguntza hauen deialdia onetsi zen: Derioko udalerriko eraikinetako fatxadak garbitzeko dirulaguntzak norgehiagoka bidez emateko deialdia.","fechaRecepcion":"2026-05-19","nivel1":"LOCAL","nivel2":"DERIO","nivel3":"AYUNTAMIENTO DE DERIO","codigoInvente":null},{"id":1108061,"mrr":false,"numeroConvocatoria":"906500","descripcion":"Convocatoria para la concesión de subvenciones en el ámbito comercial y empresarial para el fomento del uso del valenciano","descripcionLeng":"Convocatòria per a la concessió de subvencions en l'àmbit comercial i empresarial per al foment de l'ús del valencià","fechaRecepcion":"2026-05-19","nivel1":"LOCAL","nivel2":"SUECA","nivel3":"AYUNTAMIENTO DE SUECA","codigoInvente":null},{"id":1108059,"mrr":false,"numeroConvocatoria":"906498","descripcion":"SUBVENCIONES EN LOS PREMIOS\nSUBVENCIÓN POR CONCURRENCIA COMPETITIVA: CERTAMEN NACIONAL ARTE CONTEMPORÁNEO “JOSÉ ANTONIO SEQUI”\nPINTURA TARANCON 2026","descripcionLeng":null,"fechaRecepcion":"2026-05-19","nivel1":"LOCAL","nivel2":"TARANCÓN","nivel3":"AYUNTAMIENTO DE TARANCÓN","codigoInvente":null},{"id":1108056,"mrr":false,"numeroConvocatoria":"906495","descripcion":"SUBV. OBRAS PATRIMONIO INDUSTRIAL DE LA MINERÍA DEL CARBÓN","descripcionLeng":null,"fechaRecepcion":"2026-05-19","nivel1":"LOCAL","nivel2":"DIPUTACIÓN PROV. DE LEÓN","nivel3":"DIPUTACIÓN PROVINCIAL DE LEÓN","codigoInvente":null},{"id":1108048,"mrr":false,"numeroConvocatoria":"906487","descripcion":"AYUDAS PARA LA FORMACION EN RELACION CON EL TRANSPORTE POR CARRETERA - 2026","descripcionLeng":null,"fechaRecepcion":"2026-05-19","nivel1":"ESTADO","nivel2":"MINISTERIO DE TRANSPORTES Y MOVILIDAD SOSTENIBLE","nivel3":"DIRECCIÓN GENERAL DE TRANSPORTE POR CARRETERA","codigoInvente":null},{"id":1108046,"mrr":false,"numeroConvocatoria":"906485","descripcion":"Resolución de 18 de mayo de 2026 de la Secretaría de Estado de Ciencia, Innovación y Universidades, por la que se convocan los premios del XXXVII Certamen “Jóvenes Investigadores” de Introducción a la Investigación Científica.","descripcionLeng":null,"fechaRecepcion":"2026-05-19","nivel1":"ESTADO","nivel2":"MINISTERIO DE CIENCIA, INNOVACIÓN Y UNIVERSIDADES","nivel3":"SECRETARÍA GENERAL DE UNIVERSIDADES","codigoInvente":null},{"id":1108044,"mrr":false,"numeroConvocatoria":"906483","descripcion":"Decreto de Alcaldía nº 1137 de 18 de mayo de 2026, por el que se convocan las subvenciones del Ayuntamiento de Sabiñánigo, en régimen de concurrencia pública, en materias de cultura, deportes, educación y juventud, año 2026","descripcionLeng":null,"fechaRecepcion":"2026-05-19","nivel1":"LOCAL","nivel2":"SABIÑÁNIGO","nivel3":"AYUNTAMIENTO DE SABIÑÁNIGO","codigoInvente":null},{"id":1108042,"mrr":false,"numeroConvocatoria":"906481","descripcion":"Subvención para la rehabilitacióp de fachadas 2026","descripcionLeng":"Subvenció per a la rehabilitació de façanes 2026","fechaRecepcion":"2026-05-19","nivel1":"LOCAL","nivel2":"BELLVÍS","nivel3":"AYUNTAMIENTO DE BELLVÍS","codigoInvente":null},{"id":1108040,"mrr":false,"numeroConvocatoria":"906479","descripcion":"Subvenciones para la promoción del euskera en el municipio de Elgoibar 2026. Anexo I.  Subvenciones para el aprendizaje del euskera en euskaltegis o barnetegis.","descripcionLeng":" Elgoibarko udalerrian euskara sustatzeko jardueretarako dirulaguntzak 2026. I. Eranskina. Euskaltegietan edo barnetegietan euskara ikasteko dirulaguntzak.","fechaRecepcion":"2026-05-19","nivel1":"LOCAL","nivel2":"ELGOIBAR","nivel3":"AYUNTAMIENTO DE ELGOIBAR","codigoInvente":null},{"id":1108035,"mrr":false,"numeroConvocatoria":"906474","descripcion":"Decreto de alcaldía  2026-0298,  de 18 de mayo de 2026 del Ayuntamiento de Derio, por el que se aprueba la convocatoria por concurrencia competitiva de ayudas a la reurbanización de espacios privados de uso público de Derio","descripcionLeng":"Derioko Udalaren 2026ko maiatzaren 18ko Alkatetzaren 2026-0298 Dekretuaren bitartez honako laguntza hauen deialdia onetsi zen: Derioko erabilera publikoko espazio pribatuak berrurbanizatzeko dirulaguntzak norgehiagoka bidez emateko deialdia","fechaRecepcion":"2026-05-19","nivel1":"LOCAL","nivel2":"DERIO","nivel3":"AYUNTAMIENTO DE DERIO","codigoInvente":null},{"id":1108034,"mrr":false,"numeroConvocatoria":"906473","descripcion":"CONVOCATORIA DE PREMIOS DEL CERTAMEN ARTÍSTICO JUVENIL MAXO ARTE JOVEN 2026","descripcionLeng":null,"fechaRecepcion":"2026-05-19","nivel1":"LOCAL","nivel2":"CABILDO INSULAR DE FUERTEVENTURA","nivel3":"CABILDO INSULAR DE FUERTEVENTURA","codigoInvente":null},{"id":1108031,"mrr":false,"numeroConvocatoria":"906470","descripcion":"Decreto de Alcaldía nº 1130, de 17 de mayo de 2026, por el que se convocan las subvenciones, en régimen de concurrencia pública, del Ayuntamiento de Sabiñánigo en materia de acción social, año 2026","descripcionLeng":null,"fechaRecepcion":"2026-05-19","nivel1":"LOCAL","nivel2":"SABIÑÁNIGO","nivel3":"AYUNTAMIENTO DE SABIÑÁNIGO","codigoInvente":null},{"id":1108030,"mrr":false,"numeroConvocatoria":"906469","descripcion":"Convocatoria de Subvenciones, en régimen de concurrencia competitiva, en el ámbito musical de Innovación Social y Urbana, Investigación, Economía Creativa y Sostenibilidad Cultural en el marco de la estrategia Valencia Music City","descripcionLeng":null,"fechaRecepcion":"2026-05-19","nivel1":"LOCAL","nivel2":"VALENCIA","nivel3":"FUNDACIÓN DE LA CV PARA LA PROMOCIÓN ESTRATÉGICA, EL DESARROLLO Y LA INNOVACIÓN URBANA (INNDEA)","codigoInvente":null},{"id":1108028,"mrr":false,"numeroConvocatoria":"906467","descripcion":"XI RALLY FOTOGRÁFICO \"DESCENSO INTERNACIONAL DEL CINCA EN PIRAGUAS\"","descripcionLeng":null,"fechaRecepcion":"2026-05-19","nivel1":"LOCAL","nivel2":"COMARCA DE BAJO CINCA/BAIX CINCA","nivel3":"COMARCA DE BAJO CINCA/BAIX CINCA","codigoInvente":null},{"id":1108026,"mrr":false,"numeroConvocatoria":"906465","descripcion":"CONVOCATORIA PARA LA CONCESIÓN DE LA BECA ARTÍSTICA MALAGUEÑA EN LA CASA VELÁZQUEZ, 2026-2027","descripcionLeng":null,"fechaRecepcion":"2026-05-19","nivel1":"LOCAL","nivel2":"MÁLAGA","nivel3":"AYUNTAMIENTO DE MÁLAGA","codigoInvente":null},{"id":1108024,"mrr":false,"numeroConvocatoria":"906463","descripcion":"Resolución de 18/05/2026, de la Dirección General de Empleo, por la que se publican los créditos disponibles en el ejercicio 2026 para la concesión de las subvenciones reguladas en el Decreto 21/2026, de 21 de abril.","descripcionLeng":null,"fechaRecepcion":"2026-05-19","nivel1":"AUTONOMICA","nivel2":"CASTILLA-LA MANCHA","nivel3":"DIRECCIÓN GENERAL DE EMPLEO","codigoInvente":null},{"id":1108022,"mrr":false,"numeroConvocatoria":"906461","descripcion":"XI CONCURSO LITERARIO COMARCA BAJO CINCA/ BAIX CINCA","descripcionLeng":null,"fechaRecepcion":"2026-05-19","nivel1":"LOCAL","nivel2":"COMARCA DE BAJO CINCA/BAIX CINCA","nivel3":"COMARCA DE BAJO CINCA/BAIX CINCA","codigoInvente":null},{"id":1108020,"mrr":false,"numeroConvocatoria":"906459","descripcion":"LÍNEA S0153  Resolución del conseller de Sanidad, por la que se efectúa la convocatoria de las ayudas en materia de salud pública con relación a las subvenciones destinadas a promover proyectos de promoción de la salud de entornos saludables","descripcionLeng":"Resolució del conseller de Sanitat per la qual s’efectua la convocatòria de les ajudes en matèria de salut pública en relació amb les subvencions destinades a promoure projectes de promoció de la salut d’entorns saludables.","fechaRecepcion":"2026-05-19","nivel1":"AUTONOMICA","nivel2":"COMUNITAT VALENCIANA","nivel3":"SECRETARÍA AUTONÓMICA DE SALUD PÚBLICA Y DEL SISTEMA SANITARIO PÚBLICO","codigoInvente":null},{"id":1108019,"mrr":false,"numeroConvocatoria":"906458","descripcion":"Convocatoria para la solicitud de subvenciones por entidades, mediante el procedimiento de concurrencia competitiva, para el año 2026","descripcionLeng":"Convocatòria per a la sol·licitud de subvencions per entitats, mitjançant el procediment de concurrència competitiva, per l’any 2026","fechaRecepcion":"2026-05-19","nivel1":"LOCAL","nivel2":"CALDERS","nivel3":"AYUNTAMIENTO DE CALDERS","codigoInvente":null},{"id":1108018,"mrr":false,"numeroConvocatoria":"906457","descripcion":"CONVOCATORIA DE SUBVENCIONES, \"FEM FEINA\", EN RÉGIMEN DE CONCURRENCIA NO COMPETITIVA, EN EL MARCO DEL PROYECTO \"EMPRENDIMIENTO: PLAN DE IMPULSO A LA CONSOLIDACIÓN EMPRESARIAL EN VILADECANS\" DENTRO DEL PLAN METROPOLITANO DE APOYO A LAS POLÍTICAS SOCIALES","descripcionLeng":"CONVOCATÒRIA DE SUBVENCIONS, “FEM FEINA”, EN RÈGIM DE CONCURRÈNCIA NO COMPETITIVA, EN EL MARC DEL PROJECTE “EMPRENEDORIA: PLA D’IMPULS A LA CONSOLIDACIÓ EMPRESARIAL A VILADECANS” DINS EL PLA METROPOLITÀ DE SUPORT A LES POLÍTIQUES SOCIALS ","fechaRecepcion":"2026-05-19","nivel1":"LOCAL","nivel2":"VILADECANS","nivel3":"AYUNTAMIENTO DE VILADECANS","codigoInvente":null},{"id":1108015,"mrr":false,"numeroConvocatoria":"906454","descripcion":"CONVOCATORIA PARA EL FOMENTO DEL DESARROLLO ECONOMICO EN VALLIRANA AÑO 2026","descripcionLeng":"CONVOCATORIA PER AL FOMENT DEL DESENVOLUPAMENT ECONÒMIC A VALLIRANA EXERCICI 2026","fechaRecepcion":"2026-05-19","nivel1":"LOCAL","nivel2":"VALLIRANA","nivel3":"AYUNTAMIENTO DE VALLIRANA","codigoInvente":null},{"id":1108014,"mrr":false,"numeroConvocatoria":"906453","descripcion":"Convocatoria para la concesión de ayudas individuales de comedor dirigidas al alumnado de enseñanzas obligatorias\ny de educación infantil de centros educativos sufragados con fondos públicos para el curso 2026-2027 (Exp. 943/2026)","descripcionLeng":"Convocatòria per a la concessió d'ajuts individuals de menjador adreçats a l'alumnat\nd'ensenyaments obligatoris i d'educació infantil de centres educatius sufragats amb\nfons públics per al curs 2026-2027 (Exp. 943/2026)","fechaRecepcion":"2026-05-19","nivel1":"LOCAL","nivel2":"CONSELL COMARCAL DEL SEGRIA","nivel3":"CONSELL COMARCAL DE SEGRIÀ","codigoInvente":null},{"id":1108011,"mrr":false,"numeroConvocatoria":"906450","descripcion":"Convocatoria de subvenciones para proyectos de promoción de salud de la Red Aragonesa de Proyectos de Promoción de la Salud (RAPPS) para 2026","descripcionLeng":null,"fechaRecepcion":"2026-05-19","nivel1":"AUTONOMICA","nivel2":"ARAGÓN","nivel3":"DIRECCIÓN GENERAL DE SALUD PÚBLICA","codigoInvente":null},{"id":1108009,"mrr":false,"numeroConvocatoria":"906448","descripcion":"I PREMIO DE NARRATIVA \"MANUEL GARCÍA GALANO\" 2026","descripcionLeng":null,"fechaRecepcion":"2026-05-19","nivel1":"LOCAL","nivel2":"TAPIA DE CASARIEGO","nivel3":"AYUNTAMIENTO DE TAPIA DE CASARIEGO","codigoInvente":null},{"id":1108006,"mrr":false,"numeroConvocatoria":"906445","descripcion":"Bases reguladoras y convocatoria de subvenciones a proyectos y actividades sociales - ejercicio 2026","descripcionLeng":null,"fechaRecepcion":"2026-05-19","nivel1":"LOCAL","nivel2":"COCENTAINA","nivel3":"AYUNTAMIENTO DE COCENTAINA","codigoInvente":null},{"id":1108001,"mrr":false,"numeroConvocatoria":"906440","descripcion":"CONVOCATORIA 2026 AYUDA POR PARTICIPACIÓN EN COMPETICIONES NACIONALES FEDERADAS SUPERIORES.","descripcionLeng":null,"fechaRecepcion":"2026-05-19","nivel1":"LOCAL","nivel2":"DOS HERMANAS","nivel3":"AYUNTAMIENTO DE DOS HERMANAS","codigoInvente":null},{"id":1108000,"mrr":false,"numeroConvocatoria":"906439","descripcion":"LÍNEA SO147 Resolución del conseller de Sanidad por la que se efectúa la convocatoria de las ayudas en materia de salud pública en relación a las subvenciones destinadas a proyectos de promoción de la salud y acceso a servicios y programas de salud en pob","descripcionLeng":"Resolució del conseller de Sanitat, per la qual s’efectua la convocatòria de les ajudes en matèria de salut pública en relació a les subvencions destinades a projectes de promoció de la salut i accés a servicis i programes de salut en poblacions que viuen","fechaRecepcion":"2026-05-19","nivel1":"AUTONOMICA","nivel2":"COMUNITAT VALENCIANA","nivel3":"SECRETARÍA AUTONÓMICA DE SALUD PÚBLICA Y DEL SISTEMA SANITARIO PÚBLICO","codigoInvente":null},{"id":1107993,"mrr":false,"numeroConvocatoria":"906432","descripcion":"CONVOCATORIA EN RÉGIMEN DE CONCURRENCIA COMPETITIVA DE BECAS PARA EL PRIMER CICLO DE EDUCACIÓN INFANTIL Y GUARDERÍAS DEL MUNICIPIO DE HUESCA PARA EL CURSO 2026/2027.","descripcionLeng":null,"fechaRecepcion":"2026-05-19","nivel1":"LOCAL","nivel2":"HUESCA","nivel3":"AYUNTAMIENTO DE HUESCA","codigoInvente":null},{"id":1107990,"mrr":false,"numeroConvocatoria":"906429","descripcion":"Acuerdo de la Junta de Gobierno Local de 15/05/2026 sobre aprobación de la convocatoria para la concesión de ayudas complementarias a becas Erasmus del curso académico 2025-2026","descripcionLeng":null,"fechaRecepcion":"2026-05-19","nivel1":"LOCAL","nivel2":"LORCA","nivel3":"AYUNTAMIENTO DE LORCA","codigoInvente":null},{"id":1107988,"mrr":false,"numeroConvocatoria":"906427","descripcion":"Resolución de 6 de mayo de 2026, del Director del Instituto de Fomento de la Región de Murcia,  de convocatoria plurianual de ayudas para incentivar la contratación de servicios de innovación y competitividad por las Pymes regionales. Cheque Innovación.","descripcionLeng":null,"fechaRecepcion":"2026-05-19","nivel1":"AUTONOMICA","nivel2":"REGIÓN DE MURCIA","nivel3":"INSTITUTO DE FOMENTO DE LA REGIÓN DE MURCIA (INFO)","codigoInvente":"INV00003691"},{"id":1107986,"mrr":false,"numeroConvocatoria":"906425","descripcion":"Ayudas 2026 Programa CONSOLIDAPYME: Consolidación y crecimiento de la pyme extremeña a través de su Mejora Competitiva s/ Resolución de 13 de mayo de 2026 que las convoca","descripcionLeng":null,"fechaRecepcion":"2026-05-19","nivel1":"AUTONOMICA","nivel2":"EXTREMADURA","nivel3":"DIRECCIÓN GENERAL DE EMPRESA","codigoInvente":null},{"id":1107985,"mrr":false,"numeroConvocatoria":"906424","descripcion":"BASES REGULADORAS Y CONVOCATORIA DE SUBVENCIONES A ENTIDADES SIN ÁNIMO DE LUCRO PARA REALIZAR ACTUACIONES EN EL ÁMBITO DE SERVICIOS SOCIALES. EJERCICIO 2026","descripcionLeng":"BASES REGULADORAS E CONVOCATORIA DE SUBVENCIÓNS A ENTIDADES SEN ÁNIMO DE LUCRO PARA REALIZAR ACTUACIÓNS NO ÁMBITO DE SERVIZOS SOCIAIS. EXERCICIO 2026","fechaRecepcion":"2026-05-19","nivel1":"LOCAL","nivel2":"LALÍN","nivel3":"AYUNTAMIENTO DE LALÍN","codigoInvente":null},{"id":1107983,"mrr":false,"numeroConvocatoria":"906422","descripcion":"Subvenciones a convenios de acción humanitaria para responder a crisis de aparición repentina generadas por catástrofes naturales o de origen humano y crisis de larga duración o infrafinanciadas para el período 2026-2027","descripcionLeng":"Subvencions a convenis d'acció humanitària per respondre a crisis d'aparició sobtada generades per catàstrofes naturals o d'origen humà i crisis de llarga durada o infrafinanades per al període 2026-2027","fechaRecepcion":"2026-05-19","nivel1":"AUTONOMICA","nivel2":"CATALUÑA","nivel3":"AGÈNCIA CATALANA DE COOPERACIÓ AL DESENVOLUPAMENT","codigoInvente":"INV00000053"},{"id":1107979,"mrr":false,"numeroConvocatoria":"906418","descripcion":"Premis Gabriel Ferraté i Pascual a la Innovació Empresarial 2026","descripcionLeng":null,"fechaRecepcion":"2026-05-19","nivel1":"LOCAL","nivel2":"REUS","nivel3":"AYUNTAMIENTO DE REUS","codigoInvente":null},{"id":1107976,"mrr":false,"numeroConvocatoria":"906415","descripcion":"CONVOCATORIA DE AYUDAS ECONÓMICAS AL ESTUDIO DEL ILUSTRE AYUNTAMIENTO DE SAN ROQUE PARA EL CURSO ESCOLAR 2026-2027","descripcionLeng":null,"fechaRecepcion":"2026-05-19","nivel1":"LOCAL","nivel2":"SAN ROQUE","nivel3":"AYUNTAMIENTO DE SAN ROQUE","codigoInvente":null},{"id":1107974,"mrr":false,"numeroConvocatoria":"906413","descripcion":"Convocatoria de subvenciones destinada a las entidades locales de la provincia de Albacete, para la adquisición, rehabilitación o reforma de viviendas de titularidad municipal durante 2026","descripcionLeng":null,"fechaRecepcion":"2026-05-19","nivel1":"LOCAL","nivel2":"DIPUTACIÓN PROV. DE ALBACETE","nivel3":"DIPUTACIÓN PROVINCIAL DE ALBACETE","codigoInvente":null},{"id":1107973,"mrr":false,"numeroConvocatoria":"906412","descripcion":"Convocatoria de concesión de subvenciones destinadas a la activación del pequeño comercio local, ejercida a través de las asociaciones de comerciantes. Ejercicio 2026.","descripcionLeng":"Convocatòria de concessió de subvencions destinades a l'activació del xicotet comerç local, exercida per mitjà de les associacions de comerciants. Exercici 2026. ","fechaRecepcion":"2026-05-19","nivel1":"LOCAL","nivel2":"ALAQUÀS","nivel3":"AYUNTAMIENTO DE ALAQUÀS","codigoInvente":null},{"id":1107969,"mrr":false,"numeroConvocatoria":"906408","descripcion":"Resolución 2026/1415 de 18 de mayo de 2026 del área de acción social del Ayuntamiento de Durango por la que se convoca la subvención para la “REHABILITACION DE VIVIENDAS DE PERSONAS de 75 o más años” en el municipio de Durango. Año 2026.","descripcionLeng":null,"fechaRecepcion":"2026-05-19","nivel1":"LOCAL","nivel2":"DURANGO","nivel3":"AYUNTAMIENTO DE DURANGO","codigoInvente":null},{"id":1107968,"mrr":false,"numeroConvocatoria":"906407","descripcion":"Resolución 2026/1403 de 18 de mayo de 2026 del área de acción social del Ayuntamiento de Durango por la que se convoca la subvención dirigida a entidades y asociaciones sin ánimo de lucro del ámbito de la acción social para realización de actividades-2026","descripcionLeng":null,"fechaRecepcion":"2026-05-19","nivel1":"LOCAL","nivel2":"DURANGO","nivel3":"AYUNTAMIENTO DE DURANGO","codigoInvente":null},{"id":1107967,"mrr":false,"numeroConvocatoria":"906406","descripcion":"Extracto de la Resolución número 2026/1391 de 15 de mayo de 2026 por la que se convocan ayudas para la adecuación al euskera del paisaje lingüístico de los establecimientos de Durango. Año 2026 BDNS (identif.):","descripcionLeng":"2026ko maiatzaren 15eko 2026/1391 ebazpenaren laburpena, 2026an Durangoko establezimenduetan hizkuntza paisaia euskaratzeko dirulaguntzak deitzen dituena (BDNS(identif.):","fechaRecepcion":"2026-05-19","nivel1":"LOCAL","nivel2":"DURANGO","nivel3":"AYUNTAMIENTO DE DURANGO","codigoInvente":null},{"id":1107966,"mrr":false,"numeroConvocatoria":"906405","descripcion":"Extracto de la Resolución 2026/1392, de 15 de mayo de 2026, por la que se convocan ayudas por la realización de cursos de euskera en el curso escolar 2025/2026. BDNS (identif.):","descripcionLeng":"2026ko maiatzaren 15eko 2026/1392 ebazpenaren laburpena, 2025/2026 ikasturtean euskara ikastaroak egiteagatiko diru laguntzak deitzen dituena. BDNS (identif.):","fechaRecepcion":"2026-05-19","nivel1":"LOCAL","nivel2":"DURANGO","nivel3":"AYUNTAMIENTO DE DURANGO","codigoInvente":null},{"id":1107965,"mrr":false,"numeroConvocatoria":"906404","descripcion":"Extracto de la Resolución número 2026/1393 de 15 de mayo de 2026 por la que se convocan ayudas para el fomento del uso del euskera en las publicaciones periódicas de ámbito municipal durante el ejercicio 2026. BDNS(identif.):","descripcionLeng":"2026ko maiatzaren 15ko 2026/1393 ebazpenaren laburpena, 2026. urtean zehar, udalerri mailako aldizkako argitalpenetan euskararen erabilera sustatzeko. BDNS(identif.):","fechaRecepcion":"2026-05-19","nivel1":"LOCAL","nivel2":"DURANGO","nivel3":"AYUNTAMIENTO DE DURANGO","codigoInvente":null},{"id":1107964,"mrr":false,"numeroConvocatoria":"906403","descripcion":"Extracto de la Resolución número 2026/1135 de 27 de abril de 2026 por la que se convocan ayudas para la realización de proyectos y actividades de promoción del euskera en Durango para el año 2026. BDNS(identif.)","descripcionLeng":"2026ko apirilaren 27ko 2026/1135 ebazpenaren laburpena, 2026an Durangon euskara sustatzeko ekimenak garatzeko jarduerak eta egitasmoak antolatzeko diru laguntzak deitzen dituena BDNS(identif.):","fechaRecepcion":"2026-05-19","nivel1":"LOCAL","nivel2":"DURANGO","nivel3":"AYUNTAMIENTO DE DURANGO","codigoInvente":null},{"id":1107961,"mrr":false,"numeroConvocatoria":"906400","descripcion":"Extracto de la Resolución 2026/1132 de 27 de abril de 2026, por la que se convocan ayudas para de-portistas individuales de élite de Durango. BDNS (identif.):","descripcionLeng":"2026ko apirilaren 27ko 2026/1132 ebazpenaren laburpena, Durangoko goi mailako kirolarientzat BDNS (identif.):","fechaRecepcion":"2026-05-19","nivel1":"LOCAL","nivel2":"DURANGO","nivel3":"AYUNTAMIENTO DE DURANGO","codigoInvente":null},{"id":1107960,"mrr":false,"numeroConvocatoria":"906399","descripcion":"Extracto de la Resolución número 2026/1130 de 27 de abril de 2026 por la que se convocan ayudas para fichas y arbitrajes deportivos para las asociaciones de Durango para la temporada 2025-2026. BDNS (Identif.):.","descripcionLeng":"2026ko apirilaren 27ko 2026/1130 ebazpenaren laburpena, 2025-2026 denboraldian Durangoko kirol elkarteek fitxak eta arbitrajeak ordaintzeko. BDNS (Identif.):","fechaRecepcion":"2026-05-19","nivel1":"LOCAL","nivel2":"DURANGO","nivel3":"AYUNTAMIENTO DE DURANGO","codigoInvente":null},{"id":1107959,"mrr":false,"numeroConvocatoria":"906398","descripcion":"CONVOCATORIA PARA LA CONCESIÓN DE PRESTACIONES SOCIALES DE CARÁCTER ECONÓMICO EN RÉGIMEN DE CONCURRENCIA COMPETITIVA LA ESCOLARIDAD EL CURSO ESCOLAR 2026-2027","descripcionLeng":"CONVOCATÒRIA  PER A LA CONCESSIÓ DE PRESTACIONS SOCIALS DE CARÀCTER ECONÒMIC EN RÈGIM DE CONCURRÈNCIA COMPETITIVA A L’ ESCOLARITAT PEL CURS ESCOLAR 2026-2027","fechaRecepcion":"2026-05-19","nivel1":"LOCAL","nivel2":"LLINARS DEL VALLÈS","nivel3":"AYUNTAMIENTO DE LLINARS DEL VALLÈS","codigoInvente":null},{"id":1107958,"mrr":false,"numeroConvocatoria":"906397","descripcion":"Extracto de la Resolución número 2026/1134 de 27 de abril de 2026 por la que se convocan ayudas para Actividades Culturales Extraordinarias del Ayuntamiento de Durango durante el año 2026. BDNS (identif.):","descripcionLeng":"2026ko apirilaren 27ko 2026/1134 ebazpenaren laburpena, 2026an Durangon Ez-Ohiko Kultur Ekimenak egiteko oinarri arautzaileak eta diru-laguntza deialdia BDNS(identif.):","fechaRecepcion":"2026-05-19","nivel1":"LOCAL","nivel2":"DURANGO","nivel3":"AYUNTAMIENTO DE DURANGO","codigoInvente":null},{"id":1107957,"mrr":false,"numeroConvocatoria":"906396","descripcion":"Extracto de la Resolución 2026/1133, de 27 de abril de 2026, por la que se convocan ayudas para Actividades Culturales Ordinarias del Ayuntamiento de Durango durante el año 2026. BDNS (identif.):","descripcionLeng":"2026ko apirilaren 27ko 2026/1133 ebazpenaren laburpena, 2026an Durangon Ohiko Kultur Ekimenak egiteko oinarri arautzaileak eta diru-laguntza deialdia BDNS(identif.).","fechaRecepcion":"2026-05-19","nivel1":"LOCAL","nivel2":"DURANGO","nivel3":"AYUNTAMIENTO DE DURANGO","codigoInvente":null},{"id":1107956,"mrr":false,"numeroConvocatoria":"906395","descripcion":"Extracto de la Resolución 2026/1129, de 27 de abril de 2026, por la que se convocan ayudas para la organización de actividades destinadas a infancia y juventud de Durango. Año 2026. BDNS (identif.):","descripcionLeng":"2026ko apirilaren 27ko 2026/1129 ebazpenaren laburpena, 2026rako Durangon haur eta gazteei zuzendutako ekimenak antolatzeko diru laguntzak deitzen dituena. BDNS (Identif.):","fechaRecepcion":"2026-05-19","nivel1":"LOCAL","nivel2":"DURANGO","nivel3":"AYUNTAMIENTO DE DURANGO","codigoInvente":null}],"pageable":{"sort":{"sorted":true,"unsorted":false,"empty":false},"pageNumber":44,"pageSize":50,"offset":2200,"unpaged":false,"paged":true},"last":false,"totalElements":10000,"totalPages":200,"sort":{"sorted":true,"unsorted":false,"empty":false},"first":false,"numberOfElements":50,"size":50,"number":44,"empty":false,"advertencia":"La reutilización de los datos del Sistema Nacional de Publicidad de Subvenciones y Ayudas Públicas está sujeta a una serie de restricciones y consideraciones legales. Consulte el aviso legal en https://www.infosubvenciones.es/bdnstrans/GE/es/avisolegal.Además, el usuario debe ser consciente que la información presentada es de naturaleza dinámica, y que los datos pueden ser sometidos a correcciones, inserciones, modificaciones y eliminaciones en momentos posteriores a su extracción. Accesos al API del sistema Nacional de Publicidad de Subvenciones y Ayudas Públicas. La Administración Presupuestaria, para salvaguardar la protección del acceso libre e irrestricto de los ciudadanos a este Portal y a su información podrá adoptar medidas restrictivas de acceso al API ante situaciones de manifiesto abuso del servicio, riesgos de seguridad, o uso fraudulento de la información descargada, de acuerdo con las buenas prácticas de gestión de datos abiertos (https://datos.gob.es/es/blog/limitaciones-la-consulta-de-una-api) establecidas por el Ministerio para la Transformación Digital y de la Función Pública."}