{"content":[{"id":1103454,"mrr":false,"numeroConvocatoria":"901893","descripcion":"Convocatoria de subvenciones para la realización de actividades deportivas durante el año 2026","descripcionLeng":null,"fechaRecepcion":"2026-04-27","nivel1":"LOCAL","nivel2":"SEGOVIA","nivel3":"INSTITUTO MUNICIPAL DE DEPORTES DEL AYUNTAMIENTO DE SEGOVIA","codigoInvente":"INV00003557"},{"id":1103453,"mrr":false,"numeroConvocatoria":"901892","descripcion":"Resolución de 21/04/2026, del Director del Instituto de Fomento de la Región de Murcia, de convocatoria plurianual de ayudas para incentivar la contratación de servicios de innovación y competitividad por las Pymes regionales. Cheque Internacionalización.","descripcionLeng":null,"fechaRecepcion":"2026-04-27","nivel1":"AUTONOMICA","nivel2":"REGIÓN DE MURCIA","nivel3":"INSTITUTO DE FOMENTO DE LA REGIÓN DE MURCIA (INFO)","codigoInvente":"INV00003691"},{"id":1103450,"mrr":false,"numeroConvocatoria":"901889","descripcion":"Resolución de 28 de abril de 2026, del IAM por la que se conv.subven. rég.de conc.comp.a entidades sin ánimo de lucro para la atención a mujeres en situación de riesgo de exclusión social y especialmente vulnerables ante la Violencia de Género 2026","descripcionLeng":null,"fechaRecepcion":"2026-04-27","nivel1":"AUTONOMICA","nivel2":"ANDALUCÍA","nivel3":"INSTITUTO ANDALUZ DE LA MUJER","codigoInvente":null},{"id":1103448,"mrr":false,"numeroConvocatoria":"901887","descripcion":"AYUDA ESCOLAR GENERAL Y PROGRESIVA CURSO 2026-2027","descripcionLeng":null,"fechaRecepcion":"2026-04-27","nivel1":"LOCAL","nivel2":"SAN LORENZO DE EL ESCORIAL","nivel3":"AYUNTAMIENTO DE SAN LORENZO DE EL ESCORIAL","codigoInvente":null},{"id":1103446,"mrr":false,"numeroConvocatoria":"901885","descripcion":"CONVOCATORIA PARA LA CONCESIÓN DE SUBVENCIONES DESTINADAS A LA ELIMINACIÓN DE BARRERAS ARQUITECTÓNICAS EN EL HOGAR, EN VIVIENDAS UBICADAS EN AMPUDIA Y VALORIA DEL ALCOR Y ADAPTACIÓN DE VEHÍCULOS Y SUBVENCIÓN PARA LA ADQUISICIÓN DE PRODUCTOS DE APOYO, 2026","descripcionLeng":null,"fechaRecepcion":"2026-04-27","nivel1":"LOCAL","nivel2":"AMPUDIA","nivel3":"AYUNTAMIENTO DE AMPUDIA","codigoInvente":null},{"id":1103445,"mrr":false,"numeroConvocatoria":"901884","descripcion":"Resolución de 4 de mayo de 2026, por la que se efectúa convocatoria de mla linea asociaciones y federaciones de mujeres para la realización de proyectos que fomenten la participación social, promoción de la igualdad de género y prevención de volencia co","descripcionLeng":null,"fechaRecepcion":"2026-04-27","nivel1":"AUTONOMICA","nivel2":"ANDALUCÍA","nivel3":"INSTITUTO ANDALUZ DE LA MUJER","codigoInvente":null},{"id":1103444,"mrr":false,"numeroConvocatoria":"901883","descripcion":"RESOLUCIÓN DE LA VICERRECTORA DE POSGRADO Y FORMACIÓN PERMANENTE POR LA QUE SE PUBLICAN LAS BBRR Y CONVOCAN AYUDAS DESTINADAS A DOCTORANDOS Y DOCTORANDAS DE LA ESCUELA DE DOCTORADO DE CIENCIAS, TECNOLOGÍAS E INGENIERÍAS PARA ASISTENCIA A CONGRESOS 25/26","descripcionLeng":null,"fechaRecepcion":"2026-04-27","nivel1":"OTROS","nivel2":"UNIVERSIDAD DE GRANADA","nivel3":null,"codigoInvente":"INV00005337"},{"id":1103442,"mrr":false,"numeroConvocatoria":"901881","descripcion":"DEPORTE FEDERADO COMPETICIÓN DE ÁMBITO INFERIOR A NACIONAL","descripcionLeng":"DEPORTE FEDERADO COMPETICIÓN DE ÁMBITO INFERIOR A NACIONAL","fechaRecepcion":"2026-04-27","nivel1":"LOCAL","nivel2":"DIPUTACIÓN PROV. DE PONTEVEDRA","nivel3":"DEPORTES","codigoInvente":null},{"id":1103440,"mrr":false,"numeroConvocatoria":"901879","descripcion":"Orden de 27 de abril de 2026, por la que se convocan subvenciones para promover la Cultura de Defensa, correspondientes al año 2026.","descripcionLeng":null,"fechaRecepcion":"2026-04-27","nivel1":"ESTADO","nivel2":"MINISTERIO DE DEFENSA","nivel3":"SECRETARÍA GENERAL DE POLÍTICA DE DEFENSA","codigoInvente":null},{"id":1103439,"mrr":false,"numeroConvocatoria":"901878","descripcion":"Resolución de 27 de abril de 2026, de la D.G. de Consumo por la que se convocan en el ejercicio 2026 subvenciones de consumo en concurrencia competitiva Línea 2: Federaciones de consumidores","descripcionLeng":null,"fechaRecepcion":"2026-04-27","nivel1":"AUTONOMICA","nivel2":"ANDALUCÍA","nivel3":"CONSEJERÍA DE SALUD Y CONSUMO","codigoInvente":null},{"id":1103438,"mrr":false,"numeroConvocatoria":"901877","descripcion":"Resolución de 27 de abril de 2026, de la D.G. de Consumo por la que se convocan en el ejercicio 2026 subvenciones de consumo en concurrencia competitiva, Línea 1: Asociaciones de consumidores","descripcionLeng":null,"fechaRecepcion":"2026-04-27","nivel1":"AUTONOMICA","nivel2":"ANDALUCÍA","nivel3":"CONSEJERÍA DE SALUD Y CONSUMO","codigoInvente":null},{"id":1103437,"mrr":false,"numeroConvocatoria":"901876","descripcion":"Acuerdo del Consejo Ejecutivo, de 13 de abril de 2026, relativo a la convocatoria de ayudas «Actuaciones en Camí de Cavalls» para 2026","descripcionLeng":"Acord del Consell Executiu, de 13 d'abril de 2026, relatiu a la convocatòria d'ajuts «Acutacions en Camí de Cavalls» per a 2026","fechaRecepcion":"2026-04-27","nivel1":"LOCAL","nivel2":"CONSEJO INSULAR DE MENORCA","nivel3":"CONSELL INSULAR DE MENORCA","codigoInvente":null},{"id":1103433,"mrr":false,"numeroConvocatoria":"901872","descripcion":"AYUDAS DESTINADAS A LA MEJORA DE LA EFICIENCIA ENERGÉTICA Y SOSTENIBILIDAD EN VIVIENDAS EN AMPUDIA Y VALORIA DEL ALCOR, año 2026","descripcionLeng":null,"fechaRecepcion":"2026-04-27","nivel1":"LOCAL","nivel2":"AMPUDIA","nivel3":"AYUNTAMIENTO DE AMPUDIA","codigoInvente":null},{"id":1103431,"mrr":false,"numeroConvocatoria":"901870","descripcion":"Convocatoria para la concesión de subvenciones del área de Servicios Sociales correspondientes al año 2026. Línea de subvención 7.2: Proyectos de promoción de la salud desarrollados en centros educativos del municipio, curso 2026-2027","descripcionLeng":"2026. urtean emango diren Gizarte Zerbitzuak saileko dirulaguntzen deialdia. 7.2. Diru-laguntza lerroa: Udalerriko ikastetxeetan osasuna sustatzeko garatutako proiektuetarako dirulaguntzak 2026-2027 ikasturtean.","fechaRecepcion":"2026-04-27","nivel1":"LOCAL","nivel2":"ERRENTERIA","nivel3":"AYUNTAMIENTO DE ERRENTERIA","codigoInvente":null},{"id":1103430,"mrr":false,"numeroConvocatoria":"901869","descripcion":"SUBVENCIÓN BONO COMERCIO 2026","descripcionLeng":null,"fechaRecepcion":"2026-04-27","nivel1":"LOCAL","nivel2":"PATERNA","nivel3":"AYUNTAMIENTO DE PATERNA","codigoInvente":null},{"id":1103429,"mrr":false,"numeroConvocatoria":"901868","descripcion":"PROYECTOS DE FORMACIÓN 2026 (MODALIDAD 3) - FORMACIÓN PROFESIONAL PARA EL EMPLEO - EDUCACIÓN","descripcionLeng":null,"fechaRecepcion":"2026-04-27","nivel1":"AUTONOMICA","nivel2":"REGIÓN DE MURCIA","nivel3":"SERVICIO REGIONAL DE EMPLEO Y FORMACIÓN (SEF)","codigoInvente":"INV00005060"},{"id":1103428,"mrr":false,"numeroConvocatoria":"901867","descripcion":"SUBVENCIONES PARA LAS ACTIVIDADES Y PROYECTOS REALIZADOS POR CENTROS DOCENTES SIN ANIMO DE LUCRO QUE ACTUAN EN EL AMBITO DE LA ENSEÑANZA REGLADA.","descripcionLeng":"IRAKASKUNTZA ARAUTUAN IRABAZI ASMORIK GABE DIHARDUTEN IKASTETXEEK EGINDAKO JARDUERA ETA PROIEKTUETARAKO DIRULAGUNTZAK ","fechaRecepcion":"2026-04-27","nivel1":"LOCAL","nivel2":"ARRASATE/MONDRAGÓN","nivel3":"AYUNTAMIENTO DE ARRASATE/MONDRAGÓN","codigoInvente":null},{"id":1103421,"mrr":false,"numeroConvocatoria":"901860","descripcion":"Resolución de 9 de abril de 2026, del Director General del Instituto Tecnológico Agrario de Castilla y León por la que se convocan, para el año 2026, las ayudas a las actividades promovidas por las Asociaciones Sectoriales Alimentarias","descripcionLeng":null,"fechaRecepcion":"2026-04-27","nivel1":"AUTONOMICA","nivel2":"CASTILLA Y LEÓN","nivel3":"INSTITUTO TECNOLÓGICO AGRARIO","codigoInvente":"INV00003748"},{"id":1103419,"mrr":false,"numeroConvocatoria":"901858","descripcion":"Decreto de fecha 24 de abril de 2026 de las bases específicas para la obtención de ayudas y subvenciones de la concejalía de deportes para el año 2026","descripcionLeng":"Decret de data 24 d'abril de 2026 de les bases específiques per a l'obtenció d'ajuts i subvencions de la regidoria d'esports per a l'any 2026","fechaRecepcion":"2026-04-27","nivel1":"LOCAL","nivel2":"SANT VICENÇ DE MONTALT","nivel3":"AYUNTAMIENTO DE SANT VICENÇ DE MONTALT","codigoInvente":null},{"id":1103418,"mrr":false,"numeroConvocatoria":"901857","descripcion":"202603648903 Subvención Apoyo de acciones relacionadas con la protección y bienestar animal 2026-100059","descripcionLeng":null,"fechaRecepcion":"2026-04-27","nivel1":"LOCAL","nivel2":"MURCIA","nivel3":"AYUNTAMIENTO DE MURCIA","codigoInvente":null},{"id":1103417,"mrr":false,"numeroConvocatoria":"901856","descripcion":"CONVOCATORIA PARA LA CONCESIÓN DE SUBVENCIONES PARA EL DESARROLLO DE ESCUELAS DEPORTIVAS MUNICIPALES, CURSO ESCOLAR 2026-2027","descripcionLeng":null,"fechaRecepcion":"2026-04-27","nivel1":"LOCAL","nivel2":"TERUEL","nivel3":"AYUNTAMIENTO DE TERUEL","codigoInvente":null},{"id":1103416,"mrr":false,"numeroConvocatoria":"901855","descripcion":"202603648903Subvención Apoyo al desarrollo de acciones relacionadas con la prevención y promoción de la salud 2026-1000058","descripcionLeng":null,"fechaRecepcion":"2026-04-27","nivel1":"LOCAL","nivel2":"MURCIA","nivel3":"AYUNTAMIENTO DE MURCIA","codigoInvente":null},{"id":1103415,"mrr":false,"numeroConvocatoria":"901854","descripcion":"Convocatoria de subvenciones de apoyo a nuevos autónomos para el año 2026.","descripcionLeng":null,"fechaRecepcion":"2026-04-27","nivel1":"LOCAL","nivel2":"PEDROCHE","nivel3":"AYUNTAMIENTO DE PEDROCHE","codigoInvente":null},{"id":1103413,"mrr":false,"numeroConvocatoria":"901852","descripcion":"BASES DEL CONCURSO DE JUANILLOS 2026","descripcionLeng":null,"fechaRecepcion":"2026-04-27","nivel1":"LOCAL","nivel2":"CÁDIZ","nivel3":"AYUNTAMIENTO DE CÁDIZ","codigoInvente":null},{"id":1103411,"mrr":false,"numeroConvocatoria":"901850","descripcion":"Resolución de la SETMS, por la que se acuerda iniciar el procedimiento para el otorgamiento de compensaciones a los transportes marítimos y aéreos de mercancías, con origen o destino en Melilla, realizados en el año 2025","descripcionLeng":null,"fechaRecepcion":"2026-04-27","nivel1":"ESTADO","nivel2":"MINISTERIO DE TRANSPORTES Y MOVILIDAD SOSTENIBLE","nivel3":"SECRETARÍA DE ESTADO DE TRANSPORTES Y MOVILIDAD SOSTENIBLE","codigoInvente":null},{"id":1103406,"mrr":false,"numeroConvocatoria":"901845","descripcion":"Convocatoria de ayudas a la natalidad y a la adopción en el municipio de Peligros 2026","descripcionLeng":null,"fechaRecepcion":"2026-04-27","nivel1":"LOCAL","nivel2":"PELIGROS","nivel3":"AYUNTAMIENTO DE PELIGROS","codigoInvente":null},{"id":1103404,"mrr":false,"numeroConvocatoria":"901843","descripcion":"Concurso de Fotografía de Medio Natural “¡Naturalízate!”","descripcionLeng":null,"fechaRecepcion":"2026-04-27","nivel1":"LOCAL","nivel2":"DIPUTACIÓN PROV. DE CASTELLÓN","nivel3":"DIPUTACIÓN PROVINCIAL DE CASTELLÓ/CASTELLÓN","codigoInvente":null},{"id":1103397,"mrr":false,"numeroConvocatoria":"901836","descripcion":"Bases reguladoras y convocatoria para la concesión de ayudas para la matrícula de Estudios Universitarios y Ciclos Formativos de Grado Superior y para los gastos de transporte de los jóvenes que están cursando enseñanzas de educación Post Obligatoria para","descripcionLeng":"Bases reguladores i convocatòria per la concessió d'Ajuts per la matrícula d'Estudis Universitaris i Cicles Formatius de Grau Superior i per les despeses de transport dels joves que estan cursant ensenyaments d'educació Post Obligatòria pels cursos escola","fechaRecepcion":"2026-04-27","nivel1":"LOCAL","nivel2":"SANT PERE DE RIBES","nivel3":"AYUNTAMIENTO DE SANT PERE DE RIBES","codigoInvente":null},{"id":1103394,"mrr":false,"numeroConvocatoria":"901833","descripcion":"Convocatoria de subvenciones en régimen de concurrencia competitiva  2026 de la Delegación Municipal de Fiestas y Carnaval-Línea 4: Entierro de la Caballa.","descripcionLeng":null,"fechaRecepcion":"2026-04-27","nivel1":"LOCAL","nivel2":"CÁDIZ","nivel3":"AYUNTAMIENTO DE CÁDIZ","codigoInvente":null},{"id":1103387,"mrr":false,"numeroConvocatoria":"901826","descripcion":"CONVOCATORIA PARA LA CONCESIÓN DE SUBVENCIONES PARA LA CELEBRACIÓN DE COMPETICIONES Y EVENTOS DEPORTIVOS DE INTERÉS MUNICIPAL. ANUALIDAD 2026","descripcionLeng":null,"fechaRecepcion":"2026-04-27","nivel1":"LOCAL","nivel2":"TERUEL","nivel3":"AYUNTAMIENTO DE TERUEL","codigoInvente":null},{"id":1103386,"mrr":false,"numeroConvocatoria":"901825","descripcion":"CONVOCATORIA DE SUBVENCIONES PARA FOMENTO DEL EMPLEO AÑO 2026 DEL AYUNTAMIENTO DEL VALLE DE ELORZ\n","descripcionLeng":"CONVOCATORIA DE SUBVENCIONES PARA FOMENTO DEL EMPLEO AÑO 2026 DEL AYUNTAMIENTO DEL VALLE DE ELORZ\n","fechaRecepcion":"2026-04-27","nivel1":"LOCAL","nivel2":"NOÁIN (VALLE DE ELORZ)/NOAIN (ELORTZIBAR)","nivel3":"AYUNTAMIENTO DE NOÁIN (VALLE DE ELORZ)/NOAIN (ELORTZIBAR)","codigoInvente":null},{"id":1103383,"mrr":false,"numeroConvocatoria":"901822","descripcion":"CONVOCATORIA DE SUBVENCIONES PARA FOMENTO DEL AUTOEMPLEO AÑO 2026 DEL AYUNTAMIENTO DEL VALLE DE ELORZ\n","descripcionLeng":"CONVOCATORIA DE SUBVENCIONES PARA FOMENTO DEL AUTOEMPLEO AÑO 2026 DEL AYUNTAMIENTO DEL VALLE DE ELORZ","fechaRecepcion":"2026-04-27","nivel1":"LOCAL","nivel2":"NOÁIN (VALLE DE ELORZ)/NOAIN (ELORTZIBAR)","nivel3":"AYUNTAMIENTO DE NOÁIN (VALLE DE ELORZ)/NOAIN (ELORTZIBAR)","codigoInvente":null},{"id":1103382,"mrr":false,"numeroConvocatoria":"901821","descripcion":"Subvenciones para Grupos Musicales Juveniles 2026.","descripcionLeng":null,"fechaRecepcion":"2026-04-27","nivel1":"LOCAL","nivel2":"BURGOS","nivel3":"AYUNTAMIENTO DE BURGOS","codigoInvente":null},{"id":1103381,"mrr":false,"numeroConvocatoria":"901820","descripcion":"Subvenciones para Asociaciones Juveniles y Grupos de Jóvenes 2026.","descripcionLeng":null,"fechaRecepcion":"2026-04-27","nivel1":"LOCAL","nivel2":"BURGOS","nivel3":"AYUNTAMIENTO DE BURGOS","codigoInvente":null},{"id":1103373,"mrr":false,"numeroConvocatoria":"901812","descripcion":"RESOLUCIÓN DE 27 DE ABRIL DE 2026 POR LA QUE SE MODIFICA LA CONVOCATORIA DE AYUDAS A LOS PROPIETARIOS DE VIVIENDAS SITUADAS EN EL TÉRMINO MUNICIPAL DE TOMIÑO PARA LA REALIZACIÓN DE MEJORAS EN LOS SISTEMAS DE SANEAMIENTO AUTÓNOMO DURANTE LOS AÑOS 2025/2026","descripcionLeng":"RESOLUCIÓN DE 27 DE ABRIL DE 2026 POLA QUE SE MODIFICA A CONVOCATORIA DE AXUDAS AOS PROPIETARIOS DE VIVENDAS SITUADAS NO TERMO MUNICIPAL DE TOMIÑO PARA A REALIZACIÓN DE MLLJORAS NOS SISTEMAS DE SANEAMENTO AUTÓNOMO DURANTE OS ANOS 2025/2026","fechaRecepcion":"2026-04-27","nivel1":"LOCAL","nivel2":"TOMIÑO","nivel3":"AYUNTAMIENTO DE TOMIÑO","codigoInvente":null},{"id":1103372,"mrr":false,"numeroConvocatoria":"901811","descripcion":"RESOLUCIÓN DE LA VICERRECTORA DE POSGRADO Y FORMACIÓN PERMANENTE POR LA QUE SE PUBLICAN LAS BBRR Y SE CONVOCAN AYUDAS DESTINADAS A DOCTORANDOS Y DOCTORANDAS DE LA ESCUELA DE DOCTORADO DE CIENCIAS DE LA SALUD PARA PARA ASISTENCIA A CONGRESOS CURSO 2025/26","descripcionLeng":null,"fechaRecepcion":"2026-04-27","nivel1":"OTROS","nivel2":"UNIVERSIDAD DE GRANADA","nivel3":null,"codigoInvente":"INV00005337"},{"id":1103370,"mrr":false,"numeroConvocatoria":"901809","descripcion":"CONVOCATORIA PARA LA CONCESIÓN DE SUBVENCIONES A DEPORTISTAS DE ALTO RENDIMIENTO. ANUALIDAD 2026","descripcionLeng":null,"fechaRecepcion":"2026-04-27","nivel1":"LOCAL","nivel2":"TERUEL","nivel3":"AYUNTAMIENTO DE TERUEL","codigoInvente":null},{"id":1103368,"mrr":false,"numeroConvocatoria":"901807","descripcion":"BASES CONCURSOS FESTIVIDAD ROMERÍA SAN ISIDRO 2026","descripcionLeng":null,"fechaRecepcion":"2026-04-27","nivel1":"LOCAL","nivel2":"ALAMEDA","nivel3":"AYUNTAMIENTO DE ALAMEDA","codigoInvente":null},{"id":1103364,"mrr":false,"numeroConvocatoria":"901803","descripcion":"I Edición Premios \"Pueblos con Vida\" Iniciativa PÚBLICA. APUESTA TRADICIÓN","descripcionLeng":null,"fechaRecepcion":"2026-04-27","nivel1":"AUTONOMICA","nivel2":"COMUNIDAD DE MADRID","nivel3":"CONSEJERÍA DE PRESIDENCIA, JUSTICIA Y ADMINISTRACIÓN LOCAL","codigoInvente":null},{"id":1103357,"mrr":false,"numeroConvocatoria":"901796","descripcion":"Convocatoria 2026 de ayudas a la participación en ferias comerciales con productos agroalimentarios","descripcionLeng":null,"fechaRecepcion":"2026-04-27","nivel1":"AUTONOMICA","nivel2":"COMUNIDAD FORAL DE NAVARRA","nivel3":"DEPARTAMENTO DE DESARROLLO RURAL Y MEDIO AMBIENTE","codigoInvente":null},{"id":1103356,"mrr":false,"numeroConvocatoria":"901795","descripcion":"BECAS PARA ESTUDIANTES DEL MÁSTER UNIVERSITARIO EN ESTUDIOS CULTURALES Y ARTES VISUALES (PERSPECTIVAS FEMINISTAS Y CUIR/QUEER) DE LA UMH CURSO ACADÉMICO 2025-2026, FINANCIADA POR EL INSTITUTO DE LAS MUJERES (Código línea de beca: 08-324-4-2026-0053-S)","descripcionLeng":"BEQUES PER A ESTUDIANTS DEL MÀSTER UNIVERSITARI EN ESTUDIS CULTURALS I ARTS VISUALS (PERSPECTIVES FEMINISTES I CUIR/QUEER) DE LA UMH, CURS ACADÈMIC 2025-2026, FINANÇADA PER L'INSTITUT DE LES DONES (codi de línia de beca 08-324-4-2026-0053-S)","fechaRecepcion":"2026-04-27","nivel1":"OTROS","nivel2":"UNIVERSIDAD MIGUEL HERNÁNDEZ DE ELCHE","nivel3":null,"codigoInvente":"INV00005357"},{"id":1103355,"mrr":false,"numeroConvocatoria":"901794","descripcion":"RESOLUCIÓN de la Dirección General de Trabajo, Cooperativismo y Seguridad Laboral, por la que se convocan subvenciones destinadas al fomento de la economía social en el ámbito de la Comunitat Valenciana.","descripcionLeng":"RESOLUCIÓ de la Direcció General de Treball, Cooperativisme i Seguretat Laboral, per la qual es convoquen subvencions destinades al foment de l’economia social en l’àmbit de la Comunitat Valenciana.","fechaRecepcion":"2026-04-27","nivel1":"AUTONOMICA","nivel2":"COMUNITAT VALENCIANA","nivel3":"SECRETARIA AUTONÓMICA DE EMPLEO","codigoInvente":null},{"id":1103354,"mrr":false,"numeroConvocatoria":"901793","descripcion":"AYUDAS #COMPROMISOSOCIALUMH 2026, EN EL MARCO DE LA PROMOCIÓN DE LOS OBJETIVOS DE DESARROLLO SOSTENIBLE DE LA AGENDA 2030 DE LAS NACIONES UNIDAS Y LA PROYECCIÓN SOCIAL DE LA UNIVERSIDAD CON ENTIDADES CONVENIADAS","descripcionLeng":"AJUDES #COMPROMÍSSOCIALUMH 2026, EN EL MARC DE LA PROMOCIÓ DELS OBJECTIUS DE DESENVOLUPAMENT SOSTENIBLE DE L'AGENDA 2030 DE LES NACIONS UNIDES I DE LA PROJECCIÓ SOCIAL DE LA UNIVERSITAT AMB ENTITATS CONVENIADES","fechaRecepcion":"2026-04-27","nivel1":"OTROS","nivel2":"UNIVERSIDAD MIGUEL HERNÁNDEZ DE ELCHE","nivel3":null,"codigoInvente":"INV00005357"},{"id":1103347,"mrr":false,"numeroConvocatoria":"901786","descripcion":"Convocatoria y bases reguladoras específicas del XVII Certamen nacional de pintura rápida villa de Sisante Isabel Romero (año 2026).","descripcionLeng":null,"fechaRecepcion":"2026-04-27","nivel1":"LOCAL","nivel2":"SISANTE","nivel3":"AYUNTAMIENTO DE SISANTE","codigoInvente":null},{"id":1103343,"mrr":false,"numeroConvocatoria":"901782","descripcion":"Concursos de Cruces de Mayo 2026","descripcionLeng":null,"fechaRecepcion":"2026-04-27","nivel1":"LOCAL","nivel2":"ALAMEDA","nivel3":"AYUNTAMIENTO DE ALAMEDA","codigoInvente":null},{"id":1103342,"mrr":false,"numeroConvocatoria":"901781","descripcion":"Convocatoria por la concesión de ayudas por la cuota de material y libros escolares para los alumnos de Aiguafreda escolarizados en la etapa obligatoria en centros educativos sufragados con fondos públicos para el curso 2026-2027","descripcionLeng":"Convocatòria per a la concessió d'ajuts per la quota de material i llibres escolars per als alumnes d'Aiguafreda escolaritzats en l'etapa obligatòria als centres educatius sufragats amb fons públics per al curs 2026-2027","fechaRecepcion":"2026-04-27","nivel1":"LOCAL","nivel2":"AIGUAFREDA","nivel3":"AYUNTAMIENTO DE AIGUAFREDA","codigoInvente":null},{"id":1103341,"mrr":false,"numeroConvocatoria":"901780","descripcion":"Orden del 14 de abril de 2026 por la que se establecen las bases reguladoras y se convocan subvenciones, en régimen de concurrencia competitiva, para entidades privadas sin ánimo de lucro con el fin de realizar programas de carácter sociosanitari","descripcionLeng":null,"fechaRecepcion":"2026-04-27","nivel1":"AUTONOMICA","nivel2":"GALICIA","nivel3":"SERVICIO GALLEGO DE SALUD (SERGAS)","codigoInvente":null},{"id":1103339,"mrr":false,"numeroConvocatoria":"901778","descripcion":"L0125. 2aC. Resolución por la que se abre la 2ª convocatoria 2026 para la concesión de subvenciones en régimen de concurrencia competitiva para la publicación en el extranjero de obras ilustradas","descripcionLeng":"L0125 2aC. Resolució per la qual s’obre la 2a convocatòria 2026 per a la concessió de subvencions en règim de concurrència competitiva per a la publicació a l’estranger d’obres il·lustrades","fechaRecepcion":"2026-04-27","nivel1":"AUTONOMICA","nivel2":"CATALUÑA","nivel3":"INSTITUT RAMON LLULL","codigoInvente":null},{"id":1103338,"mrr":false,"numeroConvocatoria":"901777","descripcion":"RESOLUCIÓN  de la Conselleria de Sanidad, por la que se convocan subvenciones destinadas a financiar programas de salud mental en la Comunitat Valenciana, para el ejercicio 2026.","descripcionLeng":"RESOLUCIÓ de la Conselleria de Sanitat, per la qual es convoquen subvencions destinades a finançar programes de salut mental en la Comunitat Valenciana, per a l’exercici 2026","fechaRecepcion":"2026-04-27","nivel1":"AUTONOMICA","nivel2":"COMUNITAT VALENCIANA","nivel3":"SECRETARÍA AUTONÓMICA DE SALUD PÚBLICA Y DEL SISTEMA SANITARIO PÚBLICO","codigoInvente":null},{"id":1103332,"mrr":false,"numeroConvocatoria":"901771","descripcion":"DGBCE/26 XVII TORNEO ESCOLAR DE DEBATE. CURSO 2025-26","descripcionLeng":null,"fechaRecepcion":"2026-04-27","nivel1":"AUTONOMICA","nivel2":"COMUNIDAD DE MADRID","nivel3":"CONSEJERÍA DE EDUCACIÓN, CIENCIA Y UNIVERSIDADES","codigoInvente":null}],"pageable":{"sort":{"sorted":true,"unsorted":false,"empty":false},"pageNumber":25,"pageSize":50,"offset":1250,"unpaged":false,"paged":true},"last":false,"totalElements":10000,"totalPages":200,"first":false,"sort":{"sorted":true,"unsorted":false,"empty":false},"numberOfElements":50,"size":50,"number":25,"empty":false,"advertencia":"La reutilización de los datos del Sistema Nacional de Publicidad de Subvenciones y Ayudas Públicas está sujeta a una serie de restricciones y consideraciones legales. Consulte el aviso legal en https://www.infosubvenciones.es/bdnstrans/GE/es/avisolegal.Además, el usuario debe ser consciente que la información presentada es de naturaleza dinámica, y que los datos pueden ser sometidos a correcciones, inserciones, modificaciones y eliminaciones en momentos posteriores a su extracción. Accesos al API del sistema Nacional de Publicidad de Subvenciones y Ayudas Públicas. La Administración Presupuestaria, para salvaguardar la protección del acceso libre e irrestricto de los ciudadanos a este Portal y a su información podrá adoptar medidas restrictivas de acceso al API ante situaciones de manifiesto abuso del servicio, riesgos de seguridad, o uso fraudulento de la información descargada, de acuerdo con las buenas prácticas de gestión de datos abiertos (https://datos.gob.es/es/blog/limitaciones-la-consulta-de-una-api) establecidas por el Ministerio para la Transformación Digital y de la Función Pública."}