{"content":[{"id":1100522,"mrr":false,"numeroConvocatoria":"898961","descripcion":"Resolución SOD/INVES/24/26, de 13 de abril de 2026, por la que se convoca para el año 2026 la línea de subvenciones del programa de “Fomento de la transferencia tecnológica (INVESNOVA)”","descripcionLeng":null,"fechaRecepcion":"2026-04-15","nivel1":"AUTONOMICA","nivel2":"CANTABRIA","nivel3":"SOCIEDAD PARA EL DESARROLLO REGIONAL DE CANTABRIA, S.A.","codigoInvente":"INV00005144"},{"id":1100521,"mrr":false,"numeroConvocatoria":"898960","descripcion":"Convocatoria contratación estable y de calidad 2026","descripcionLeng":null,"fechaRecepcion":"2026-04-15","nivel1":"AUTONOMICA","nivel2":"ARAGÓN","nivel3":"INSTITUTO ARAGONÉS DE EMPLEO (INAEM)","codigoInvente":"INV00003652"},{"id":1100520,"mrr":false,"numeroConvocatoria":"898959","descripcion":"Aprobacion convocatoria concesion prestaciones economicas individualizadas en materia de servicos sociales.  Ejercicio 2026","descripcionLeng":null,"fechaRecepcion":"2026-04-15","nivel1":"LOCAL","nivel2":"MISLATA","nivel3":"AYUNTAMIENTO DE MISLATA","codigoInvente":null},{"id":1100519,"mrr":false,"numeroConvocatoria":"898958","descripcion":"Extracto de la Resolución de 15 de abril de 2026 de la Dirección Provincial del Servicio Público de Empleo Estatal de Badajoz por la que se efectúa convocatoria de subvenciones a Corporaciones locales, en procedimiento de concesión directa, para la","descripcionLeng":null,"fechaRecepcion":"2026-04-15","nivel1":"ESTADO","nivel2":"MINISTERIO DE TRABAJO Y ECONOMÍA SOCIAL","nivel3":"DIRECCIÓN PROVINCIAL DEL SEPE DE BADAJOZ","codigoInvente":null},{"id":1100518,"mrr":false,"numeroConvocatoria":"898957","descripcion":"Subvenciones para la Cooperación Internacional.","descripcionLeng":"Nazioarteko lankidetzarako dirulaguntzak ","fechaRecepcion":"2026-04-15","nivel1":"LOCAL","nivel2":"URRETXU","nivel3":"AYUNTAMIENTO DE URRETXU","codigoInvente":null},{"id":1100516,"mrr":false,"numeroConvocatoria":"898955","descripcion":"Convocatoria de subvenciones para la realización de actividades de euskera","descripcionLeng":"Euskara jarduerak egiteko dirulaguntzen deialdia","fechaRecepcion":"2026-04-15","nivel1":"LOCAL","nivel2":"ERMUA","nivel3":"AYUNTAMIENTO DE ERMUA","codigoInvente":null},{"id":1100515,"mrr":false,"numeroConvocatoria":"898954","descripcion":"CONVOCATORIA DE BECAS PARA CURSAR ALGUNA DE LAS ACTIVIDADES ACADÉMICAS QUE COMPONEN LA PROGRAMACIÓN DE LAS ESCUELAS DE TEATRO Y DANZA 2026 DE LA SEDE ANTONIO MACHADO DE\nBAEZA","descripcionLeng":null,"fechaRecepcion":"2026-04-15","nivel1":"OTROS","nivel2":"UNIVERSIDAD INTERNACIONAL DE ANDALUCÍA","nivel3":null,"codigoInvente":"INV00005355"},{"id":1100513,"mrr":false,"numeroConvocatoria":"898952","descripcion":"Extracto de la Resolución de 15 de abril de 2026 de la Dirección Provincial del Servicio Público de Empleo Estatal en Badajoz por la que se efectúa convocatoria de subvenciones a las Corporaciones Locales, en procedimiento de concurrencia competitiva, par","descripcionLeng":null,"fechaRecepcion":"2026-04-15","nivel1":"ESTADO","nivel2":"MINISTERIO DE TRABAJO Y ECONOMÍA SOCIAL","nivel3":"DIRECCIÓN PROVINCIAL DEL SEPE DE BADAJOZ","codigoInvente":null},{"id":1100510,"mrr":false,"numeroConvocatoria":"898949","descripcion":"Convocatoria para la concesión de ayudas para los gastos de limpieza de pozos sépticos de Lezama","descripcionLeng":"Lezamako putzu septikoen garbiketa-gastuetarako dirulaguntzak emateko deialdia","fechaRecepcion":"2026-04-15","nivel1":"LOCAL","nivel2":"LEZAMA","nivel3":"AYUNTAMIENTO DE LEZAMA","codigoInvente":null},{"id":1100501,"mrr":false,"numeroConvocatoria":"898940","descripcion":"CONVOCATORIA AJUTS LLOGUER COMERÇ 2026","descripcionLeng":null,"fechaRecepcion":"2026-04-15","nivel1":"LOCAL","nivel2":"NAVARCLES","nivel3":"AYUNTAMIENTO DE NAVARCLES","codigoInvente":null},{"id":1100499,"mrr":false,"numeroConvocatoria":"898938","descripcion":"Beca d 'iniciació a la investigació (Projecte «MODALITAT B: NOVES AJUDES COMPLEMENTÀRIES ALS PROJECTES D’INVESTIGACIÓ CAPTATS PEL PERSONAL INVESTIGADOR DE LA UNIVERSITAT JAUME I DINS DEL PEICTI (ACCIÓ 5.1)» – Codi 24I649 – Dirigit per:  Vicente Ramón Tomá","descripcionLeng":"Beca d 'iniciació a la investigació (Projecte «MODALITAT B: NOVES AJUDES COMPLEMENTÀRIES ALS PROJECTES D’INVESTIGACIÓ CAPTATS PEL PERSONAL INVESTIGADOR DE LA UNIVERSITAT JAUME I DINS DEL PEICTI (ACCIÓ 5.1)» – Codi 24I649 – Dirigit per:  Vicente Ramón Tomá","fechaRecepcion":"2026-04-15","nivel1":"OTROS","nivel2":"UNIVERSIDAD JAUME I DE CASTELLÓN","nivel3":null,"codigoInvente":"INV00005381"},{"id":1100496,"mrr":false,"numeroConvocatoria":"898935","descripcion":"BASES CONCURSO DE CARTELES FIESTAS DE SAN JUAN DE BAÑOS 2026","descripcionLeng":null,"fechaRecepcion":"2026-04-15","nivel1":"LOCAL","nivel2":"VENTA DE BAÑOS","nivel3":"AYUNTAMIENTO DE VENTA DE BAÑOS","codigoInvente":null},{"id":1100494,"mrr":false,"numeroConvocatoria":"898933","descripcion":"SUBVENCIONES DE APOYO A LA PRODUCCIÓN TEATRAL, LA DANZA Y EL CIRCO EN CASTILLA-LA MANCHA DURANTE EL AÑO 2026. REG (UE) 651/2014 de exención de notificación","descripcionLeng":null,"fechaRecepcion":"2026-04-15","nivel1":"AUTONOMICA","nivel2":"CASTILLA-LA MANCHA","nivel3":"VICECONSEJERÍA DE CULTURA Y DEPORTES","codigoInvente":null},{"id":1100493,"mrr":false,"numeroConvocatoria":"898932","descripcion":"Subvenciones a asociaciones que desarrollen su actividad en el ámbito de los servicios sociales en Urretxu","descripcionLeng":"Urretxun, beraien jarduera gizarte zerbitzuen alorrean garatuko duten elkarteei dirulaguntzak.","fechaRecepcion":"2026-04-15","nivel1":"LOCAL","nivel2":"URRETXU","nivel3":"AYUNTAMIENTO DE URRETXU","codigoInvente":null},{"id":1100492,"mrr":false,"numeroConvocatoria":"898931","descripcion":"Resolución de  Viceconsejería Medio Ambiente para convocatoria 2026 ayudas ejecución tratamientos selvícolas, contenidas en el plan estratégico PAC                     \n( No ayudas de Estado .)","descripcionLeng":null,"fechaRecepcion":"2026-04-15","nivel1":"AUTONOMICA","nivel2":"CASTILLA-LA MANCHA","nivel3":"VICECONSEJERÍA DE MEDIO AMBIENTE","codigoInvente":null},{"id":1100490,"mrr":false,"numeroConvocatoria":"898929","descripcion":"Ayudas económicas individuales y familiares municipales para paliar situaciones de exclusión social y/o extrema necesidad.","descripcionLeng":"Gizarte-bazterkeriako eta behar larriko egoerei aurre egiteko norbanakoei eta familiei emango zaizkien udal diru-laguntzak ","fechaRecepcion":"2026-04-15","nivel1":"LOCAL","nivel2":"URRETXU","nivel3":"AYUNTAMIENTO DE URRETXU","codigoInvente":null},{"id":1100488,"mrr":false,"numeroConvocatoria":"898927","descripcion":"CONVOCATORIA Y BASES REGULADORAS DE LAS CONDICIONES Y REQUISITOS PARA LA CONCESIÓN DE BECAS DE FORMACIÓN PRÁCTICA VERANO - BECALVIÀ 2026- DEL INSTITUTO MUNICIPAL DE EDUCACIÓN Y BIBLIOTECAS DE CALVIÀ (CURSO 2025/2026)","descripcionLeng":"CONVOCATÒRIA I BASES REGULADORES DE LES CONDICIONS I REQUISITS PER A LA CONCESSIÓ DE BEQUES DE FORMACIÓ PRÀCTICA ESTIU - BECALVIÀ 2026 - DE L'INSTITUT MUNICIPAL D'EDUCACIÓ I BIBLIOTEQUES DE CALVIÀ (CURS 2025/2026)","fechaRecepcion":"2026-04-15","nivel1":"LOCAL","nivel2":"CALVIÀ","nivel3":"AYUNTAMIENTO DE CALVIÀ","codigoInvente":null},{"id":1100486,"mrr":false,"numeroConvocatoria":"898925","descripcion":"RESOLUCIÓN de 14 de abril de 2026, de la Conselleria de Industria, Turismo, Innovación y Comercio, por la que se efectúa la convocatoria de subvenciones para actividades no económicas, desarrolladas por entidades del ecosistema de emprendimiento de la CV","descripcionLeng":"RESOLUCIÓ de 14 d'abril de 2026, de la Conselleria d’Indústria, Turisme, Innovació i Comerç, per la qual s’efectua la convocatòria de subvencions per a activitats no econòmiques, desenvolupades per entitats de l’ecosistema d’emprenedoria de la CV","fechaRecepcion":"2026-04-15","nivel1":"AUTONOMICA","nivel2":"COMUNITAT VALENCIANA","nivel3":"SECRETARIA AUTONÓMICA DE INDUSTRIA, COMERCIO Y CONSUMO","codigoInvente":null},{"id":1100485,"mrr":false,"numeroConvocatoria":"898924","descripcion":"SUBVENCIONES DIRIGIDAS A INCENTIVAR EL CONSUMO EN EL COMERCIO LOCAL Y AYUDAR A LAS FAMILIAS EN LA COMPRA DE MATERIAL ESCOLAR","descripcionLeng":"TOKIKO MERKATARITZAN KONTSUMOA SUSTATZEKO ETA FAMILIEI ESKOLA-MATERIALA EROSTEN LAGUNTZEKO DIRU LAGUNTZAK  ","fechaRecepcion":"2026-04-15","nivel1":"LOCAL","nivel2":"URRETXU","nivel3":"AYUNTAMIENTO DE URRETXU","codigoInvente":null},{"id":1100484,"mrr":false,"numeroConvocatoria":"898923","descripcion":"Resolución de la Vicerrectora de Investigación de la Universidad de Oviedo para la contratación de personal investigador y técnico de apoyo, según artículo 23.bis de la Ley 14/2011 de la Ciencia, la Tecnología y la Innovación (Abril Extra 4 - 2026)","descripcionLeng":null,"fechaRecepcion":"2026-04-15","nivel1":"OTROS","nivel2":"UNIVERSIDAD DE OVIEDO","nivel3":null,"codigoInvente":"INV00005347"},{"id":1100482,"mrr":false,"numeroConvocatoria":"898921","descripcion":"XII CERTAMEN DE CANCIÓN ESPAÑOLA \"OLIVO DE PLATA\" 2026","descripcionLeng":null,"fechaRecepcion":"2026-04-15","nivel1":"LOCAL","nivel2":"OLIVARES","nivel3":"AYUNTAMIENTO DE OLIVARES","codigoInvente":null},{"id":1100478,"mrr":false,"numeroConvocatoria":"898917","descripcion":"Resolución de 14 de abril de 2026, del FEGA, por la que se convocan anticipadamente las subvenciones de intercambio de conocimientos y actividades de formación e información de ámbito supraautonómico, destinadas al sector agroalimentario y forestal PEPAC","descripcionLeng":null,"fechaRecepcion":"2026-04-15","nivel1":"ESTADO","nivel2":"MINISTERIO DE AGRICULTURA, PESCA Y ALIMENTACIÓN","nivel3":"FONDO ESPAÑOL DE GARANTÍA AGRARIA","codigoInvente":null},{"id":1100473,"mrr":false,"numeroConvocatoria":"898912","descripcion":"Ayudas a centros escolares de Alicante. Plan protección del medio ambiente. Año 2026.","descripcionLeng":null,"fechaRecepcion":"2026-04-15","nivel1":"LOCAL","nivel2":"ALICANTE/ALACANT","nivel3":"AYUNTAMIENTO DE ALICANTE/ALACANT","codigoInvente":null},{"id":1100469,"mrr":false,"numeroConvocatoria":"898908","descripcion":"Convocatoria de subvenciones a entidades sin ánimo de lucro 2026.","descripcionLeng":null,"fechaRecepcion":"2026-04-15","nivel1":"LOCAL","nivel2":"LEGANÉS","nivel3":"AYUNTAMIENTO DE LEGANÉS","codigoInvente":null},{"id":1100468,"mrr":false,"numeroConvocatoria":"898907","descripcion":"CAMPAÑA \"ADQUISICIÓN INSTRUMENTOS MUSICALES Y OTROS BIENES INVENTARIABLES 2026\"","descripcionLeng":null,"fechaRecepcion":"2026-04-15","nivel1":"LOCAL","nivel2":"DIPUTACIÓN PROV. DE CASTELLÓN","nivel3":"DIPUTACIÓN PROVINCIAL DE CASTELLÓ/CASTELLÓN","codigoInvente":null},{"id":1100467,"mrr":false,"numeroConvocatoria":"898906","descripcion":"CONVOCATORIA SUBVENCIONES ACTIVIDADES TAURINAS 2026","descripcionLeng":null,"fechaRecepcion":"2026-04-15","nivel1":"LOCAL","nivel2":"DIPUTACIÓN PROV. DE CASTELLÓN","nivel3":"DIPUTACIÓN PROVINCIAL DE CASTELLÓ/CASTELLÓN","codigoInvente":null},{"id":1100465,"mrr":false,"numeroConvocatoria":"898904","descripcion":"Premio Empordà de Novela 2026 10ª edición","descripcionLeng":"Premi Empordà de Novel.la 2026, 10ª edició","fechaRecepcion":"2026-04-15","nivel1":"LOCAL","nivel2":"CONSELL COMARCAL DE BAIX EMPORDÀ","nivel3":"CONSELL COMARCAL DE BAIX EMPORDÀ","codigoInvente":null},{"id":1100463,"mrr":false,"numeroConvocatoria":"898902","descripcion":"Convocatoria de ayudas en especie para alumnos de nivel no universitario de centros educactivos sostenidos con fondos públicos de la CAIB durante el verano de 2026 en el marco de 3 programas de inmersión lingüística en lenguas extranjeras","descripcionLeng":"Convocatòria d'ajuts en espècie per l'alumnat de nvell no universitari de centres educatius sostinguts amb fons públics de la CAIB durant l'estiu de 2026 en el marc de 3 programes d'immersió lingüística en llengües estrangeres","fechaRecepcion":"2026-04-15","nivel1":"AUTONOMICA","nivel2":"ILLES BALEARS","nivel3":"DIRECCIÓN GENERAL DE PLANIFICACIÓN, ORDENACIÓN Y CENTROS","codigoInvente":null},{"id":1100459,"mrr":false,"numeroConvocatoria":"898898","descripcion":"Ayudas a la Contratación Talento 45+ 2026 - Cámara de Comercio de Girona","descripcionLeng":"Ajuts a la Contratació Talent 45+ 2026 - Cambra de Comerç de Girona","fechaRecepcion":"2026-04-14","nivel1":"OTROS","nivel2":"CÁMARA DE COMERCIO DE GERONA","nivel3":null,"codigoInvente":null},{"id":1100458,"mrr":false,"numeroConvocatoria":"898897","descripcion":"Ayudas a la Contratación Talento Joven 2026 - Cámara de Comercio de Girona","descripcionLeng":"Ajuts a la Contractació Talento Joven 2026 - Cambra de Comerç de Girona","fechaRecepcion":"2026-04-14","nivel1":"OTROS","nivel2":"CÁMARA DE COMERCIO DE GERONA","nivel3":null,"codigoInvente":null},{"id":1100457,"mrr":false,"numeroConvocatoria":"898896","descripcion":"BASES REGULADORAS Y CONVOCATORIA DEL 11º CONCURSO DE MAYOS DE 2026","descripcionLeng":"BASES REGULADORAS E CONVOCATORIA DO 11º CONCURSO DE MAYOS DE 2026","fechaRecepcion":"2026-04-14","nivel1":"LOCAL","nivel2":"ARTEIXO","nivel3":"AYUNTAMIENTO DE ARTEIXO","codigoInvente":null},{"id":1100456,"mrr":false,"numeroConvocatoria":"898895","descripcion":"BASES REGULADORAS ESPECÍFICAS Y CONVOCATORIA DE SUBVENCIONES DEL SERVICIO DE DEPORTES DEL ÁREA DE CULTURA Y CIUDADANÍA EN CONCURRENCIA COMPETITIVA, DESTINADAS A LA GESTIÓN Y ORGANIZACIÓN DE LOS JUEGOS DEPORTIVOS PROVINCIALES (TEMPORADA 2026/2027)","descripcionLeng":null,"fechaRecepcion":"2026-04-14","nivel1":"LOCAL","nivel2":"DIPUTACIÓN PROV. DE SEVILLA","nivel3":"DIPUTACIÓN PROVINCIAL DE SEVILLA","codigoInvente":null},{"id":1100455,"mrr":false,"numeroConvocatoria":"898894","descripcion":"CONVOCATORIA DE AYUDAS INDIVIDUALES PARA LA ASISTENCIA A ACTIVIDADES DE VERANO 2026 PARA NIÑOS, NIÑAS Y ADOLESCENTES EMPADRONADOS Y RESIDENTES EN SANT CUGAT DEL VALLÈS (EXP. 9572/2026)","descripcionLeng":"CONVOCATÒRIA D'AJUTS INDIVIDUALS PER A L'ASSISTÈNCIA A ACTIVITATS D'ESTIU 2026 PER A INFANTS I ADOLESCENTES EMPADRONATS I RESIDENTS A SANT CUGAT DEL VALLÈS (EXP.9572/2026)","fechaRecepcion":"2026-04-14","nivel1":"LOCAL","nivel2":"SANT CUGAT DEL VALLÈS","nivel3":"AYUNTAMIENTO DE SANT CUGAT DEL VALLÈS","codigoInvente":null},{"id":1100452,"mrr":false,"numeroConvocatoria":"898891","descripcion":"Convocatoria y bases específicas para la concesión de subvenciones en régimen de concurrencia no competitiva para el fomento del empleo y la mejora de la empleabilidad mediante el autoempleo y la creación de microempresas, PYMES e iniciativas de economía","descripcionLeng":"Convocatòria i les Bases específiques per  la concessió de subvencions en règim de concurrència no competitiva per al foment de l’ocupació i la millora de l’ocupabilitat mitjançant l’autoocupació i la creació de micropimes, pimes i iniciatives d’economia ","fechaRecepcion":"2026-04-14","nivel1":"LOCAL","nivel2":"GAVÀ","nivel3":"AYUNTAMIENTO DE GAVÀ","codigoInvente":null},{"id":1100451,"mrr":false,"numeroConvocatoria":"898890","descripcion":"RESOLUCIÓN DEL SECRETARIO DE ESTADO DE MEMORIA DEMOCRÁTICA POR LA QUE SE CONVOCAN PARA EL AÑO 2026 SUBVENCIONES DESTINADAS A ACTIVIDADES RELACIONADAS CON LA ATENCIÓN Y APOYO A LAS VÍCTIMAS DE LA GUERRA Y DE LA DICTADURA","descripcionLeng":null,"fechaRecepcion":"2026-04-14","nivel1":"ESTADO","nivel2":"MINISTERIO DE POLÍTICA TERRITORIAL Y MEMORIA DEMOCRÁTICA","nivel3":"SECRETARÍA DE ESTADO DE MEMORIA DEMOCRÁTICA","codigoInvente":null},{"id":1100450,"mrr":false,"numeroConvocatoria":"898889","descripcion":"Resolución del director general de Tráfico por la que se publica la convocatoria de subvenciones destinadas a proyectos a desarrollar por entidades sin ánimo de lucro, cuyo objeto primordial sea la defensa de las víctimas de siniestros viales","descripcionLeng":null,"fechaRecepcion":"2026-04-14","nivel1":"ESTADO","nivel2":"MINISTERIO DEL INTERIOR","nivel3":"DIRECCIÓN GENERAL DE TRÁFICO","codigoInvente":"INV00003786"},{"id":1100449,"mrr":false,"numeroConvocatoria":"898888","descripcion":"CONVOCATORIA ESPECIAL DEL PROGRAMA ERASMUS+ KA171\nUNIVERSIDAD DE VALLADOLID\nCURSO ACADÉMICO 2025-2026\nMOVILIDAD SALIENTE PDI (Formación STT)","descripcionLeng":null,"fechaRecepcion":"2026-04-14","nivel1":"OTROS","nivel2":"UNIVERSIDAD DE VALLADOLID","nivel3":null,"codigoInvente":"INV00005351"},{"id":1100447,"mrr":false,"numeroConvocatoria":"898886","descripcion":"Resolución de la Dirección General de Tráfico que publica la convocatoria para la concesión de subvenciones destinadas a proyectos a desarrollar por entidades cuyo objeto primordial sea la atención, defensa o representación de víctimas de tráfico","descripcionLeng":null,"fechaRecepcion":"2026-04-14","nivel1":"ESTADO","nivel2":"MINISTERIO DEL INTERIOR","nivel3":"DIRECCIÓN GENERAL DE TRÁFICO","codigoInvente":"INV00003786"},{"id":1100445,"mrr":false,"numeroConvocatoria":"898884","descripcion":"Resolución de la Secretaría de Estado de Cultura, de 9 de abril de 2026, por la que se convocan subvenciones en régimen de concurrencia competitiva para la edición de revistas culturales, correspondientes al año 2026","descripcionLeng":null,"fechaRecepcion":"2026-04-14","nivel1":"ESTADO","nivel2":"MINISTERIO DE CULTURA","nivel3":"DIRECCIÓN GENERAL DEL LIBRO, DEL CÓMIC Y DE LA LECTURA","codigoInvente":null},{"id":1100440,"mrr":false,"numeroConvocatoria":"898879","descripcion":"Resolución XXXX , por la que aprueba la convocatoria de ayudas acogidas al régimen \"de mínimis\" y destinadas a las explotaciones apícolas","descripcionLeng":null,"fechaRecepcion":"2026-04-14","nivel1":"AUTONOMICA","nivel2":"PRINCIPADO DE ASTURIAS","nivel3":"CONSEJERÍA DE MEDIO RURAL Y POLÍTICA AGRARIA","codigoInvente":null},{"id":1100439,"mrr":false,"numeroConvocatoria":"898878","descripcion":"Resolución de XXde MARZO de 2026 por la que se aprueba la convocatoria de ayudas a la apicultura en el marco de la Intervención Sectorial Apícola","descripcionLeng":null,"fechaRecepcion":"2026-04-14","nivel1":"AUTONOMICA","nivel2":"PRINCIPADO DE ASTURIAS","nivel3":"CONSEJERÍA DE MEDIO RURAL Y POLÍTICA AGRARIA","codigoInvente":null},{"id":1100436,"mrr":false,"numeroConvocatoria":"898875","descripcion":"RESOLUCIÓN DE 13/4/2026 LA AGENCIA DE CIENCIA, COMPETITIVIDAD EMPRESARIAL E INNOVACIÓN \nASTURIANA QUE APRUEBA LA CONVOCATORIA DE CONCESIÓN DE \nSUBVENCIONES PARA LA EJECUCIÓN DE PLANES DE ACTUACION PARA CENTROS DE \nI+D+i EMPRESARIALES EJERCICIO 2026","descripcionLeng":null,"fechaRecepcion":"2026-04-14","nivel1":"AUTONOMICA","nivel2":"PRINCIPADO DE ASTURIAS","nivel3":"AGENCIA DE CIENCIA, COMPETITIVIDAD EMPRESARIAL E INNOVACIÓN","codigoInvente":"INV00003680"},{"id":1100434,"mrr":false,"numeroConvocatoria":"898873","descripcion":"Convocatoria de Ayudas a los Estudios de Música y Danza, curso 2025-2026","descripcionLeng":"Convocatòria d'Ajudes als Estudis de Música i Dansa, curs 2025-2026","fechaRecepcion":"2026-04-14","nivel1":"LOCAL","nivel2":"QUART DE POBLET","nivel3":"AYUNTAMIENTO DE QUART DE POBLET","codigoInvente":null},{"id":1100433,"mrr":false,"numeroConvocatoria":"898872","descripcion":"Convocatoria de becas Erasmus para PDI con el fin de realizar estancias de corta duración para el BIP en “STEP II: ONE FOR ALL, ALL FOR ONE: COOPERATIVE LEARNING IN THE INCLUSIVE CLASSROOM”, en la Universidad de Bremen, curso 2025/2026.","descripcionLeng":null,"fechaRecepcion":"2026-04-14","nivel1":"OTROS","nivel2":"UNIVERSIDAD DE SALAMANCA","nivel3":null,"codigoInvente":"INV00005348"},{"id":1100431,"mrr":false,"numeroConvocatoria":"898870","descripcion":"Resolución de convocatoria para la concesión de subvenciones, en concurrencia competitiva, para la realización de actuaciones que reduzcan el impacto ambiental y fomenten y mejoren la accesibilidad de las empresas o entidades del sector cultural","descripcionLeng":"Resolució de convocatòria per a la concessió de subvencions, en concurrència competitiva, per a la realització d'actuacions que redueixin l'impacte ambiental i fomentin i millorin l'accessibilitat de les empreses o entitats del sector cultural","fechaRecepcion":"2026-04-14","nivel1":"AUTONOMICA","nivel2":"CATALUÑA","nivel3":"INSTITUT CATALÀ DE LES EMPRESES CULTURALS (ICEC)","codigoInvente":"INV00003590"},{"id":1100430,"mrr":false,"numeroConvocatoria":"898869","descripcion":"Resolución de convocatoria para la concesión de subvenciones, en régimen de concurrencia competitiva, para programas de fomento de hábitos y consumo culturales en el audiovisual para niños y jóvenes","descripcionLeng":"Resolució de convocatòria per a la concessió de subvencions, en règim de concurrència competitiva, per a programes de foment d'hàbits i consum culturals en l'audiovisual per a infants i joves","fechaRecepcion":"2026-04-14","nivel1":"AUTONOMICA","nivel2":"CATALUÑA","nivel3":"INSTITUT CATALÀ DE LES EMPRESES CULTURALS (ICEC)","codigoInvente":"INV00003590"},{"id":1100428,"mrr":false,"numeroConvocatoria":"898867","descripcion":"BASES Y CONVOCATORIA SUBVENCIONES EQUIPAMIENTO 2026","descripcionLeng":null,"fechaRecepcion":"2026-04-14","nivel1":"LOCAL","nivel2":"DIPUTACIÓN PROV. DE LEÓN","nivel3":"DIPUTACIÓN PROVINCIAL DE LEÓN","codigoInvente":null},{"id":1100425,"mrr":false,"numeroConvocatoria":"898864","descripcion":"Convocatoria de Becas Erasmus para estudiantes para realizar estancias de corta duración del BIP “STEP II: ONE FOR ALL, ALL FOR ONE: COOPERATIVE LEARNING IN THE INCLUSIVE CLASSROOM”, en la “Universidad de Bremen” (Alemania), 2025/2026.","descripcionLeng":null,"fechaRecepcion":"2026-04-14","nivel1":"OTROS","nivel2":"UNIVERSIDAD DE SALAMANCA","nivel3":null,"codigoInvente":"INV00005348"},{"id":1100423,"mrr":false,"numeroConvocatoria":"898862","descripcion":"JUNTA GOBIERNO DE 14/04/2026 QUE APRUEBA LA CONVOCATORIA DE SUBVENCIONES PARA RECUPERACIÓN DE BOTARGAS A AYUNTAMIENTOS Y ASOCIACIONES","descripcionLeng":null,"fechaRecepcion":"2026-04-14","nivel1":"LOCAL","nivel2":"DIPUTACIÓN PROV. DE GUADALAJARA","nivel3":"DIPUTACIÓN PROVINCIAL DE GUADALAJARA","codigoInvente":null},{"id":1100420,"mrr":false,"numeroConvocatoria":"898859","descripcion":"Acuerdo de la Junta de Gobierno Local del Ayuntamiento de Carlet de 2 de abril de 2026, de aprobación de las bases reguladoras del XXVI Concurso Nacional de Piano “Ciudad de Carlet” 2026.","descripcionLeng":"Acord de la Junta de Govern Local de l’Ajuntament de Carlet de 2 d’abril de 2026, d’aprovació de les bases reguladores del XXVI Concurs Nacional de Piano “Ciutat de Carlet” 2026.","fechaRecepcion":"2026-04-14","nivel1":"LOCAL","nivel2":"CARLET","nivel3":"AYUNTAMIENTO DE CARLET","codigoInvente":null}],"pageable":{"sort":{"sorted":true,"unsorted":false,"empty":false},"pageNumber":47,"pageSize":50,"offset":2350,"unpaged":false,"paged":true},"last":false,"totalPages":200,"totalElements":10000,"first":false,"sort":{"sorted":true,"unsorted":false,"empty":false},"numberOfElements":50,"size":50,"number":47,"empty":false,"advertencia":"La reutilización de los datos del Sistema Nacional de Publicidad de Subvenciones y Ayudas Públicas está sujeta a una serie de restricciones y consideraciones legales. Consulte el aviso legal en https://www.infosubvenciones.es/bdnstrans/GE/es/avisolegal.Además, el usuario debe ser consciente que la información presentada es de naturaleza dinámica, y que los datos pueden ser sometidos a correcciones, inserciones, modificaciones y eliminaciones en momentos posteriores a su extracción. Accesos al API del sistema Nacional de Publicidad de Subvenciones y Ayudas Públicas. La Administración Presupuestaria, para salvaguardar la protección del acceso libre e irrestricto de los ciudadanos a este Portal y a su información podrá adoptar medidas restrictivas de acceso al API ante situaciones de manifiesto abuso del servicio, riesgos de seguridad, o uso fraudulento de la información descargada, de acuerdo con las buenas prácticas de gestión de datos abiertos (https://datos.gob.es/es/blog/limitaciones-la-consulta-de-una-api) establecidas por el Ministerio para la Transformación Digital y de la Función Pública."}