{"content":[{"id":1109047,"mrr":false,"numeroConvocatoria":"907486","descripcion":"Premios Entroido 2026","descripcionLeng":"Premios Entroido 2026","fechaRecepcion":"2026-05-22","nivel1":"LOCAL","nivel2":"SANTIAGO DE COMPOSTELA","nivel3":"AYUNTAMIENTO DE SANTIAGO DE COMPOSTELA","codigoInvente":null},{"id":1109046,"mrr":false,"numeroConvocatoria":"907485","descripcion":"DGBCE/26 PREMIOS EXTRAORD. FORMACION PROFESIONAL GRADO MEDIO 2025-2026","descripcionLeng":null,"fechaRecepcion":"2026-05-22","nivel1":"AUTONOMICA","nivel2":"COMUNIDAD DE MADRID","nivel3":"CONSEJERÍA DE EDUCACIÓN, CIENCIA Y UNIVERSIDADES","codigoInvente":null},{"id":1109045,"mrr":false,"numeroConvocatoria":"907484","descripcion":"DGBCE/26 PREMIOS EXTRAORDINARIOS FORMACIÓN PROF. GRADO BÁSICO  25-26","descripcionLeng":null,"fechaRecepcion":"2026-05-22","nivel1":"AUTONOMICA","nivel2":"COMUNIDAD DE MADRID","nivel3":"CONSEJERÍA DE EDUCACIÓN, CIENCIA Y UNIVERSIDADES","codigoInvente":null},{"id":1109042,"mrr":false,"numeroConvocatoria":"907481","descripcion":"Programa de incubación de videojuegos de El Modern","descripcionLeng":"Programa de incubació de videojocs El Modern","fechaRecepcion":"2026-05-22","nivel1":"LOCAL","nivel2":"GIRONA","nivel3":"AYUNTAMIENTO DE GIRONA","codigoInvente":null},{"id":1109038,"mrr":false,"numeroConvocatoria":"907477","descripcion":"CONVOCATÒRIA PER A LA CONCESSIÓ DE SUBVENCIONS EN RÈGIM DE CONCURRÈNCIA NO COMPETITIVA EN EL MARC DE LES BASES REGULADORES PER AL PAGAMENT DEL LLOGUER EN IMMOBLES DE CARDONA A JOVES D¿ENTRE 18 I 35 ANYS","descripcionLeng":"CONVOCATÒRIA PER A LA CONCESSIÓ DE SUBVENCIONS EN RÈGIM DE CONCURRÈNCIA NO COMPETITIVA EN EL MARC DE LES BASES REGULADORES PER AL PAGAMENT DEL LLOGUER EN IMMOBLES DE CARDONA A JOVES D¿ENTRE 18 I 35 ANYS","fechaRecepcion":"2026-05-22","nivel1":"LOCAL","nivel2":"CARDONA","nivel3":"AYUNTAMIENTO DE CARDONA","codigoInvente":null},{"id":1109037,"mrr":false,"numeroConvocatoria":"907476","descripcion":"CONVOCATÒRIA PER A LA CONCESSIÓ DE SUBVENCIONS EN RÈGIM DE CONCURRÈNCIA NO COMPETITIVA EN EL MARC DE LES BASES REGULADORES PER AL PAGAMENT DEL LLOGUER EN IMMOBLES DE CARDONA A PERSONES MAJORS DE 65 ANYS.","descripcionLeng":"CONVOCATÒRIA PER A LA CONCESSIÓ DE SUBVENCIONS EN RÈGIM DE CONCURRÈNCIA NO COMPETITIVA EN EL MARC DE LES BASES REGULADORES PER AL PAGAMENT DEL LLOGUER EN IMMOBLES DE CARDONA A PERSONES MAJORS DE 65 ANYS.","fechaRecepcion":"2026-05-22","nivel1":"LOCAL","nivel2":"CARDONA","nivel3":"AYUNTAMIENTO DE CARDONA","codigoInvente":null},{"id":1109034,"mrr":false,"numeroConvocatoria":"907473","descripcion":"Bases de la convocatoria de la que regirá el otorgamiento de premios para deportistas individuales del Ayuntamiento de As Somozas disciplina automovilismo , en la anualidad 2026","descripcionLeng":"Bases da convocatoria da que rexerá a concesión de premios para deportistas individuais do Concello de As Somozas disciplina automobilismo, na anualidade 2026","fechaRecepcion":"2026-05-22","nivel1":"LOCAL","nivel2":"SOMOZAS, AS","nivel3":"AYUNTAMIENTO DE SOMOZAS, AS","codigoInvente":null},{"id":1109032,"mrr":false,"numeroConvocatoria":"907471","descripcion":"Convocatoria de subvenciones al alquiler de vivienda para jóvenes en Getxo durante los años 2025 y 2026","descripcionLeng":"2025. eta 2026. urteetan Getxon etxebizitzaren alokairu-gastuetarako gazteei dirulaguntzak emateko deialdia","fechaRecepcion":"2026-05-22","nivel1":"LOCAL","nivel2":"GETXO","nivel3":"AYUNTAMIENTO DE GETXO","codigoInvente":null},{"id":1109028,"mrr":false,"numeroConvocatoria":"907467","descripcion":"CONVOCATORIA PARA LA CONCESION DE SUBVENCIONES PARA LA PARTICIPACION EN ACTIVIDADES SOCIOEDUCATIVAS, ACTIVIDADES EXTRAESCOLARES Y DE TIEMPO LIBRE DEL AYUNTAMIENTO DE CARDONA. AÑO 2026","descripcionLeng":"CONVOCATÒRIA PER A LA CONCESSIÓ DE SUBVENCIONS PER A LA PARTICIPACIÓ EN ACTIVITATS SOCIOEDUCATIVES, ACTIVITATS EXTRAESCOLARS I DE LLEURE DE L¿AJUNTAMENT DE CARDONA.  ANY 2026","fechaRecepcion":"2026-05-22","nivel1":"LOCAL","nivel2":"CARDONA","nivel3":"AYUNTAMIENTO DE CARDONA","codigoInvente":null},{"id":1109027,"mrr":false,"numeroConvocatoria":"907466","descripcion":"CONVOCATORIA PARA 2026 DE AYUDAS INDIVIDUALES DE APOYO SOC.SALUD MENTAL","descripcionLeng":null,"fechaRecepcion":"2026-05-22","nivel1":"AUTONOMICA","nivel2":"COMUNIDAD DE MADRID","nivel3":"CONSEJERÍA DE FAMILIA, JUVENTUD Y ASUNTOS SOCIALES","codigoInvente":null},{"id":1109023,"mrr":false,"numeroConvocatoria":"907462","descripcion":"CONCURSO CARTEL DE FERIA Y FIESTAS PATRONALES 2026","descripcionLeng":null,"fechaRecepcion":"2026-05-22","nivel1":"LOCAL","nivel2":"OLIVARES","nivel3":"AYUNTAMIENTO DE OLIVARES","codigoInvente":null},{"id":1109020,"mrr":false,"numeroConvocatoria":"907459","descripcion":"Subvenciones en régimen de evaluación individualizada a clubes deportivos para participar en competiciones no profesionales de ámbito internacional, nacional o interautonómico 2025-2026","descripcionLeng":null,"fechaRecepcion":"2026-05-22","nivel1":"AUTONOMICA","nivel2":"COMUNIDAD FORAL DE NAVARRA","nivel3":"INSTITUTO NAVARRO DE DEPORTE","codigoInvente":"INV00003736"},{"id":1109019,"mrr":false,"numeroConvocatoria":"907458","descripcion":"Resolución de Alcaldía nº 2026/00002138 de 18/05/2026 por la que se aprueba la convocatoria para la concesión de subvenciones por\nprocedimiento de concurrencia no competitiva en materia de Digitalización Empresarial.","descripcionLeng":null,"fechaRecepcion":"2026-05-22","nivel1":"LOCAL","nivel2":"POZOBLANCO","nivel3":"AYUNTAMIENTO DE POZOBLANCO","codigoInvente":null},{"id":1109015,"mrr":false,"numeroConvocatoria":"907454","descripcion":"Resolución SOD/GP/24/26, de 19 de mayo de 2026, por la que se convoca para el año 2026 la línea de subvenciones a grandes proyectos de mejora de la competitividad industrial en empresas de Cantabria promovidas por SODERCAN, S.A.","descripcionLeng":null,"fechaRecepcion":"2026-05-22","nivel1":"AUTONOMICA","nivel2":"CANTABRIA","nivel3":"SOCIEDAD PARA EL DESARROLLO REGIONAL DE CANTABRIA, S.A.","codigoInvente":"INV00005144"},{"id":1109013,"mrr":false,"numeroConvocatoria":"907452","descripcion":"Convocatoria para la concesión de subvenciones a la creación de empresas de 2026.","descripcionLeng":"Convocatòria per a la concessió de subvencions a la creació d'empreses de l'any 2026.","fechaRecepcion":"2026-05-22","nivel1":"LOCAL","nivel2":"GRANOLLERS","nivel3":"AYUNTAMIENTO DE GRANOLLERS","codigoInvente":null},{"id":1109012,"mrr":false,"numeroConvocatoria":"907451","descripcion":"CONVOCATORIA SUBVENCIONES EN RÉGIMEN DE CONCURRÉNCIA COMPETITIVA PARA ACTIVIDADES EDUCATIVAS, CULTURALES, SOCIALES Y DEPORTIVAS AÑO 2026","descripcionLeng":null,"fechaRecepcion":"2026-05-22","nivel1":"LOCAL","nivel2":"FOLGUEROLES","nivel3":"AYUNTAMIENTO DE FOLGUEROLES","codigoInvente":null},{"id":1109004,"mrr":false,"numeroConvocatoria":"907443","descripcion":"BASES REGULADORAS Y CONVOCATORIA DE La TRAMITACIÓN Y CONCESIÓN, POR El AYUNTAMIENTO DE SAN CIBRAO DAS VIÑAS, MEDIANTE CONVOCATORIA PÚBLICA A TRAVES DE l PROCEDIMIENTO DE CONCURRENCIA COMPETITIVA, DE AYUDAS A PERSONAS DEPORTISTAS CALIFICADAS EN MODALIDADES","descripcionLeng":"BASES REGULADORAS E CONVOCATORIA DA TRAMITACIÓN E CONCESIÓN, POLO CONCELLO DE SAN CIBRAO DAS VIÑAS, MEDIANTE CONVOCATORIA PÚBLICA A TRAVÉS DO PROCEDEMENTO DE CONCORRENCIA COMPETITIVA, DE AXUDAS A PERSOAS DEPORTISTAS CUALIFICADAS EN MODALIDADES DEPORTIVAS ","fechaRecepcion":"2026-05-22","nivel1":"LOCAL","nivel2":"SAN CIBRAO DAS VIÑAS","nivel3":"AYUNTAMIENTO DE SAN CIBRAO DAS VIÑAS","codigoInvente":null},{"id":1109003,"mrr":false,"numeroConvocatoria":"907442","descripcion":"ORDEN de 11 de mayo de 2026 por la que se establecen las bases reguladoras generales y se convocan para el año 2026, en régimen de concurrencia no competitiva, ayudas para fomentar el relevo generacional en el sector pesquero, financiadas por el FEMPA","descripcionLeng":"ORDE do 11 de maio de 2026 pola que se establecen as bases reguladoras xerais e se convocan para o ano 2026, en réxime de concorrencia non competitiva, axudas para fomentar a remuda xeracional no sector pesqueiro, financiadas polo FEMPA - PE610C","fechaRecepcion":"2026-05-22","nivel1":"AUTONOMICA","nivel2":"GALICIA","nivel3":"CONSELLERÍA DEL MAR","codigoInvente":null},{"id":1108995,"mrr":false,"numeroConvocatoria":"907434","descripcion":"CONVOCATORIA PARA EL OTORGAMIENTO DE SUBVENCIONES EN MATERIA DE JUVENTUD PARA EL AÑO 2026","descripcionLeng":"CONVOCATÒRIA PER A L'ATORGAMENT DE SUBVENCIONS EN MATÈRIA DE JOVENTUT PER A L'ANY 2026","fechaRecepcion":"2026-05-22","nivel1":"LOCAL","nivel2":"CAMBRILS","nivel3":"AYUNTAMIENTO DE CAMBRILS","codigoInvente":null},{"id":1108994,"mrr":false,"numeroConvocatoria":"907433","descripcion":"Convocatoria de concesión de subvenciones para el programa de Residencias gastos corrientes 2026","descripcionLeng":null,"fechaRecepcion":"2026-05-22","nivel1":"LOCAL","nivel2":"DIPUTACIÓN PROV. DE TERUEL","nivel3":"DIPUTACIÓN PROVINCIAL DE TERUEL","codigoInvente":null},{"id":1108992,"mrr":false,"numeroConvocatoria":"907431","descripcion":"XII CERTAMEN CORTOMETRAJES VILLA DE COSLADA","descripcionLeng":null,"fechaRecepcion":"2026-05-22","nivel1":"LOCAL","nivel2":"COSLADA","nivel3":"AYUNTAMIENTO DE COSLADA","codigoInvente":null},{"id":1108991,"mrr":false,"numeroConvocatoria":"907430","descripcion":"VII Premios al uso del valenciano en el comercio local de Montserrat durante el año 2026","descripcionLeng":"VII Premis a l'ús del valencià en el comerç local de Montserrat durant l’any 2026","fechaRecepcion":"2026-05-22","nivel1":"LOCAL","nivel2":"MONTSERRAT","nivel3":"AYUNTAMIENTO DE MONTSERRAT","codigoInvente":null},{"id":1108990,"mrr":false,"numeroConvocatoria":"907429","descripcion":"Convocatoria 2026 del Mecanismo de compensación a los Consumidores Electrointensivos de cargos por financiación de la retribución específica a renovables y cogeneración de alta eficiencia y por la financiación adicional en los territorios no peninsulares.","descripcionLeng":null,"fechaRecepcion":"2026-05-22","nivel1":"ESTADO","nivel2":"MINISTERIO DE INDUSTRIA Y TURISMO","nivel3":"DIRECCIÓN GENERAL DE PROGRAMAS INDUSTRIALES","codigoInvente":null},{"id":1108989,"mrr":false,"numeroConvocatoria":"907428","descripcion":"CONVOCATORIA DE SUBVENCIONES PARA LA PARTICIPACIÓN EN ACTIVIDADES EXTRAESCOLARES PARA EL CURSO 2026-2027","descripcionLeng":"CONVOCATÒRIA DE SUBVENCIONS PER A LA PARTICIPACIÓ EN ACTIVITATS EXTRAESCOLARS PER AL CURS 2026-2027","fechaRecepcion":"2026-05-22","nivel1":"LOCAL","nivel2":"MOLLET DEL VALLÈS","nivel3":"AYUNTAMIENTO DE MOLLET DEL VALLÈS","codigoInvente":null},{"id":1108988,"mrr":false,"numeroConvocatoria":"907427","descripcion":"CONVOCATORIA DE AYUDAS PARA LA PARTICIPACIÓN EN ACTIVIDADES DE VERANO 2026","descripcionLeng":"CONVOCATÒRIA D`AJUTS PER A LA PARTICIPACIÓ EN ACTIVITATS D`ESTIU 2026","fechaRecepcion":"2026-05-22","nivel1":"LOCAL","nivel2":"MOLLET DEL VALLÈS","nivel3":"AYUNTAMIENTO DE MOLLET DEL VALLÈS","codigoInvente":null},{"id":1108985,"mrr":false,"numeroConvocatoria":"907424","descripcion":"CONVOCATORIA DE AYUDAS GARANTÍA HABITACIONAL 2026","descripcionLeng":null,"fechaRecepcion":"2026-05-22","nivel1":"LOCAL","nivel2":"AVILÉS","nivel3":"AYUNTAMIENTO DE AVILÉS","codigoInvente":null},{"id":1108981,"mrr":false,"numeroConvocatoria":"907420","descripcion":"Decreto de Alcaldía, de fecha 21 de mayo de 2026, por el que se aprueba la Convocatoria 2026 de subvenciones para la euskaldunización del paisaje lingüístico y el entorno digital en el sector del comercio, hostelería y servicios de Portugalete","descripcionLeng":"Alkatetzaren Dekretua, 2026ko maiatzaren 21ekoa, Portugaleteko merkataritza, ostalaritza eta zerbitzuen alorrean hizkuntza paisaia eta ingurumena euskalduntzeko dirulaguntzen 2026ko deialdia onesten duena\n","fechaRecepcion":"2026-05-22","nivel1":"LOCAL","nivel2":"PORTUGALETE","nivel3":"AYUNTAMIENTO DE PORTUGALETE","codigoInvente":null},{"id":1108974,"mrr":false,"numeroConvocatoria":"907413","descripcion":"DISTRUBUCIÓN PLANTAS AYTOS. Y JUNTAS VECINALES 2026","descripcionLeng":null,"fechaRecepcion":"2026-05-22","nivel1":"LOCAL","nivel2":"DIPUTACIÓN PROV. DE LEÓN","nivel3":"DIPUTACIÓN PROVINCIAL DE LEÓN","codigoInvente":null},{"id":1108973,"mrr":false,"numeroConvocatoria":"907412","descripcion":"Convocatoria del Concurso cartel portada programa de fiestas de Andorra (Teruel) 2026","descripcionLeng":null,"fechaRecepcion":"2026-05-22","nivel1":"LOCAL","nivel2":"ANDORRA","nivel3":"AYUNTAMIENTO DE ANDORRA","codigoInvente":null},{"id":1108971,"mrr":false,"numeroConvocatoria":"907410","descripcion":"SUBVENCIÓN AYTOS. LUCHA AVISPÓN ASIÁTICO 2026","descripcionLeng":null,"fechaRecepcion":"2026-05-22","nivel1":"LOCAL","nivel2":"DIPUTACIÓN PROV. DE LEÓN","nivel3":"DIPUTACIÓN PROVINCIAL DE LEÓN","codigoInvente":null},{"id":1108966,"mrr":false,"numeroConvocatoria":"907405","descripcion":"Resolución de la Teniente Alcalde Delegada de Cultura del Ayuntamiento de Cullera de fecha 8 de mayo de 2026 por la que se convoca el VII Premio Literario \"Novel.la i Falles\"","descripcionLeng":"Resolució de la Tinent Alcalde Delegada de Cultura de l'Ajuntament de Cullera de data 8 de mayo de 2026 por la qual es convoca el VII Premi Literari \"Novel.la i Falles\"","fechaRecepcion":"2026-05-22","nivel1":"LOCAL","nivel2":"CULLERA","nivel3":"AYUNTAMIENTO DE CULLERA","codigoInvente":null},{"id":1108965,"mrr":false,"numeroConvocatoria":"907404","descripcion":"CONCURSO “ELECCIÓN DE REPRESENTANTES DE LAS FIESTAS EN  HONOR A LA VIRGEN DE LA AURORA 2026”","descripcionLeng":null,"fechaRecepcion":"2026-05-22","nivel1":"LOCAL","nivel2":"MONTURQUE","nivel3":"AYUNTAMIENTO DE MONTURQUE","codigoInvente":null},{"id":1108961,"mrr":false,"numeroConvocatoria":"907400","descripcion":"Convocatoria del Concurso de embellecimiento de escaparates y calles fiestas de Andorra (Teruel) 2026","descripcionLeng":null,"fechaRecepcion":"2026-05-22","nivel1":"LOCAL","nivel2":"ANDORRA","nivel3":"AYUNTAMIENTO DE ANDORRA","codigoInvente":null},{"id":1108959,"mrr":false,"numeroConvocatoria":"907398","descripcion":"Expediente 2767780P: CONVOCATORIA ACTIVIDADES EXTRAESCOLARES - VIAJE FIN DE ETAPA 2026","descripcionLeng":null,"fechaRecepcion":"2026-05-22","nivel1":"LOCAL","nivel2":"PICASSENT","nivel3":"AYUNTAMIENTO DE PICASSENT","codigoInvente":null},{"id":1108956,"mrr":false,"numeroConvocatoria":"907395","descripcion":"Resolución 2026, de convocatoria para la concesión de subvenciones, en régimen de concurrencia competitiva, para actividades de las empresas discográficas","descripcionLeng":"Resolució 2026, de convocatòria per a la concessió de subvencions, en règim de concurrència competitiva, per a activitats de les empreses discogràfiques","fechaRecepcion":"2026-05-22","nivel1":"AUTONOMICA","nivel2":"CATALUÑA","nivel3":"INSTITUT CATALÀ DE LES EMPRESES CULTURALS (ICEC)","codigoInvente":"INV00003590"},{"id":1108943,"mrr":false,"numeroConvocatoria":"907382","descripcion":"SUBVENCIONES CUENCA INCLUSIVA 2026","descripcionLeng":null,"fechaRecepcion":"2026-05-22","nivel1":"LOCAL","nivel2":"DIPUTACIÓN PROV. DE CUENCA","nivel3":"DIPUTACIÓN PROVINCIAL DE CUENCA","codigoInvente":null},{"id":1108940,"mrr":false,"numeroConvocatoria":"907379","descripcion":"SUBVENCIONES PARA ASOCIACIONES DE MAYORES 2026","descripcionLeng":null,"fechaRecepcion":"2026-05-22","nivel1":"LOCAL","nivel2":"DIPUTACIÓN PROV. DE CUENCA","nivel3":"DIPUTACIÓN PROVINCIAL DE CUENCA","codigoInvente":null},{"id":1108939,"mrr":false,"numeroConvocatoria":"907378","descripcion":"Convocatoria de ayudas económicas para estancias solidarias con finalidad social en el ámbito de la cooperación internacional para el segundo semestre de 2026","descripcionLeng":null,"fechaRecepcion":"2026-05-22","nivel1":"LOCAL","nivel2":"MONTORNÈS DEL VALLÈS","nivel3":"AYUNTAMIENTO DE MONTORNÈS DEL VALLÈS","codigoInvente":null},{"id":1108937,"mrr":false,"numeroConvocatoria":"907376","descripcion":"Orden de 21 de mayo de 2026 de la Consejería de Industria, Comercio y Empleo por la que se convocan subvenciones destinadas al fomento de la transición al empleo ordinario para personas con discapacidad y personas en situación o riesgo de exclusión social","descripcionLeng":null,"fechaRecepcion":"2026-05-22","nivel1":"AUTONOMICA","nivel2":"CASTILLA Y LEÓN","nivel3":"CONSEJERÍA DE INDUSTRIA, COMERCIO Y EMPLEO","codigoInvente":null},{"id":1108931,"mrr":false,"numeroConvocatoria":"907370","descripcion":"CONVOCATORIA DE SUBVENCIONES A PROYECTOS DE COOPERACIÓN INTERNACIONAL Y DE EDUCACIÓN PARA LA CIUDADANÍA GLOBAL PARA EL AÑO 2026","descripcionLeng":null,"fechaRecepcion":"2026-05-22","nivel1":"LOCAL","nivel2":"DIPUTACIÓN PROV. DE GRANADA","nivel3":"DIPUTACIÓN PROVINCIAL DE GRANADA","codigoInvente":null},{"id":1108929,"mrr":false,"numeroConvocatoria":"907368","descripcion":"CONVOCATORIA Y BASES REGULADORAS DE LAS CONDICIONES Y REQUISITOS PARA LA CONCESIÓN DE AYUDAS Y SUBVENCIONES SOCIOEDUCATIVAS CUC - CURSO ACADÉMICO 2026-2027","descripcionLeng":"CONVOCATÒRIA I BASES REGULADORES DE LES CONDICIONS I REQUISITS PER A LA CONCESSIÓ D'AJUDES I SUBVENCIONS SOCIOEDUCATIVES CUC - CURS ACADÈMIC 2026-2027","fechaRecepcion":"2026-05-22","nivel1":"LOCAL","nivel2":"CALVIÀ","nivel3":"AYUNTAMIENTO DE CALVIÀ","codigoInvente":null},{"id":1108928,"mrr":false,"numeroConvocatoria":"907367","descripcion":"Convocatoria de subvenciones destinadas a entidades privadas titulares de servicios residenciales para personas mayores para financiar inversiones dirigidas a la reforma y rehabilitación de espacios residenciales","descripcionLeng":"Convocatòria de subvencions destinades a entitats privades titulars de serveis residencials per a persones grans per finançar inversions dirigides a la reforma i rehabilitació d'espais residencials","fechaRecepcion":"2026-05-22","nivel1":"AUTONOMICA","nivel2":"ILLES BALEARS","nivel3":"DIRECCIÓN GENERAL DE DEPENDENCIA Y COOPERACIÓN","codigoInvente":null},{"id":1108925,"mrr":false,"numeroConvocatoria":"907364","descripcion":"Beques menjador curs 2021-2022 PIA anualitat 2022","descripcionLeng":null,"fechaRecepcion":"2026-05-21","nivel1":"LOCAL","nivel2":"CONSELL COMARCAL  DEL MOIANÈS","nivel3":"CONSELL COMARCAL  DEL MOIANÈS","codigoInvente":null},{"id":1108923,"mrr":false,"numeroConvocatoria":"907362","descripcion":"Convocatoria Pyme Innova 2026 - Cámara Tortosa","descripcionLeng":null,"fechaRecepcion":"2026-05-21","nivel1":"OTROS","nivel2":"CÁMARA DE COMERCIO DE TORTOSA","nivel3":null,"codigoInvente":null},{"id":1108918,"mrr":false,"numeroConvocatoria":"907357","descripcion":"BequesMenj IEC23 C","descripcionLeng":null,"fechaRecepcion":"2026-05-21","nivel1":"LOCAL","nivel2":"CONSELL COMARCAL  DEL MOIANÈS","nivel3":"CONSELL COMARCAL  DEL MOIANÈS","codigoInvente":null},{"id":1108917,"mrr":false,"numeroConvocatoria":"907356","descripcion":"BequesMenj IEC23 OK","descripcionLeng":null,"fechaRecepcion":"2026-05-21","nivel1":"LOCAL","nivel2":"CONSELL COMARCAL  DEL MOIANÈS","nivel3":"CONSELL COMARCAL  DEL MOIANÈS","codigoInvente":null},{"id":1108916,"mrr":false,"numeroConvocatoria":"907355","descripcion":"ConvAjMenj JOR22 Curs 22-23","descripcionLeng":null,"fechaRecepcion":"2026-05-21","nivel1":"LOCAL","nivel2":"CONSELL COMARCAL  DEL MOIANÈS","nivel3":"CONSELL COMARCAL  DEL MOIANÈS","codigoInvente":null},{"id":1108915,"mrr":false,"numeroConvocatoria":"907354","descripcion":"ConvAjMenj Oló22 Curs 22-23","descripcionLeng":null,"fechaRecepcion":"2026-05-21","nivel1":"LOCAL","nivel2":"CONSELL COMARCAL  DEL MOIANÈS","nivel3":"CONSELL COMARCAL  DEL MOIANÈS","codigoInvente":null},{"id":1108914,"mrr":false,"numeroConvocatoria":"907353","descripcion":"ConvAjMenj EsqueixMonistrol22 Curs 22-23","descripcionLeng":null,"fechaRecepcion":"2026-05-21","nivel1":"LOCAL","nivel2":"CONSELL COMARCAL  DEL MOIANÈS","nivel3":"CONSELL COMARCAL  DEL MOIANÈS","codigoInvente":null},{"id":1108913,"mrr":false,"numeroConvocatoria":"907352","descripcion":"ConvAjMenj CcirLaPopa22 Curs 22-23","descripcionLeng":null,"fechaRecepcion":"2026-05-21","nivel1":"LOCAL","nivel2":"CONSELL COMARCAL  DEL MOIANÈS","nivel3":"CONSELL COMARCAL  DEL MOIANÈS","codigoInvente":null}],"pageable":{"sort":{"sorted":true,"unsorted":false,"empty":false},"pageNumber":34,"pageSize":50,"offset":1700,"unpaged":false,"paged":true},"last":false,"totalElements":10000,"totalPages":200,"first":false,"sort":{"sorted":true,"unsorted":false,"empty":false},"numberOfElements":50,"size":50,"number":34,"empty":false,"advertencia":"La reutilización de los datos del Sistema Nacional de Publicidad de Subvenciones y Ayudas Públicas está sujeta a una serie de restricciones y consideraciones legales. Consulte el aviso legal en https://www.infosubvenciones.es/bdnstrans/GE/es/avisolegal.Además, el usuario debe ser consciente que la información presentada es de naturaleza dinámica, y que los datos pueden ser sometidos a correcciones, inserciones, modificaciones y eliminaciones en momentos posteriores a su extracción. Accesos al API del sistema Nacional de Publicidad de Subvenciones y Ayudas Públicas. La Administración Presupuestaria, para salvaguardar la protección del acceso libre e irrestricto de los ciudadanos a este Portal y a su información podrá adoptar medidas restrictivas de acceso al API ante situaciones de manifiesto abuso del servicio, riesgos de seguridad, o uso fraudulento de la información descargada, de acuerdo con las buenas prácticas de gestión de datos abiertos (https://datos.gob.es/es/blog/limitaciones-la-consulta-de-una-api) establecidas por el Ministerio para la Transformación Digital y de la Función Pública."}