{"content":[{"id":1102011,"mrr":false,"numeroConvocatoria":"900450","descripcion":"BASES DE LA CONVOCATORIA QUE REGULA LA CONCESIÓN DE SUBVENCIONES PARA ACTIVIDADES SOCIALES, CULTURALES, DEPORTIVAS Y JUVENILES PARA EL AÑO 2026 ,DESTINADAS A ENTIDADES DE CARÁCTER NO LUCRATIVO","descripcionLeng":null,"fechaRecepcion":"2026-04-21","nivel1":"LOCAL","nivel2":"CASTUERA","nivel3":"AYUNTAMIENTO DE CASTUERA","codigoInvente":null},{"id":1102010,"mrr":false,"numeroConvocatoria":"900449","descripcion":"SUBVENCIONES MEDIANTE CONCURRENCIA COMPETITIVA A AYUNTAMIENTOS Y  MANCOMUNIDADES DE ESTA PROVINCIA DESTINADAS A LA REALIZACIÓN DE INVERSIONES EN INFRAESTRUCTURAS Y EQUIPAMIENTO DE GESTIÓN DE RESIDUOS DE COMPETENCIA LOCAL EN LA PROVINCIA DE PALENCIA","descripcionLeng":null,"fechaRecepcion":"2026-04-21","nivel1":"LOCAL","nivel2":"DIPUTACIÓN PROV. DE PALENCIA","nivel3":"DIPUTACIÓN PROVINCIAL DE PALENCIA","codigoInvente":null},{"id":1102006,"mrr":false,"numeroConvocatoria":"900445","descripcion":"XLII Certamen de Pintura Ciudad de Benicarló","descripcionLeng":null,"fechaRecepcion":"2026-04-21","nivel1":"LOCAL","nivel2":"BENICARLÓ","nivel3":"AYUNTAMIENTO DE BENICARLÓ","codigoInvente":null},{"id":1102001,"mrr":false,"numeroConvocatoria":"900440","descripcion":"CONCESIÓN DE SUBVENCIONES A ENTIDADES ASOCIATIVAS, AGRUPACIONES Y ASOCIACIONES DE VECINOS PARA LA REALIZACIÓN DE OBRAS Y ESTABLECIMIENTO, AMPLIACIÓN Y AVANCE DE SERVICIOS DE INTERÉS VECINAL. EJERCICIO 2026.","descripcionLeng":"CONCESIÓN DE SUBVENCIÓNS A ENTIDADES ASOCIATIVAS, AGRUPACIÓNS E ASOCIACIÓNS DE VECIÑOS PARA A REALIZACIÓN DE OBRAS E ESTABLECEMENTO, AMPLIACIÓN E MELLORA DE SERVIZOS DE INTERESE VECIÑAL. EXERCICIO 2026.","fechaRecepcion":"2026-04-21","nivel1":"LOCAL","nivel2":"CASTROVERDE","nivel3":"AYUNTAMIENTO DE CASTROVERDE","codigoInvente":null},{"id":1101999,"mrr":false,"numeroConvocatoria":"900438","descripcion":"Convocatoria de Subvenciones a Asociaciones de Vecinos","descripcionLeng":null,"fechaRecepcion":"2026-04-21","nivel1":"LOCAL","nivel2":"VILLAVICIOSA","nivel3":"AYUNTAMIENTO DE VILLAVICIOSA","codigoInvente":null},{"id":1101998,"mrr":false,"numeroConvocatoria":"900437","descripcion":"SUBVENCIONES PARA EL ARREGLO, MANTENIMIENTO Y RECUPERACION DE CAMINOS DE TITULARIDAD CONCEJIL","descripcionLeng":null,"fechaRecepcion":"2026-04-21","nivel1":"LOCAL","nivel2":"BERRIOPLANO/BERRIOBEITI","nivel3":"AYUNTAMIENTO DE BERRIOPLANO","codigoInvente":null},{"id":1101995,"mrr":false,"numeroConvocatoria":"900434","descripcion":"SUBVENCIONES DESTINADAS A AGRUPACIONES DE DEFENSA SANITARIA GANADERAS DE LA REGIÓN DE MURCIA PARA EL EJERCICIO 2026","descripcionLeng":null,"fechaRecepcion":"2026-04-21","nivel1":"AUTONOMICA","nivel2":"REGIÓN DE MURCIA","nivel3":"CONSEJERÍA DE AGUA, AGRICULTURA, GANADERÍA Y PESCA","codigoInvente":null},{"id":1101989,"mrr":false,"numeroConvocatoria":"900428","descripcion":"SGBA - AYUDAS A AYTOS. ACTIVIDADES EXTRAESCOLARES 26/27","descripcionLeng":null,"fechaRecepcion":"2026-04-21","nivel1":"AUTONOMICA","nivel2":"COMUNIDAD DE MADRID","nivel3":"CONSEJERÍA DE EDUCACIÓN, CIENCIA Y UNIVERSIDADES","codigoInvente":null},{"id":1101984,"mrr":false,"numeroConvocatoria":"900423","descripcion":"SUBVENCIONES MEDIANTE CONCURRENCIA COMPETITIVA A AYUNTAMIENTOS DE ESTA PROVINCIA PARA LA ADQUISICIÓN MAQUINARIA MUNICIPAL INVENTARIABLE","descripcionLeng":null,"fechaRecepcion":"2026-04-21","nivel1":"LOCAL","nivel2":"DIPUTACIÓN PROV. DE PALENCIA","nivel3":"DIPUTACIÓN PROVINCIAL DE PALENCIA","codigoInvente":null},{"id":1101981,"mrr":false,"numeroConvocatoria":"900420","descripcion":"LÍNEA EMPRESAS MÍNIMIS CONV AYUDAS PARA LA REALIZACIÓN DE DOCT IND 2022","descripcionLeng":null,"fechaRecepcion":"2026-04-21","nivel1":"AUTONOMICA","nivel2":"COMUNIDAD DE MADRID","nivel3":"CONSEJERÍA DE EDUCACIÓN, CIENCIA Y UNIVERSIDADES","codigoInvente":null},{"id":1101977,"mrr":false,"numeroConvocatoria":"900416","descripcion":"“CONVOCATORIA PÚBLICA DE SUBVENCIONES DIRIGIDA A LAS COFRADÍAS Y HERMANDADES PERTENECIENTES A LA AGRUPACIÓN DE COFRADÍAS DE MÁLAGA Y QUE HAN PROCESIONADO EN LA SEMANA SANTA DE MÁLAGA AÑO 2026","descripcionLeng":null,"fechaRecepcion":"2026-04-21","nivel1":"LOCAL","nivel2":"MÁLAGA","nivel3":"AYUNTAMIENTO DE MÁLAGA","codigoInvente":null},{"id":1101971,"mrr":false,"numeroConvocatoria":"900410","descripcion":"Subvenciones a entidades y asociaciones deportivas sin finalidad de lucro para el año 2026","descripcionLeng":"Subvencions a entitats i associacions esportives sense finalitat de lucre per l’any 2026","fechaRecepcion":"2026-04-21","nivel1":"LOCAL","nivel2":"CALDES DE MALAVELLA","nivel3":"AYUNTAMIENTO DE CALDES DE MALAVELLA","codigoInvente":null},{"id":1101966,"mrr":false,"numeroConvocatoria":"900405","descripcion":"Convocatoria de ayudas económicas destinadas al fomento del empleo Ayudas a la contratación. Anualidad 2026. TALENTO 45+","descripcionLeng":"Convocatoria de ayudas económicas destinadas al fomento del empleo Ayudas a la contratación. Anualidad 2026. TALENTO 45+","fechaRecepcion":"2026-04-21","nivel1":"OTROS","nivel2":"CÁMARA DE COMERCIO DE LINARES","nivel3":null,"codigoInvente":null},{"id":1101962,"mrr":false,"numeroConvocatoria":"900401","descripcion":"Orden de 15/04/2026, de la Consejería de Fomento, por la que se establecen las bases reguladoras y se efectúa la convocatoria de las ayudas al alquiler de vivienda en Castilla-La Mancha. 2026","descripcionLeng":null,"fechaRecepcion":"2026-04-21","nivel1":"AUTONOMICA","nivel2":"CASTILLA-LA MANCHA","nivel3":"DIRECCIÓN GENERAL DE VIVIENDA","codigoInvente":null},{"id":1101961,"mrr":false,"numeroConvocatoria":"900400","descripcion":"CONVOCATORIA ESPECÍFICA DE SUBVENCIONES EN RÉGIMEN DE CONCURRENCIA COMPETITIVA DEL ÁREA DE JUVENTUD PARA EL ACCESO AL PROGRAMA  “MALAGA IDIOMA JOVEN” AÑO 2026","descripcionLeng":null,"fechaRecepcion":"2026-04-21","nivel1":"LOCAL","nivel2":"MÁLAGA","nivel3":"AYUNTAMIENTO DE MÁLAGA","codigoInvente":null},{"id":1101959,"mrr":false,"numeroConvocatoria":"900398","descripcion":"Decreto de 17 de abril de 2026 del Concejal Presidente del Distrito de Moratalaz, por el que se aprueba las bases reguladoras del XXIV Certamen de Teatro Clásico de Moratalaz 2026","descripcionLeng":null,"fechaRecepcion":"2026-04-21","nivel1":"LOCAL","nivel2":"MADRID","nivel3":"DISTRITO DE MORATALAZ","codigoInvente":null},{"id":1101958,"mrr":false,"numeroConvocatoria":"900397","descripcion":"Convocatoria de Subvenciones a Fiestas de Interés Turístico","descripcionLeng":null,"fechaRecepcion":"2026-04-21","nivel1":"LOCAL","nivel2":"VILLAVICIOSA","nivel3":"AYUNTAMIENTO DE VILLAVICIOSA","codigoInvente":null},{"id":1101956,"mrr":false,"numeroConvocatoria":"900395","descripcion":"SUBV. ADQUISICIÓNDE EQUIPOS DE CLORO Y PH","descripcionLeng":null,"fechaRecepcion":"2026-04-21","nivel1":"LOCAL","nivel2":"DIPUTACIÓN PROV. DE LEÓN","nivel3":"DIPUTACIÓN PROVINCIAL DE LEÓN","codigoInvente":null},{"id":1101955,"mrr":false,"numeroConvocatoria":"900394","descripcion":"CONVOCATORIA PARA LA CONCESIÓN DE BECAS PARA LA REALIZACIÓN DE ESTUDIOS REGLADOS DURANTE EL CURSO 2025/2026","descripcionLeng":null,"fechaRecepcion":"2026-04-21","nivel1":"LOCAL","nivel2":"TRILLO","nivel3":"AYUNTAMIENTO DE TRILLO","codigoInvente":null},{"id":1101953,"mrr":false,"numeroConvocatoria":"900392","descripcion":"Extracto de la Resolución de Alcaldía de fecha 21 de abril de 2026 de convocatoria de “subvenciones en especie” para fomento de festejos populares en los pueblos del concejo de Grandas de Salime ejercicio 2026","descripcionLeng":null,"fechaRecepcion":"2026-04-21","nivel1":"LOCAL","nivel2":"GRANDAS DE SALIME","nivel3":"AYUNTAMIENTO DE GRANDAS DE SALIME","codigoInvente":null},{"id":1101948,"mrr":false,"numeroConvocatoria":"900387","descripcion":"Acuerdo Junta Gobierno 20 abril 2026, se aprueba Convocatoria de subvenciones a favor Aytos. y ELM provincia de Alicante, para realizar diversas actuaciones en caminos de titularidad municipal a ejecutar por los Ayuntamientos. Año 2026. LÍNEAS A, B y C.","descripcionLeng":null,"fechaRecepcion":"2026-04-21","nivel1":"LOCAL","nivel2":"DIPUTACIÓN PROV. DE ALICANTE","nivel3":"DIPUTACIÓN PROVINCIAL DE ALACANT/ALICANTE","codigoInvente":null},{"id":1101946,"mrr":false,"numeroConvocatoria":"900385","descripcion":"Resolución de la Presidencia del Consejo Superior de Deportes, por la que se convocan ayudas a Comunidades Autónomas, dentro del programa Team España Centros, para programas e inversiones en equipamientos deportivos en centros de Tecnificación Deportiva","descripcionLeng":null,"fechaRecepcion":"2026-04-21","nivel1":"ESTADO","nivel2":"MINISTERIO DE EDUCACIÓN, FORMACIÓN PROFESIONAL Y DEPORTES","nivel3":"CONSEJO SUPERIOR DE DEPORTES","codigoInvente":"INV00001300"},{"id":1101945,"mrr":false,"numeroConvocatoria":"900384","descripcion":"CONVOCATORIA DE CONCESSIÓN DE SUBVENCIONES A ENTIDADES, PARTICULARES, ASOCIACIONES Y/O COLECTIVOS SIN ÁNIMO DE LUCRO DE L’ESPLUGA DE FRANCOLÍ, AÑO 2024","descripcionLeng":"CONVOCATÒRIA DE CONCESSIÓ DE SUBVENCIONS A ENTITATS, PARTICULARS, ASSOCIACIONS I/O COL·LECTIUS SENSE ÀNIM DE LUCRE DEL MUNICIPI DE L’ESPLUGA DE FRANCOLÍ, ANY 2024","fechaRecepcion":"2026-04-21","nivel1":"LOCAL","nivel2":"ESPLUGA DE FRANCOLÍ, L'","nivel3":"AYUNTAMIENTO DE ESPLUGA DE FRANCOLÍ, L'","codigoInvente":null},{"id":1101943,"mrr":false,"numeroConvocatoria":"900382","descripcion":"CAR Renovación del parque automovilístico","descripcionLeng":null,"fechaRecepcion":"2026-04-21","nivel1":"AUTONOMICA","nivel2":"LA RIOJA","nivel3":"AGENCIA DE DESARROLLO ECONÓMICO DE LA RIOJA","codigoInvente":"INV00000065"},{"id":1101941,"mrr":false,"numeroConvocatoria":"900380","descripcion":"Convocatoria para concesión de ayudas económicas para la compra de abono de piscinas de verano 2026","descripcionLeng":null,"fechaRecepcion":"2026-04-21","nivel1":"LOCAL","nivel2":"LEOZ/LEOTZ","nivel3":"AYUNTAMIENTO DE LEOZ/LEOTZ","codigoInvente":null},{"id":1101937,"mrr":false,"numeroConvocatoria":"900376","descripcion":"SUBV. ESFL  MANTTO SERVICIOS Y PROGRAMAS 2026 ATT.PERS.DIS  -- Línea 4","descripcionLeng":null,"fechaRecepcion":"2026-04-21","nivel1":"AUTONOMICA","nivel2":"COMUNIDAD DE MADRID","nivel3":"CONSEJERÍA DE FAMILIA, JUVENTUD Y ASUNTOS SOCIALES","codigoInvente":null},{"id":1101936,"mrr":false,"numeroConvocatoria":"900375","descripcion":"SUBV. ESFL  MANTTO SERVICIOS Y PROGRAMAS 2026 ATT.PERS.DIS  -- Línea 3","descripcionLeng":null,"fechaRecepcion":"2026-04-21","nivel1":"AUTONOMICA","nivel2":"COMUNIDAD DE MADRID","nivel3":"CONSEJERÍA DE FAMILIA, JUVENTUD Y ASUNTOS SOCIALES","codigoInvente":null},{"id":1101935,"mrr":false,"numeroConvocatoria":"900374","descripcion":"SUBV. ESFL  MANTTO SERVICIOS Y PROGRAMAS 2026 ATT.PERS.DIS  -- Línea 2","descripcionLeng":null,"fechaRecepcion":"2026-04-21","nivel1":"AUTONOMICA","nivel2":"COMUNIDAD DE MADRID","nivel3":"CONSEJERÍA DE FAMILIA, JUVENTUD Y ASUNTOS SOCIALES","codigoInvente":null},{"id":1101934,"mrr":false,"numeroConvocatoria":"900373","descripcion":"SUBV. ESFL  MANTTO SERVICIOS Y PROGRAMAS 2026 ATT.PERS.DIS  -- Línea 1","descripcionLeng":null,"fechaRecepcion":"2026-04-21","nivel1":"AUTONOMICA","nivel2":"COMUNIDAD DE MADRID","nivel3":"CONSEJERÍA DE FAMILIA, JUVENTUD Y ASUNTOS SOCIALES","codigoInvente":null},{"id":1101931,"mrr":false,"numeroConvocatoria":"900370","descripcion":"Resolución número 58, de 16 de abril, de la Alcaldesa del Ayuntamiento de Leoz de convocatoria para la concesión de ayudas económicas para Transporte público y Bono-Taxi","descripcionLeng":null,"fechaRecepcion":"2026-04-21","nivel1":"LOCAL","nivel2":"LEOZ/LEOTZ","nivel3":"AYUNTAMIENTO DE LEOZ/LEOTZ","codigoInvente":null},{"id":1101927,"mrr":false,"numeroConvocatoria":"900366","descripcion":"Convocatoria de subvenciones a actividades culturales 2026","descripcionLeng":null,"fechaRecepcion":"2026-04-21","nivel1":"LOCAL","nivel2":"VILLAVICIOSA","nivel3":"AYUNTAMIENTO DE VILLAVICIOSA","codigoInvente":null},{"id":1101926,"mrr":false,"numeroConvocatoria":"900365","descripcion":"RESOLUCIÓN DE LA PRESIDENCIA DE 21 DE ABRIL 2026, Nº 2026/59, APROBANDO BASES REGULADORAS DE AYUDAS PARA GARANTIZAR EL SERVICIO RESPIRO FAMILIAR A PERSONAS CUIDADORAS HABITUALES, NO PROFESIONALES, DE LA MANCOMUNIDAD DE MUNICIPIOS ZONA CENTRO-2026","descripcionLeng":"REGULACIÓN DE AYUDAS PARA GARANTIZAR EL SERVICIO DE RESPIRO FAMILIAR A PERSONAS CUIDADORAS HABITUALES, NO PROFESIONALES, EN LA MANCOMUNIDAD DE MUNICIPIOS ZONA CENTRO-2026","fechaRecepcion":"2026-04-21","nivel1":"LOCAL","nivel2":"MANCOMUNIDAD DE MUNICIPIOS ZONA CENTRO","nivel3":"MANCOMUNIDAD DE MUNICIPIOS  ZONA CENTRO","codigoInvente":null},{"id":1101925,"mrr":false,"numeroConvocatoria":"900364","descripcion":"Beca d 'iniciació a la investigació (Projecte «ESTUDIO DEL COMPORTAMIENTO ESTRUCTURAL DE HORMIGONES CON RESIDUOS PORCELÁNICOS FRENTE A TEMPERATURAS DE INCENDIO» – Codi 24I486 – Dirigit per: Marta Roig Flores, Dep. d'Enginyeria Mecànica i Co","descripcionLeng":"Beca d’iniciació a la investigació (Projecte «ESTUDIO DEL COMPORTAMIENTO ESTRUCTURAL DE HORMIGONES CON RESIDUOS PORCELÁNICOS FRENTE A TEMPERATURAS DE INCENDIO» Codi 24I486– Dirigit per: Marta Roig Flores, Departament d'Enginyeria Mecànica i Construcció)","fechaRecepcion":"2026-04-21","nivel1":"OTROS","nivel2":"UNIVERSIDAD JAUME I DE CASTELLÓN","nivel3":null,"codigoInvente":"INV00005381"},{"id":1101920,"mrr":false,"numeroConvocatoria":"900359","descripcion":"Bases que han de regir la convocatoria pública de Subvenciones para financiar actividades de asociaciones y colectivos registrados en el Registro Municipal de Asociaciones de Arjonilla","descripcionLeng":null,"fechaRecepcion":"2026-04-21","nivel1":"LOCAL","nivel2":"ARJONILLA","nivel3":"AYUNTAMIENTO DE ARJONILLA","codigoInvente":null},{"id":1101918,"mrr":false,"numeroConvocatoria":"900357","descripcion":"CONVOCATORIA de Subvención para la adecuación funcional básica y mejora de accesibilidad de viviendas y comunidades de propietarios. Año 2026","descripcionLeng":null,"fechaRecepcion":"2026-04-21","nivel1":"LOCAL","nivel2":"TRILLO","nivel3":"AYUNTAMIENTO DE TRILLO","codigoInvente":null},{"id":1101915,"mrr":false,"numeroConvocatoria":"900354","descripcion":"CONVOCATORIA POR LA QUE SE REGULAN LAS TARJETAS MONEDERO BONO SOCIOECONÓMICOS PARA NECESIDADES BÁSICAS Y GARANTÍA SOCIAL INFANTIL. 2026","descripcionLeng":null,"fechaRecepcion":"2026-04-21","nivel1":"LOCAL","nivel2":"GUADALAJARA","nivel3":"AYUNTAMIENTO DE GUADALAJARA","codigoInvente":null},{"id":1101914,"mrr":false,"numeroConvocatoria":"900353","descripcion":"Convocatoria para concesión de ayudas económicas para estudios musicales durante el curso 2025/2026","descripcionLeng":null,"fechaRecepcion":"2026-04-21","nivel1":"LOCAL","nivel2":"LEOZ/LEOTZ","nivel3":"AYUNTAMIENTO DE LEOZ/LEOTZ","codigoInvente":null},{"id":1101909,"mrr":false,"numeroConvocatoria":"900348","descripcion":"BASES REGULADORAS ESPECÍFICAS Y CONVOCATORIA DE LA LÍNEA DE SUBVENCIONES DEL SERVICIO DE DEPORTES DEL ÁREA DE CULTURA Y CIUDADANÍA, DESTINADAS A ENTIDADES SIN ÁNIMO DE LUCRO PARA PROMOVER LA IGUALDAD DE GÉNERO EN EL DEPORTE (EJERCICIO 2026)","descripcionLeng":null,"fechaRecepcion":"2026-04-21","nivel1":"LOCAL","nivel2":"DIPUTACIÓN PROV. DE SEVILLA","nivel3":"DIPUTACIÓN PROVINCIAL DE SEVILLA","codigoInvente":null},{"id":1101904,"mrr":false,"numeroConvocatoria":"900343","descripcion":"PROPUESTA DE APROBACIÓN CONVOCATORIA PARA LA CONCESIÓN DE SUBVENCIONES A ASOCIACIONES DE COROS Y DANZAS Y GRUPOS FOLCLÓRICOS PARA LA REALIZACIÓN DEL FESTIVAL INTERNACIONAL DE FOLCLORE Y NACIONAL DE LA SEGUIDILLA 2026","descripcionLeng":null,"fechaRecepcion":"2026-04-21","nivel1":"LOCAL","nivel2":"CIUDAD REAL","nivel3":"AYUNTAMIENTO DE CIUDAD REAL","codigoInvente":null},{"id":1101894,"mrr":false,"numeroConvocatoria":"900333","descripcion":"Resolución nº 60, de 16 de abril, de la Alcaldesa del Ayuntamiento de Leoz de convocatoria para la concesión de ayudas económicas para estudios de euskera durante el curso 2025/2026.","descripcionLeng":null,"fechaRecepcion":"2026-04-21","nivel1":"LOCAL","nivel2":"LEOZ/LEOTZ","nivel3":"AYUNTAMIENTO DE LEOZ/LEOTZ","codigoInvente":null},{"id":1101891,"mrr":true,"numeroConvocatoria":"900330","descripcion":"ORDEN DEL CTELCCPT POR LA QUE SE ESTABLECEN LAS BASES REGULADORAS Y LA CONVOCATORIA DE SUBVENCIONES PARA EL FOMENTO DEL AUTOCONSUMO COMPARTIDO Y DLLO DE CDADES ENERGÉTICAS EN DIF. SECTORES EN EL MARCO DE LA ESTRAT.DE ENERGÍA SOST. (P2, L1) PRTR (C7 I2)","descripcionLeng":null,"fechaRecepcion":"2026-04-21","nivel1":"AUTONOMICA","nivel2":"CANARIAS","nivel3":"CONSEJERÍA DE TRANSICIÓN ECOLÓGICA Y ENERGÍA","codigoInvente":null},{"id":1101879,"mrr":false,"numeroConvocatoria":"900318","descripcion":"Subvenciones a favor de Municipios de la Comunidad Autónoma de Cantabria en riesgo de despoblamiento, destinadas a la promoción de la tauromaquia en el mundo rural, para el año 2026","descripcionLeng":null,"fechaRecepcion":"2026-04-21","nivel1":"AUTONOMICA","nivel2":"CANTABRIA","nivel3":"CONSEJERÍA PRESIDENCIA, JUSTICIA, SEGURIDAD Y SIMPLIFICACIÓN ADMINISTRATIVA","codigoInvente":null},{"id":1101878,"mrr":false,"numeroConvocatoria":"900317","descripcion":"Resolución de 15 de abril de 2026, de la Dirección de la Agencia Española de Cooperación Internacional para el Desarrollo, por la que se convocan subvenciones para la realización de Acciones de Cooperación al Desarrollo en el ámbito de la innovación 2026","descripcionLeng":null,"fechaRecepcion":"2026-04-21","nivel1":"ESTADO","nivel2":"MINISTERIO DE ASUNTOS EXTERIORES, UNIÓN EUROPEA Y COOPERACIÓN","nivel3":"AGENCIA ESTATAL AGENCIA ESPAÑOLA DE COOPERACIÓN INTERNACIONAL PARA EL DESARROLLO","codigoInvente":"INV00000095"},{"id":1101875,"mrr":false,"numeroConvocatoria":"900314","descripcion":"Acuerdo de la Junta de Gobierno Local de 21 de abril de 2026 por el que se convocan subvenciones para la restauración de inmuebles del centro de Felanitx","descripcionLeng":null,"fechaRecepcion":"2026-04-21","nivel1":"LOCAL","nivel2":"FELANITX","nivel3":"AYUNTAMIENTO DE FELANITX","codigoInvente":null},{"id":1101874,"mrr":false,"numeroConvocatoria":"900313","descripcion":"Decreto de la Alcaldía n.º 2026/001193, de fecha de 1 de Abril, por el que se aprueba la convocatoria de subvenciones en régimen de concurrencia con destino a la realización de actividades deportivas federadas.","descripcionLeng":null,"fechaRecepcion":"2026-04-21","nivel1":"LOCAL","nivel2":"CARMONA","nivel3":"AYUNTAMIENTO DE CARMONA","codigoInvente":null},{"id":1101872,"mrr":false,"numeroConvocatoria":"900311","descripcion":"Bases que han de regir para la concesión de ayudas de carácter individual para la asistencia a los comedores escolares","descripcionLeng":"Bases que han de regir per a la concessió d'ajuts de caràcter individual per a l'assistència als menjadors escolars","fechaRecepcion":"2026-04-21","nivel1":"LOCAL","nivel2":"CONSELL COMARCAL DE CONCA DE BARBERÀ","nivel3":"CONSELL COMARCAL DE LA CONCA DE BARBERÀ","codigoInvente":null},{"id":1101871,"mrr":false,"numeroConvocatoria":"900310","descripcion":"Resolución de la Vicerrectora de Investigación de la Universidad de Oviedo para la contratación de personal investigador y técnico de apoyo, según artículo 23.bis de la Ley 14/2011 de la Ciencia, la Tecnología y la Innovación (Enero Extra 3 - 2026)","descripcionLeng":null,"fechaRecepcion":"2026-04-21","nivel1":"OTROS","nivel2":"UNIVERSIDAD DE OVIEDO","nivel3":null,"codigoInvente":"INV00005347"},{"id":1101867,"mrr":false,"numeroConvocatoria":"900306","descripcion":"Acuerdo de la Junta de Gobierno Local de 21 de abril de 2026 por el que se convocan subvenciones para la rehabilitación de fachadas","descripcionLeng":null,"fechaRecepcion":"2026-04-21","nivel1":"LOCAL","nivel2":"FELANITX","nivel3":"AYUNTAMIENTO DE FELANITX","codigoInvente":null},{"id":1101865,"mrr":false,"numeroConvocatoria":"900304","descripcion":"RESOLUCIÓN de la Vicerrectora de Internacionalización, por la que publican las bases reguladoras y se convocan ayudas para la realización de un curso de verano de lengua y cultura alemanas en la Universidad de Leipzig: curso 2025/2026","descripcionLeng":null,"fechaRecepcion":"2026-04-21","nivel1":"OTROS","nivel2":"UNIVERSIDAD DE GRANADA","nivel3":null,"codigoInvente":"INV00005337"},{"id":1101863,"mrr":false,"numeroConvocatoria":"900302","descripcion":"SUBV.ASOC. JUVENILES/PRESTADORAS SERVICIOS 2026","descripcionLeng":null,"fechaRecepcion":"2026-04-21","nivel1":"LOCAL","nivel2":"CABILDO INSULAR DE LA PALMA","nivel3":"EXCMO. CABILDO INSULAR DE LA PALMA","codigoInvente":null}],"pageable":{"sort":{"sorted":true,"unsorted":false,"empty":false},"pageNumber":35,"pageSize":50,"offset":1750,"paged":true,"unpaged":false},"last":false,"totalElements":10000,"totalPages":200,"first":false,"sort":{"sorted":true,"unsorted":false,"empty":false},"numberOfElements":50,"size":50,"number":35,"empty":false,"advertencia":"La reutilización de los datos del Sistema Nacional de Publicidad de Subvenciones y Ayudas Públicas está sujeta a una serie de restricciones y consideraciones legales. Consulte el aviso legal en https://www.infosubvenciones.es/bdnstrans/GE/es/avisolegal.Además, el usuario debe ser consciente que la información presentada es de naturaleza dinámica, y que los datos pueden ser sometidos a correcciones, inserciones, modificaciones y eliminaciones en momentos posteriores a su extracción. Accesos al API del sistema Nacional de Publicidad de Subvenciones y Ayudas Públicas. La Administración Presupuestaria, para salvaguardar la protección del acceso libre e irrestricto de los ciudadanos a este Portal y a su información podrá adoptar medidas restrictivas de acceso al API ante situaciones de manifiesto abuso del servicio, riesgos de seguridad, o uso fraudulento de la información descargada, de acuerdo con las buenas prácticas de gestión de datos abiertos (https://datos.gob.es/es/blog/limitaciones-la-consulta-de-una-api) establecidas por el Ministerio para la Transformación Digital y de la Función Pública."}