{"content":[{"id":1107966,"mrr":false,"numeroConvocatoria":"906405","descripcion":"Extracto de la Resolución 2026/1392, de 15 de mayo de 2026, por la que se convocan ayudas por la realización de cursos de euskera en el curso escolar 2025/2026. BDNS (identif.):","descripcionLeng":"2026ko maiatzaren 15eko 2026/1392 ebazpenaren laburpena, 2025/2026 ikasturtean euskara ikastaroak egiteagatiko diru laguntzak deitzen dituena. BDNS (identif.):","fechaRecepcion":"2026-05-19","nivel1":"LOCAL","nivel2":"DURANGO","nivel3":"AYUNTAMIENTO DE DURANGO","codigoInvente":null},{"id":1107965,"mrr":false,"numeroConvocatoria":"906404","descripcion":"Extracto de la Resolución número 2026/1393 de 15 de mayo de 2026 por la que se convocan ayudas para el fomento del uso del euskera en las publicaciones periódicas de ámbito municipal durante el ejercicio 2026. BDNS(identif.):","descripcionLeng":"2026ko maiatzaren 15ko 2026/1393 ebazpenaren laburpena, 2026. urtean zehar, udalerri mailako aldizkako argitalpenetan euskararen erabilera sustatzeko. BDNS(identif.):","fechaRecepcion":"2026-05-19","nivel1":"LOCAL","nivel2":"DURANGO","nivel3":"AYUNTAMIENTO DE DURANGO","codigoInvente":null},{"id":1107964,"mrr":false,"numeroConvocatoria":"906403","descripcion":"Extracto de la Resolución número 2026/1135 de 27 de abril de 2026 por la que se convocan ayudas para la realización de proyectos y actividades de promoción del euskera en Durango para el año 2026. BDNS(identif.)","descripcionLeng":"2026ko apirilaren 27ko 2026/1135 ebazpenaren laburpena, 2026an Durangon euskara sustatzeko ekimenak garatzeko jarduerak eta egitasmoak antolatzeko diru laguntzak deitzen dituena BDNS(identif.):","fechaRecepcion":"2026-05-19","nivel1":"LOCAL","nivel2":"DURANGO","nivel3":"AYUNTAMIENTO DE DURANGO","codigoInvente":null},{"id":1107961,"mrr":false,"numeroConvocatoria":"906400","descripcion":"Extracto de la Resolución 2026/1132 de 27 de abril de 2026, por la que se convocan ayudas para de-portistas individuales de élite de Durango. BDNS (identif.):","descripcionLeng":"2026ko apirilaren 27ko 2026/1132 ebazpenaren laburpena, Durangoko goi mailako kirolarientzat BDNS (identif.):","fechaRecepcion":"2026-05-19","nivel1":"LOCAL","nivel2":"DURANGO","nivel3":"AYUNTAMIENTO DE DURANGO","codigoInvente":null},{"id":1107960,"mrr":false,"numeroConvocatoria":"906399","descripcion":"Extracto de la Resolución número 2026/1130 de 27 de abril de 2026 por la que se convocan ayudas para fichas y arbitrajes deportivos para las asociaciones de Durango para la temporada 2025-2026. BDNS (Identif.):.","descripcionLeng":"2026ko apirilaren 27ko 2026/1130 ebazpenaren laburpena, 2025-2026 denboraldian Durangoko kirol elkarteek fitxak eta arbitrajeak ordaintzeko. BDNS (Identif.):","fechaRecepcion":"2026-05-19","nivel1":"LOCAL","nivel2":"DURANGO","nivel3":"AYUNTAMIENTO DE DURANGO","codigoInvente":null},{"id":1107959,"mrr":false,"numeroConvocatoria":"906398","descripcion":"CONVOCATORIA PARA LA CONCESIÓN DE PRESTACIONES SOCIALES DE CARÁCTER ECONÓMICO EN RÉGIMEN DE CONCURRENCIA COMPETITIVA LA ESCOLARIDAD EL CURSO ESCOLAR 2026-2027","descripcionLeng":"CONVOCATÒRIA  PER A LA CONCESSIÓ DE PRESTACIONS SOCIALS DE CARÀCTER ECONÒMIC EN RÈGIM DE CONCURRÈNCIA COMPETITIVA A L’ ESCOLARITAT PEL CURS ESCOLAR 2026-2027","fechaRecepcion":"2026-05-19","nivel1":"LOCAL","nivel2":"LLINARS DEL VALLÈS","nivel3":"AYUNTAMIENTO DE LLINARS DEL VALLÈS","codigoInvente":null},{"id":1107958,"mrr":false,"numeroConvocatoria":"906397","descripcion":"Extracto de la Resolución número 2026/1134 de 27 de abril de 2026 por la que se convocan ayudas para Actividades Culturales Extraordinarias del Ayuntamiento de Durango durante el año 2026. BDNS (identif.):","descripcionLeng":"2026ko apirilaren 27ko 2026/1134 ebazpenaren laburpena, 2026an Durangon Ez-Ohiko Kultur Ekimenak egiteko oinarri arautzaileak eta diru-laguntza deialdia BDNS(identif.):","fechaRecepcion":"2026-05-19","nivel1":"LOCAL","nivel2":"DURANGO","nivel3":"AYUNTAMIENTO DE DURANGO","codigoInvente":null},{"id":1107957,"mrr":false,"numeroConvocatoria":"906396","descripcion":"Extracto de la Resolución 2026/1133, de 27 de abril de 2026, por la que se convocan ayudas para Actividades Culturales Ordinarias del Ayuntamiento de Durango durante el año 2026. BDNS (identif.):","descripcionLeng":"2026ko apirilaren 27ko 2026/1133 ebazpenaren laburpena, 2026an Durangon Ohiko Kultur Ekimenak egiteko oinarri arautzaileak eta diru-laguntza deialdia BDNS(identif.).","fechaRecepcion":"2026-05-19","nivel1":"LOCAL","nivel2":"DURANGO","nivel3":"AYUNTAMIENTO DE DURANGO","codigoInvente":null},{"id":1107956,"mrr":false,"numeroConvocatoria":"906395","descripcion":"Extracto de la Resolución 2026/1129, de 27 de abril de 2026, por la que se convocan ayudas para la organización de actividades destinadas a infancia y juventud de Durango. Año 2026. BDNS (identif.):","descripcionLeng":"2026ko apirilaren 27ko 2026/1129 ebazpenaren laburpena, 2026rako Durangon haur eta gazteei zuzendutako ekimenak antolatzeko diru laguntzak deitzen dituena. BDNS (Identif.):","fechaRecepcion":"2026-05-19","nivel1":"LOCAL","nivel2":"DURANGO","nivel3":"AYUNTAMIENTO DE DURANGO","codigoInvente":null},{"id":1107955,"mrr":false,"numeroConvocatoria":"906394","descripcion":"Resolución 2026/1131 de 27 de abril de 2026 por la que se convocan ayudas para la organización de actividades deportivas en Durango para el año 2026. BDNS (identif.):","descripcionLeng":"2026ko apirilaren 27ko 2026/1131 ebazpenaren laburpena, 2026rako Durangon kirol ekimenak antolatzeko diru laguntzak deitzen dituena. BDNS (Identif.):","fechaRecepcion":"2026-05-19","nivel1":"LOCAL","nivel2":"DURANGO","nivel3":"AYUNTAMIENTO DE DURANGO","codigoInvente":null},{"id":1107952,"mrr":false,"numeroConvocatoria":"906391","descripcion":"Acuerdo de Junta de Gobierno de 13 de mayo de 2026, punto III.1., de aprobación de la 5ª Convocatoria de selección de participantes itinerarios formación incentivada proyecto EnRuta, financiado por el FSE+.","descripcionLeng":null,"fechaRecepcion":"2026-05-19","nivel1":"LOCAL","nivel2":"DIPUTACIÓN PROV. DE MÁLAGA","nivel3":"DIPUTACIÓN PROVINCIAL DE MÁLAGA","codigoInvente":null},{"id":1107951,"mrr":false,"numeroConvocatoria":"906390","descripcion":"subvenciones destinadas a fomentar la modernización de las empresas comerciales minoristas y determinadas empresas de servicios, así como la continuidad de los establecimien","descripcionLeng":"subvencions destinades a fomentar la modernització de les empreses comercials detallistes i determinades empr","fechaRecepcion":"2026-05-19","nivel1":"AUTONOMICA","nivel2":"ILLES BALEARS","nivel3":"DIRECCIÓN GENERAL DE COMERCIO Y EMPRESA","codigoInvente":null},{"id":1107949,"mrr":false,"numeroConvocatoria":"906388","descripcion":"Resolución del Vicerrector de Internacionalización y Cooperación por lo que se convoca el Programa: Erasmus+ Prácticas (SMT) KA131 curso 2026/2027 para estudiantes matriculados en el curso 2025/2026 de Grado, Máster y Doctorado de la ULPGC","descripcionLeng":null,"fechaRecepcion":"2026-05-18","nivel1":"OTROS","nivel2":"UNIVERSIDAD DE LAS PALMAS DE GRAN CANARIA","nivel3":null,"codigoInvente":"INV00005343"},{"id":1107946,"mrr":false,"numeroConvocatoria":"906385","descripcion":"Convocatoria de subvenciones destinadas al consumo de agua de personas de 65 años o mas correspondientes al domicilio habitual para el año 2026","descripcionLeng":"Convocatòria de subvencions destinades al consum d´aigua de persones de 65 anys o més corresponents al domicli habitual per a l´any 2026","fechaRecepcion":"2026-05-18","nivel1":"LOCAL","nivel2":"SANT ANDREU DE LA BARCA","nivel3":"AYUNTAMIENTO DE SANT ANDREU DE LA BARCA","codigoInvente":null},{"id":1107945,"mrr":false,"numeroConvocatoria":"906384","descripcion":"Ciberseguridad Industrial","descripcionLeng":"Zibersegurtasun Industriala","fechaRecepcion":"2026-05-18","nivel1":"AUTONOMICA","nivel2":"PAÍS VASCO","nivel3":"AGENCIA VASCA DE DESARROLLO EMPRESARIAL","codigoInvente":"INV00005192"},{"id":1107944,"mrr":false,"numeroConvocatoria":"906383","descripcion":"Decreto de 13 de mayo de 2026 de la Delegada del AGEIyH por el que se aprueba la convocatoria pública de subvenciones para apoyar el funcionamiento de los sectores comercial, hostelero y hotelero 2026","descripcionLeng":null,"fechaRecepcion":"2026-05-18","nivel1":"LOCAL","nivel2":"MADRID","nivel3":"ÁREA DE GOBIERNO DE ECONOMÍA, INNOVACIÓN Y HACIENDA","codigoInvente":null},{"id":1107937,"mrr":false,"numeroConvocatoria":"906376","descripcion":"Subvenciones destinadas a fomentar el asociacionismo y promover la participación social de las mujeres en Canarias año 2026","descripcionLeng":null,"fechaRecepcion":"2026-05-18","nivel1":"AUTONOMICA","nivel2":"CANARIAS","nivel3":"INSTITUTO CANARIO DE IGUALDAD","codigoInvente":null},{"id":1107936,"mrr":false,"numeroConvocatoria":"906375","descripcion":"ORDEN Nº 553/2026, DE 12 DE MAYO, POR LA QUE SE APRUEBA EL GASTO Y SE CONVOCAN LAS SUBVENCIONES DE CONCURRENCIA NO COMPETITIVA,  POR RAZÓN DE INTERÉS PÚBLICO Y HUMANITARIO A CENTROS PRIVADOS CONCERTADOS C","descripcionLeng":null,"fechaRecepcion":"2026-05-18","nivel1":"AUTONOMICA","nivel2":"CANARIAS","nivel3":"CONSEJERÍA DE EDUCACIÓN, FORMACIÓN PROFESIONAL, ACTIVIDAD FÍSICA Y DEPORTES","codigoInvente":null},{"id":1107916,"mrr":false,"numeroConvocatoria":"906355","descripcion":"Resolución de 14 de mayo de 2026 de la Agencia de Ciencia, Competitividad Empresarial e Innovación Asturiana, por la que aprueba la convocatoria del Programa Jovellanos Doctores Industriales  para empresas y desarrollo de actividades de I+D+i para 2026","descripcionLeng":null,"fechaRecepcion":"2026-05-18","nivel1":"AUTONOMICA","nivel2":"PRINCIPADO DE ASTURIAS","nivel3":"AGENCIA DE CIENCIA, COMPETITIVIDAD EMPRESARIAL E INNOVACIÓN","codigoInvente":"INV00003680"},{"id":1107913,"mrr":false,"numeroConvocatoria":"906352","descripcion":"PROGRAMA DE MOVILIDAD ERASMUS + PARA PERSONAL TÉCNICO, DE GESTIÓN Y DE ADMINISTRACIÓN Y SERVICIOS CURSO 2026/2027 (código de subvención: 11-131-4-2026-0099-S y código de subvención: 11-131-4-2026-0105-S)","descripcionLeng":"PROGRAMA DE MOBILITAT ERASMUS + PER A PERSONAL TÈCNIC, DE GESTIÓ I D'ADMINISTRACIÓ I SERVEIS, CURS 2026/2027 (codi de subvenció 11-131-4-2026-0099-S i codi de subvenció 11-131-4-2026-0105-S)","fechaRecepcion":"2026-05-18","nivel1":"OTROS","nivel2":"UNIVERSIDAD MIGUEL HERNÁNDEZ DE ELCHE","nivel3":null,"codigoInvente":"INV00005357"},{"id":1107911,"mrr":false,"numeroConvocatoria":"906350","descripcion":"SUBVENCIONES A ENTIDADES SIN ÁNIMO DE LUCRO QUE DESARROLLEN PROYECTO Y ACTIVIDADES EN BORTZIRIAK. CONVOCATORIA 2026","descripcionLeng":"BORTZIRIETAN GIZARTE ARLOKO PROIEKTUAK ETA JARDUERAK BURUTZEN DITUZTEN IRABAZI-ASMORIK GABEKO ENTITATEEI DIRULAGUNTZAK. 2026KO DEIALDIA.","fechaRecepcion":"2026-05-18","nivel1":"LOCAL","nivel2":"BORTZIRIETAKO ZERBITZUEN MANKOMUNITATEA","nivel3":"BORTZIRIETAKO ZERBITZUEN MANKOMUNITATEA","codigoInvente":null},{"id":1107906,"mrr":false,"numeroConvocatoria":"906345","descripcion":"AYUDAS DEL SERVICIO ESPAÑOL PARA LA INTERNACIONALIZACIÓN DE LA EDUCACIÓN (SEPIE) Y AYUDAS COMPLEMENTARIAS UMH PARA ESTUDIANTES PARTICIPANTES EN EL PROGRAMA DE MOVILIDAD INTERNACIONAL ERASMUS+ CON FINES DE ESTUDIOS. CURSO ACADÉMICO 2026/2027","descripcionLeng":"AJUDES DEL SERVEI ESPANYOL PER A LA INTERNACIONALITZACIÓ DE L'EDUCACIÓ (SEPIE) I AJUDES COMPLEMENTÀRIES UMH PER A ESTUDIANTS PARTICIPANTS EN EL PROGRAMA DE MOBILITAT INTERNACIONAL ERASMUS + AMB FINALITATS D'ESTUDIS, CURS ACADÈMIC 2026/2027","fechaRecepcion":"2026-05-18","nivel1":"OTROS","nivel2":"UNIVERSIDAD MIGUEL HERNÁNDEZ DE ELCHE","nivel3":null,"codigoInvente":"INV00005357"},{"id":1107905,"mrr":false,"numeroConvocatoria":"906344","descripcion":"Convocatòria subvencions a associacions o entitats sense ànim de lucre per projectes i/o activitats al Moianès 2026","descripcionLeng":null,"fechaRecepcion":"2026-05-18","nivel1":"LOCAL","nivel2":"CONSELL COMARCAL  DEL MOIANÈS","nivel3":"CONSELL COMARCAL  DEL MOIANÈS","codigoInvente":null},{"id":1107904,"mrr":false,"numeroConvocatoria":"906343","descripcion":"BECAS PARA LA FINANCIACIÓN DE LA MATRÍCULA DEL ESTUDIANTADO MATRICULADO EN ESTUDIOS DE GRADO Y DE MÁSTER OFICIAL PARA EL CURSO  ACADÉMICO 2025-2026 (Código línea de subvención: 08-324-4-2026-0051-S)","descripcionLeng":"BEQUES PER AL FINANÇAMENT DE LA MATRÍCULA DE L¿ESTUDIANTAT MATRICULAT EN ESTUDIS DE GRAU I DE MÀSTER OFICIAL PER AL CURS ACADÈMIC 2025-2026 (codi de línia de subvenció 08-324-4-2026-0051-S)","fechaRecepcion":"2026-05-18","nivel1":"OTROS","nivel2":"UNIVERSIDAD MIGUEL HERNÁNDEZ DE ELCHE","nivel3":null,"codigoInvente":"INV00005357"},{"id":1107902,"mrr":false,"numeroConvocatoria":"906341","descripcion":"CONVOCATORIA DE LAS BECAS FORMATIVA DENTRO DEL PROGRAMA \"L'OLLERIA ET BECA 2026\"","descripcionLeng":"CONVOCATÒRIA DE LES BEQUES FORMATIVES DINTRE DEL PROGRAMA \"L'OLLERIA ET BECA 2026\"","fechaRecepcion":"2026-05-18","nivel1":"LOCAL","nivel2":"OLLERIA, L'","nivel3":"AYUNTAMIENTO DE OLLERIA, L'","codigoInvente":null},{"id":1107901,"mrr":false,"numeroConvocatoria":"906340","descripcion":"Ayudas a personas celiacas y/o con intolerancia al gluten, para el año 2026","descripcionLeng":null,"fechaRecepcion":"2026-05-18","nivel1":"LOCAL","nivel2":"ALCAÑIZ","nivel3":"AYUNTAMIENTO DE ALCAÑIZ","codigoInvente":null},{"id":1107898,"mrr":false,"numeroConvocatoria":"906337","descripcion":"CONVOCATORIA DE SUBVENCIONES EN RÉGIMEN DE CONCURRENCIA COMPETITIVA DESTINADAS A LA CONTRATACIÓN DE MONITORES/AS DE APOYO PARA LA INCLUSIÓN DE NIÑOS, ADOLESCENTES Y JÓVENES CON DIVERSIDAD FUNCIONAL EN ACTIVIDADES DE EDUCACIÓN EN EL OCIO.","descripcionLeng":"CONVOCATÒRIA DE SUBVENCIONS EN RÈGIM DE CONCURRÈNCIA COMPETITIVA DESTINADES A LA CONTRACTACIÓ DE MONITORATGE DE SUPORT PER A LA INCLUSIÓ D’INFANTS, ADOLESCENTS I JOVES AMB DIVERSITAT FUNCIONAL EN ACTIVITATS D’EDUCACIÓ EN EL LLEURE","fechaRecepcion":"2026-05-18","nivel1":"LOCAL","nivel2":"VILANOVA I LA GELTRÚ","nivel3":"AYUNTAMIENTO DE VILANOVA I LA GELTRÚ","codigoInvente":null},{"id":1107896,"mrr":false,"numeroConvocatoria":"906335","descripcion":"III Concurso de campañas de sensibilización en materia LGTBIQA+ i etnicocultural","descripcionLeng":"III Concurs de campanyes de sensibilització en matèria LGTBIQA+ i etnicocultural","fechaRecepcion":"2026-05-18","nivel1":"OTROS","nivel2":"UNIVERSIDAD JAUME I DE CASTELLÓN","nivel3":null,"codigoInvente":"INV00005381"},{"id":1107895,"mrr":false,"numeroConvocatoria":"906334","descripcion":"CONVOCATORIA PARA LA CONCESIÓN DE SUBVENCIONES A ENTIDADES DEPORTIVAS MUNICIPALES PARA EL AÑO 2026.","descripcionLeng":"CONVOCATÒRIA PER A LA CONCESSIÓ DE SUBVENCIONS A ENTITATS ESPORTIVES MUNICIPALS PER A L'ANY 2026.\n\n","fechaRecepcion":"2026-05-18","nivel1":"LOCAL","nivel2":"TORREDEMBARRA","nivel3":"AYUNTAMIENTO DE TORREDEMBARRA","codigoInvente":null},{"id":1107890,"mrr":false,"numeroConvocatoria":"906329","descripcion":"Convocatoria para la concesion de subvenciones en materia de rehabilitación de fachadas y cubiertas 2026","descripcionLeng":null,"fechaRecepcion":"2026-05-18","nivel1":"LOCAL","nivel2":"VALDEOLEA","nivel3":"AYUNTAMIENTO DE VALDEOLEA","codigoInvente":null},{"id":1107889,"mrr":false,"numeroConvocatoria":"906328","descripcion":"APROBACIÓN DE LAS BASES PARA EL CONCURSO PARA LA SELECCIÓN DEL CARTEL OFICIAL Y PORTADA DEL LIBRO DE LA FERIA DE ÁLORA 2026","descripcionLeng":null,"fechaRecepcion":"2026-05-18","nivel1":"LOCAL","nivel2":"ÁLORA","nivel3":"AYUNTAMIENTO DE ÁLORA","codigoInvente":null},{"id":1107887,"mrr":false,"numeroConvocatoria":"906326","descripcion":"Convocatoria de Concurso del cartel anunciador fiestas patronales yde moros y cristianos Benigànim 2026","descripcionLeng":null,"fechaRecepcion":"2026-05-18","nivel1":"LOCAL","nivel2":"BENIGÀNIM","nivel3":"AYUNTAMIENTO DE BENIGÀNIM","codigoInvente":null},{"id":1107886,"mrr":false,"numeroConvocatoria":"906325","descripcion":"Acuerdo de la Junta de Gobierno Local, de 11 de mayo de 2026, por el que se aprueban las BASES Y CONVOCATORIA DE SUBVENCIONES A ASOCIACIONES VECINALES 2026","descripcionLeng":null,"fechaRecepcion":"2026-05-18","nivel1":"LOCAL","nivel2":"VILLENA","nivel3":"AYUNTAMIENTO DE VILLENA","codigoInvente":null},{"id":1107885,"mrr":false,"numeroConvocatoria":"906324","descripcion":"CONVOCATORIA CONCURS CARTELL FESTA MAJOR 26","descripcionLeng":null,"fechaRecepcion":"2026-05-18","nivel1":"LOCAL","nivel2":"MARTORELLES","nivel3":"AYUNTAMIENTO DE MARTORELLES","codigoInvente":null},{"id":1107884,"mrr":false,"numeroConvocatoria":"906323","descripcion":"Convocatoria de Subvenciones para la “Adquisición De Libros de Texto, Material Escolar, Material Informático, Uniformes y Ropa\nDeportiva curso 2026/27\"","descripcionLeng":null,"fechaRecepcion":"2026-05-18","nivel1":"LOCAL","nivel2":"ARRECIFE","nivel3":"AYUNTAMIENTO DE ARRECIFE","codigoInvente":null},{"id":1107872,"mrr":false,"numeroConvocatoria":"906311","descripcion":"Resolución del Vicerrectorado de Internacionalización y Cooperación de la Universidad de Las Palmas de Gran Canaria, por la que se convoca el programa de movilidad internacional con reconocimiento académico \"Erasmus+ con fines de estudios (SMS)\" 2026/2027","descripcionLeng":null,"fechaRecepcion":"2026-05-18","nivel1":"OTROS","nivel2":"UNIVERSIDAD DE LAS PALMAS DE GRAN CANARIA","nivel3":null,"codigoInvente":"INV00005343"},{"id":1107871,"mrr":false,"numeroConvocatoria":"906310","descripcion":"CONVOCATORIA DEL CONCURSO DE CARTEL DE LA FERIA DE SAN PEDRO 2026","descripcionLeng":null,"fechaRecepcion":"2026-05-18","nivel1":"LOCAL","nivel2":"RODA DE ANDALUCÍA, LA","nivel3":"AYUNTAMIENTO DE RODA DE ANDALUCÍA, LA","codigoInvente":null},{"id":1107870,"mrr":false,"numeroConvocatoria":"906309","descripcion":"Resolución de Alcaldia de fecha 13 de mayo de 2026 de aprobación de la Convocatoria del concurso de \"Premios Sant Joan 2026\" de narrativa, fotografía y diseño del cartel de la Fiesta Mayor de Aiguaviva","descripcionLeng":"Resolució d'Alcaldia de data 13 de maig de 2026 d'aprovació de la Convocatoria del concurs de \"Premis Sant Joan 2026\" de narrativa, fotografía i disseny del cartell de la Festa Major d'Aiguaviva","fechaRecepcion":"2026-05-18","nivel1":"LOCAL","nivel2":"AIGUAVIVA","nivel3":"AYUNTAMIENTO DE AIGUAVIVA","codigoInvente":null},{"id":1107868,"mrr":false,"numeroConvocatoria":"906307","descripcion":"Subvenciones para rehabilitación y adaptación de viviendas para personas de perfil sociosanitario","descripcionLeng":"Etxebizitzak birgaitzeko eta egokitzeko eta etxeko ekipamendua erosteko diru-laguntzak","fechaRecepcion":"2026-05-18","nivel1":"LOCAL","nivel2":"ERMUA","nivel3":"AYUNTAMIENTO DE ERMUA","codigoInvente":null},{"id":1107867,"mrr":false,"numeroConvocatoria":"906306","descripcion":"AYUNTAMIENTO DE CARTES. CONVOCATORIA DE AYUDAS AL ESTUDIO UNIVERSITARIO. CURSO ACADEMICO 2025/2026","descripcionLeng":null,"fechaRecepcion":"2026-05-18","nivel1":"LOCAL","nivel2":"CARTES","nivel3":"AYUNTAMIENTO DE CARTES","codigoInvente":null},{"id":1107866,"mrr":false,"numeroConvocatoria":"906305","descripcion":"SUBVENCIONES DEPORTIVAS","descripcionLeng":null,"fechaRecepcion":"2026-05-18","nivel1":"LOCAL","nivel2":"VINARÒS","nivel3":"AYUNTAMIENTO DE VINARÒS","codigoInvente":null},{"id":1107861,"mrr":false,"numeroConvocatoria":"906300","descripcion":"VI edición del Concurso Activa Música","descripcionLeng":"VI edició del Concurs Activa Música","fechaRecepcion":"2026-05-18","nivel1":"OTROS","nivel2":"UNIVERSITAT DE VALÈNCIA (ESTUDI GENERAL)","nivel3":null,"codigoInvente":"INV00005380"},{"id":1107856,"mrr":false,"numeroConvocatoria":"906295","descripcion":"PRÁCTICAS BECADAS EN EL DEPARTAMENTO DE ECOLOGÍA DE LA UNIVERSIDAD DE ALICANTE, PERFIL GRUPO DRYEX, EN CONCURRENCIA COMPETITIVA (PRA-22 / 2025-2026)","descripcionLeng":null,"fechaRecepcion":"2026-05-18","nivel1":"OTROS","nivel2":"UNIVERSIDAD DE ALICANTE","nivel3":null,"codigoInvente":"INV00005329"},{"id":1107852,"mrr":false,"numeroConvocatoria":"906291","descripcion":"Subvenciones en materia deportiva con motivo de las Fiestas Mayores de San Pedro y San Pablo del municipio de Burgos para el año 2026","descripcionLeng":null,"fechaRecepcion":"2026-05-18","nivel1":"LOCAL","nivel2":"BURGOS","nivel3":"AYUNTAMIENTO DE BURGOS","codigoInvente":null},{"id":1107849,"mrr":false,"numeroConvocatoria":"906288","descripcion":"Convocatoria de subvenciones de 2026 para el aprendizaje del euskara","descripcionLeng":"2026erako Diru laguntzen deialdia euskara ikasteko","fechaRecepcion":"2026-05-18","nivel1":"LOCAL","nivel2":"IDIAZABAL","nivel3":"AYUNTAMIENTO DE IDIAZABAL","codigoInvente":null},{"id":1107837,"mrr":false,"numeroConvocatoria":"906276","descripcion":"Resolución de 18 de mayo de 2026 de la Dirección de la Agencia Española de Cooperación Internacional para el Desarrollo, por la que se aprueba la convocatoria de Becas MAEC-AECID para la ciudadanía de países de América Latina, África y Asia 2026-2027.","descripcionLeng":null,"fechaRecepcion":"2026-05-18","nivel1":"ESTADO","nivel2":"MINISTERIO DE ASUNTOS EXTERIORES, UNIÓN EUROPEA Y COOPERACIÓN","nivel3":"AGENCIA ESTATAL AGENCIA ESPAÑOLA DE COOPERACIÓN INTERNACIONAL PARA EL DESARROLLO","codigoInvente":"INV00000095"},{"id":1107827,"mrr":false,"numeroConvocatoria":"906266","descripcion":"BR AIM AJUTS INDIVIDUALS DE MENJADOR CURS 2026-2027 - ANY 2026","descripcionLeng":null,"fechaRecepcion":"2026-05-18","nivel1":"LOCAL","nivel2":"CONSELL COMARCAL  DEL MOIANÈS","nivel3":"CONSELL COMARCAL  DEL MOIANÈS","codigoInvente":null},{"id":1107822,"mrr":false,"numeroConvocatoria":"906261","descripcion":"Resolución de 18 de mayo de 2026 dela Dirección de la Agencia Española de Cooperación Internacional para el Desarrollo, por la que se aprueba la convocatoria de Becas MAEC-AECID para capacitación de jóvenes españoles 2026-2027: Programa Colegio de Europa.","descripcionLeng":null,"fechaRecepcion":"2026-05-18","nivel1":"ESTADO","nivel2":"MINISTERIO DE ASUNTOS EXTERIORES, UNIÓN EUROPEA Y COOPERACIÓN","nivel3":"AGENCIA ESTATAL AGENCIA ESPAÑOLA DE COOPERACIÓN INTERNACIONAL PARA EL DESARROLLO","codigoInvente":"INV00000095"},{"id":1107821,"mrr":false,"numeroConvocatoria":"906260","descripcion":"CONVOCATORIA DE AYUDAS PARA LA RECUPERACION DE LOS ESPACIOS AGRICOLAS DE MUTXAMEL. ANUALIDAD 2026","descripcionLeng":"CONVOCATÒRIA D'AJUDES PER A LA RECUPERACIÓ DELS ESPAIS AGRICOLES DE MUTXAMEL. ANUALITAT 2026","fechaRecepcion":"2026-05-18","nivel1":"LOCAL","nivel2":"MUTXAMEL","nivel3":"AYUNTAMIENTO DE MUTXAMEL","codigoInvente":null},{"id":1107819,"mrr":false,"numeroConvocatoria":"906258","descripcion":"Resolución n. 3225, de 14/05/26, del Presidente de J. Municipal de Distrito Bellavista-La Palmera,  por la que se convocan subvenciones destinadas a gastos generales de funcionamiento de entidades ciudadanas del D. Bellavista-La Palmera para el 2026.","descripcionLeng":null,"fechaRecepcion":"2026-05-18","nivel1":"LOCAL","nivel2":"SEVILLA","nivel3":"AYUNTAMIENTO DE SEVILLA","codigoInvente":null}],"pageable":{"sort":{"sorted":true,"unsorted":false,"empty":false},"pageNumber":26,"pageSize":50,"offset":1300,"unpaged":false,"paged":true},"last":false,"totalElements":10000,"totalPages":200,"first":false,"sort":{"sorted":true,"unsorted":false,"empty":false},"numberOfElements":50,"size":50,"number":26,"empty":false,"advertencia":"La reutilización de los datos del Sistema Nacional de Publicidad de Subvenciones y Ayudas Públicas está sujeta a una serie de restricciones y consideraciones legales. Consulte el aviso legal en https://www.infosubvenciones.es/bdnstrans/GE/es/avisolegal.Además, el usuario debe ser consciente que la información presentada es de naturaleza dinámica, y que los datos pueden ser sometidos a correcciones, inserciones, modificaciones y eliminaciones en momentos posteriores a su extracción. Accesos al API del sistema Nacional de Publicidad de Subvenciones y Ayudas Públicas. La Administración Presupuestaria, para salvaguardar la protección del acceso libre e irrestricto de los ciudadanos a este Portal y a su información podrá adoptar medidas restrictivas de acceso al API ante situaciones de manifiesto abuso del servicio, riesgos de seguridad, o uso fraudulento de la información descargada, de acuerdo con las buenas prácticas de gestión de datos abiertos (https://datos.gob.es/es/blog/limitaciones-la-consulta-de-una-api) establecidas por el Ministerio para la Transformación Digital y de la Función Pública."}