{"content":[{"id":1110384,"mrr":false,"numeroConvocatoria":"908823","descripcion":"BASES REGULADORAS QUE RIGEN LAS AYUDAS AL FOMENTO DE LA REHABILITACIÓN DE VIVIENDAS DE TITULARIDAD PRIVADA DENTRO DEL PROGRAMA PARA COMBATIR LA DESPOBLACIÓN EN EL MEDIO RURAL DEL PLAN DE VIVIENDA DE CANARIAS 2020-2025, ANUALIDAD 2025","descripcionLeng":null,"fechaRecepcion":"2026-05-28","nivel1":"LOCAL","nivel2":"PASO, EL","nivel3":"AYUNTAMIENTO DE PASO, EL","codigoInvente":null},{"id":1110379,"mrr":false,"numeroConvocatoria":"908818","descripcion":"Orden de 21 de mayo de 2026 por la que se aprueban las bases reguladoras y se convoca la XXIX edición del Premio Manuel Colmeiro para trabajos de investigación que tengan como objeto la Administración pública de Galicia (código de procedimiento PR771A).","descripcionLeng":"Orde do 21 de maio de 2026 pola que se aproban as bases reguladoras e se convoca a XXIX edición do Premio Manuel Colmeiro para traballos de investigación que teñan como obxecto a Administración pública de Galicia (código de procedemento PR771A).","fechaRecepcion":"2026-05-28","nivel1":"AUTONOMICA","nivel2":"GALICIA","nivel3":"ESCUELA GALLEGA DE ADMINISTRACIÓN PÚBLICA (EGAP)","codigoInvente":null},{"id":1110372,"mrr":false,"numeroConvocatoria":"908811","descripcion":"Premios del concurso de Fotografía \"Gabriel Cualladó\" para 2026","descripcionLeng":null,"fechaRecepcion":"2026-05-28","nivel1":"LOCAL","nivel2":"MASSANASSA","nivel3":"AYUNTAMIENTO DE MASSANASSA","codigoInvente":null},{"id":1110367,"mrr":false,"numeroConvocatoria":"908806","descripcion":"CONVOCATORIA AYUDAS AL DESARROLLO 2026","descripcionLeng":null,"fechaRecepcion":"2026-05-28","nivel1":"LOCAL","nivel2":"PUERTOLLANO","nivel3":"AYUNTAMIENTO DE PUERTOLLANO","codigoInvente":null},{"id":1110365,"mrr":false,"numeroConvocatoria":"908804","descripcion":"CONVOCATORIA PARA LA CONCESIÓN DE SUBVENCIONES PARA EL APOYO A COLECTIVOS JUVENILES DEL AYUNTAMIENTO DE ALBACETE 2026.","descripcionLeng":null,"fechaRecepcion":"2026-05-28","nivel1":"LOCAL","nivel2":"ALBACETE","nivel3":"AYUNTAMIENTO DE ALBACETE","codigoInvente":null},{"id":1110364,"mrr":false,"numeroConvocatoria":"908803","descripcion":"Convocatoria para la concesión de subvenciones en régimen de concurrencia competitiva para actividades deportivas, educativas, culturales y socioeconómicas para el año 2026","descripcionLeng":null,"fechaRecepcion":"2026-05-28","nivel1":"LOCAL","nivel2":"TONA","nivel3":"AYUNTAMIENTO DE TONA","codigoInvente":null},{"id":1110361,"mrr":false,"numeroConvocatoria":"908800","descripcion":"Acuerdo de Junta de Gobierno de 13 de mayo de 2026, punto 6.1.1., de aprobación de la Convocatoria para la concesión del \"Premio a la Cultura Malagueña Antonio Garrido Moraga\", anualidad 2026.","descripcionLeng":null,"fechaRecepcion":"2026-05-28","nivel1":"LOCAL","nivel2":"DIPUTACIÓN PROV. DE MÁLAGA","nivel3":"DIPUTACIÓN PROVINCIAL DE MÁLAGA","codigoInvente":null},{"id":1110360,"mrr":false,"numeroConvocatoria":"908799","descripcion":"EF00499- L0130 2aC. Resolución por la que se abre la 2ª convocatoria 2026 para la concesión de subvenciones en régimen de concurrencia competitiva para la producción editorial de traducciones de obras literarias originales en lengua catalana y occitana (e","descripcionLeng":"EF00499- L0130 2aC. Resolució per la qual s’obre la 2a convocatòria 2026 per a la concessió de subvencions en règim de concurrència competitiva per a la producció editorial de traduccions d'obres litera`ries originals en llengua catalana i occitana (en la","fechaRecepcion":"2026-05-28","nivel1":"AUTONOMICA","nivel2":"CATALUÑA","nivel3":"INSTITUT RAMON LLULL","codigoInvente":null},{"id":1110359,"mrr":false,"numeroConvocatoria":"908798","descripcion":"EF00499- L0127 2aC. Resolución por la que se abre la 2ª convocatoria 2026 para la concesión de subvenciones en régimen de concurrencia competitiva para la traducción de obras literarias y de pensamiento originales en lengua catalana y occitana (en su vari","descripcionLeng":"EF00499- L0127 2aC. Resolució per la qual s’obre la 2a convocatòria 2026 per a la concessió de subvencions en règim de concurrència competitiva per a la traducció d’obres literàries i de pensament originals en llengua catalana i occitana (en la seva varie","fechaRecepcion":"2026-05-28","nivel1":"AUTONOMICA","nivel2":"CATALUÑA","nivel3":"INSTITUT RAMON LLULL","codigoInvente":null},{"id":1110358,"mrr":false,"numeroConvocatoria":"908797","descripcion":"EF00499- L0125 3aC. Resolución por la que se abre la 3ª convocatoria 2026 para la concesión de subvenciones en régimen de concurrencia competitiva para la publicación en el extranjero de obras ilustradas.","descripcionLeng":"EF00499- L0125 3aC. Resolució per la qual s’obre la 3a convocatòria 2026 per a la concessió de subvencions en règim de concurrència competitiva per a la publicació a l’estranger d’obres il·lustrades","fechaRecepcion":"2026-05-28","nivel1":"AUTONOMICA","nivel2":"CATALUÑA","nivel3":"INSTITUT RAMON LLULL","codigoInvente":null},{"id":1110357,"mrr":false,"numeroConvocatoria":"908796","descripcion":"Convocatoria de Prácticas Erasmus+, curso 2026/2027.","descripcionLeng":null,"fechaRecepcion":"2026-05-28","nivel1":"OTROS","nivel2":"UNIVERSIDAD DE SALAMANCA","nivel3":null,"codigoInvente":"INV00005348"},{"id":1110354,"mrr":false,"numeroConvocatoria":"908793","descripcion":"Resolución SOD/PROY/20/26, de 26 de mayo de 2026, por la que se convoca para el año 2026 la línea de subvenciones a “proyectos de I+D en el sector de las Tecnologías de la Información y Comunicaciones (TIC)”, promovidas por SODERCAN, S.A.","descripcionLeng":null,"fechaRecepcion":"2026-05-28","nivel1":"AUTONOMICA","nivel2":"CANTABRIA","nivel3":"SOCIEDAD PARA EL DESARROLLO REGIONAL DE CANTABRIA, S.A.","codigoInvente":"INV00005144"},{"id":1110351,"mrr":false,"numeroConvocatoria":"908790","descripcion":"EF00499- L0124 2aC. Resolución por la que se abre la 2ª convocatoria del año 2026 para la concesión de subvenciones en régimen de concurrencia competitiva para la realización de actividades de promoción exterior de la literatura catalana y aranesa.","descripcionLeng":"EF00499- L0124 2aC. Resolució per la qual s’obre la 2a convocatòria de l’any 2026 per a la concessió de subvencions en règim de concurrència competitiva per a la realització d’activitats de promoció exterior de la literatura catalana i aranesa","fechaRecepcion":"2026-05-28","nivel1":"AUTONOMICA","nivel2":"CATALUÑA","nivel3":"INSTITUT RAMON LLULL","codigoInvente":null},{"id":1110350,"mrr":false,"numeroConvocatoria":"908789","descripcion":"EF00499- L0123 2aC. Resolución por la que se abre la 2ª convocatoria 2026 para la concesión de subvenciones en régimen de concurrencia competitiva para la movilidad de autores de la literatura catalana y aranesa fuera del dominio lingüístico de ambas leng","descripcionLeng":"EF00499- L0123 2aC. Resolució per la qual s’obre la 2a convocatòria 2026 per a la concessió de subvencions en règim de concurrència competitiva per a la mobilitat d'autors de la literatura catalana i aranesa fora del domini lingüístic d'ambdues llengües","fechaRecepcion":"2026-05-28","nivel1":"AUTONOMICA","nivel2":"CATALUÑA","nivel3":"INSTITUT RAMON LLULL","codigoInvente":null},{"id":1110348,"mrr":false,"numeroConvocatoria":"908787","descripcion":"CONVOCATORIA SUBVENCIÓN PROYECTOS CULTURALES","descripcionLeng":null,"fechaRecepcion":"2026-05-28","nivel1":"LOCAL","nivel2":"SAN LORENZO DE EL ESCORIAL","nivel3":"AYUNTAMIENTO DE SAN LORENZO DE EL ESCORIAL","codigoInvente":null},{"id":1110346,"mrr":false,"numeroConvocatoria":"908785","descripcion":"Acuerdo de Junta de Gobierno Local, de 15/5/2026, de Convocatoria Ayudas Finalistas para “Programa de vivienda\", \"Apoyo económico de suficiencia energética” y “Programa de apoyo a familias con menores a cargo”, año 2026.","descripcionLeng":null,"fechaRecepcion":"2026-05-28","nivel1":"LOCAL","nivel2":"CASTRILLÓN","nivel3":"AYUNTAMIENTO DE CASTRILLÓN","codigoInvente":null},{"id":1110344,"mrr":false,"numeroConvocatoria":"908783","descripcion":"V Premios TFG/TFM Cátedra UBE Plásticos Sostenibles","descripcionLeng":"Vé Premis TFG/TFM Càtedra Ube Plàstics Sostenibles","fechaRecepcion":"2026-05-28","nivel1":"OTROS","nivel2":"UNIVERSIDAD JAUME I DE CASTELLÓN","nivel3":null,"codigoInvente":"INV00005381"},{"id":1110341,"mrr":false,"numeroConvocatoria":"908780","descripcion":"CONVOCATORIA PÚBLICA DE SUBVENCIONES DESTINADA A MURGAS, COMPARSAS Y CHIRIGOTAS DE CARNAVAL DE PUERTOLLANO PARA EL AÑO 2026","descripcionLeng":null,"fechaRecepcion":"2026-05-28","nivel1":"LOCAL","nivel2":"PUERTOLLANO","nivel3":"AYUNTAMIENTO DE PUERTOLLANO","codigoInvente":null},{"id":1110340,"mrr":false,"numeroConvocatoria":"908779","descripcion":"BASES REGULADORAS DEL RÉGIMEN DE CONCESIÓN DE SUBVENCIONES DEL AYUNTAMIENTO DE INGENIO, PARA LA PROMOCIÓN CULTURAL A LAS ASOCIACIONES Y COLECTIVOS CULTURALES DEL MUNICIPIO, PARA EL AÑO 2026.","descripcionLeng":null,"fechaRecepcion":"2026-05-28","nivel1":"LOCAL","nivel2":"INGENIO","nivel3":"AYUNTAMIENTO DE INGENIO","codigoInvente":null},{"id":1110335,"mrr":false,"numeroConvocatoria":"908774","descripcion":"CONVOCATORIA CAMPAÑA \"GASTOS CORRIENTES DEL FUNCIONAMIENTO DE LAS ESCUELAS DE EDUCANDOS - ESCUELAS DE MÚSICA 2026\"","descripcionLeng":null,"fechaRecepcion":"2026-05-28","nivel1":"LOCAL","nivel2":"DIPUTACIÓN PROV. DE CASTELLÓN","nivel3":"DIPUTACIÓN PROVINCIAL DE CASTELLÓ/CASTELLÓN","codigoInvente":null},{"id":1110326,"mrr":false,"numeroConvocatoria":"908765","descripcion":"Convocatoria de ayudas para la adquisición de material escolar curso 2026/2027","descripcionLeng":null,"fechaRecepcion":"2026-05-28","nivel1":"LOCAL","nivel2":"CÁRTAMA","nivel3":"AYUNTAMIENTO DE CÁRTAMA","codigoInvente":null},{"id":1110321,"mrr":false,"numeroConvocatoria":"908760","descripcion":"CONVOCATORIA Y BASES REGULADORAS DEL XXXII CERTAMEN NACIONAL DE PINTURA RÁPIDA CIUDAD DE PALENCIA 2026.","descripcionLeng":null,"fechaRecepcion":"2026-05-28","nivel1":"LOCAL","nivel2":"PALENCIA","nivel3":"AYUNTAMIENTO DE PALENCIA","codigoInvente":null},{"id":1110313,"mrr":false,"numeroConvocatoria":"908752","descripcion":"CONVOCATORIA DE SUBVENCIONES A ENTIDADES ORGANIZADORAS DE FIESTAS, EN PUEBLOS, BARRIOS Y PARROQUIAS DEL CONCEJO DE OVIEDO 2026","descripcionLeng":null,"fechaRecepcion":"2026-05-28","nivel1":"LOCAL","nivel2":"OVIEDO","nivel3":"AYUNTAMIENTO DE OVIEDO","codigoInvente":null},{"id":1110312,"mrr":false,"numeroConvocatoria":"908751","descripcion":"Decreto de Alcaldía 321/2026, por el que se aprueban las bases reguladoras de las subvenciones que concederá el Ayuntamiento de Ibarra en Proyectos de cooperación para países en vías de desarrollo en el año 2026.","descripcionLeng":"321/2026 Alkate Dekretua, Ibarrako Udalak 2026.urtean garapen bidean dauden herrialdeetan lankidetza proiektuak sustatzeko dirulaguntzen oinarri arrautzaileak onartzen dituena. \n","fechaRecepcion":"2026-05-28","nivel1":"LOCAL","nivel2":"IBARRA","nivel3":"AYUNTAMIENTO DE IBARRA","codigoInvente":null},{"id":1110307,"mrr":false,"numeroConvocatoria":"908746","descripcion":"Convocatoria para el otorgamiento de ayudas para familias con vulnerabilidad económica para la realización de actividades extraescolares en materia de deportes para el curso 2025-2026","descripcionLeng":"Convocatòria per a l'atorgament d'ajuts per a famílies amb vulnerabilitat econòmica per a la realització d'activitats extraescolars en matèria d'esports pel curs 2025-2026","fechaRecepcion":"2026-05-28","nivel1":"LOCAL","nivel2":"SANTA CRISTINA D'ARO","nivel3":"AYUNTAMIENTO DE SANTA CRISTINA D'ARO","codigoInvente":null},{"id":1110304,"mrr":false,"numeroConvocatoria":"908743","descripcion":"FOMENTO DEL DEPORTE A TRAVÉS DE LA NATACIÓN EN PISCINAS CLIMATIZADAS 25-26","descripcionLeng":null,"fechaRecepcion":"2026-05-28","nivel1":"LOCAL","nivel2":"CARBAJOSA DE LA SAGRADA","nivel3":"AYUNTAMIENTO DE CARBAJOSA DE LA SAGRADA","codigoInvente":null},{"id":1110299,"mrr":false,"numeroConvocatoria":"908738","descripcion":"Convocatoria de 27 mayo de 2026, del Rectorado de la Universidad de León, por la que se convocan 10 ayudas de residencia para estudiantes de excelencia académica matriculados durante el curso académico 2026-2027 en estudios de Grado oficial en la ULE","descripcionLeng":null,"fechaRecepcion":"2026-05-28","nivel1":"OTROS","nivel2":"UNIVERSIDAD DE LEÓN","nivel3":null,"codigoInvente":"INV00005344"},{"id":1110296,"mrr":false,"numeroConvocatoria":"908735","descripcion":"CONVOCATORIA Y BASES ESPECÍFICAS DEL PREMIO ADRIÀ GUAL DEL INSTITUT DEL TEATRE 2026","descripcionLeng":"CONVOCATÒRIA I BASES ESPECÍFIQUES DEL PREMI ADRIÀ GUAL DE L'INSTITUT DEL TEATRE 2026","fechaRecepcion":"2026-05-28","nivel1":"LOCAL","nivel2":"DIPUTACIÓN PROV. DE BARCELONA","nivel3":"ORGANISMO AUTÒNOMO INSTITUT DEL TEATRE","codigoInvente":"INV00003606"},{"id":1110287,"mrr":false,"numeroConvocatoria":"908726","descripcion":"Convocatoria para la concesión de subvenciones a deportistas individuales de Santa Cristina de Aro para actividades deportivas año 2025","descripcionLeng":"Convocatòria per a l’atorgament de subvencions a esportistes individuals de Santa Cristina d’Aro per activitats esportives any 2025","fechaRecepcion":"2026-05-28","nivel1":"LOCAL","nivel2":"SANTA CRISTINA D'ARO","nivel3":"AYUNTAMIENTO DE SANTA CRISTINA D'ARO","codigoInvente":null},{"id":1110286,"mrr":false,"numeroConvocatoria":"908725","descripcion":"SUBVENCIÓN CLUBES DEPORTIVOS Y/O ENTIDADES DE PROMOCIÓN Y RECREACIÓN DEPORTIVA - AÑO 2026","descripcionLeng":null,"fechaRecepcion":"2026-05-28","nivel1":"LOCAL","nivel2":"CARBAJOSA DE LA SAGRADA","nivel3":"AYUNTAMIENTO DE CARBAJOSA DE LA SAGRADA","codigoInvente":null},{"id":1110284,"mrr":false,"numeroConvocatoria":"908723","descripcion":"CONVOCATORIA DE AYUDAS ECONÓMICAS PARA LA INNOVACIÓN\nPEDAGÓGICA Y TECNOLÓGICA EN CENTROS SOSTENIDOS CON\nFONDOS PÚBLICOS, DE SEGUNDO CICLO DE EDUCACIÓN INFANTIL\nY EDUCACIÓN PRIMARIA DE TRES CANTOS, PARA EL AÑO 2026.","descripcionLeng":null,"fechaRecepcion":"2026-05-28","nivel1":"LOCAL","nivel2":"TRES CANTOS","nivel3":"AYUNTAMIENTO DE TRES CANTOS","codigoInvente":null},{"id":1110281,"mrr":false,"numeroConvocatoria":"908720","descripcion":"Resolución de 27 de mayo de 2026, del Director del Instituto de Fomento de la Región de Murcia, de convocatoria plurianual de ayudas para incentivar la contratación de servicios de innovación por las Pymes regionales. Cheque empresa familiar.","descripcionLeng":null,"fechaRecepcion":"2026-05-28","nivel1":"AUTONOMICA","nivel2":"REGIÓN DE MURCIA","nivel3":"INSTITUTO DE FOMENTO DE LA REGIÓN DE MURCIA (INFO)","codigoInvente":"INV00003691"},{"id":1110277,"mrr":false,"numeroConvocatoria":"908716","descripcion":"CONVOCATORIA DE AYUDAS PARA ADQUISICIÓN DE LIBROS DE TEXTO Y MATERIAL ESCOLAR PARA EL CURSO 2026-2027","descripcionLeng":null,"fechaRecepcion":"2026-05-28","nivel1":"LOCAL","nivel2":"VILLANUEVA DE LA TORRE","nivel3":"AYUNTAMIENTO DE VILLANUEVA DE LA TORRE","codigoInvente":null},{"id":1110276,"mrr":false,"numeroConvocatoria":"908715","descripcion":"CONVOCATORIA PYME GLOBAL 2026 VISITA A FERIA SIEMA MAROC PARA EMPRESAS DE GIPUZKOA","descripcionLeng":"PYME GLOBALAREN DEIALDIA 2026 SIEMA MAROC AZOKARA BISITA GIPUZKOAKO ENPRESENTZAT","fechaRecepcion":"2026-05-28","nivel1":"OTROS","nivel2":"CÁMARA DE COMERCIO DE GUIPÚZCOA","nivel3":null,"codigoInvente":null},{"id":1110275,"mrr":false,"numeroConvocatoria":"908714","descripcion":"SUBVENCIÓN ASOCIACIONES O ENTIDADES SIN ÁNIMO DE LUCRO- AÑO 2026","descripcionLeng":null,"fechaRecepcion":"2026-05-28","nivel1":"LOCAL","nivel2":"CARBAJOSA DE LA SAGRADA","nivel3":"AYUNTAMIENTO DE CARBAJOSA DE LA SAGRADA","codigoInvente":null},{"id":1110268,"mrr":false,"numeroConvocatoria":"908707","descripcion":"Convocatoria de ayudas de escolarización del Ayuntamiento de Tres Cantos, destinadas a alumnos del segundo ciclo de Educación Infantil, Educación Primaria, Educación Secundaria Obligatoria, Formación Profesional (grado básico y medio) y alumnos de Centros","descripcionLeng":null,"fechaRecepcion":"2026-05-28","nivel1":"LOCAL","nivel2":"TRES CANTOS","nivel3":"AYUNTAMIENTO DE TRES CANTOS","codigoInvente":null},{"id":1110262,"mrr":false,"numeroConvocatoria":"908701","descripcion":"ACUERDO DE 15/05/2026 DE LA JUNTA DE GOBIERNO LOCAL APROBANDO LAS BASES QUE HAN DE REGIR LA CONVOCATORIA PÚBLICA PARA LA CONCESIÓN DE SUBVENCIONES A LAS ASOCIACIONES MUNICIPALES SIN ÁNIMO DE LUCRO Y CONVOCATORIA 2026 EN RÉGIMEN DE CONCURRENCIA COMPETITIVA","descripcionLeng":null,"fechaRecepcion":"2026-05-28","nivel1":"LOCAL","nivel2":"JEREZ DE LOS CABALLEROS","nivel3":"AYUNTAMIENTO DE JEREZ DE LOS CABALLEROS","codigoInvente":null},{"id":1110256,"mrr":false,"numeroConvocatoria":"908695","descripcion":"Convocatoria para el año 2026 de subvenciones a ONGD para actuaciones en materia de educación para la ciudadanía global y acciones de sensibilización sobre activistas en DD.HH (Subprograma 134A00, Cap. 4, Líneas S0271 y S0508).)","descripcionLeng":"Convocatoria per a 2026 de subvencions a ONGD per al finançament d¿actuacions en matèria d¿educació per a la ciutadania global i accions de sensibilització sobre activistes en drets humans (Subprograma 134A00, Cap. 4, Línies S0271 i S0508).","fechaRecepcion":"2026-05-28","nivel1":"AUTONOMICA","nivel2":"COMUNITAT VALENCIANA","nivel3":"SECRETARÍA AUTONÓMICA DE  FAMILIA Y SERVICIOS SOCIALES","codigoInvente":null},{"id":1110251,"mrr":false,"numeroConvocatoria":"908690","descripcion":"Convocatoria pública para presentar las solicitudes a las obras recogidas en las bases reguladoras de las ayudas económicas para actuaciones de mejora energética en edificios y vivienda en el término municipal de Lasarte-Oria.2026.","descripcionLeng":"Deialdi publikoa, Lasarte-Oriako udal-mugarteko eraikin eta etxebizitzetan energia hobetzeko jardueretarako diru-laguntzen oinarrietan jasotako obren, diru-laguntzetarako eskaerak aurkezteko.2026.","fechaRecepcion":"2026-05-28","nivel1":"LOCAL","nivel2":"LASARTE-ORIA","nivel3":"AYUNTAMIENTO DE LASARTE-ORIA","codigoInvente":null},{"id":1110248,"mrr":false,"numeroConvocatoria":"908687","descripcion":"Orden 26 de mayo de 2026, de la Consejería de Educación, por la que se convocan ayudas destinadas a financiar la contratación de personal técnico de apoyo a la investigación por las universidades públicas de CyL, para jóvenes incluidos en el SNGJ, cof UE","descripcionLeng":null,"fechaRecepcion":"2026-05-28","nivel1":"AUTONOMICA","nivel2":"CASTILLA Y LEÓN","nivel3":"CONSEJERÍA DE EDUCACIÓN","codigoInvente":null},{"id":1110244,"mrr":false,"numeroConvocatoria":"908683","descripcion":"Convocatoria de ocho becas para posgraduados 2026/2027","descripcionLeng":null,"fechaRecepcion":"2026-05-28","nivel1":"ESTADO","nivel2":"MINISTERIO DE LA PRESIDENCIA, JUSTICIA Y RELACIONES CON LAS CORTES","nivel3":"CONSEJO DE ADMINISTRACIÓN DEL PATRIMONIO NACIONAL","codigoInvente":null},{"id":1110242,"mrr":false,"numeroConvocatoria":"908681","descripcion":"Convocatoria de subvenciones destinadas a ayuntamientos y entidades locales menores de hasta 1.500 habitantes , para actividades del programa de juventud «Viu el Poble» 2026\n","descripcionLeng":"Convocatòria de subvencions destinades a ajuntaments  i entitats locals menors de fins a 1.500 habitants, per a activitats del programa de joventut «Viu el Poble» 2026","fechaRecepcion":"2026-05-28","nivel1":"LOCAL","nivel2":"DIPUTACIÓN PROV. DE VALENCIA","nivel3":"DIPUTACIÓN PROVINCIAL DE VALENCIA","codigoInvente":null},{"id":1110241,"mrr":false,"numeroConvocatoria":"908680","descripcion":"Decreto de Alcaldía 322/2026 por el que se aprueban las bases reguladoras de las subvenciones que concederá el Ayuntamiento de Ibarra a personas o asociaciones que trabajan en al ámbito de los servicios sociales.","descripcionLeng":"Alkate Dekretua 322/2026 Alkate Dekretua, Ibarrako Udalak 2026.urtean gizarte-zerbitzuen arloan diharduten herritarrei edota elkarteei emango zaizkien dirulaguntzen oinarri arautzaileak onartzen dituena.","fechaRecepcion":"2026-05-28","nivel1":"LOCAL","nivel2":"IBARRA","nivel3":"AYUNTAMIENTO DE IBARRA","codigoInvente":null},{"id":1110239,"mrr":false,"numeroConvocatoria":"908678","descripcion":"CONVOCATORIA DEL PLAN DE SUBVENCIONES PARA CLUBES DE LECTURA  “LEYENDO CON ...”  EN BIBLIOTECAS MUNICIPALES DE LA PROVINCIA DE TERUEL 2026.","descripcionLeng":null,"fechaRecepcion":"2026-05-28","nivel1":"LOCAL","nivel2":"DIPUTACIÓN PROV. DE TERUEL","nivel3":"DIPUTACIÓN PROVINCIAL DE TERUEL","codigoInvente":null},{"id":1110236,"mrr":false,"numeroConvocatoria":"908675","descripcion":"Por Acuerdo de 14/05/2026 del Consejo de Administración de SODEBUR, por el que se convoca la concesión de subvenciones dirigidas al mantenimiento y activación de los servicios empresariales que mejoren la calidad de vida en el medio rural de la Provincia","descripcionLeng":null,"fechaRecepcion":"2026-05-28","nivel1":"LOCAL","nivel2":"DIPUTACIÓN PROV. DE BURGOS","nivel3":"SOCIEDAD PARA EL DESARROLLO DE LA PROVINCIA DE BURGOS","codigoInvente":"INV00004827"},{"id":1110221,"mrr":false,"numeroConvocatoria":"908660","descripcion":"Decreto de alcaldía 323/2026 por el que se aprueban las bases reguladoras de las subvenciones que concederá el Ayuntamiento de Ibarra a asociaciones y entidades sin ánimo de lucro que promuevan la igualdad de género.","descripcionLeng":"323/2026 Alkate Dekretua, Ibarrako Udalak 2026.urtean genero berdintasuna sustatzen duten irabazi asmorik gabeko elkarteei eta entitateei laguntzeko oinarri arautzaileak onartzen dituena. ","fechaRecepcion":"2026-05-28","nivel1":"LOCAL","nivel2":"IBARRA","nivel3":"AYUNTAMIENTO DE IBARRA","codigoInvente":null},{"id":1110220,"mrr":false,"numeroConvocatoria":"908659","descripcion":"Orden de 25 de mayo de 2026 por la que se establecen las bases reguladoras y se convocan los Premios Extraordinarios de Bachillerato correspondientes al curso 2025/26 (código de procedimiento ED311A)","descripcionLeng":"Orde do 25 de maio de 2026 pola que se establecen as bases reguladoras e se convocan os Premios Extraordinarios de Bacharelato correspondentes ao curso 2025/26 (código de procedemento ED311A)","fechaRecepcion":"2026-05-28","nivel1":"AUTONOMICA","nivel2":"GALICIA","nivel3":"CONSELLERÍA DE EDUCACIÓN, CIENCIA, UNIVERSIDADES E FORMACIÓN PROFESIONAL","codigoInvente":null},{"id":1110219,"mrr":false,"numeroConvocatoria":"908658","descripcion":"Subvenciones Turismo Deportivo 2026","descripcionLeng":null,"fechaRecepcion":"2026-05-28","nivel1":"LOCAL","nivel2":"ALICANTE/ALACANT","nivel3":"AYUNTAMIENTO DE ALICANTE/ALACANT","codigoInvente":null},{"id":1110206,"mrr":false,"numeroConvocatoria":"908645","descripcion":"Decreto de alcaldía 324/2026, por el que se aprueban las bases reguladoras de las subvenciones que concederá el Ayuntamiento de Ibarra en materia de programas de políticas sociales, para las asociaciones de jubilados, en el año 2026.","descripcionLeng":"324/2026 Alkate Dekretua, Ibarrako Udalak 2026. urtean gizarte-politiketako jarduerak, erretiratuen elkarteentzako,  dirulaguntzen oinarri arautzaileak onartzen dituena.","fechaRecepcion":"2026-05-28","nivel1":"LOCAL","nivel2":"IBARRA","nivel3":"AYUNTAMIENTO DE IBARRA","codigoInvente":null},{"id":1110205,"mrr":false,"numeroConvocatoria":"908644","descripcion":"CONVOCATORIA DE PREMIOS PROVINCIALES DE LA JUVENTUD 2026","descripcionLeng":null,"fechaRecepcion":"2026-05-28","nivel1":"LOCAL","nivel2":"DIPUTACIÓN PROV. DE CASTELLÓN","nivel3":"DIPUTACIÓN PROVINCIAL DE CASTELLÓ/CASTELLÓN","codigoInvente":null}],"pageable":{"sort":{"sorted":true,"unsorted":false,"empty":false},"pageNumber":10,"pageSize":50,"offset":500,"unpaged":false,"paged":true},"last":false,"totalElements":10000,"totalPages":200,"sort":{"sorted":true,"unsorted":false,"empty":false},"first":false,"numberOfElements":50,"size":50,"number":10,"empty":false,"advertencia":"La reutilización de los datos del Sistema Nacional de Publicidad de Subvenciones y Ayudas Públicas está sujeta a una serie de restricciones y consideraciones legales. Consulte el aviso legal en https://www.infosubvenciones.es/bdnstrans/GE/es/avisolegal.Además, el usuario debe ser consciente que la información presentada es de naturaleza dinámica, y que los datos pueden ser sometidos a correcciones, inserciones, modificaciones y eliminaciones en momentos posteriores a su extracción. Accesos al API del sistema Nacional de Publicidad de Subvenciones y Ayudas Públicas. La Administración Presupuestaria, para salvaguardar la protección del acceso libre e irrestricto de los ciudadanos a este Portal y a su información podrá adoptar medidas restrictivas de acceso al API ante situaciones de manifiesto abuso del servicio, riesgos de seguridad, o uso fraudulento de la información descargada, de acuerdo con las buenas prácticas de gestión de datos abiertos (https://datos.gob.es/es/blog/limitaciones-la-consulta-de-una-api) establecidas por el Ministerio para la Transformación Digital y de la Función Pública."}