{"content":[{"id":1109564,"mrr":false,"numeroConvocatoria":"908003","descripcion":"Convocatoria Municipal de Subvenciones para Entidades privadas, sin ánimo de lucro, para el desarrollo de programas de INCLUSIÓN SOCIAL, AÑO 2026","descripcionLeng":null,"fechaRecepcion":"2026-05-26","nivel1":"LOCAL","nivel2":"BURGOS","nivel3":"AYUNTAMIENTO DE BURGOS","codigoInvente":null},{"id":1109562,"mrr":false,"numeroConvocatoria":"908001","descripcion":"Convenio de colaboración entre el Ayuntamiento de Ferrol y la entidad ALCER","descripcionLeng":"Convenio de colaboración entre el Concello de Ferrol e a entidade ALCER","fechaRecepcion":"2026-05-26","nivel1":"LOCAL","nivel2":"FERROL","nivel3":"AYUNTAMIENTO DE FERROL","codigoInvente":null},{"id":1109561,"mrr":false,"numeroConvocatoria":"908000","descripcion":"Resolución de 26 de mayo de 2026, por la que se convocan Subvenciones públicas regladas, en régimen de concurrencia competitiva,destinadas a la financiación de la oferta formativa de Formación Profesional en el Trabajo dirigida a personas trabajadoras aut","descripcionLeng":null,"fechaRecepcion":"2026-05-26","nivel1":"AUTONOMICA","nivel2":"ANDALUCÍA","nivel3":"CONSEJERÍA DE EMPLEO, EMPRESA Y TRABAJO AUTÓNOMO","codigoInvente":null},{"id":1109559,"mrr":false,"numeroConvocatoria":"907998","descripcion":"CONVOCATORIA PARA LA CONCESIÓN DE SUBVENCIONES PARA LA PROMOCIÓN DE PROYECTOS EDUCATIVOS ESPECÍFICOS DESARROLLADOS POR LOS CENTROS EDUCATIVOS. CURSO 2025-2026","descripcionLeng":null,"fechaRecepcion":"2026-05-26","nivel1":"LOCAL","nivel2":"BARBERÀ DEL VALLÈS","nivel3":"AYUNTAMIENTO DE BARBERÀ DEL VALLÈS","codigoInvente":null},{"id":1109558,"mrr":false,"numeroConvocatoria":"907997","descripcion":"CONVOCATORIA DE SUBVENCIONES DEL SERVICIO DE PRESIDENCIA DESTINADA AYUNTAMIENTOS Y ENTIDADES LOCALES MENORES DE ALBACETE PARA LA CONTRATACIÓN DE PERSONAL Y EMPRESAS DE SERVICIOS PARA EL MANTENIMIENTO DE INFRAESTRUCTURAS Y ESPACIOS MUNICIPALES","descripcionLeng":null,"fechaRecepcion":"2026-05-26","nivel1":"LOCAL","nivel2":"DIPUTACIÓN PROV. DE ALBACETE","nivel3":"DIPUTACIÓN PROVINCIAL DE ALBACETE","codigoInvente":null},{"id":1109556,"mrr":false,"numeroConvocatoria":"907995","descripcion":"PREMIO HISTÓRICO-LITERARIO CASTILLO DE MATRERA 2026/27","descripcionLeng":null,"fechaRecepcion":"2026-05-26","nivel1":"LOCAL","nivel2":"VILLAMARTÍN","nivel3":"AYUNTAMIENTO DE VILLAMARTÍN","codigoInvente":null},{"id":1109552,"mrr":false,"numeroConvocatoria":"907991","descripcion":"Concurso para la selección del cartel de la portada del programa de Fiestas de Septiembre de 2026.","descripcionLeng":"Concurs per a la selecció del cartell de la portada del programa de Festes de Setembre de 2026.","fechaRecepcion":"2026-05-26","nivel1":"LOCAL","nivel2":"BETXÍ","nivel3":"AYUNTAMIENTO DE BETXÍ","codigoInvente":null},{"id":1109551,"mrr":false,"numeroConvocatoria":"907990","descripcion":"Convenio de colaboración entre el Ayuntamiento de Ferrol y la Asociación de persoas xordas de Ferrolterra","descripcionLeng":"convenio de colaboración entre o Concello de Ferrol e a Asociación de persoas xordas de Ferrolterra","fechaRecepcion":"2026-05-26","nivel1":"LOCAL","nivel2":"FERROL","nivel3":"AYUNTAMIENTO DE FERROL","codigoInvente":null},{"id":1109549,"mrr":false,"numeroConvocatoria":"907988","descripcion":"CONVOCATORIA PÚBLICA PARA LA CONCESIÓN DE SUBVENCIONES DE FINANCIACIÓN DE PLAZAS CONCERTADAS CON ASOCIACIONES JUVENILES PARA LA PARTICIPACIÓN DE POBLACION INFANTO-JUVENIL EN CAMPAMENTOS Y MARCHAS VOLANTES 2026","descripcionLeng":null,"fechaRecepcion":"2026-05-26","nivel1":"LOCAL","nivel2":"PALENCIA","nivel3":"AYUNTAMIENTO DE PALENCIA","codigoInvente":null},{"id":1109538,"mrr":false,"numeroConvocatoria":"907977","descripcion":"Resolución de 25 de mayo de 2026, del vicepresidente tercero y conseller de Medio Ambiente, Infraestructuras, Territorio y de la Recuperación, por la que se establecen las bases reguladoras de las ayudas al voluntariado ambiental (PIFVOL 2026)","descripcionLeng":"Resolució de 25 de maig de 2026, del vicepresident tercer i conseller de Medi Ambient, Infraestructures, Territori i de la Recuperació, per la qual s'establixen les bases reguladores de les ajudes al voluntariat ambiental (PIFVOL 2026)","fechaRecepcion":"2026-05-26","nivel1":"AUTONOMICA","nivel2":"COMUNITAT VALENCIANA","nivel3":"SECRETARÍA AUTONÓMICA DE MEDIO AMBIENTE  Y TERRITORIO","codigoInvente":null},{"id":1109537,"mrr":false,"numeroConvocatoria":"907976","descripcion":"RESOLUCIÓN DE LA SECRETARÍA DE ESTADO DE EDUCACIÓN POR LA QUE SE CONVOCAN AYUDAS PARA SUFRAGAR LOS SERVICIOS DE TRANSPORTE ESCOLAR PARA EL ALUMNADO MATRICULADO EN CENTROS PÚBLICOS DOCENTES NO UNIVERSITARIOS EN CEUTA Y MELILLA EN EL CURSO 2026-2027","descripcionLeng":null,"fechaRecepcion":"2026-05-26","nivel1":"ESTADO","nivel2":"MINISTERIO DE EDUCACIÓN, FORMACIÓN PROFESIONAL Y DEPORTES","nivel3":"SECRETARÍA DE ESTADO DE EDUCACIÓN","codigoInvente":null},{"id":1109535,"mrr":false,"numeroConvocatoria":"907974","descripcion":"42º CERTAMEN BAILES REGIONALES DE VILLAMARTIN 2026","descripcionLeng":null,"fechaRecepcion":"2026-05-26","nivel1":"LOCAL","nivel2":"VILLAMARTÍN","nivel3":"AYUNTAMIENTO DE VILLAMARTÍN","codigoInvente":null},{"id":1109534,"mrr":false,"numeroConvocatoria":"907973","descripcion":"Subvenciones Deporte Federado 2026","descripcionLeng":null,"fechaRecepcion":"2026-05-26","nivel1":"LOCAL","nivel2":"ALICANTE/ALACANT","nivel3":"AYUNTAMIENTO DE ALICANTE/ALACANT","codigoInvente":null},{"id":1109533,"mrr":false,"numeroConvocatoria":"907972","descripcion":"Subvenciones Alto Nivel 2026","descripcionLeng":null,"fechaRecepcion":"2026-05-26","nivel1":"LOCAL","nivel2":"ALICANTE/ALACANT","nivel3":"AYUNTAMIENTO DE ALICANTE/ALACANT","codigoInvente":null},{"id":1109530,"mrr":false,"numeroConvocatoria":"907969","descripcion":"Subvención concurrencia competitiva para el concurso del Cartel de fiesta Mayor de Viladecavalls 2026","descripcionLeng":"Subvenció concurrència competitiva per el concurs del Cartell de Festa Major de Viladecavalls 2026","fechaRecepcion":"2026-05-26","nivel1":"LOCAL","nivel2":"VILADECAVALLS","nivel3":"AYUNTAMIENTO DE VILADECAVALLS","codigoInvente":null},{"id":1109526,"mrr":false,"numeroConvocatoria":"907965","descripcion":"Subvenciones para las asociaciones del trabajo autónomo en Cataluña, para el fomento de las actividades que les son propias y para sufragar sus gastos de funcionamiento.","descripcionLeng":"Subvencions per a les associacions del treball autònom a Catalunya, per al foment de les activitats que els són pròpies i per a sufragar les seves despeses de funcionament.","fechaRecepcion":"2026-05-26","nivel1":"AUTONOMICA","nivel2":"CATALUÑA","nivel3":"DEPARTAMENT D'EMPRESA I TREBALL  ","codigoInvente":null},{"id":1109525,"mrr":false,"numeroConvocatoria":"907964","descripcion":"Convocatoria que ha de regir en el otorgamiento de las ayudas económicas individuales a usuarios/as de la Unidad Orgánica de Infancia y Familia del IASS para el ejercicio 2026.","descripcionLeng":null,"fechaRecepcion":"2026-05-26","nivel1":"LOCAL","nivel2":"CABILDO INSULAR DE TENERIFE","nivel3":"INSTITUTO INSULAR DE ATENCIÓN SOCIAL Y SOCIO-SANITARIA","codigoInvente":"INV00003507"},{"id":1109524,"mrr":false,"numeroConvocatoria":"907963","descripcion":"RESOLUCIÓN DE LA SECRETARÍA DE ESTADO DE EDUCACIÓN POR LA QUE SE CONVOCAN AYUDAS PARA SUFRAGAR LOS SERVICIOS DE COMEDOR ESCOLAR PARA EL ALUMNADO MATRICULADO EN CENTROS DOCENTES SOSTENIDOS CON FONDOS PÚBLICOS NO UNIVERSITARIOS EN CEUTA Y MELILLA 2026-2027","descripcionLeng":null,"fechaRecepcion":"2026-05-26","nivel1":"ESTADO","nivel2":"MINISTERIO DE EDUCACIÓN, FORMACIÓN PROFESIONAL Y DEPORTES","nivel3":"SECRETARÍA DE ESTADO DE EDUCACIÓN","codigoInvente":null},{"id":1109522,"mrr":false,"numeroConvocatoria":"907961","descripcion":"Convocatoria 2/2026 de ayudas LEADER 2023-2027 GAL ARACOVE","descripcionLeng":null,"fechaRecepcion":"2026-05-26","nivel1":"OTROS","nivel2":"ARACOVE - ASOCIACIÓN DE DESARROLLO RURAL ARANJUEZ-COMARCA VEGAS","nivel3":null,"codigoInvente":null},{"id":1109518,"mrr":false,"numeroConvocatoria":"907957","descripcion":"CONVOCATORIA 2026 DE AYUDAS INDIVIDUALES PARA SUFRAGAR LOS GASTOS EN LA VIVIENDA HABITUAL A DESEMPLEADOS DE LARGA DURACIÓN Y PENSIONISTAS CON POCOS RECURSOS ECONÓMICOS EN CALP PARA EL EJERCICIO 2025","descripcionLeng":null,"fechaRecepcion":"2026-05-26","nivel1":"LOCAL","nivel2":"CALP","nivel3":"AYUNTAMIENTO DE CALP","codigoInvente":null},{"id":1109515,"mrr":false,"numeroConvocatoria":"907954","descripcion":"Premios a la excelencia deportiva año 2026","descripcionLeng":null,"fechaRecepcion":"2026-05-26","nivel1":"LOCAL","nivel2":"COLMENAR VIEJO","nivel3":"AYUNTAMIENTO DE COLMENAR VIEJO","codigoInvente":null},{"id":1109500,"mrr":false,"numeroConvocatoria":"907939","descripcion":"BECAS FORMATIVAS PARA JÓVENES ESTUDIANTES MEDIANTE LA REALIZACIÓN DE PRÁCTICAS FORMATIVAS EN EL AYUNTAMIENTO DE LORIGUILLA “LORITEBECA\" 2026","descripcionLeng":null,"fechaRecepcion":"2026-05-26","nivel1":"LOCAL","nivel2":"LORIGUILLA","nivel3":"AYUNTAMIENTO DE LORIGUILLA","codigoInvente":null},{"id":1109496,"mrr":false,"numeroConvocatoria":"907935","descripcion":"Ayudas en especie servicios de asistencias técnicas y consultoría en Latinoamérica en el marco de la Estrategia de Internacionalización de la Economía Canaria","descripcionLeng":null,"fechaRecepcion":"2026-05-26","nivel1":"AUTONOMICA","nivel2":"CANARIAS","nivel3":"CONSEJERÍA DE ECONOMÍA, INDUSTRIA, COMERCIO Y AUTÓNOMOS","codigoInvente":null},{"id":1109495,"mrr":false,"numeroConvocatoria":"907934","descripcion":"Convocatoria de proyectos de cooperación al desarrollo del año 2026","descripcionLeng":null,"fechaRecepcion":"2026-05-26","nivel1":"AUTONOMICA","nivel2":"CANARIAS","nivel3":"PRESIDENCIA DEL GOBIERNO","codigoInvente":null},{"id":1109489,"mrr":false,"numeroConvocatoria":"907928","descripcion":"BASES DE LA CONVOCATORIA POR LAS QUE SE RIGE LA CONCESIÓN DE SUBVENCIONES A ENTIDADES PRIVADAS Y PÚBLICAS PARA EL MANTENIMIENTO DE INSTALACIONES Y LA REALIZACIÓN DE ACTIVIDADES DEPORTIVAS, CORRESPONDIENTE AL EJERCICIO 2026.","descripcionLeng":null,"fechaRecepcion":"2026-05-26","nivel1":"LOCAL","nivel2":"SEGORBE","nivel3":"AYUNTAMIENTO DE SEGORBE","codigoInvente":null},{"id":1109486,"mrr":false,"numeroConvocatoria":"907925","descripcion":"CONCURS DE VESTITS D`EPOCA FIRA DEL VAPOR 2026","descripcionLeng":null,"fechaRecepcion":"2026-05-26","nivel1":"LOCAL","nivel2":"SANT VICENÇ DE CASTELLET","nivel3":"AYUNTAMIENTO DE SANT VICENÇ DE CASTELLET","codigoInvente":null},{"id":1109482,"mrr":false,"numeroConvocatoria":"907921","descripcion":"CONVOCATORIA DE SUBVENCIONES PARA LA REALIZACIÓN DE PROYECTOS CULTURALES Y/O CELEBRACIÓN DE EFEMÉRIDES DESTINADA A ASOCIACIONES Y COLECTIVOS CULTURALES, SIN ÁNIMO DE LUCRO, 2026","descripcionLeng":null,"fechaRecepcion":"2026-05-26","nivel1":"LOCAL","nivel2":"DIPUTACIÓN PROV. DE CUENCA","nivel3":"DIPUTACIÓN PROVINCIAL DE CUENCA","codigoInvente":null},{"id":1109481,"mrr":false,"numeroConvocatoria":"907920","descripcion":"CONVOCATORIA SUBVENCIONES PARA LA REALIZACIÓN DE PROGRAMAS DE LAS UNIVERSIDADES POPULARES Y/O ESCUELAS DE MÚSICA 2026","descripcionLeng":null,"fechaRecepcion":"2026-05-26","nivel1":"LOCAL","nivel2":"DIPUTACIÓN PROV. DE CUENCA","nivel3":"DIPUTACIÓN PROVINCIAL DE CUENCA","codigoInvente":null},{"id":1109480,"mrr":false,"numeroConvocatoria":"907919","descripcion":"CONVOCATORIA DE AYUDAS A LAS AMPAS DE LA PROVINCIA DE CUENCA EN EL AÑO 2026","descripcionLeng":null,"fechaRecepcion":"2026-05-26","nivel1":"LOCAL","nivel2":"DIPUTACIÓN PROV. DE CUENCA","nivel3":"DIPUTACIÓN PROVINCIAL DE CUENCA","codigoInvente":null},{"id":1109477,"mrr":false,"numeroConvocatoria":"907916","descripcion":"AYUDAS TALENTO_JUNIOR2026","descripcionLeng":"AJUDES TALENT_JUNIOR2026","fechaRecepcion":"2026-05-26","nivel1":"AUTONOMICA","nivel2":"ILLES BALEARS","nivel3":"DIRECCIÓN GENERAL DE UNIVERSIDADES, INVESTIGACIÓN Y ENSEÑANZAS ARTÍSTICAS SUPERIORES","codigoInvente":null},{"id":1109476,"mrr":false,"numeroConvocatoria":"907915","descripcion":"ayudas destinadas a promover la continuidad de las empresas de las Illes Balears mediante el apoyo al relevo generacional para el año 2026","descripcionLeng":"ajuts destinats a promoure la continuïtat de les empreses de les Illes Balears mitjançant el suport al relleu generacional per a l’any 2026","fechaRecepcion":"2026-05-26","nivel1":"AUTONOMICA","nivel2":"ILLES BALEARS","nivel3":"DIRECCIÓN GENERAL DE COMERCIO Y EMPRESA","codigoInvente":null},{"id":1109475,"mrr":false,"numeroConvocatoria":"907914","descripcion":"Subvenciones del Servicio de Igualdad a entidades deportivas sin ánimo de lucro del Ayuntamiento de Vigo para la promoción del deporte femenino del año 2026","descripcionLeng":"Subvencións do Servizo de Igualdade a entidades deportivas sen ánimo de lucro do Concello de Vigo para a promoción do deporte feminino do ano 2026","fechaRecepcion":"2026-05-25","nivel1":"LOCAL","nivel2":"VIGO","nivel3":"AYUNTAMIENTO DE VIGO","codigoInvente":null},{"id":1109460,"mrr":false,"numeroConvocatoria":"907899","descripcion":"Convocatoria para la Gestión y Conservación de Espacios Naturales (GCEN), ejercicio 2026.","descripcionLeng":"Convocatòria per a la Gestió i Conservació d'Espais Naturals (GCEN), exercici 2026.","fechaRecepcion":"2026-05-25","nivel1":"LOCAL","nivel2":"DIPUTACIÓN PROV. DE VALENCIA","nivel3":"DIPUTACIÓN PROVINCIAL DE VALENCIA","codigoInvente":null},{"id":1109448,"mrr":false,"numeroConvocatoria":"907887","descripcion":"Resolución de Alcaldía nº 1434 de 22 de mayo de 2026 de la convocatoria para la concesión de cuatro becas de formación para el año 2026 \"UTIEL JO-B 2026\"","descripcionLeng":null,"fechaRecepcion":"2026-05-25","nivel1":"LOCAL","nivel2":"UTIEL","nivel3":"AYUNTAMIENTO DE UTIEL","codigoInvente":null},{"id":1109446,"mrr":false,"numeroConvocatoria":"907885","descripcion":"Resolución de 25/05/2026 del Instituto de las Mujeres, O.A. que aprueba convocatoria de subvenciones a organizaciones sindicales para el ejercicio de las funciones de negociación, elaboración, implantación, seguimiento y evaluación de planes de igualdad","descripcionLeng":null,"fechaRecepcion":"2026-05-25","nivel1":"ESTADO","nivel2":"MINISTERIO DE IGUALDAD","nivel3":"INSTITUTO DE LAS MUJERES","codigoInvente":"INV00003697"},{"id":1109443,"mrr":false,"numeroConvocatoria":"907882","descripcion":"RESOLUCIÓN de 24/05/2026, bases reguladoras para concesión subvenciones destinadas a actuaciones de apertura de fosas y exhumaciones de víctimas Guerra Civil y dictadura, y se convocan para el ejercicio 2026.","descripcionLeng":"RESOLUCIÓ de 24/05/2026, bases reguladores per a concessió subvencions destinades a actuacions d'obertura de fosses i exhumacions de víctimes Guerra Civil i dictadura, i es convoquen per a l'exercici 2026.","fechaRecepcion":"2026-05-25","nivel1":"AUTONOMICA","nivel2":"COMUNITAT VALENCIANA","nivel3":"SECRETARÍA AUTONÓMICA DE JUSTICIA Y AUTOGOBIERNO","codigoInvente":null},{"id":1109442,"mrr":false,"numeroConvocatoria":"907881","descripcion":"Ayudas para la difusión de conocimiento científico en Ciencias Sociales para estudiantes de Grado de la Facultat de Ciències Socials 2025","descripcionLeng":"Ajudes per a la difusió de coneixement científic en Ciències Socials per a estudiants de Grau de la Facultat de Ciències Socials 2025","fechaRecepcion":"2026-05-25","nivel1":"OTROS","nivel2":"UNIVERSITAT DE VALÈNCIA (ESTUDI GENERAL)","nivel3":null,"codigoInvente":"INV00005380"},{"id":1109441,"mrr":false,"numeroConvocatoria":"907880","descripcion":"RESOLUCIÓN 22/05/2026 de la presidenta del IVACE, por la que se convocan subvenciones a proyectos de inversiones transformadoras en digitalización en empresas industriales de mediana capitalización y tamaño intermedio de la Comunitat Valenciana para 2026","descripcionLeng":"RESOLUCIÓ 22/05/2026 de la presidenta de l’IVACE, per la qual es convoquen subvencions a projectes d’inversions transformadores en digitalització en empreses industrials de capitalització mitjana i grandària intermèdia de la Comunitat Valenciana per 2026","fechaRecepcion":"2026-05-25","nivel1":"AUTONOMICA","nivel2":"COMUNITAT VALENCIANA","nivel3":"INSTITUTO VALENCIANO DE COMPETITIVIDAD EMPRESARIAL (IVACE)","codigoInvente":"INV00003755"},{"id":1109437,"mrr":false,"numeroConvocatoria":"907876","descripcion":"Resolución de Concejal de Área de 21 de mayo de 2026 que aprueba la convocatoria de la VII edición del concurso Fase C","descripcionLeng":null,"fechaRecepcion":"2026-05-25","nivel1":"LOCAL","nivel2":"LOGROÑO","nivel3":"AYUNTAMIENTO DE LOGROÑO","codigoInvente":null},{"id":1109436,"mrr":false,"numeroConvocatoria":"907875","descripcion":"ORDEN DE LA CONSEJERÍA DE EDUCACIÓN Y FORMACIÓN PROFESIONAL, POR LA QUE SE CONVOCAN AYUDAS AL ESTUDIO PARA EL ALUMNADO DE NIVELES OBLIGATORIOS DE LA ENSEÑANZA ESCOLARIZADO EN CENTROS SOSTENIDOS CON FONDOS PÚBLICOS DURANTE EL CURSO 2026-2027","descripcionLeng":null,"fechaRecepcion":"2026-05-25","nivel1":"AUTONOMICA","nivel2":"REGIÓN DE MURCIA","nivel3":"CONSEJERÍA DE EDUCACIÓN Y FORMACIÓN PROFESIONAL","codigoInvente":null},{"id":1109430,"mrr":false,"numeroConvocatoria":"907869","descripcion":"Ayudas al transporte por la realización de prácticas externas curriculares curso 2025-26 para estudiantes de grado y máster de la Facultat de CC Socials","descripcionLeng":"Ajudes al transport per la realització de pràctiques externes curriculars curs 2025-26 per a estudiants de grau i màster de la Facultat de CC Socials","fechaRecepcion":"2026-05-25","nivel1":"OTROS","nivel2":"UNIVERSITAT DE VALÈNCIA (ESTUDI GENERAL)","nivel3":null,"codigoInvente":"INV00005380"},{"id":1109427,"mrr":false,"numeroConvocatoria":"907866","descripcion":"Bases de la convocatoria del programa de subvenciones dirigidas la entidades deportivas para la financiación de proyectos de organización y participación en fases de ascenso a competiciones nacionales y campeonatos de España durante el año 2026","descripcionLeng":"Bases da convocatoria do programa de subvencións dirixidas a entidades deportivas para a financiación de proxectos de participación en fases de ascenso a competicións nacionais e campionatos de España durante o ano 2026","fechaRecepcion":"2026-05-25","nivel1":"LOCAL","nivel2":"CARBALLO","nivel3":"AYUNTAMIENTO DE CARBALLO","codigoInvente":null},{"id":1109423,"mrr":false,"numeroConvocatoria":"907862","descripcion":"Bases de la convocatoria del programa de subvenciones dirigidas la entidades deportivas para la financiación de proyectos de organización de eventos deportivos y actividades deportivas de carácter extraordinario durante el año 2026","descripcionLeng":"Bases da convocatoria do programa de subvencións dirixidas a entidades deportivas para a financiación de proxectos de Eventos Deportivos e actividades deportivas de carácter extraordinario durante o ano 2026","fechaRecepcion":"2026-05-25","nivel1":"LOCAL","nivel2":"CARBALLO","nivel3":"AYUNTAMIENTO DE CARBALLO","codigoInvente":null},{"id":1109422,"mrr":false,"numeroConvocatoria":"907861","descripcion":"Resolución 1415/2026 de 19/05/2026 por la que se convocan para la anualidad 2026 subvenciones destinadas a Asociaciones Vecinales de Santa Cruz de La Palma para el desarrollo de proyectos socioculturales y gastos de funcionamiento y gestión","descripcionLeng":null,"fechaRecepcion":"2026-05-25","nivel1":"LOCAL","nivel2":"SANTA CRUZ DE LA PALMA","nivel3":"AYUNTAMIENTO DE SANTA CRUZ DE LA PALMA","codigoInvente":null},{"id":1109421,"mrr":false,"numeroConvocatoria":"907860","descripcion":"RESOLUCIÓN DE ALCALDÍA PARA CONVOCAR AYUDA FOMENTO AUTOEMPLEO 2026","descripcionLeng":null,"fechaRecepcion":"2026-05-25","nivel1":"LOCAL","nivel2":"ROCAFORT","nivel3":"AYUNTAMIENTO DE ROCAFORT","codigoInvente":null},{"id":1109420,"mrr":false,"numeroConvocatoria":"907859","descripcion":"CONVOCATORIA DE AYUDAS MEDIANTE ACTIVIDADES PARA FORMACIÓN PROFESIONAL Y ADQUISICIÓN DE COMPETENCIAS (7201_01), EN EL SECTOR AGRARIO, AGROALIMENTARIO, FORESTAL Y EL MEDIO RURAL (PEPAC) 2023-2027, ANUALIDADES 2026 A 2028","descripcionLeng":null,"fechaRecepcion":"2026-05-25","nivel1":"AUTONOMICA","nivel2":"REGIÓN DE MURCIA","nivel3":"CONSEJERÍA DE AGUA, AGRICULTURA, GANADERÍA Y PESCA","codigoInvente":null},{"id":1109418,"mrr":false,"numeroConvocatoria":"907857","descripcion":"Convocatoria de subvenciones a AMPAs del ámbito municipal de Balmaseda, para la realización de actividades extraescolares durante 2026 en Balmaseda","descripcionLeng":"2026. urtean zehar Balmasedako udalerrian guraso elkarteek eskolatik kanpoko ekintzak antolatzeko diru-laguntzen deialdia.","fechaRecepcion":"2026-05-25","nivel1":"LOCAL","nivel2":"BALMASEDA","nivel3":"AYUNTAMIENTO DE BALMASEDA","codigoInvente":null},{"id":1109414,"mrr":false,"numeroConvocatoria":"907853","descripcion":"RESOLUCIÓN DE ALCALDÍA PARA CONVOCAR AYUDA ECONÓMICA A DESEMPLEADOS PARA LA OBTENCIÓN DEL PERMISO DE CONDUCIR 2026","descripcionLeng":null,"fechaRecepcion":"2026-05-25","nivel1":"LOCAL","nivel2":"ROCAFORT","nivel3":"AYUNTAMIENTO DE ROCAFORT","codigoInvente":null},{"id":1109410,"mrr":false,"numeroConvocatoria":"907849","descripcion":"Beca de Arqueología José Llorca 2026-2027","descripcionLeng":null,"fechaRecepcion":"2026-05-25","nivel1":"LOCAL","nivel2":"VALENCIA","nivel3":"AYUNTAMIENTO DE VALENCIA","codigoInvente":null},{"id":1109408,"mrr":false,"numeroConvocatoria":"907847","descripcion":"Programa de subvenciones a entidades deportivas de la provincia, sin ánimo de lucro, para el desarrollo de eventos deportivos de competición oficial en el territorio provincial de A Coruña durante o ano 2026. (FO103E/2026)","descripcionLeng":"Programa de subvencións a entidades deportivas da provincia, sen ánimo de lucro, para o desenvolvemento de eventos deportivos de competición oficial no territorio provincial da Coruña durante o ano 2026. (FO103E/2026)","fechaRecepcion":"2026-05-25","nivel1":"LOCAL","nivel2":"DIPUTACIÓN PROV. DE A CORUÑA","nivel3":"DIPUTACIÓN PROVINCIAL DE CORUÑA, A","codigoInvente":null}],"pageable":{"sort":{"sorted":true,"unsorted":false,"empty":false},"pageNumber":21,"pageSize":50,"offset":1050,"unpaged":false,"paged":true},"last":false,"totalElements":10000,"totalPages":200,"first":false,"sort":{"sorted":true,"unsorted":false,"empty":false},"numberOfElements":50,"size":50,"number":21,"empty":false,"advertencia":"La reutilización de los datos del Sistema Nacional de Publicidad de Subvenciones y Ayudas Públicas está sujeta a una serie de restricciones y consideraciones legales. Consulte el aviso legal en https://www.infosubvenciones.es/bdnstrans/GE/es/avisolegal.Además, el usuario debe ser consciente que la información presentada es de naturaleza dinámica, y que los datos pueden ser sometidos a correcciones, inserciones, modificaciones y eliminaciones en momentos posteriores a su extracción. Accesos al API del sistema Nacional de Publicidad de Subvenciones y Ayudas Públicas. La Administración Presupuestaria, para salvaguardar la protección del acceso libre e irrestricto de los ciudadanos a este Portal y a su información podrá adoptar medidas restrictivas de acceso al API ante situaciones de manifiesto abuso del servicio, riesgos de seguridad, o uso fraudulento de la información descargada, de acuerdo con las buenas prácticas de gestión de datos abiertos (https://datos.gob.es/es/blog/limitaciones-la-consulta-de-una-api) establecidas por el Ministerio para la Transformación Digital y de la Función Pública."}