{"content":[{"id":1116797,"mrr":false,"numeroConvocatoria":"915236","descripcion":"ACUERDO DE LA JUNTA DE GOBIERNO LOCAL DEL AYUNTAMIENTO DE TOLEDO POR EL QUE SE APRUEBA LA CONVOCATORIA DE SUBVENCIONES PARA PROYECTOS DE EMERGENCIA Y ACCIÓN HUMANITARIA 2026.","descripcionLeng":null,"fechaRecepcion":"2026-06-24","nivel1":"LOCAL","nivel2":"TOLEDO","nivel3":"AYUNTAMIENTO DE TOLEDO","codigoInvente":null},{"id":1116788,"mrr":false,"numeroConvocatoria":"915227","descripcion":"SUBVENCIONES ASOCIACIONES DEPORTIVAS AYUNTAMIENTO DE TARAZONA 2026","descripcionLeng":null,"fechaRecepcion":"2026-06-24","nivel1":"LOCAL","nivel2":"TARAZONA","nivel3":"AYUNTAMIENTO DE TARAZONA","codigoInvente":null},{"id":1116786,"mrr":false,"numeroConvocatoria":"915225","descripcion":"CONVOCATORIA SUBVENCIONES A ENTIDADES CULTURALES Y DEPORTIVAS EN REGIMEN DE CONCURRENCIA COMPETITIVA  AÑO 2026","descripcionLeng":null,"fechaRecepcion":"2026-06-24","nivel1":"LOCAL","nivel2":"SALAS","nivel3":"AYUNTAMIENTO DE SALAS","codigoInvente":null},{"id":1116782,"mrr":false,"numeroConvocatoria":"915221","descripcion":"Acuerdo del Consejo Ejecutivo de 14.04.2025, relativo a las bases de las ayudas de minimis del Consejo Insular de Menorca al tejido productivo, cooperativo, comercial y determinadas empresas de servicios de Menorca y convocatoria 2025","descripcionLeng":"Acord del Consell Executiu de 14.04.2025, relatiu a les bases dels ajuts de minimis del Consell Insular de Menorca al teixit productiu, cooperatiu, comercial i determinades empreses de serveis de Menorca y convocatoria 2025","fechaRecepcion":"2026-06-24","nivel1":"LOCAL","nivel2":"CONSEJO INSULAR DE MENORCA","nivel3":"CONSELL INSULAR DE MENORCA","codigoInvente":null},{"id":1116781,"mrr":false,"numeroConvocatoria":"915220","descripcion":"Orden de 24 de junio de 2026, por la que se conviocan Subvenciones a EE Privadas para la realización de actuaciones de interés general para atender fines sociales con cargo a 0,7% del IRPF, 2026-Linea 2 Inversión Obras","descripcionLeng":null,"fechaRecepcion":"2026-06-24","nivel1":"AUTONOMICA","nivel2":"ANDALUCÍA","nivel3":"CONSEJERÍA DE INCLUSIÓN SOCIAL, JUVENTUD, FAMILIAS E IGUALDAD","codigoInvente":null},{"id":1116779,"mrr":false,"numeroConvocatoria":"915218","descripcion":"AYUDAS MERCADOS Y GALERÍAS COMERCIALES 2026","descripcionLeng":null,"fechaRecepcion":"2026-06-24","nivel1":"AUTONOMICA","nivel2":"COMUNIDAD DE MADRID","nivel3":"CONSEJERÍA ECONOMÍA, HACIENDA Y EMPLEO","codigoInvente":null},{"id":1116772,"mrr":false,"numeroConvocatoria":"915211","descripcion":"Convocatoria de las subvenciones \"Tenerife Joven en Acción - Impulso a Iniciativas Juveniles de Empresas, Asociaciones y Agrupaciones Informales 2026”","descripcionLeng":null,"fechaRecepcion":"2026-06-24","nivel1":"LOCAL","nivel2":"CABILDO INSULAR DE TENERIFE","nivel3":"CABILDO INSULAR DE TENERIFE","codigoInvente":null},{"id":1116771,"mrr":false,"numeroConvocatoria":"915210","descripcion":"Convocatoria  de subvenciones a clubes, sociedades anónimas deportivas de máximo nivel de la provincia de Burgos y delegaciones provinciales de Burgos de las distintas federaciones durante la temporada 2025/26 o 2026","descripcionLeng":null,"fechaRecepcion":"2026-06-24","nivel1":"LOCAL","nivel2":"DIPUTACIÓN PROV. DE BURGOS","nivel3":"INSTITUTO PARA EL DEPORTE Y JUVENTUD","codigoInvente":"INV00002441"},{"id":1116770,"mrr":false,"numeroConvocatoria":"915209","descripcion":"Orden de 24 de junio de 2026, pro la que se convocan subvenciones con cargo al 0,7% IRPF e Impuesto de Sociedades. LINEA 1 Programas de ámbito supraprovincial","descripcionLeng":null,"fechaRecepcion":"2026-06-24","nivel1":"AUTONOMICA","nivel2":"ANDALUCÍA","nivel3":"CONSEJERÍA DE INCLUSIÓN SOCIAL, JUVENTUD, FAMILIAS E IGUALDAD","codigoInvente":null},{"id":1116765,"mrr":false,"numeroConvocatoria":"915204","descripcion":"Orden de 25 de junio de 2026, del MAPA, por la que se convocan las subvenciones del artículo 6 del Real Decreto-ley 4/2022, de 15 de marzo, destinadas la subvención del principal de créditos a titulares de explotaciones agrarias (Oriente Medio).","descripcionLeng":null,"fechaRecepcion":"2026-06-24","nivel1":"ESTADO","nivel2":"MINISTERIO DE AGRICULTURA, PESCA Y ALIMENTACIÓN","nivel3":"SUBSECRETARÍA DE AGRICULTURA, PESCA Y ALIMENTACIÓN","codigoInvente":null},{"id":1116764,"mrr":false,"numeroConvocatoria":"915203","descripcion":"BASE REGULADORA AY CONVOCATORIA DE AYUDAS PARA LA AQUISICION DE LIFOS MATERIAL ESFOLAR, DESTINDAS A ALUMNOS DE FAMILIAS RIESGO DE ESCLUSION SOCIA. AÑO ACEMICO 2026-202","descripcionLeng":null,"fechaRecepcion":"2026-06-24","nivel1":"LOCAL","nivel2":"DON BENITO","nivel3":"AYUNTAMIENTO DE DON BENITO","codigoInvente":null},{"id":1116760,"mrr":false,"numeroConvocatoria":"915199","descripcion":"Orden de 25 de junio de 2026, del MAPA, por la que se convocan las subvenciones del artículo 6 del Real Decreto-ley 4/2022, de 15 de marzo, destinadas la subvención del principal de créditos a titulares de explotaciones agrarias (Oriente Medio).","descripcionLeng":null,"fechaRecepcion":"2026-06-24","nivel1":"ESTADO","nivel2":"MINISTERIO DE AGRICULTURA, PESCA Y ALIMENTACIÓN","nivel3":"SUBSECRETARÍA DE AGRICULTURA, PESCA Y ALIMENTACIÓN","codigoInvente":null},{"id":1116759,"mrr":false,"numeroConvocatoria":"915198","descripcion":"Orden de 25 de junio de 2026, del MAPA, por la que se convocan las subvenciones del artículo 6 del Real Decreto-ley 4/2022, de 15 de marzo, destinadas la subvención del principal de créditos a titulares de explotaciones agrarias (Oriente Medio).","descripcionLeng":null,"fechaRecepcion":"2026-06-24","nivel1":"ESTADO","nivel2":"MINISTERIO DE AGRICULTURA, PESCA Y ALIMENTACIÓN","nivel3":"SUBSECRETARÍA DE AGRICULTURA, PESCA Y ALIMENTACIÓN","codigoInvente":null},{"id":1116757,"mrr":false,"numeroConvocatoria":"915196","descripcion":"AYUDAS ECONÓMICAS ORGANIZACION ACTIVIDADES DEPORTIVAS CARACTER NACIONAL - 2º SE,ESTRE 2026","descripcionLeng":null,"fechaRecepcion":"2026-06-24","nivel1":"LOCAL","nivel2":"ZARAGOZA","nivel3":"ZARAGOZA DEPORTE, S.A.","codigoInvente":"INV00005459"},{"id":1116756,"mrr":false,"numeroConvocatoria":"915195","descripcion":"Convocatoria de tramitación anticipada de Subvenciones de la Diputación Provincial de Huelva para personas jurídicas sin ánimo de lucro del ámbito de la Prevención Social de la provincia de Huelva “La Diputación Previene 2026”","descripcionLeng":null,"fechaRecepcion":"2026-06-24","nivel1":"LOCAL","nivel2":"DIPUTACIÓN PROV. DE HUELVA","nivel3":"DIPUTACIÓN PROVINCIAL DE HUELVA","codigoInvente":null},{"id":1116752,"mrr":false,"numeroConvocatoria":"915191","descripcion":"BASES REGULADORAS DE LAS AYUDAS PARA SUMINISTRO MINIMOS VITALES DEL AYUNTAMIENTO DE FUENTE DEL MAESTRE PARA EL AÑO 2026","descripcionLeng":null,"fechaRecepcion":"2026-06-24","nivel1":"LOCAL","nivel2":"FUENTE DEL MAESTRE","nivel3":"AYUNTAMIENTO DE FUENTE DEL MAESTRE","codigoInvente":null},{"id":1116750,"mrr":false,"numeroConvocatoria":"915189","descripcion":"Decreto de 23 de junio de 2026 de la Delegada del Área de Gobierno de Economía, Innovación y Hacienda por el que se aprueba la convocatoria pública para la concesión de subvenciones a personas afiliadas al Régimen Especial de Trabajadores por Cuenta Propi","descripcionLeng":null,"fechaRecepcion":"2026-06-24","nivel1":"LOCAL","nivel2":"MADRID","nivel3":"ÁREA DE GOBIERNO DE ECONOMÍA, INNOVACIÓN Y HACIENDA","codigoInvente":null},{"id":1116746,"mrr":false,"numeroConvocatoria":"915185","descripcion":"AYUDAS PROYECTOS DE INVESTIGACIÓN CIENTÍFICA Y TRANSFERENCIA DE TECNOLOGÍA, COFINANCIADAS POR EL FEDER (2027-2030","descripcionLeng":null,"fechaRecepcion":"2026-06-24","nivel1":"AUTONOMICA","nivel2":"CASTILLA-LA MANCHA","nivel3":"AGENCIA DE INVESTIGACIÓN E INNOVACIÓN DE CASTILLA-LA MANCHA","codigoInvente":null},{"id":1116745,"mrr":false,"numeroConvocatoria":"915184","descripcion":"IV PREMIOS A LA EXCELENCIA Y AL ESFUERZO ACADÉMICO","descripcionLeng":null,"fechaRecepcion":"2026-06-24","nivel1":"LOCAL","nivel2":"TORREMOLINOS","nivel3":"AYUNTAMIENTO DE TORREMOLINOS","codigoInvente":null},{"id":1116734,"mrr":false,"numeroConvocatoria":"915173","descripcion":"CONVOCATORIA PARA LA CONCESIÓN DE AYUDAS DIRIGIDAS A ESTABLECIMIENTOS DE HOSTELERÍA INSCRITOS EN LA MARCA “ALIMENTOS DE SEGOVIA” PARA LA ELABORACIÓN DE UN MENÚ KM.0","descripcionLeng":null,"fechaRecepcion":"2026-06-24","nivel1":"LOCAL","nivel2":"DIPUTACIÓN PROV. DE SEGOVIA","nivel3":"DIPUTACIÓN PROVINCIAL DE SEGOVIA","codigoInvente":null},{"id":1116732,"mrr":false,"numeroConvocatoria":"915171","descripcion":"Convocatoria de Subvención a municipios de la provincia de Ciudad Real para Universidades Populares 2026.","descripcionLeng":null,"fechaRecepcion":"2026-06-24","nivel1":"LOCAL","nivel2":"DIPUTACIÓN PROV. DE CIUDAD REAL","nivel3":"DIPUTACIÓN PROVINCIAL DE CIUDAD REAL","codigoInvente":null},{"id":1116729,"mrr":false,"numeroConvocatoria":"915168","descripcion":"Resolución del Vicerrectorado de Estudiantes de la Universidad de La Laguna, por la que se publica la convocatoria de ayudas de Comedor para alumnado, para el curso 2026-2027.","descripcionLeng":null,"fechaRecepcion":"2026-06-24","nivel1":"OTROS","nivel2":"UNIVERSIDAD DE LA LAGUNA","nivel3":null,"codigoInvente":"INV00005341"},{"id":1116727,"mrr":false,"numeroConvocatoria":"915166","descripcion":"Convocatoria de la campaña ¡LA VUELTA AL COLE, EMPIEZA EN TU PUEBLO! CÁRTAMA 2026/2027 del Área de Comercio","descripcionLeng":null,"fechaRecepcion":"2026-06-24","nivel1":"LOCAL","nivel2":"CÁRTAMA","nivel3":"AYUNTAMIENTO DE CÁRTAMA","codigoInvente":null},{"id":1116724,"mrr":false,"numeroConvocatoria":"915163","descripcion":"Orden de 12 de junio de 2026, del MAPA, por la que se convocan las subvenciones previstas en el real decreto 388/2021, de 1 de junio.","descripcionLeng":null,"fechaRecepcion":"2026-06-24","nivel1":"ESTADO","nivel2":"MINISTERIO DE AGRICULTURA, PESCA Y ALIMENTACIÓN","nivel3":"SUBSECRETARÍA DE AGRICULTURA, PESCA Y ALIMENTACIÓN","codigoInvente":null},{"id":1116723,"mrr":false,"numeroConvocatoria":"915162","descripcion":"Orden de 12 de junio de 2026, del MAPA, por la que se convocan las subvenciones previstas en el real decreto 388/2021, de 1 de junio.","descripcionLeng":null,"fechaRecepcion":"2026-06-24","nivel1":"ESTADO","nivel2":"MINISTERIO DE AGRICULTURA, PESCA Y ALIMENTACIÓN","nivel3":"SUBSECRETARÍA DE AGRICULTURA, PESCA Y ALIMENTACIÓN","codigoInvente":null},{"id":1116722,"mrr":false,"numeroConvocatoria":"915161","descripcion":"CONVOCATORIA DE AYUDAS DIRIGIDA A ASOCIACIONES, CLUBES DEPORTIVOS Y DEPORTISTAS FEDERADOS PARA LA REALIZACIÓN DE ACTIVIDADES DENTRO DEL ÁMBITO DE LA CULTURA/JUVENTUD, DEPORTE  Y ACTIVIDADES SOCIALES Y  \nEDUCATIVAS. 2026","descripcionLeng":null,"fechaRecepcion":"2026-06-24","nivel1":"LOCAL","nivel2":"CARLOTA, LA","nivel3":"AYUNTAMIENTO DE CARLOTA, LA","codigoInvente":null},{"id":1116720,"mrr":false,"numeroConvocatoria":"915159","descripcion":"Decreto 1073/2026 de 24 de junio de 2026, por el que se aprueba la Convocatoria de Subvenciones a asociaciones que organicen Fiestas Patronales en el Municipio de San Sebastián de La Gomera 2026 y las Bases Reguladoras que han de regir la misma.","descripcionLeng":null,"fechaRecepcion":"2026-06-24","nivel1":"LOCAL","nivel2":"SAN SEBASTIÁN DE LA GOMERA","nivel3":"AYUNTAMIENTO DE SAN SEBASTIÁN DE LA GOMERA","codigoInvente":null},{"id":1116719,"mrr":false,"numeroConvocatoria":"915158","descripcion":"Orden de 12 de junio de 2026, del MAPA, por la que se convocan las subvenciones previstas en el real decreto 388/2021, de 1 de junio, destinadas a la obtención de avales de SAECA en el sector agroalimentario y pesquero.","descripcionLeng":null,"fechaRecepcion":"2026-06-24","nivel1":"ESTADO","nivel2":"MINISTERIO DE AGRICULTURA, PESCA Y ALIMENTACIÓN","nivel3":"SUBSECRETARÍA DE AGRICULTURA, PESCA Y ALIMENTACIÓN","codigoInvente":null},{"id":1116714,"mrr":false,"numeroConvocatoria":"915153","descripcion":"Subvenciones para polígonos industriales de titularidad privada de Zaragoza en el ejercicio 2026","descripcionLeng":null,"fechaRecepcion":"2026-06-24","nivel1":"LOCAL","nivel2":"ZARAGOZA","nivel3":"AYUNTAMIENTO DE ZARAGOZA","codigoInvente":null},{"id":1116713,"mrr":false,"numeroConvocatoria":"915152","descripcion":"CONVOCATORIA DE SUBVENCIONES PARA GASTOS DE FUNCIONAMIENTO EN EXPLOTACIONES GANADERAS (LÍNEA 2), ANUALIDAD 2026","descripcionLeng":null,"fechaRecepcion":"2026-06-24","nivel1":"LOCAL","nivel2":"CABILDO INSULAR DE LANZAROTE","nivel3":"CABILDO INSULAR DE LANZAROTE","codigoInvente":null},{"id":1116711,"mrr":false,"numeroConvocatoria":"915150","descripcion":"Decreto de 18 de junio de 2026, del Delegado del Área de Gobierno de Políticas Sociales, Familia e Igualdad, por el que se aprueba la convocatoria de becas y/o ayudas al estudio de carácter general para exalumnos/as Residencia Internado San Ildefonso","descripcionLeng":null,"fechaRecepcion":"2026-06-24","nivel1":"LOCAL","nivel2":"MADRID","nivel3":"ÁREA DE GOBIERNO DE POLÍTICAS SOCIALES, FAMILIA E IGUALDAD","codigoInvente":null},{"id":1116710,"mrr":false,"numeroConvocatoria":"915149","descripcion":"Resolución del Vicerrectorado de Estudiantes de la ULL por la que se convocan para el año 2026 Becas de Excelencia destinadas a estudiantes de la ULL inscritos en el programa SICUE de movilidad nacional.","descripcionLeng":null,"fechaRecepcion":"2026-06-24","nivel1":"OTROS","nivel2":"UNIVERSIDAD DE LA LAGUNA","nivel3":null,"codigoInvente":"INV00005341"},{"id":1116709,"mrr":false,"numeroConvocatoria":"915148","descripcion":"Resolución de 23 de junio de 2026, del Director del Instituto de Fomento de la Región de Murcia, por delegación, de convocatoria de ayudas a la participación en ferias, eventos y misiones comerciales. Misión Comercial Directa a Brasil y Paraguay 2026.","descripcionLeng":null,"fechaRecepcion":"2026-06-24","nivel1":"AUTONOMICA","nivel2":"REGIÓN DE MURCIA","nivel3":"INSTITUTO DE FOMENTO DE LA REGIÓN DE MURCIA (INFO)","codigoInvente":"INV00003691"},{"id":1116706,"mrr":false,"numeroConvocatoria":"915145","descripcion":"CONVOCATORIA DE SUBVENCIONES POR CONCURRENCIA COMPETITIVA AL DEPORTE FEDERADO DE BASE DE HUELVA PARA EL EJERCICIO 2026","descripcionLeng":null,"fechaRecepcion":"2026-06-24","nivel1":"LOCAL","nivel2":"HUELVA","nivel3":"AYUNTAMIENTO DE HUELVA","codigoInvente":null},{"id":1116700,"mrr":false,"numeroConvocatoria":"915139","descripcion":"CONVOCATORIA DE SUBVENCIONES PARA GASTOS DE FUNCIONAMIENTO EN EXPLOTACIONES AGRÍCOLAS (LÍNEA 1), ANUALIDAD 2026","descripcionLeng":null,"fechaRecepcion":"2026-06-24","nivel1":"LOCAL","nivel2":"CABILDO INSULAR DE LANZAROTE","nivel3":"CABILDO INSULAR DE LANZAROTE","codigoInvente":null},{"id":1116696,"mrr":false,"numeroConvocatoria":"915135","descripcion":"Resolución del Vicerrectorado de Estudiantes y de la Gerencia de la Universidad de La Laguna, por la que se convocan 200 becas dentro del “Programa de Becas Santander / Ayuda Económica 2026”.","descripcionLeng":null,"fechaRecepcion":"2026-06-24","nivel1":"OTROS","nivel2":"UNIVERSIDAD DE LA LAGUNA","nivel3":null,"codigoInvente":"INV00005341"},{"id":1116694,"mrr":false,"numeroConvocatoria":"915133","descripcion":"CONVOCATORIA DE AYUDAS COMPLEMENTARIAS PARA LA MEJORA DE LAS CONDICIONES DE HABITABILIDAD DE LA VIVIENDA DE PERSONAS MAYORES Y/O PERSONAS CON DISCAPACIDAD DEL AÑO 2026","descripcionLeng":null,"fechaRecepcion":"2026-06-24","nivel1":"LOCAL","nivel2":"VILLAVICIOSA DE ODÓN","nivel3":"AYUNTAMIENTO DE VILLAVICIOSA DE ODÓN","codigoInvente":null},{"id":1116673,"mrr":false,"numeroConvocatoria":"915112","descripcion":"Resolución de alcaldía 2026-0082 por la que se aprueba la convocatoria de ayudas para los estudios musicales durante el curso 2025-2026","descripcionLeng":null,"fechaRecepcion":"2026-06-24","nivel1":"LOCAL","nivel2":"ENÉRIZ/ENERITZ","nivel3":"AYUNTAMIENTO DE ENÉRIZ/ENERITZ","codigoInvente":null},{"id":1116672,"mrr":false,"numeroConvocatoria":"915111","descripcion":"Convocatoria de subvenciones Plan Extraordinario de obras municipales 2026.","descripcionLeng":null,"fechaRecepcion":"2026-06-24","nivel1":"LOCAL","nivel2":"DIPUTACIÓN PROV. DE CIUDAD REAL","nivel3":"DIPUTACIÓN PROVINCIAL DE CIUDAD REAL","codigoInvente":null},{"id":1116671,"mrr":false,"numeroConvocatoria":"915110","descripcion":"Resolución de 22 de junio de 2026, por la que se convocan Subvenciones para residenias artísticas en el Centro de Creación Contemporánea de Andalucía, en Córdoba, para el ejercicio 2026","descripcionLeng":null,"fechaRecepcion":"2026-06-24","nivel1":"AUTONOMICA","nivel2":"ANDALUCÍA","nivel3":"CENTRO ANDALUZ DE ARTE CONTEMPORÁNEO","codigoInvente":"INV00001109"},{"id":1116669,"mrr":false,"numeroConvocatoria":"915108","descripcion":"Convocatoria para la concesión de subvenciones a asociaciones y entidades sin ánimo de lucro, con sede social en la localidad de Paradas y que realicen actividades de apoyo y fomento de la igualdad de género, en dicho municipio para el año 2026.","descripcionLeng":null,"fechaRecepcion":"2026-06-24","nivel1":"LOCAL","nivel2":"PARADAS","nivel3":"AYUNTAMIENTO DE PARADAS","codigoInvente":null},{"id":1116667,"mrr":false,"numeroConvocatoria":"915106","descripcion":"Convocatoria para la concesión de subvenciones a Asociaciones y Entidades sin ánimo de lucro, con sede social en la localidad de Paradas que realicen actividades de promoción, protección y defensa del bienestar general y de la salud pública para el 2026.","descripcionLeng":null,"fechaRecepcion":"2026-06-24","nivel1":"LOCAL","nivel2":"PARADAS","nivel3":"AYUNTAMIENTO DE PARADAS","codigoInvente":null},{"id":1116665,"mrr":false,"numeroConvocatoria":"915104","descripcion":"Convocatoria para la concesión de Premios a la Trayectoria Académica y Personal del Alumnado de Educación Secundaria Obligatoria del municipio de Paradas, para el año 2026","descripcionLeng":null,"fechaRecepcion":"2026-06-24","nivel1":"LOCAL","nivel2":"PARADAS","nivel3":"AYUNTAMIENTO DE PARADAS","codigoInvente":null},{"id":1116664,"mrr":false,"numeroConvocatoria":"915103","descripcion":"Orden de 24 de junio de 2026, de la Consejería de Industria, Universidades, Empleo y Comercio, por la que se convocan subvenciones destinadas a la\ninversión fija vinculada a la creación de nuevos puestos de trabajo en empresas de inserción.","descripcionLeng":null,"fechaRecepcion":"2026-06-24","nivel1":"AUTONOMICA","nivel2":"CASTILLA Y LEÓN","nivel3":"CONSEJERÍA DE INDUSTRIA, UNIVERSIDADES, EMPLEO Y COMERCIO","codigoInvente":null},{"id":1116663,"mrr":false,"numeroConvocatoria":"915102","descripcion":"Resolución del consejero de Educación y Universidades por la cual se aprueba la convocatoria de ayudas individualizadas de comedor para alumnos escolarizados en centros docentes no universitarios durante el curso escolar 2026-2027","descripcionLeng":"Resolució del conseller d’Educació i Universitats per la qual s'aprova la convocatòria dels ajuts individualitzats de menjador per a alumnes escolaritzats en centres docents no universitaris durant el curs escolar 2026-2027","fechaRecepcion":"2026-06-24","nivel1":"AUTONOMICA","nivel2":"ILLES BALEARS","nivel3":"DIRECCIÓN GENERAL DE CULTURA","codigoInvente":null},{"id":1116662,"mrr":false,"numeroConvocatoria":"915101","descripcion":"CONSTR AYUDAS MODERNIZACION ACTIVIDAD INDUSTRIAL SECTOR DE LA CONSTRUCCION","descripcionLeng":"CONSTR AJUTS MODERTNITZACIO ACTIVITAT INDUSTRIAL SECTOR DE LA CONSTRUCCIO","fechaRecepcion":"2026-06-24","nivel1":"AUTONOMICA","nivel2":"ILLES BALEARS","nivel3":"DIRECCIÓN GENERAL DE POLÍTICA INDUSTRIAL","codigoInvente":null},{"id":1116661,"mrr":false,"numeroConvocatoria":"915100","descripcion":"Resolución del consejero de Economia, Hacienda e Innovación, de 22 de junio de 2026, de convocatoria para conceder ayudas dirigidas al funcionamiento de agrupaciones empresariales innovadoras de las Illes Balears cofinanciadas con fondos FEDER 2021-2027","descripcionLeng":"Resolució del conseller d'Economia, Hisenda i Innovació, de 22 de juny de 2026, de convocatòria per concedir ajuts adreçats al funcionament d'agrupacions empresarials innovadores de les Illes Balears 2026-2027, cofinançats amb fons FEDER 2021-2027","fechaRecepcion":"2026-06-24","nivel1":"AUTONOMICA","nivel2":"ILLES BALEARS","nivel3":"DIRECCIÓN GENERAL DE INVESTIGACIÓN, INNOVACIÓN Y TRANSFORMACIÓN DIGITAL","codigoInvente":null},{"id":1116656,"mrr":false,"numeroConvocatoria":"915095","descripcion":"Subvenciones en Concurrencia Competitiva para rehabilitación, reparación y mejoras en Bodegas Subterráneas 2026","descripcionLeng":null,"fechaRecepcion":"2026-06-23","nivel1":"LOCAL","nivel2":"ARANDA DE DUERO","nivel3":"AYUNTAMIENTO DE ARANDA DE DUERO","codigoInvente":null},{"id":1116655,"mrr":false,"numeroConvocatoria":"915094","descripcion":"Convocatoria para el ejercicio 2026 de concesión de subvenciones a las organizaciones sindicales más representativas","descripcionLeng":null,"fechaRecepcion":"2026-06-23","nivel1":"ESTADO","nivel2":"MINISTERIO DE TRABAJO Y ECONOMÍA SOCIAL","nivel3":"SUBSECRETARÍA DE TRABAJO Y ECONOMÍA SOCIAL","codigoInvente":null},{"id":1116654,"mrr":false,"numeroConvocatoria":"915093","descripcion":"Subvenciones  destinadas a proyectos culturales de gran formato","descripcionLeng":null,"fechaRecepcion":"2026-06-23","nivel1":"AUTONOMICA","nivel2":"CANARIAS","nivel3":"CONSEJERÍA DE UNIVERSIDADES, CIENCIA E INNOVACIÓN Y CULTURA","codigoInvente":null}],"pageable":{"sort":{"sorted":true,"unsorted":false,"empty":false},"pageNumber":23,"pageSize":50,"offset":1150,"unpaged":false,"paged":true},"last":false,"totalElements":10000,"totalPages":200,"first":false,"sort":{"sorted":true,"unsorted":false,"empty":false},"numberOfElements":50,"size":50,"number":23,"empty":false,"advertencia":"La reutilización de los datos del Sistema Nacional de Publicidad de Subvenciones y Ayudas Públicas está sujeta a una serie de restricciones y consideraciones legales. Consulte el aviso legal en https://www.infosubvenciones.es/bdnstrans/GE/es/avisolegal.Además, el usuario debe ser consciente que la información presentada es de naturaleza dinámica, y que los datos pueden ser sometidos a correcciones, inserciones, modificaciones y eliminaciones en momentos posteriores a su extracción. Accesos al API del sistema Nacional de Publicidad de Subvenciones y Ayudas Públicas. La Administración Presupuestaria, para salvaguardar la protección del acceso libre e irrestricto de los ciudadanos a este Portal y a su información podrá adoptar medidas restrictivas de acceso al API ante situaciones de manifiesto abuso del servicio, riesgos de seguridad, o uso fraudulento de la información descargada, de acuerdo con las buenas prácticas de gestión de datos abiertos (https://datos.gob.es/es/blog/limitaciones-la-consulta-de-una-api) establecidas por el Ministerio para la Transformación Digital y de la Función Pública."}