{"content":[{"id":1099434,"mrr":false,"numeroConvocatoria":"897873","descripcion":"CONVOCATORIA DEL CONCURSO DE CARTELES XXXII FESTIVAL DE BANDAS DE MUSICA 2026","descripcionLeng":"CONVOCATORIA DO CONCURSO DE CARTEIS XXXII FESTIVAL DE BANDAS DE MUSICA 2026","fechaRecepcion":"2026-04-09","nivel1":"LOCAL","nivel2":"VILA DE CRUCES","nivel3":"AYUNTAMIENTO DE VILA DE CRUCES","codigoInvente":null},{"id":1099433,"mrr":false,"numeroConvocatoria":"897872","descripcion":"Convocatoria de subvenciones del Ayuntamiento de Alzira a entidades sociales miembros del Consejo de Acción Social y Salud para el ejercicio 2026","descripcionLeng":"Convocatòria de subvencions de l'Ajuntament d'Alzira a entitats socials membres del Consell d'Acció Social i Salut per a l'exercici 2026","fechaRecepcion":"2026-04-09","nivel1":"LOCAL","nivel2":"ALZIRA","nivel3":"AYUNTAMIENTO DE ALZIRA","codigoInvente":null},{"id":1099432,"mrr":false,"numeroConvocatoria":"897871","descripcion":"CONCURSO DE ALTARES Y BALCONES PARA EL CORPUS CHRISTI 2026","descripcionLeng":null,"fechaRecepcion":"2026-04-09","nivel1":"LOCAL","nivel2":"HUELVA","nivel3":"AYUNTAMIENTO DE HUELVA","codigoInvente":null},{"id":1099429,"mrr":false,"numeroConvocatoria":"897868","descripcion":"CONVOCATORIA DEL XVI PREMIO MERCÈ LLIMONA I RAYMAT DE ÁLBUM ILUSTRADO","descripcionLeng":"LA CONVOCATÒRIA DEL XVI PREMI MERCÈ LLIMONA I RAYMAT D'ÀLBUM IL·LUSTRAT","fechaRecepcion":"2026-04-09","nivel1":"LOCAL","nivel2":"VILANOVA I LA GELTRÚ","nivel3":"AYUNTAMIENTO DE VILANOVA I LA GELTRÚ","codigoInvente":null},{"id":1099426,"mrr":false,"numeroConvocatoria":"897865","descripcion":"Orden de 9 de abril de 2026, de la Consejería de la Presidencia por la que se efectúa convocatoria pública para la concesión de subvenciones a Mancomunidades y otras Entidades Asociativas, con cargo a la Cooperación Económica Local General del año 2026","descripcionLeng":null,"fechaRecepcion":"2026-04-09","nivel1":"AUTONOMICA","nivel2":"CASTILLA Y LEÓN","nivel3":"CONSEJERÍA DE LA PRESIDENCIA","codigoInvente":null},{"id":1099425,"mrr":false,"numeroConvocatoria":"897864","descripcion":"Acuerdo de la Junta de Gobierno Local del Ayuntamiento de Manises por el que se convocan ayudas económicas a deportistas de élite (promoción y alta competición) y deportistas de alto nivel de Manises 2026","descripcionLeng":null,"fechaRecepcion":"2026-04-09","nivel1":"LOCAL","nivel2":"MANISES","nivel3":"AYUNTAMIENTO DE MANISES","codigoInvente":null},{"id":1099424,"mrr":false,"numeroConvocatoria":"897863","descripcion":"Resolución de 30 de marzo 2026 del Vicerrector de Estudiantes y Empleabilidad\n, por la que se aprueba la convocatoria pública de ayudas al transporte a estudiantado\ncon discapacidad con movilidad física reducida reconocida,curso académico 2025-2026","descripcionLeng":null,"fechaRecepcion":"2026-04-09","nivel1":"OTROS","nivel2":"UNIVERSIDAD DE OVIEDO","nivel3":null,"codigoInvente":"INV00005347"},{"id":1099422,"mrr":false,"numeroConvocatoria":"897861","descripcion":"CONVOCATORIA PARA CONCESIÓN DE SUBVENCIONES EN RÉGIMEN DE CONCURRENCIA A OTORGAR POR EL AYUNTAMIENTO DE ALCOBENDAS A ASOCIACIONES DEL ÁMBITO DE LA PROTECCIÓN SOCIAL Y MAYORES PARA 2026","descripcionLeng":null,"fechaRecepcion":"2026-04-09","nivel1":"LOCAL","nivel2":"ALCOBENDAS","nivel3":"AYUNTAMIENTO DE ALCOBENDAS","codigoInvente":null},{"id":1099421,"mrr":false,"numeroConvocatoria":"897860","descripcion":"Subvenciones para proyectos empresariales en zonas de transición nuclear 2026","descripcionLeng":"Subvencions per a projectes empresarials en zones de transició nuclear 2026","fechaRecepcion":"2026-04-09","nivel1":"AUTONOMICA","nivel2":"CATALUÑA","nivel3":"AGÈNCIA PER A LA COMPETITIVITAT DE L'EMPRESA (ACCIÓ)","codigoInvente":null},{"id":1099419,"mrr":false,"numeroConvocatoria":"897858","descripcion":"Subvención para la mejora del Ciclo Integral del Agua 2026","descripcionLeng":"Subvenció per a la millora del Cicle Integral de l'Aigua 2026","fechaRecepcion":"2026-04-09","nivel1":"LOCAL","nivel2":"DIPUTACIÓN PROV. DE VALENCIA","nivel3":"DIPUTACIÓN PROVINCIAL DE VALENCIA","codigoInvente":null},{"id":1099418,"mrr":false,"numeroConvocatoria":"897857","descripcion":"Convocatoria de subvenciones para la incorporación de la lengua catalana en juegos de mesa para el año 2026","descripcionLeng":"Convocatòria de subvencions per a la incorporació de la llengua catalana en jocs de taula per a l'any 2026","fechaRecepcion":"2026-04-09","nivel1":"AUTONOMICA","nivel2":"CATALUÑA","nivel3":"OFICINA DE SUPORT A LA INICIATIVA CULTURAL","codigoInvente":null},{"id":1099417,"mrr":false,"numeroConvocatoria":"897856","descripcion":"Convocatoria específica de subvenciones destinadas a ayudas individuales de desplazamiento para el curso escolar 2026/2027","descripcionLeng":"Convocatòria específica de subvencions destinades a ajuts individuals de desplaçament per al curs escolar 2026/2027","fechaRecepcion":"2026-04-09","nivel1":"LOCAL","nivel2":"CONSELL COMARCAL DE SELVA","nivel3":"CONSELL COMARCAL DE SELVA","codigoInvente":null},{"id":1099416,"mrr":false,"numeroConvocatoria":"897855","descripcion":"Convocatoria del Programa Campus Rural: Prácticas Universitarias en Entornos Rurales para el Curso 2025-26","descripcionLeng":null,"fechaRecepcion":"2026-04-09","nivel1":"OTROS","nivel2":"UNIVERSIDAD DE SEVILLA","nivel3":null,"codigoInvente":"INV00005350"},{"id":1099414,"mrr":false,"numeroConvocatoria":"897853","descripcion":"CHT Cheque Innov. Talento (Reg.MinimisP 717/2014)","descripcionLeng":null,"fechaRecepcion":"2026-04-09","nivel1":"AUTONOMICA","nivel2":"LA RIOJA","nivel3":"AGENCIA DE DESARROLLO ECONÓMICO DE LA RIOJA","codigoInvente":"INV00000065"},{"id":1099407,"mrr":false,"numeroConvocatoria":"897846","descripcion":"Ayudas al fomento de las razas autóctonas para el año 2026","descripcionLeng":"Ajuts al foment de les races autòctones per a l'any 2026","fechaRecepcion":"2026-04-09","nivel1":"AUTONOMICA","nivel2":"CATALUÑA","nivel3":"DEPARTAMENT D'AGRICULTURA, RAMADERIA, PESCA I ALIMENTACIÓ","codigoInvente":null},{"id":1099404,"mrr":false,"numeroConvocatoria":"897843","descripcion":"CHT Cheque Innov. Talento (Reg.Minimis 2023/2831)","descripcionLeng":null,"fechaRecepcion":"2026-04-09","nivel1":"AUTONOMICA","nivel2":"LA RIOJA","nivel3":"AGENCIA DE DESARROLLO ECONÓMICO DE LA RIOJA","codigoInvente":"INV00000065"},{"id":1099401,"mrr":false,"numeroConvocatoria":"897840","descripcion":"Ayuda concurrencia competitiva para el transporte adaptado para el año 2026","descripcionLeng":"Ajut per concurrència competitiva per el transport adaptat per l'any 2026","fechaRecepcion":"2026-04-09","nivel1":"LOCAL","nivel2":"VILADECAVALLS","nivel3":"AYUNTAMIENTO DE VILADECAVALLS","codigoInvente":null},{"id":1099400,"mrr":false,"numeroConvocatoria":"897839","descripcion":"Convocatoria de subvenciones para la incorporación del catalán, el occitano i la lengua de signos catalana en largometrajes y series para plataformas digitales para el año 2026","descripcionLeng":"Convocatòria de subvencions per a la incorporació del català, l'occità i la llengua de signes catalana en llargmetratges i sèries per a plataformes digitals per a l'any 2026","fechaRecepcion":"2026-04-09","nivel1":"AUTONOMICA","nivel2":"CATALUÑA","nivel3":"OFICINA DE SUPORT A LA INICIATIVA CULTURAL","codigoInvente":null},{"id":1099396,"mrr":false,"numeroConvocatoria":"897835","descripcion":"XXXIII CERTAMEN FOTOGRÁFICO DE SOBRARBE “LUCIEN BRIET”","descripcionLeng":null,"fechaRecepcion":"2026-04-09","nivel1":"LOCAL","nivel2":"COMARCA DE SOBRARBE","nivel3":"COMARCA DE SOBRARBE","codigoInvente":null},{"id":1099395,"mrr":false,"numeroConvocatoria":"897834","descripcion":"BASES REGULADORAS ESPECIFICAS Y CONVOCATORIA PARA LA CONCESIÓN DE SUBVENCIONES PARA EL FOMENTO DE INSTALACIONES DE ENERGÍA SOLAR FOTOVOLTAICA EN EMPRESAS Y ENTIDADES SIN ÁNIMO DE LUCRO 2026","descripcionLeng":null,"fechaRecepcion":"2026-04-09","nivel1":"LOCAL","nivel2":"CABILDO INSULAR DE GRAN CANARIA","nivel3":"ENTIDAD PÚBLICA EMPRESARIAL CONSEJO INSULAR DE LA ENERGÍA","codigoInvente":null},{"id":1099394,"mrr":true,"numeroConvocatoria":"897833","descripcion":"RET Retos Tecnológicos Proyecto TechFabLab (Minimis Pesca 717/2014)","descripcionLeng":null,"fechaRecepcion":"2026-04-09","nivel1":"AUTONOMICA","nivel2":"LA RIOJA","nivel3":"AGENCIA DE DESARROLLO ECONÓMICO DE LA RIOJA","codigoInvente":"INV00000065"},{"id":1099393,"mrr":true,"numeroConvocatoria":"897832","descripcion":"RET Retos Tecnológicos Proyecto TechFabLab (Minimis general 2023/2831)","descripcionLeng":null,"fechaRecepcion":"2026-04-09","nivel1":"AUTONOMICA","nivel2":"LA RIOJA","nivel3":"AGENCIA DE DESARROLLO ECONÓMICO DE LA RIOJA","codigoInvente":"INV00000065"},{"id":1099392,"mrr":true,"numeroConvocatoria":"897831","descripcion":"EBT Fomento de Nuevas Empresas de Base Tecnológica - Proyecto TechFabLab","descripcionLeng":null,"fechaRecepcion":"2026-04-09","nivel1":"AUTONOMICA","nivel2":"LA RIOJA","nivel3":"AGENCIA DE DESARROLLO ECONÓMICO DE LA RIOJA","codigoInvente":"INV00000065"},{"id":1099390,"mrr":false,"numeroConvocatoria":"897829","descripcion":"(DIN) Acciones de Dinamización Comercial (Reg. Mímimis 2023/2831)","descripcionLeng":null,"fechaRecepcion":"2026-04-09","nivel1":"AUTONOMICA","nivel2":"LA RIOJA","nivel3":"AGENCIA DE DESARROLLO ECONÓMICO DE LA RIOJA","codigoInvente":"INV00000065"},{"id":1099388,"mrr":false,"numeroConvocatoria":"897827","descripcion":"Convocatoria de becas para la creación literaria para autores consolidados","descripcionLeng":"Convocatòria de beques per a la creació literària per a autors consolidats","fechaRecepcion":"2026-04-09","nivel1":"AUTONOMICA","nivel2":"CATALUÑA","nivel3":"OFICINA DE SUPORT A LA INICIATIVA CULTURAL","codigoInvente":null},{"id":1099386,"mrr":false,"numeroConvocatoria":"897825","descripcion":"Resolución de 08/04/2026 por la que se aprueba la convocatoria de becas dirigidas a personas que participen en acciones formativas asociadas al CNECP desarrolladas en centros propios y en centros de la red pública de formación profesional para 2026.","descripcionLeng":null,"fechaRecepcion":"2026-04-09","nivel1":"AUTONOMICA","nivel2":"CASTILLA-LA MANCHA","nivel3":"DIRECCIÓN GENERAL FORMACIÓN PROFESIONAL EN EL ÁMBITO LABORAL","codigoInvente":null},{"id":1099385,"mrr":false,"numeroConvocatoria":"897824","descripcion":"(CHA) Cheque de innovación asistencia (Reg.Minimis 717/2014)","descripcionLeng":null,"fechaRecepcion":"2026-04-09","nivel1":"AUTONOMICA","nivel2":"LA RIOJA","nivel3":"AGENCIA DE DESARROLLO ECONÓMICO DE LA RIOJA","codigoInvente":"INV00000065"},{"id":1099384,"mrr":false,"numeroConvocatoria":"897823","descripcion":"(CHA) Cheque de innovación asistencia (Reg.Minimis 2023/2831)","descripcionLeng":null,"fechaRecepcion":"2026-04-09","nivel1":"AUTONOMICA","nivel2":"LA RIOJA","nivel3":"AGENCIA DE DESARROLLO ECONÓMICO DE LA RIOJA","codigoInvente":"INV00000065"},{"id":1099380,"mrr":false,"numeroConvocatoria":"897819","descripcion":"BASES REGULADORAS ESPECIFICAS Y CONVOCATORIA PARA LA CONCESIÓN DE SUBVENCIONES PARA EL FOMENTO DE INSTALACIONES DE ENERGÍA SOLAR FOTOVOLTAICA EN VIVIENDAS 2026","descripcionLeng":null,"fechaRecepcion":"2026-04-09","nivel1":"LOCAL","nivel2":"CABILDO INSULAR DE GRAN CANARIA","nivel3":"ENTIDAD PÚBLICA EMPRESARIAL CONSEJO INSULAR DE LA ENERGÍA","codigoInvente":null},{"id":1099379,"mrr":false,"numeroConvocatoria":"897818","descripcion":"Convocatoria de subvenciones para la adquisición de fondos bibliográficos i documentales destinados a bibliotecas del Sistema de Lectura Pública de Cataluña","descripcionLeng":"Convocatòria de subvencions per a l'adquisició de fons bibliogràfics i documentals destinats a biblioteques del Sistema de Lectura Pública de Catalunya","fechaRecepcion":"2026-04-09","nivel1":"AUTONOMICA","nivel2":"CATALUÑA","nivel3":"OFICINA DE SUPORT A LA INICIATIVA CULTURAL","codigoInvente":null},{"id":1099378,"mrr":false,"numeroConvocatoria":"897817","descripcion":"BASES DE LA CONVOCATORIA DE SUBVENCIONES CON DESTINO A ASOCIACIONES PARA LA REALIZACIÓN DE ACTIVIDADES EN MATERIA DE CULTURA EN EL ÁMBITO COMARCAL, AÑO 2026","descripcionLeng":null,"fechaRecepcion":"2026-04-09","nivel1":"LOCAL","nivel2":"COMARCA DE SOBRARBE","nivel3":"COMARCA DE SOBRARBE","codigoInvente":null},{"id":1099376,"mrr":false,"numeroConvocatoria":"897815","descripcion":"Convocatoria de la subvención para la implantación de nuevas actividades económicas al casco antiguo de Cassà de la Selva, año 2026","descripcionLeng":"Convocatòria de la subvenció per a la implantació de noves activitats econòmiques al nucli antic de cassà de la selva 2026\n","fechaRecepcion":"2026-04-09","nivel1":"LOCAL","nivel2":"CASSÀ DE LA SELVA","nivel3":"AYUNTAMIENTO DE CASSÀ DE LA SELVA","codigoInvente":null},{"id":1099374,"mrr":false,"numeroConvocatoria":"897813","descripcion":"Resolución de 9 de abril de 2026, Línea 6. Subvención a la eliminación de barreras arquitectónicas y adaptación de puestos de trabajo ocupados por personas con discapacidad en empresas del mercado ordinario de trabajo.MINIMIS PESCA Y ACUICUL","descripcionLeng":null,"fechaRecepcion":"2026-04-09","nivel1":"AUTONOMICA","nivel2":"ANDALUCÍA","nivel3":"CONSEJERÍA DE EMPLEO, EMPRESA Y TRABAJO AUTÓNOMO","codigoInvente":null},{"id":1099373,"mrr":false,"numeroConvocatoria":"897812","descripcion":"Resolución de 9 de abri de 2026, Línea 6. Subvención a la eliminación de barreras arquitectónicas y adaptación de puestos de trabajo ocupados por personas con discapacidad en empresas del mercado ordinario de trabajo. MINIMIS AGRÍCOLA","descripcionLeng":null,"fechaRecepcion":"2026-04-09","nivel1":"AUTONOMICA","nivel2":"ANDALUCÍA","nivel3":"CONSEJERÍA DE EMPLEO, EMPRESA Y TRABAJO AUTÓNOMO","codigoInvente":null},{"id":1099372,"mrr":false,"numeroConvocatoria":"897811","descripcion":"Resolución de 9 de abril de 2026, Línea 6. Subvención a la eliminación de barreras arquitectónicas y adaptación de puestos de trabajo ocupados por personas con discapacidad en empresas del mercado ordinario de trabajo. MINIMIS GENERAL","descripcionLeng":null,"fechaRecepcion":"2026-04-09","nivel1":"AUTONOMICA","nivel2":"ANDALUCÍA","nivel3":"CONSEJERÍA DE EMPLEO, EMPRESA Y TRABAJO AUTÓNOMO","codigoInvente":null},{"id":1099371,"mrr":false,"numeroConvocatoria":"897810","descripcion":"Resolución de 9 de abril de 2026, Línea 5.Subvención a la creación de empleo indefinido de personas con discapacidad en empresas del mercado ordinario de trabajo. MINIMIS PESCA Y ACUICULTURA.","descripcionLeng":null,"fechaRecepcion":"2026-04-09","nivel1":"AUTONOMICA","nivel2":"ANDALUCÍA","nivel3":"CONSEJERÍA DE EMPLEO, EMPRESA Y TRABAJO AUTÓNOMO","codigoInvente":null},{"id":1099370,"mrr":false,"numeroConvocatoria":"897809","descripcion":"Resolución de 9 de abril de 2026, Línea 5.Subvención a la creación de empleo indefinido de personas con discapacidad en empresas del mercado ordinario de trabajo. MINIMIS AGRÍCOLA.","descripcionLeng":null,"fechaRecepcion":"2026-04-09","nivel1":"AUTONOMICA","nivel2":"ANDALUCÍA","nivel3":"CONSEJERÍA DE EMPLEO, EMPRESA Y TRABAJO AUTÓNOMO","codigoInvente":null},{"id":1099369,"mrr":false,"numeroConvocatoria":"897808","descripcion":"Resolución de 9 de abril de 2026, Línea 5.Subvención a la creación de empleo indefinido de personas con discapacidad en empresas del mercado ordinario de trabajo. MINIMIS GENERAL.","descripcionLeng":null,"fechaRecepcion":"2026-04-09","nivel1":"AUTONOMICA","nivel2":"ANDALUCÍA","nivel3":"CONSEJERÍA DE EMPLEO, EMPRESA Y TRABAJO AUTÓNOMO","codigoInvente":null},{"id":1099368,"mrr":false,"numeroConvocatoria":"897807","descripcion":"Resolución de 9 de abril de 2026, Línea 4.Subvención para financiar las unidades de apoyo en centros especiales de empleo.","descripcionLeng":null,"fechaRecepcion":"2026-04-09","nivel1":"AUTONOMICA","nivel2":"ANDALUCÍA","nivel3":"CONSEJERÍA DE EMPLEO, EMPRESA Y TRABAJO AUTÓNOMO","codigoInvente":null},{"id":1099367,"mrr":false,"numeroConvocatoria":"897806","descripcion":"Resolución de 9 de abril de 2026, Línea 3.Subvención a la adaptación de puestos de trabajo y la eliminación de barreras arquitectónicas en centros especiales de empleo.","descripcionLeng":null,"fechaRecepcion":"2026-04-09","nivel1":"AUTONOMICA","nivel2":"ANDALUCÍA","nivel3":"CONSEJERÍA DE EMPLEO, EMPRESA Y TRABAJO AUTÓNOMO","codigoInvente":null},{"id":1099366,"mrr":false,"numeroConvocatoria":"897805","descripcion":"Resolución de 9 de abril 2026, Línea 1.Subvención a la inversión fija vinculada a la creación de empleo indefinido de personas con discapacidad en centros especiales de empleo.","descripcionLeng":null,"fechaRecepcion":"2026-04-09","nivel1":"AUTONOMICA","nivel2":"ANDALUCÍA","nivel3":"CONSEJERÍA DE EMPLEO, EMPRESA Y TRABAJO AUTÓNOMO","codigoInvente":null},{"id":1099362,"mrr":false,"numeroConvocatoria":"897801","descripcion":"CONVOCATORIA DEL CONCURSO DEL CARTEL ANUNCIADOR DE LAS FERIAS Y FIESTAS 2026","descripcionLeng":null,"fechaRecepcion":"2026-04-09","nivel1":"LOCAL","nivel2":"ALCAÑIZ","nivel3":"AYUNTAMIENTO DE ALCAÑIZ","codigoInvente":null},{"id":1099359,"mrr":false,"numeroConvocatoria":"897798","descripcion":"CONVOCATORIA CONCESIÓN DE SUBVENCIONES A DEPORTISTAS INDIVIDUALES DE LA CIUDAD DE ALCAÑIZ PARA EL AÑO 2026","descripcionLeng":null,"fechaRecepcion":"2026-04-09","nivel1":"LOCAL","nivel2":"ALCAÑIZ","nivel3":"AYUNTAMIENTO DE ALCAÑIZ","codigoInvente":null},{"id":1099354,"mrr":false,"numeroConvocatoria":"897793","descripcion":"CONVOCATORIA CONCESIÓN DE SUBVENCIONES A ASOCIACIONES Y ENTIDADES DEPORTIVAS DE LA CIUDAD DE ALCAÑIZ PARA EL AÑO 2026","descripcionLeng":null,"fechaRecepcion":"2026-04-09","nivel1":"LOCAL","nivel2":"ALCAÑIZ","nivel3":"AYUNTAMIENTO DE ALCAÑIZ","codigoInvente":null},{"id":1099353,"mrr":false,"numeroConvocatoria":"897792","descripcion":"Curs 2025-2026 .Ajuts a centres educatius públics per a Projectes Pedagògics","descripcionLeng":null,"fechaRecepcion":"2026-04-09","nivel1":"LOCAL","nivel2":"RUBÍ","nivel3":"AYUNTAMIENTO DE RUBÍ","codigoInvente":null},{"id":1099352,"mrr":false,"numeroConvocatoria":"897791","descripcion":"Resolución de 9 de Abril de de 2026, por la que se convocan subvenciones en régimen de conc no compet. Línea 2 Mantenimiento de puestos de trabajo de personas con dicapacidad en centros especiales de empleo, reguladas en la Orden de 21 de junio de 2024","descripcionLeng":null,"fechaRecepcion":"2026-04-09","nivel1":"AUTONOMICA","nivel2":"ANDALUCÍA","nivel3":"CONSEJERÍA DE EMPLEO, EMPRESA Y TRABAJO AUTÓNOMO","codigoInvente":null},{"id":1099350,"mrr":false,"numeroConvocatoria":"897789","descripcion":"BASES DE LA CONVOCATORIA DE SUBVENCIONES CON DESTINO A CLUBES DEPORTIVOS, CENTROS ESCOLARES Y AMYPAS DE LA COMARCA DE SOBRARBE PARA LA REALIZACIÓN DE ACTIVIDADES DEPORTIVAS SIN ÁNIMO DE LUCRO EN EL ÁMBITO COMARCAL, AÑO 2026.","descripcionLeng":null,"fechaRecepcion":"2026-04-09","nivel1":"LOCAL","nivel2":"COMARCA DE SOBRARBE","nivel3":"COMARCA DE SOBRARBE","codigoInvente":null},{"id":1099348,"mrr":false,"numeroConvocatoria":"897787","descripcion":"Subvención nominativa- Convenio de colaboración con ASSOCIACIÓ D’HOSTALERIA I OCI DE VILAREAL\n(ASHIOVI)","descripcionLeng":null,"fechaRecepcion":"2026-04-09","nivel1":"LOCAL","nivel2":"VILA-REAL","nivel3":"AYUNTAMIENTO DE VILA-REAL","codigoInvente":null},{"id":1099346,"mrr":false,"numeroConvocatoria":"897785","descripcion":"Convocatoria de las ayudas del Programa Campus Yuste 2026 de la Fundación Academia Europea e Iberoamericana de Yuste","descripcionLeng":null,"fechaRecepcion":"2026-04-09","nivel1":"AUTONOMICA","nivel2":"EXTREMADURA","nivel3":"FUNDACIÓN ACADEMIA EUROPEA E IBEROAMERICANA DE YUSTE","codigoInvente":null},{"id":1099345,"mrr":false,"numeroConvocatoria":"897784","descripcion":"Subvención nominativa- Convenio de colaboración con CÁMARA OFICIAL DE COMERCIO, INDUSTRIA Y NAVEGACIÓN DE CASTELLÓN para Realización de acciones formativas, de estudio y de asesoramiento empresarial en Vila-real (...)","descripcionLeng":null,"fechaRecepcion":"2026-04-09","nivel1":"LOCAL","nivel2":"VILA-REAL","nivel3":"AYUNTAMIENTO DE VILA-REAL","codigoInvente":null}],"pageable":{"sort":{"sorted":true,"unsorted":false,"empty":false},"pageNumber":50,"pageSize":50,"offset":2500,"unpaged":false,"paged":true},"last":false,"totalElements":10000,"totalPages":200,"first":false,"sort":{"sorted":true,"unsorted":false,"empty":false},"numberOfElements":50,"size":50,"number":50,"empty":false,"advertencia":"La reutilización de los datos del Sistema Nacional de Publicidad de Subvenciones y Ayudas Públicas está sujeta a una serie de restricciones y consideraciones legales. Consulte el aviso legal en https://www.infosubvenciones.es/bdnstrans/GE/es/avisolegal.Además, el usuario debe ser consciente que la información presentada es de naturaleza dinámica, y que los datos pueden ser sometidos a correcciones, inserciones, modificaciones y eliminaciones en momentos posteriores a su extracción. Accesos al API del sistema Nacional de Publicidad de Subvenciones y Ayudas Públicas. La Administración Presupuestaria, para salvaguardar la protección del acceso libre e irrestricto de los ciudadanos a este Portal y a su información podrá adoptar medidas restrictivas de acceso al API ante situaciones de manifiesto abuso del servicio, riesgos de seguridad, o uso fraudulento de la información descargada, de acuerdo con las buenas prácticas de gestión de datos abiertos (https://datos.gob.es/es/blog/limitaciones-la-consulta-de-una-api) establecidas por el Ministerio para la Transformación Digital y de la Función Pública."}