{"content":[{"id":1108255,"mrr":false,"numeroConvocatoria":"906694","descripcion":"CONCESIÓN DE PREMIOS CON MOTIVO DE LA CELEBRACIÓN DEL CONCURSO DE DISEÑO DE LA IMAGEN DE LA FIESTA MAYOR DE VERANO DE LA CANONJA","descripcionLeng":null,"fechaRecepcion":"2026-05-20","nivel1":"LOCAL","nivel2":"CANONJA, LA","nivel3":"AYUNTAMIENTO DE CANONJA, LA","codigoInvente":null},{"id":1108254,"mrr":false,"numeroConvocatoria":"906693","descripcion":"CONVOCATORIA SUBVENCIONES DEPORTIVAS 2026","descripcionLeng":"CONVOCATÒRIA SUBVENCIONS ESPORTIVES 2026","fechaRecepcion":"2026-05-20","nivel1":"LOCAL","nivel2":"MONTBLANC","nivel3":"AYUNTAMIENTO DE MONTBLANC","codigoInvente":null},{"id":1108243,"mrr":false,"numeroConvocatoria":"906682","descripcion":"INSTRUMENTOS Y VESTUARIO (Capítulo VII)","descripcionLeng":"INSTRUMENTOS E VESTIARIO (Capítulo VII)","fechaRecepcion":"2026-05-20","nivel1":"LOCAL","nivel2":"DIPUTACIÓN PROV. DE PONTEVEDRA","nivel3":"CULTURA","codigoInvente":null},{"id":1108241,"mrr":false,"numeroConvocatoria":"906680","descripcion":"SEGUNDA EDICIÓN DE LOS “PREMIOS UNIA A LAS PUBLICACIONES DE EXCELENCIA”","descripcionLeng":null,"fechaRecepcion":"2026-05-20","nivel1":"OTROS","nivel2":"UNIVERSIDAD INTERNACIONAL DE ANDALUCÍA","nivel3":null,"codigoInvente":"INV00005355"},{"id":1108237,"mrr":false,"numeroConvocatoria":"906676","descripcion":"Acuerdo de Junta de Gobierno de 06/05/2026.Bases Reguladoras del XXVIII Concurso de Composición “Andrés Segovia”.","descripcionLeng":null,"fechaRecepcion":"2026-05-20","nivel1":"LOCAL","nivel2":"ALMUÑÉCAR","nivel3":"AYUNTAMIENTO DE ALMUÑÉCAR","codigoInvente":null},{"id":1108236,"mrr":false,"numeroConvocatoria":"906675","descripcion":"Acuerdo de Junta de Gobierno de 6/05/2026. Bases Reguladoras del XLI Certamen Internacional de Guitarra Clásica “Andrés Segovia”.","descripcionLeng":null,"fechaRecepcion":"2026-05-20","nivel1":"LOCAL","nivel2":"ALMUÑÉCAR","nivel3":"AYUNTAMIENTO DE ALMUÑÉCAR","codigoInvente":null},{"id":1108235,"mrr":false,"numeroConvocatoria":"906674","descripcion":"Resolución del consejero Educación de ayudas para desarrollar programas de cualificación inicial en coporacs. locales/organizacs. no gubernamentales/mancomunidades muncpios./asocicnes. profesionales/empresariales/entidades  eco. social ,curso 26-27","descripcionLeng":"Resolució del conseller d'Educació d'ajuts  per desenvolupar programes de qualificació inicial en corporacions locals/mancomunitats municipis/organitcions. no governamentals/associons. professionals i emprerials./entitats economia. social, curs 26-27","fechaRecepcion":"2026-05-20","nivel1":"AUTONOMICA","nivel2":"ILLES BALEARS","nivel3":"DIRECCIÓN GENERAL DE FORMACIÓN PROFESIONAL Y FORMACIÓN DEL PROFESORADO","codigoInvente":null},{"id":1108234,"mrr":false,"numeroConvocatoria":"906673","descripcion":"Convocatoria de subvenciones para gastos de las actividades del programa \"Vive la cultura\" en los cursos 2024-2025 y 2025-2026 de las escuelas infantiles que tengan como titular a una entidad local","descripcionLeng":"Convocatòria de subvencions per a despeses de les activitats del programa \"Viu la cultura\" en els cursos 2024-2025 i 2025-2026 de les escoles infantils que tenguin com a titular una entitat local","fechaRecepcion":"2026-05-20","nivel1":"AUTONOMICA","nivel2":"ILLES BALEARS","nivel3":"DIRECCIÓN GENERAL DE INNOVACIÓN Y COMUNIDAD EDUCATIVA","codigoInvente":null},{"id":1108233,"mrr":false,"numeroConvocatoria":"906672","descripcion":"Convocatoria de subvenciones para llevar a cabo el certamen El Pi de Formentor","descripcionLeng":"Convocatòria de subvencions per dur a terme el certamen El Pi de Formentor","fechaRecepcion":"2026-05-20","nivel1":"AUTONOMICA","nivel2":"ILLES BALEARS","nivel3":"DIRECCIÓN GENERAL DE INNOVACIÓN Y COMUNIDAD EDUCATIVA","codigoInvente":null},{"id":1108231,"mrr":false,"numeroConvocatoria":"906670","descripcion":"AYUDAS FOMENTO ACTIVIDAD SINDICAL","descripcionLeng":"AJUTS FOMENT ACTIVITAT SINDICAL","fechaRecepcion":"2026-05-20","nivel1":"AUTONOMICA","nivel2":"ILLES BALEARS","nivel3":"DIRECCIÓN GENERAL DE TRABAJO Y SALUD LABORAL","codigoInvente":null},{"id":1108230,"mrr":false,"numeroConvocatoria":"906669","descripcion":"Convocatoria de subvenciones destinadas a entidades del tercer sector de acción social para financiar las inversiones para la adquisición, la construcción, la reforma y la rehabilitación, la adaptación o la ampliación de centros, o la mejora de los servic","descripcionLeng":"Convocatoria de subvenciones destinadas a entidades del tercer sector de acción social para financiar las inversiones para la adquisición, la construcción, la reforma y la rehabilitación, la adaptación o la ampliación de centros, o la mejora de los servic","fechaRecepcion":"2026-05-20","nivel1":"AUTONOMICA","nivel2":"ILLES BALEARS","nivel3":"DIRECCIÓN GENERAL DE PLANIFICACIÓN Y SERVICIOS SOCIALES","codigoInvente":null},{"id":1108228,"mrr":false,"numeroConvocatoria":"906667","descripcion":"AYUDAS PARA LA ILUMINACIÓN DE EDIFICIOS HISTÓRICOS EJERCICIO 2026","descripcionLeng":"AXUDAS PARA A ILUMINACIÓN DE EDIFICIOS HISTÓRICOS EXERCICIO 2026","fechaRecepcion":"2026-05-19","nivel1":"LOCAL","nivel2":"VIGO","nivel3":"AYUNTAMIENTO DE VIGO","codigoInvente":null},{"id":1108227,"mrr":false,"numeroConvocatoria":"906666","descripcion":"AYUDAS PARA LA INSTALACIÓN DE ASCENSORES, MEJORA DE LA ACCESIBILIDAD Y ELIMINACIÓN DE BARRERAS ARQUITECTÓNICAS EN EDIFICIOS RESIDENCIALES COLECTIVOS EXISTENTES PARA EL PERÍODO 2026","descripcionLeng":"AXUDAS PARA A INSTALACIÓN DE ASCENSORES, MELLORA DA ACCESIBILIDADE E ELIMINACIÓN DE BARREIRAS ARQUITECTÓNICAS EN EDIFICIOS RESIDENCIAIS COLECTIVOS EXISTENTES PARA O PERÍODO 2026","fechaRecepcion":"2026-05-19","nivel1":"LOCAL","nivel2":"VIGO","nivel3":"AYUNTAMIENTO DE VIGO","codigoInvente":null},{"id":1108225,"mrr":false,"numeroConvocatoria":"906664","descripcion":"subvenciones destinadas al refuerzo y extensión de las redes de distribución eléctrica que dan servicio a los parques empresariales de la Comunidad Autónoma de Galicia","descripcionLeng":null,"fechaRecepcion":"2026-05-19","nivel1":"AUTONOMICA","nivel2":"GALICIA","nivel3":"CONSELLERÍA DE ECONOMÍA E INDUSTRIA","codigoInvente":null},{"id":1108224,"mrr":false,"numeroConvocatoria":"906663","descripcion":"Resolución 14/05/2026 de subvenciones  públicas destinadas  a  programas  y  proyectos  para  la  concienciación,  prevención,  sensibilización, investigación e innovación para la erradicación de las distintas formas de violencia contra las mujeres.","descripcionLeng":null,"fechaRecepcion":"2026-05-19","nivel1":"ESTADO","nivel2":"MINISTERIO DE IGUALDAD","nivel3":"DELEGACIÓN DEL GOBIERNO CONTRA LA VIOLENCIA DE GÉNERO","codigoInvente":null},{"id":1108223,"mrr":false,"numeroConvocatoria":"906662","descripcion":"CONCURSO DE LA CANCIÓN ASTURIANA “PUEBLOS DE LLANES”","descripcionLeng":null,"fechaRecepcion":"2026-05-19","nivel1":"LOCAL","nivel2":"LLANES","nivel3":"AYUNTAMIENTO DE LLANES","codigoInvente":null},{"id":1108221,"mrr":false,"numeroConvocatoria":"906660","descripcion":"Resol. de 19 de mayo de 2026 de la Secretaría de Estado de Cooperación Internacional por la que se convocan subvenciones\npara la realización de actividades en el marco del Plan Director de la CE a fund. y asoc. dependientes de partidos políticos.","descripcionLeng":null,"fechaRecepcion":"2026-05-19","nivel1":"ESTADO","nivel2":"MINISTERIO DE ASUNTOS EXTERIORES, UNIÓN EUROPEA Y COOPERACIÓN","nivel3":"SECRETARÍA DE ESTADO DE COOPERACIÓN INTERNACIONAL","codigoInvente":null},{"id":1108217,"mrr":false,"numeroConvocatoria":"906656","descripcion":"CONVOCATORIA AYUDAS EMERGENCIA SOCIAL 2026 AYUNTAMIENTO DE SEDAVÍ","descripcionLeng":null,"fechaRecepcion":"2026-05-19","nivel1":"LOCAL","nivel2":"SEDAVÍ","nivel3":"AYUNTAMIENTO DE SEDAVÍ","codigoInvente":null},{"id":1108211,"mrr":false,"numeroConvocatoria":"906650","descripcion":"Convocatòria para la solicitud y otorgamiento de subvenciones para la igualdad de oportunidades de la infancia en el entorno educativo. Convocatòria linea 5 : Actividades de verano","descripcionLeng":"Convocatòria per a la sol.licitud i atorgament de subvencions per a la igualtat d´oportunitats de la infància en l´entorn educatiu. Línea 5 Activitats d´Estiu ","fechaRecepcion":"2026-05-19","nivel1":"LOCAL","nivel2":"SANT ANDREU DE LA BARCA","nivel3":"AYUNTAMIENTO DE SANT ANDREU DE LA BARCA","codigoInvente":null},{"id":1108204,"mrr":false,"numeroConvocatoria":"906643","descripcion":"Resolución del Vicerrector de Internacionalización y Cooperación por la que se convoca el programa Erasmus+ STA KA131 2026/2027 para movilidad académica de personal docente con países de la UE, asociados y terceros no asociados","descripcionLeng":null,"fechaRecepcion":"2026-05-19","nivel1":"OTROS","nivel2":"UNIVERSIDAD DE LAS PALMAS DE GRAN CANARIA","nivel3":null,"codigoInvente":"INV00005343"},{"id":1108195,"mrr":false,"numeroConvocatoria":"906634","descripcion":"Resolución de 18 de mayo de 2026, de la Consejería de Medio Rural y Política Agraria por la que se convocan ayudas para el establecimiento de personas jóvenes agricultoras y de nuevos agricultores. (Intervenciones 6961.1 y 6961.2). Conv 2026","descripcionLeng":null,"fechaRecepcion":"2026-05-19","nivel1":"AUTONOMICA","nivel2":"PRINCIPADO DE ASTURIAS","nivel3":"CONSEJERÍA DE MEDIO RURAL Y POLÍTICA AGRARIA","codigoInvente":null},{"id":1108191,"mrr":false,"numeroConvocatoria":"906630","descripcion":"CONVOCATORIA DE SUBVENCIONES PARA ASOCIACIONES VECINALES Y OTRAS ENTIDADES SIN ÁNIMO DE LUCRO ORGANIZADORAS DE FIESTAS EN BARRIOS Y PARROQUIAS (EJERCICIO 2026)","descripcionLeng":null,"fechaRecepcion":"2026-05-19","nivel1":"LOCAL","nivel2":"GIJÓN","nivel3":"AYUNTAMIENTO DE GIJÓN","codigoInvente":null},{"id":1108187,"mrr":false,"numeroConvocatoria":"906626","descripcion":"Resolución del Vicerrector por la que se convoca Erasmus+ STT 2026/2027 para personal docente y no docente: UE, asociados y terceros no asociados","descripcionLeng":null,"fechaRecepcion":"2026-05-19","nivel1":"OTROS","nivel2":"UNIVERSIDAD DE LAS PALMAS DE GRAN CANARIA","nivel3":null,"codigoInvente":"INV00005343"},{"id":1108185,"mrr":false,"numeroConvocatoria":"906624","descripcion":"Orden del 8 de mayo de 2026 por la que se establecen las bases reguladoras de las ayudas Bonos Talento empresa, para la realización de proyectos formativos de tala duración que se desarrollen por parte de las entidades beneficiarias, cofinanciadas por la ","descripcionLeng":"Orde do 8 de maio de 2026 pola que se establecen as bases reguladoras das axudas Bonos Talento empresa, para a realización de proxectos formativos de corta duración que se desenvolvan por parte das entidades beneficiarias, cofinanciadas pola Unión Europea","fechaRecepcion":"2026-05-19","nivel1":"AUTONOMICA","nivel2":"GALICIA","nivel3":"CONSELLERÍA DE EMPLEO, COMERCIO Y EMIGRACIÓN","codigoInvente":null},{"id":1108180,"mrr":false,"numeroConvocatoria":"906619","descripcion":"Convocatoria de subvenciones para actividades de voluntariado para poner en valor el patrimonio natural y cultural del Espacio Natural Protegido de les Gavarres (Gavarres Voluntarias) para el año 2026","descripcionLeng":"Convocatòria de subvencions per a activitats de voluntariat per posar en valor el patrimoni natural i cultural  de l’Espai Natural Protegit de les Gavarres (Gavarres Voluntàries) per a l’any 2026","fechaRecepcion":"2026-05-19","nivel1":"OTROS","nivel2":"CONSORCI DE LES GAVARRES","nivel3":null,"codigoInvente":"INV00000571"},{"id":1108174,"mrr":false,"numeroConvocatoria":"906613","descripcion":"Ayudas económicas destinadas al fomento del empleo - Talento Joven 2026","descripcionLeng":null,"fechaRecepcion":"2026-05-19","nivel1":"OTROS","nivel2":"CÁMARA DE COMERCIO DE GIJÓN","nivel3":null,"codigoInvente":null},{"id":1108173,"mrr":false,"numeroConvocatoria":"906612","descripcion":"CONVOCATORIA DEL ILTMO. AYUNTAMIENTO DE ANTIGUA DE RÉGIMEN GENERAL, DE AYUDAS Y DE SUBVENCIONES EN MATERIA DE FOMENTO DEL DEPORTE ANUALIDAD 2026","descripcionLeng":null,"fechaRecepcion":"2026-05-19","nivel1":"LOCAL","nivel2":"ANTIGUA","nivel3":"AYUNTAMIENTO DE ANTIGUA","codigoInvente":null},{"id":1108168,"mrr":false,"numeroConvocatoria":"906607","descripcion":"Convocatoria y bases reguladoras de subvenciones a los concejos de Zuia en diversos ámbitos año 2026","descripcionLeng":"Zuiako kontzejuei dirulaguntzak emateko deialdia eta oinarri arautzaileak, 2026. urterako","fechaRecepcion":"2026-05-19","nivel1":"LOCAL","nivel2":"ZUIA","nivel3":"AYUNTAMIENTO DE ZUIA","codigoInvente":null},{"id":1108154,"mrr":false,"numeroConvocatoria":"906593","descripcion":"DGBCE/26 PREMIOS EXTRAORDINARIOS FORMACIÓN PROFESIONAL GRADO SUPERIOR 25/26","descripcionLeng":null,"fechaRecepcion":"2026-05-19","nivel1":"AUTONOMICA","nivel2":"COMUNIDAD DE MADRID","nivel3":"CONSEJERÍA DE EDUCACIÓN, CIENCIA Y UNIVERSIDADES","codigoInvente":null},{"id":1108153,"mrr":false,"numeroConvocatoria":"906592","descripcion":"Resolución de 19/05/2026 por la que se convocan las ayudas destinadas a la financiación de inversiones para la modernización de cooperativas y sociedades laborales en Castilla-La Mancha, para 2026.","descripcionLeng":null,"fechaRecepcion":"2026-05-19","nivel1":"AUTONOMICA","nivel2":"CASTILLA-LA MANCHA","nivel3":"DIRECCIÓN GENERAL DE AUTÓNOMOS, TRABAJO Y ECONOMÍA SOCIAL","codigoInvente":null},{"id":1108152,"mrr":false,"numeroConvocatoria":"906591","descripcion":"Convocatoria 2026 de subvenciones para las asociaciones del municipio de Elgoibar, para el desarrollo de proyectos, programas y actividades específicos que tengan como objetivo la promoción en el municipio de la igualdad entre mujeres y hombres.","descripcionLeng":"2026ko dirulaguntza deialdia Elgoibarko udalerriko elkarteek, udalerrian, emakumeen eta gizonen arteko berdintasuna sustatzea xede duten proiektuak, programak eta berariazko jarduerak egiteko","fechaRecepcion":"2026-05-19","nivel1":"LOCAL","nivel2":"ELGOIBAR","nivel3":"AYUNTAMIENTO DE ELGOIBAR","codigoInvente":null},{"id":1108150,"mrr":false,"numeroConvocatoria":"906589","descripcion":"PRÁCTICAS BECADAS EN EL DEPARTAMENTO DE FÍSICA DE LA UNIVERSIDAD DE ALICANTE, EN CONCURRENCIA COMPETITIVA (PRA-21 / 2025-2026)","descripcionLeng":null,"fechaRecepcion":"2026-05-19","nivel1":"OTROS","nivel2":"UNIVERSIDAD DE ALICANTE","nivel3":null,"codigoInvente":"INV00005329"},{"id":1108147,"mrr":false,"numeroConvocatoria":"906586","descripcion":"CONVOCATORIA DE AYUDAS AL FOMENTO DE LA NATALIDAD DEL AYUNTAMIENTO DE VILLANUEVA DE LOS CASTILLEJOS","descripcionLeng":null,"fechaRecepcion":"2026-05-19","nivel1":"LOCAL","nivel2":"VILLANUEVA DE LOS CASTILLEJOS","nivel3":"AYUNTAMIENTO DE VILLANUEVA DE LOS CASTILLEJOS","codigoInvente":null},{"id":1108146,"mrr":false,"numeroConvocatoria":"906585","descripcion":"Convocatoria subvenciones mantenimiento y conservación de zonas verdes o jardines de titularidad privada destinados al uso público en la ciudad de Guadalajara – 2026.","descripcionLeng":null,"fechaRecepcion":"2026-05-19","nivel1":"LOCAL","nivel2":"GUADALAJARA","nivel3":"AYUNTAMIENTO DE GUADALAJARA","codigoInvente":null},{"id":1108141,"mrr":false,"numeroConvocatoria":"906580","descripcion":"CONVOCATORIA DE SUBVENCIONES 2026, EN RÉGIMEN DE CONCURRENCIA NO COMPETITIVA, DIRIGIDA A EMPRESAS INSTALACION LADES EN VILADECANS QUE LLEVEN A CABO LAS ACCIONES SUGERIDAS DENTRO DEL PROGRAMA \"MENTORING EMPRESARIAL\"","descripcionLeng":"CONVOCATÒRIA DE SUBVENCIONS 2026, EN RÈGIM DE CONCURRÈNCIA NO COMPETITIVA, ADREÇADA A EMPRESES INSTAL·LADES A VILADECANS QUE PORTIN A TERME LES ACCIONS SUGGERIDES DINS EL PROGRAMA “MENTORING EMPRESARIAL”","fechaRecepcion":"2026-05-19","nivel1":"LOCAL","nivel2":"VILADECANS","nivel3":"AYUNTAMIENTO DE VILADECANS","codigoInvente":null},{"id":1108140,"mrr":false,"numeroConvocatoria":"906579","descripcion":"CU CONVOCATORIA DE SUBVENCIONES AÑO 2026 PARA APOYAR LA FINANCIACIÓN DE PROYECTOS DE LAS ASOCIACIONES Y FUNDACIONES BELENISTAS DEL MUNICIPIO DE CARTAGENA.","descripcionLeng":null,"fechaRecepcion":"2026-05-19","nivel1":"LOCAL","nivel2":"CARTAGENA","nivel3":"AYUNTAMIENTO DE CARTAGENA","codigoInvente":null},{"id":1108139,"mrr":false,"numeroConvocatoria":"906578","descripcion":"CONVOCATÓRIA PARA LA CONCESIÓN DE AJUDAS DE CASAL DE VERANO DEL AÑO 2026 Y PARA LA CONCESIÓN DE AJUDAS DE MATERIAL, LIBROS, TRANSPORTE Y COMEDOR DEL CURSO ESCOLAR 2026-2027","descripcionLeng":"CONVOCATÒRIA PER A LA CONCESSIÓ D’AJUTS DE CASAL D’ESTIU PER L’ANY 2026 I PER A LA CONCESSIÓ D’AJUTS DE MATERIAL, LLIBRES,  TRANSPORT I MENJADOR PER AL CURS ESCOLAR 2026-2027","fechaRecepcion":"2026-05-19","nivel1":"LOCAL","nivel2":"SANT PERE DE VILAMAJOR","nivel3":"AYUNTAMIENTO DE SANT PERE DE VILAMAJOR","codigoInvente":null},{"id":1108135,"mrr":false,"numeroConvocatoria":"906574","descripcion":"Subvenciones para la promoción del euskera en el municipio de Elgoibar 2026. Anexo IV. - Convocatoria de subvenciones en régimen de concurrencia no competitiva para impulsar el uso del euskera en las empresas de la localidad.","descripcionLeng":"Elgoibarko udalerrian euskara sustatzeko jardueretarako dirulaguntzak 2026. IV. eranskina.- Herriko enpresetan euskararen erabilera bultzatzeko dirulaguntzak norgehiagokarik gabeko konkurrentziaren araubidez emateko Dirulaguntza deialdia.","fechaRecepcion":"2026-05-19","nivel1":"LOCAL","nivel2":"ELGOIBAR","nivel3":"AYUNTAMIENTO DE ELGOIBAR","codigoInvente":null},{"id":1108133,"mrr":false,"numeroConvocatoria":"906572","descripcion":"BASES PARA LA CONVOCATORIA DE ADHESIONES AL PROGRAMA DE “DESRATIZACIÓN Y DESINSECTACIÓN DE LOS MUNICIPIOS DE PALENCIA” AÑO 2027.","descripcionLeng":null,"fechaRecepcion":"2026-05-19","nivel1":"LOCAL","nivel2":"DIPUTACIÓN PROV. DE PALENCIA","nivel3":"DIPUTACIÓN PROVINCIAL DE PALENCIA","codigoInvente":null},{"id":1108132,"mrr":false,"numeroConvocatoria":"906571","descripcion":"Concesión de subvenciones en materia de ahorro energético para el año 2023, 2024 y 2025","descripcionLeng":"Concessió de subvencions en matèria d’eficiència energètica per a l'any 2023, 2024 i 2025","fechaRecepcion":"2026-05-19","nivel1":"LOCAL","nivel2":"VALL D'EN BAS, LA","nivel3":"AYUNTAMIENTO DE VALL D'EN BAS, LA","codigoInvente":null},{"id":1108130,"mrr":false,"numeroConvocatoria":"906569","descripcion":"CONVOCATORIA PARA LA CONCESION DE BECAS PARA LA ESCUELA DE PÁRVULOS Y CASAL DE VERANO","descripcionLeng":"CONVOCATÒRIA PER A LA CONCESSIÓ DE BEQUES PER A L’ESCOLA BRESSOL I CASAL D’ESTIU","fechaRecepcion":"2026-05-19","nivel1":"LOCAL","nivel2":"VILANOVA DEL VALLÈS","nivel3":"AYUNTAMIENTO DE VILANOVA DEL VALLÈS","codigoInvente":null},{"id":1108125,"mrr":false,"numeroConvocatoria":"906564","descripcion":"Resolución de 15 de mayo de 2026,  del Director del Instituto de Fomento de la Región de Murcia, por delegación, de convocatoria de ayudas a la participación en ferias, eventos y misiones comerciales. Misión Comercial Directa a India 2026.","descripcionLeng":null,"fechaRecepcion":"2026-05-19","nivel1":"AUTONOMICA","nivel2":"REGIÓN DE MURCIA","nivel3":"INSTITUTO DE FOMENTO DE LA REGIÓN DE MURCIA (INFO)","codigoInvente":"INV00003691"},{"id":1108124,"mrr":false,"numeroConvocatoria":"906563","descripcion":"BASES REGULADORAS QUE DEBEN REGIR LA CONVOCATORIA 2026 DE AYUDAS PARA LA ADQUISICIÓN DE EQUIPAMIENTOS E INSTALACIONES PARA LA MEJORA DE LA SEGURIDAD DE LOS ESTABLECIMIENTOS COMERCIALES Y HOSTELEROS DE RIVAS VACIAMADRID","descripcionLeng":null,"fechaRecepcion":"2026-05-19","nivel1":"LOCAL","nivel2":"RIVAS-VACIAMADRID","nivel3":"AYUNTAMIENTO DE RIVAS-VACIAMADRID","codigoInvente":null},{"id":1108118,"mrr":false,"numeroConvocatoria":"906557","descripcion":"CONVOCATORIA DE LOS PREMIOS VILAWAT POR LAS ACCIONES DE AHORRO, EFICIENCIA ENERGÉTICA Y MITIGACIÓN DEL CAMBIO CLIMÁTICO EN CENTROS EDUCATIVOS PÚBLICOS DE INFANTIL Y PRIMARIA DE VILADECANS, CURSO 2025-2026","descripcionLeng":"CONVOCATÒRIA DELS PREMIS VILAWAT PER LES ACCIONS D’ESTALVI, EFICIÈNCIA ENERGÈTICA I MITIGACIÓ DEL CANVI CLIMÀTIC EN CENTRES EDUCATIUS PÚBLICS D’INFANTIL I PRIMÀRIA DE VILADECANS, CURS 2025-2026.","fechaRecepcion":"2026-05-19","nivel1":"LOCAL","nivel2":"VILADECANS","nivel3":"AYUNTAMIENTO DE VILADECANS","codigoInvente":null},{"id":1108117,"mrr":false,"numeroConvocatoria":"906556","descripcion":"PROYECTOS COOPERACIÓN","descripcionLeng":null,"fechaRecepcion":"2026-05-19","nivel1":"LOCAL","nivel2":"COSLADA","nivel3":"AYUNTAMIENTO DE COSLADA","codigoInvente":null},{"id":1108116,"mrr":false,"numeroConvocatoria":"906555","descripcion":"DGBCE/26 XVII  EDIC. CONCURSO DE NARRACIÓN Y RECITADO 2025-2026: RECITADO","descripcionLeng":null,"fechaRecepcion":"2026-05-19","nivel1":"AUTONOMICA","nivel2":"COMUNIDAD DE MADRID","nivel3":"CONSEJERÍA DE EDUCACIÓN, CIENCIA Y UNIVERSIDADES","codigoInvente":null},{"id":1108115,"mrr":false,"numeroConvocatoria":"906554","descripcion":"Subvenciones para la promoción del euskera en el municipio de Elgoibar 2026. Anexo III. -Instalación del rótulo identificativo y/o la imagen corporativa del establecimiento en euskera o en bilingüe.","descripcionLeng":"Elgoibarko udalerrian euskara sustatzeko jardueretarako dirulaguntzak 2026. III. Eranskina.- Establezimenduko errotulu nagusia edota irudi korporatiboa euskaraz edo ele bietan jartzeko dirulaguntzak.  ","fechaRecepcion":"2026-05-19","nivel1":"LOCAL","nivel2":"ELGOIBAR","nivel3":"AYUNTAMIENTO DE ELGOIBAR","codigoInvente":null},{"id":1108114,"mrr":false,"numeroConvocatoria":"906553","descripcion":"DGBCE/26 XVII  EDIC. CONCURSO DE NARRACIÓN Y RECITADO 2025-2026: NARRACION","descripcionLeng":null,"fechaRecepcion":"2026-05-19","nivel1":"AUTONOMICA","nivel2":"COMUNIDAD DE MADRID","nivel3":"CONSEJERÍA DE EDUCACIÓN, CIENCIA Y UNIVERSIDADES","codigoInvente":null},{"id":1108113,"mrr":false,"numeroConvocatoria":"906552","descripcion":"CONVOCATÒRIA PER A ENTITATS SENSE ÀNIM DE LUCRE 2025","descripcionLeng":null,"fechaRecepcion":"2026-05-19","nivel1":"LOCAL","nivel2":"SANT JULIÀ DE VILATORTA","nivel3":"AYUNTAMIENTO DE SANT JULIÀ DE VILATORTA","codigoInvente":null},{"id":1108111,"mrr":false,"numeroConvocatoria":"906550","descripcion":"AYUDAS A INVESTIGACIÓN DEL PATRIMONIO 2026","descripcionLeng":null,"fechaRecepcion":"2026-05-19","nivel1":"AUTONOMICA","nivel2":"CASTILLA-LA MANCHA","nivel3":"VICECONSEJERÍA DE CULTURA Y DEPORTES","codigoInvente":null}],"pageable":{"sort":{"sorted":true,"unsorted":false,"empty":false},"pageNumber":24,"pageSize":50,"offset":1200,"unpaged":false,"paged":true},"last":false,"totalElements":10000,"totalPages":200,"sort":{"sorted":true,"unsorted":false,"empty":false},"first":false,"numberOfElements":50,"size":50,"number":24,"empty":false,"advertencia":"La reutilización de los datos del Sistema Nacional de Publicidad de Subvenciones y Ayudas Públicas está sujeta a una serie de restricciones y consideraciones legales. Consulte el aviso legal en https://www.infosubvenciones.es/bdnstrans/GE/es/avisolegal.Además, el usuario debe ser consciente que la información presentada es de naturaleza dinámica, y que los datos pueden ser sometidos a correcciones, inserciones, modificaciones y eliminaciones en momentos posteriores a su extracción. Accesos al API del sistema Nacional de Publicidad de Subvenciones y Ayudas Públicas. La Administración Presupuestaria, para salvaguardar la protección del acceso libre e irrestricto de los ciudadanos a este Portal y a su información podrá adoptar medidas restrictivas de acceso al API ante situaciones de manifiesto abuso del servicio, riesgos de seguridad, o uso fraudulento de la información descargada, de acuerdo con las buenas prácticas de gestión de datos abiertos (https://datos.gob.es/es/blog/limitaciones-la-consulta-de-una-api) establecidas por el Ministerio para la Transformación Digital y de la Función Pública."}