{"content":[{"id":1108713,"mrr":false,"numeroConvocatoria":"907152","descripcion":"BASES REGULADORAS DE LA 2ª EDICIÓN DEL PREMIO DE NOVELA\n“CIUDAD DE ZAFRA”","descripcionLeng":null,"fechaRecepcion":"2026-05-21","nivel1":"LOCAL","nivel2":"ZAFRA","nivel3":"AYUNTAMIENTO DE ZAFRA","codigoInvente":null},{"id":1108712,"mrr":false,"numeroConvocatoria":"907151","descripcion":"SUBV. FAMILIAS VULNERABLES 2026. L2: PROYECTOS FAMILIAS MONO, FFNN, FFAA..","descripcionLeng":null,"fechaRecepcion":"2026-05-21","nivel1":"AUTONOMICA","nivel2":"COMUNIDAD DE MADRID","nivel3":"CONSEJERÍA DE FAMILIA, JUVENTUD Y ASUNTOS SOCIALES","codigoInvente":null},{"id":1108711,"mrr":false,"numeroConvocatoria":"907150","descripcion":"SUBV. FAMILIAS VULNERABLES 2026. L1: PROYECTOS MUJERES GESTANTES Y MADRES","descripcionLeng":null,"fechaRecepcion":"2026-05-21","nivel1":"AUTONOMICA","nivel2":"COMUNIDAD DE MADRID","nivel3":"CONSEJERÍA DE FAMILIA, JUVENTUD Y ASUNTOS SOCIALES","codigoInvente":null},{"id":1108709,"mrr":false,"numeroConvocatoria":"907148","descripcion":"DECRETO FORAL 52/2026, de 21 de mayo, de la Diputación Foral de Bizkaia por el que se establecen las bases de  subvenciones a asociaciones del Territorio Histórico de Bizkaia para el mantenimiento y mejora de los pastos de los montes del Territorio Histór","descripcionLeng":"Bizkaiko Foru Aldundiaren 52/2026 FORU DEKRETUA maiatzaren 21ekoa, Bizkaiko Lurralde Historikoko mendietako larreak mantendu eta hobetzeko Bizkaiko Lurralde Historikoko elkarteei dirulaguntzak emateko oinarriak ezarri eta 2026rako deialdia egiten duena","fechaRecepcion":"2026-05-21","nivel1":"LOCAL","nivel2":"DIPUTACIÓN FORAL DE BIZKAIA","nivel3":"DIPUTACIÓN FORAL DE BIZKAIA","codigoInvente":null},{"id":1108708,"mrr":false,"numeroConvocatoria":"907147","descripcion":"Convocatoria del VI Premio Granada de Fondo a la creación artística.","descripcionLeng":null,"fechaRecepcion":"2026-05-21","nivel1":"LOCAL","nivel2":"DIPUTACIÓN PROV. DE GRANADA","nivel3":"DIPUTACIÓN PROVINCIAL DE GRANADA","codigoInvente":null},{"id":1108703,"mrr":false,"numeroConvocatoria":"907142","descripcion":"Extracto Resoluc. n. 3383 de T. Alcalde Delegado Cartuja, Parques Innovadores...20/05/26 por el que se aprueba convocatoria pública subvenciones, en régimen de concurrencia competitiva, destinadas a establecimientos afectados por actuaciones Línea 3 Metro","descripcionLeng":null,"fechaRecepcion":"2026-05-21","nivel1":"LOCAL","nivel2":"SEVILLA","nivel3":"AYUNTAMIENTO DE SEVILLA","codigoInvente":null},{"id":1108702,"mrr":false,"numeroConvocatoria":"907141","descripcion":"BASES ESPECÍFICAS CONCURSO \"PREMIOS JÓVENES EMPRENDEDORES, EDICIÓN XVII\" ANUALIDAD 2026","descripcionLeng":null,"fechaRecepcion":"2026-05-21","nivel1":"LOCAL","nivel2":"TORREVIEJA","nivel3":"AYUNTAMIENTO DE TORREVIEJA","codigoInvente":null},{"id":1108701,"mrr":false,"numeroConvocatoria":"907140","descripcion":"CONVOCATORIA DE SUBVENCIONES DESTINADAS A EMPRESAS PARA LA REALIZACIÓN DE EVENTOS MUSICALES DE RELEVANCIA TURÍSTICA, ANUALIDAD 2026","descripcionLeng":null,"fechaRecepcion":"2026-05-21","nivel1":"LOCAL","nivel2":"ALICANTE/ALACANT","nivel3":"PATRONATO MUNICIPAL DE TURISMO DE ALICANTE","codigoInvente":"INV00004417"},{"id":1108697,"mrr":false,"numeroConvocatoria":"907136","descripcion":"PROGRAMA DE MOVILIDAD ERASMUS + PARA PERSONAL DOCENTE E INVESTIGADOR (PDI) CURSO 2026/2027 (Código de subvención: 11-131-4-2026-0098-S)","descripcionLeng":"PROGRAMA DE MOBILITAT ERASMUS + PER A PERSONAL DOCENT I INVESTIGADOR (PDI) CURS 2026/2027 (codi de subvenció: 11-131-4-2026-0098-S)","fechaRecepcion":"2026-05-21","nivel1":"OTROS","nivel2":"UNIVERSIDAD MIGUEL HERNÁNDEZ DE ELCHE","nivel3":null,"codigoInvente":"INV00005357"},{"id":1108693,"mrr":false,"numeroConvocatoria":"907132","descripcion":"CONVOCATORIA SUBVENCIONES PARA LA PROMOCIÓN EXTERNA DE LAS FIRMAS DE MODA DE LA PALMA 2026","descripcionLeng":null,"fechaRecepcion":"2026-05-21","nivel1":"LOCAL","nivel2":"CABILDO INSULAR DE LA PALMA","nivel3":"EXCMO. CABILDO INSULAR DE LA PALMA","codigoInvente":null},{"id":1108691,"mrr":false,"numeroConvocatoria":"907130","descripcion":"CONVOCATORIA QUE DESARROLLA ELPROCEDIMIENTO DE CONCESIÓN DE SUBVENCIONES EN RÉGIMEN DE CONCURRENCIACOMPETITIVA PARA ACTIVIDADES CULTURALES A FAVOR DE ASOCIACIONES EINSTITUCIONES SIN ÁNIMO DE LUCRO (EJERCICIO 2026)","descripcionLeng":null,"fechaRecepcion":"2026-05-21","nivel1":"LOCAL","nivel2":"TORREDONJIMENO","nivel3":"AYUNTAMIENTO DE TORREDONJIMENO","codigoInvente":null},{"id":1108685,"mrr":false,"numeroConvocatoria":"907124","descripcion":"CONVOCATORIA DE SUBVENCIONES PARAPROYECTOS DE COOPERACIÓN Y AYUDA AL DESARROLLO A FAVOR DE ASOCIACIONES EINSTITUCIONES SIN ÁNIMO DE LUCRO, 2026","descripcionLeng":null,"fechaRecepcion":"2026-05-21","nivel1":"LOCAL","nivel2":"TORREDONJIMENO","nivel3":"AYUNTAMIENTO DE TORREDONJIMENO","codigoInvente":null},{"id":1108684,"mrr":false,"numeroConvocatoria":"907123","descripcion":"Subvenciones a empresas y empresarios/as de Tenerife para la realización de proyectos culturales, 2026","descripcionLeng":null,"fechaRecepcion":"2026-05-21","nivel1":"LOCAL","nivel2":"CABILDO INSULAR DE TENERIFE","nivel3":"CABILDO INSULAR DE TENERIFE","codigoInvente":null},{"id":1108681,"mrr":false,"numeroConvocatoria":"907120","descripcion":"BASES REGULADORAS DE LA SUBVENCIÓN DE AYUDAS DESTINADAS A LAS ACTUACIONES DE REHABILITACIÓN DEL PARQUE RESIDENCIAL DE MOLINA DE SEGURA.","descripcionLeng":null,"fechaRecepcion":"2026-05-21","nivel1":"LOCAL","nivel2":"MOLINA DE SEGURA","nivel3":"AYUNTAMIENTO DE MOLINA DE SEGURA","codigoInvente":null},{"id":1108680,"mrr":false,"numeroConvocatoria":"907119","descripcion":"DECRETO DE LA DELEGADA DEL ÁREA DE GOBIERNO DE ECONOMÍA, INNOVACIÓN Y HACIENDA POR EL QUE SE APRUEBA LA CONVOCATORIA PÚB DE SUBV PARA","descripcionLeng":null,"fechaRecepcion":"2026-05-21","nivel1":"LOCAL","nivel2":"MADRID","nivel3":"ÁREA DELEGADA DE EMPRENDIMIENTO, EMPLEO E INNOVACIÓN.","codigoInvente":null},{"id":1108679,"mrr":false,"numeroConvocatoria":"907118","descripcion":"EUSKARA IKASTEKO DIRULAGUNTZA - 2026 /  AYUDAS PARA EL APRENDIZAJE DE EUSKERA - 2026","descripcionLeng":"EUSKARA IKASTEKO DIRULAGUNTZA - 2026","fechaRecepcion":"2026-05-21","nivel1":"LOCAL","nivel2":"BAZTAN","nivel3":"AYUNTAMIENTO DE BAZTAN","codigoInvente":null},{"id":1108677,"mrr":false,"numeroConvocatoria":"907116","descripcion":"Resolución de la alcaldía del 14 de mayo de 2026, por la que se aprueba la convocatoria y las bases para la concesión de bolsas a deportistas individuales del Concello do Porriño, año 2026","descripcionLeng":"Resolución da alcaldía do 14 de maio de 2026, pola que se aproba a convocatoria e as bases para a concesión de bolsas a deportistas individuais do Concello do Porriño, ano 2026","fechaRecepcion":"2026-05-21","nivel1":"LOCAL","nivel2":"PORRIÑO, O","nivel3":"AYUNTAMIENTO DE PORRIÑO, O","codigoInvente":null},{"id":1108675,"mrr":false,"numeroConvocatoria":"907114","descripcion":"HIZKUNTZA-PAISAIA EUSKARATZEKO DIRULAGUNTZAK 2026 / AYUDA PARA LA EUSKALDUNIZACIÓN DEL PAISAJE LINGUÏSTICO 2026","descripcionLeng":"HIZKUNTZA-PAISAIA EUSKARATZEKO DIRULAGUNTZAK 2026 ","fechaRecepcion":"2026-05-21","nivel1":"LOCAL","nivel2":"BAZTAN","nivel3":"AYUNTAMIENTO DE BAZTAN","codigoInvente":null},{"id":1108674,"mrr":false,"numeroConvocatoria":"907113","descripcion":"CONVOCATORIA PARA PARTICIPAR EN EL CONCURSO DEL CARTEL ANUNCIADOR DEL CARNAVAL 2026","descripcionLeng":null,"fechaRecepcion":"2026-05-21","nivel1":"LOCAL","nivel2":"CHIPIONA","nivel3":"AYUNTAMIENTO DE CHIPIONA","codigoInvente":null},{"id":1108672,"mrr":false,"numeroConvocatoria":"907111","descripcion":"CONVOCATORIA QUE DESARROLLA EL PROCEDIMIENTO DE CONCESIÓN DE SUBVENCIONES EN RÉGIMEN DE CONCURRENCIA COMPETITIVA PARA ACTIVIDADES EN MATERIA SOCIAL A FAVOR DE ASOCIACIONES E INSTITUCIONES SIN ÁNIMO DE LUCRO (EJERCICIO 2026)","descripcionLeng":null,"fechaRecepcion":"2026-05-21","nivel1":"LOCAL","nivel2":"TORREDONJIMENO","nivel3":"AYUNTAMIENTO DE TORREDONJIMENO","codigoInvente":null},{"id":1108670,"mrr":false,"numeroConvocatoria":"907109","descripcion":"Convocatoria de subvenciones para el apoyo a la organización y celebración de premios y concursos culturales","descripcionLeng":"Convocatòria de subvencions per al suport a l'organització i celebració de premis i concursos culturals","fechaRecepcion":"2026-05-21","nivel1":"AUTONOMICA","nivel2":"CATALUÑA","nivel3":"OFICINA DE SUPORT A LA INICIATIVA CULTURAL","codigoInvente":null},{"id":1108666,"mrr":false,"numeroConvocatoria":"907105","descripcion":"III FERIA DE LA TAPA MECO 2026","descripcionLeng":null,"fechaRecepcion":"2026-05-21","nivel1":"LOCAL","nivel2":"MECO","nivel3":"AYUNTAMIENTO DE MECO","codigoInvente":null},{"id":1108665,"mrr":false,"numeroConvocatoria":"907104","descripcion":"Decreto de 20 de mayo de 2026 de la Delegada del Área de Gobierno de Economía, Innovación y Hacienda por el que se aprueba la convocatoria pública para la concesión de subvenciones dirigidas a la promoción y desarrollo de la economía social para la anuali","descripcionLeng":null,"fechaRecepcion":"2026-05-21","nivel1":"LOCAL","nivel2":"MADRID","nivel3":"ÁREA DE GOBIERNO DE ECONOMÍA, INNOVACIÓN Y HACIENDA","codigoInvente":null},{"id":1108664,"mrr":false,"numeroConvocatoria":"907103","descripcion":"Decreto de 20 de mayo de 2026 de la Delegada del Área de Gobierno de Economía, Innovación y Hacienda por el que se aprueba la convocatoria pública para la concesión de subvenciones dirigidas a la promoción y desarrollo de la economía social para la anuali","descripcionLeng":null,"fechaRecepcion":"2026-05-21","nivel1":"LOCAL","nivel2":"MADRID","nivel3":"ÁREA DE GOBIERNO DE ECONOMÍA, INNOVACIÓN Y HACIENDA","codigoInvente":null},{"id":1108662,"mrr":false,"numeroConvocatoria":"907101","descripcion":"XXX CERTAMEN LITERARIO INTERNACIONAL “CIUDAD DE GETAFE 2026” EN SU MODALIDAD DE NOVELA NEGRA","descripcionLeng":null,"fechaRecepcion":"2026-05-21","nivel1":"LOCAL","nivel2":"GETAFE","nivel3":"AYUNTAMIENTO DE GETAFE","codigoInvente":null},{"id":1108661,"mrr":false,"numeroConvocatoria":"907100","descripcion":"Bases Reguladoras y Convocatoria de las Ayudas “Bono Lo Mejor de Haro Primavera 2026” del Ayuntamiento de Haro para incentivar la compra en el sector comercial y de servicios dentro del municipio.","descripcionLeng":null,"fechaRecepcion":"2026-05-21","nivel1":"LOCAL","nivel2":"HARO","nivel3":"AYUNTAMIENTO DE HARO","codigoInvente":null},{"id":1108658,"mrr":false,"numeroConvocatoria":"907097","descripcion":"Actuacions de promoció de la convivència, integració, respecta a la diversitat i tolerància, i actuacions de foment de l'associacionisme de persones immigrants.","descripcionLeng":"Actuacions de promoció de la convivència, integració, respecta a la diversitat i tolerància, i actuacions de foment de l'associacionisme de persones immigrants.","fechaRecepcion":"2026-05-21","nivel1":"AUTONOMICA","nivel2":"ILLES BALEARS","nivel3":"DIRECCIÓN GENERAL DE INMIGRACIÓN Y COOPERACIÓN AL DESARROLLO","codigoInvente":null},{"id":1108657,"mrr":false,"numeroConvocatoria":"907096","descripcion":"Convocatoria de subvenciones para ejecutar proyectos de cooperación para la transformación global para el año 2026","descripcionLeng":"Convocatòria de subvencions per executar projectes de cooperació per a la transformació global per a l’any 2026","fechaRecepcion":"2026-05-21","nivel1":"AUTONOMICA","nivel2":"ILLES BALEARS","nivel3":"DIRECCIÓN GENERAL DE INMIGRACIÓN Y COOPERACIÓN AL DESARROLLO","codigoInvente":null},{"id":1108655,"mrr":false,"numeroConvocatoria":"907094","descripcion":"CONVOCATORIA DE SUBVENCIONES EN RÉGIMEN DE CONCURRENCIA COMPETITIVA PARA ASOCIACIONES DE COMERCIANTES DE PAMPLONA PARA LA REALIZACIÓN DE ACTIVIDADES DE DINAMIZACIÓN, PROMOCIÓN, FOMENTO Y URBANISMO COMERCIAL DEL 01 DE OCTUBRE 2025 AL 30 DE SEPTIEMBRE 2026","descripcionLeng":"DIRULAGUNTZAK NORGEHIAGOKAKO ARAUBIDEAN EMATEKO DEIALDIA, IRUÑEKO MERKATARIEN ELKARTEEK MERKATARITZA DINAMIZATZEKO, BULTZATZEKO ETA SUSTATZEKO JARDUERAK, ETA MERKATARITZA-HIRIGINTZAKOAK EGIN DITZATEN 2025EKO URRIAREN 1ETIK 2026KO IRAILAREN 30ERA ","fechaRecepcion":"2026-05-21","nivel1":"LOCAL","nivel2":"PAMPLONA/IRUÑA","nivel3":"AYUNTAMIENTO DE PAMPLONA/IRUÑA","codigoInvente":null},{"id":1108652,"mrr":false,"numeroConvocatoria":"907091","descripcion":"BASES REGULADORAS DE LA CONCESIÓN DE SUBVENCIONES DESTINADAS AL FOMENTO Y DESARROLLO DE LOS CLUBES DEPORTIVOS DEL MUNICIPIO DE INGENIO-EJERCICIO 2026","descripcionLeng":null,"fechaRecepcion":"2026-05-21","nivel1":"LOCAL","nivel2":"INGENIO","nivel3":"AYUNTAMIENTO DE INGENIO","codigoInvente":null},{"id":1108650,"mrr":false,"numeroConvocatoria":"907089","descripcion":"Acuerdo de Junta de Gobierno de 6 de mayo de 2026, punto 4.4.1., de aprobación de la Convocatoria del Premio Provincial de Solidaridad Internacional y Derechos Humanos correspondiente al año 2026.","descripcionLeng":null,"fechaRecepcion":"2026-05-21","nivel1":"LOCAL","nivel2":"DIPUTACIÓN PROV. DE MÁLAGA","nivel3":"DIPUTACIÓN PROVINCIAL DE MÁLAGA","codigoInvente":null},{"id":1108649,"mrr":false,"numeroConvocatoria":"907088","descripcion":"PREMIOS AL DESARROLLO DE PROYECTOS EDUCATIVOS INNOVADORES REALIZADOS EN LOS CENTROS EDUCATIVOS PÚBLICOS DE GETAFE DURANTE EL CURSO 2025/2026.","descripcionLeng":null,"fechaRecepcion":"2026-05-21","nivel1":"LOCAL","nivel2":"GETAFE","nivel3":"AYUNTAMIENTO DE GETAFE","codigoInvente":null},{"id":1108648,"mrr":false,"numeroConvocatoria":"907087","descripcion":"Orden de 15 de mayo de 2026, de la Consejería de Cultura, Turismo y Deporte, por la que se convocan becas de colaboradores y tutores de estudios en Residencias Deportivas de la Comunidad de Castilla y León para el curso 2026-2027","descripcionLeng":null,"fechaRecepcion":"2026-05-21","nivel1":"AUTONOMICA","nivel2":"CASTILLA Y LEÓN","nivel3":"CONSEJERÍA DE CULTURA, TURISMO Y DEPORTE","codigoInvente":null},{"id":1108647,"mrr":false,"numeroConvocatoria":"907086","descripcion":"CONVOCATORIA DE SUBVENCIONES PARA ACTIVIDADES EDUCATIVAS A FAVOR DE AMPAS Y DEMAS ASOCIACIONES DE CARÁCTER EDUCATIVO, 2026","descripcionLeng":null,"fechaRecepcion":"2026-05-21","nivel1":"LOCAL","nivel2":"TORREDONJIMENO","nivel3":"AYUNTAMIENTO DE TORREDONJIMENO","codigoInvente":null},{"id":1108638,"mrr":false,"numeroConvocatoria":"907077","descripcion":"Ayuda a la inversión en emprendimiento en el ámbito territorial del Plan del Pirineo 2026","descripcionLeng":null,"fechaRecepcion":"2026-05-21","nivel1":"AUTONOMICA","nivel2":"COMUNIDAD FORAL DE NAVARRA","nivel3":"DEPARTAMENTO DE COHESIÓN TERRITORIAL","codigoInvente":null},{"id":1108637,"mrr":false,"numeroConvocatoria":"907076","descripcion":"CNAL 2026","descripcionLeng":null,"fechaRecepcion":"2026-05-21","nivel1":"LOCAL","nivel2":"VALDÉS","nivel3":"AYUNTAMIENTO DE VALDÉS","codigoInvente":null},{"id":1108636,"mrr":false,"numeroConvocatoria":"907075","descripcion":"Convocatoria de concesiones de subvenciones en régimen de concurrencia competitiva a proyectos promovidos por las entidades sin finalidad de lucro de Sant Quirze del Vallès","descripcionLeng":"Convocatòria de concessions de subvencions en règim de concurrència competitiva a projectes promoguts per les entitats sense finalitat de lucre de Sant Quirze del Vallès","fechaRecepcion":"2026-05-21","nivel1":"LOCAL","nivel2":"SANT QUIRZE DEL VALLÈS","nivel3":"AYUNTAMIENTO DE SANT QUIRZE DEL VALLÈS","codigoInvente":null},{"id":1108635,"mrr":false,"numeroConvocatoria":"907074","descripcion":"Convenio de colaboración entre el Ayuntamiento de Ferrol y el Real Coro Toxos e Froles para la realización de actividades culturales año 2026","descripcionLeng":"Convenio de colaboración entre o Concello de Ferrol e o Real Coro Toxos e Froles para a realización de actividades culturais ano 2026","fechaRecepcion":"2026-05-21","nivel1":"LOCAL","nivel2":"FERROL","nivel3":"AYUNTAMIENTO DE FERROL","codigoInvente":null},{"id":1108632,"mrr":false,"numeroConvocatoria":"907071","descripcion":"Orden de 15 de mayo de 2026, de la Consejería de Cultura, Turismo y Deporte por la que se convocan becas para deportistas en las residencias deportivas de la Comunidad de Castilla y León para el curso 2026-2027","descripcionLeng":null,"fechaRecepcion":"2026-05-21","nivel1":"AUTONOMICA","nivel2":"CASTILLA Y LEÓN","nivel3":"CONSEJERÍA DE CULTURA, TURISMO Y DEPORTE","codigoInvente":null},{"id":1108629,"mrr":false,"numeroConvocatoria":"907068","descripcion":"SUBVENCIONES AYTOS Y ELM PROVINCIA CASTELLÓN  SPAP 2026","descripcionLeng":null,"fechaRecepcion":"2026-05-21","nivel1":"LOCAL","nivel2":"DIPUTACIÓN PROV. DE CASTELLÓN","nivel3":"DIPUTACIÓN PROVINCIAL DE CASTELLÓ/CASTELLÓN","codigoInvente":null},{"id":1108628,"mrr":false,"numeroConvocatoria":"907067","descripcion":"Acuerdo AC0000027855 de 20 de mayo de 2026, del Consejo de Gobierno Insular, por el que se convocan Subvenciones para la “RENOVACIÓN DE LA IMAGEN DE LOS RÓTULOS EN LOS ESTABLECIMIENTOS INDUSTRIALES”, convocatoria 2026.","descripcionLeng":null,"fechaRecepcion":"2026-05-21","nivel1":"LOCAL","nivel2":"CABILDO INSULAR DE TENERIFE","nivel3":"CABILDO INSULAR DE TENERIFE","codigoInvente":null},{"id":1108626,"mrr":false,"numeroConvocatoria":"907065","descripcion":"Resolución del Instituto de Estudios Fiscales, por la que se convocan becas para la preparación de pruebas selectivas de ingreso en cuerpos adscritos al Ministerio de Hacienda, con funciones de administración y gestión de la Hacienda Pública","descripcionLeng":null,"fechaRecepcion":"2026-05-21","nivel1":"ESTADO","nivel2":"MINISTERIO DE HACIENDA","nivel3":"INSTITUTO DE ESTUDIOS FISCALES","codigoInvente":"INV00003686"},{"id":1108623,"mrr":false,"numeroConvocatoria":"907062","descripcion":"Orden de la Consejera de Presidencia, Justicia y Cultura, por la que se convocan ayudas para las actividades ordinarias de las federaciones deportivas aragonesas 2026","descripcionLeng":null,"fechaRecepcion":"2026-05-21","nivel1":"AUTONOMICA","nivel2":"ARAGÓN","nivel3":"D. GRAL. DE DEPORTE","codigoInvente":null},{"id":1108622,"mrr":false,"numeroConvocatoria":"907061","descripcion":"CONVOCATORIA SUBVENCION ENTIDADES LOCALES Y PROGRAMA PERIFERICOS 2026","descripcionLeng":null,"fechaRecepcion":"2026-05-21","nivel1":"LOCAL","nivel2":"DIPUTACIÓN PROV. DE CÓRDOBA","nivel3":"FUNDACIÓN PROVINCIAL ARTES PLÁSTICAS RAFAEL BOTÍ","codigoInvente":"INV00002528"},{"id":1108621,"mrr":false,"numeroConvocatoria":"907060","descripcion":"CONVOCATORIA DE AYUDAS PARA LA ADQUISICIÓN DE MATERIAL ESCOLAR PARA EL CURSO ACADÉMICO 2026/2027","descripcionLeng":null,"fechaRecepcion":"2026-05-21","nivel1":"LOCAL","nivel2":"TORREDONJIMENO","nivel3":"AYUNTAMIENTO DE TORREDONJIMENO","codigoInvente":null},{"id":1108620,"mrr":false,"numeroConvocatoria":"907059","descripcion":"CONVOCATORIA CERTAMEN NAZARENO DE BUENAS PRÁCTICAS EN PROYECTOS DE APRENDIZAJE-SERVICIO 2026 PARA CENTROS DOCENTES DE DOS HERMANAS Y ENTIDADES SOCIALES","descripcionLeng":null,"fechaRecepcion":"2026-05-21","nivel1":"LOCAL","nivel2":"DOS HERMANAS","nivel3":"AYUNTAMIENTO DE DOS HERMANAS","codigoInvente":null},{"id":1108617,"mrr":false,"numeroConvocatoria":"907056","descripcion":"AYUDAS MUNICIPALES PARA ADQUISICION DE LIBROS DE TEXTO PARA EL CURSO 2026/2027 CONVOCATORIA 2026","descripcionLeng":null,"fechaRecepcion":"2026-05-21","nivel1":"LOCAL","nivel2":"TORREDONJIMENO","nivel3":"AYUNTAMIENTO DE TORREDONJIMENO","codigoInvente":null},{"id":1108607,"mrr":false,"numeroConvocatoria":"907046","descripcion":"SUBV.ENTID.INIC.SOCIAL S.F.L. PROYECTOS INSERCIÓN SOCIOLABORAL FSE+ 40%.","descripcionLeng":null,"fechaRecepcion":"2026-05-21","nivel1":"AUTONOMICA","nivel2":"COMUNIDAD DE MADRID","nivel3":"CONSEJERÍA DE FAMILIA, JUVENTUD Y ASUNTOS SOCIALES","codigoInvente":null},{"id":1108603,"mrr":false,"numeroConvocatoria":"907042","descripcion":"CTP 2026 Ayudas a la comercialización turística y a la promoción","descripcionLeng":"2026 CTP Turismoa merkaturatzeko eta sustatzeko laguntzak","fechaRecepcion":"2026-05-20","nivel1":"AUTONOMICA","nivel2":"PAÍS VASCO","nivel3":"DEPARTAMENTO DE TURISMO, COMERCIO Y CONSUMO","codigoInvente":null},{"id":1108516,"mrr":false,"numeroConvocatoria":"906955","descripcion":"Ayudas económicas para la adquisición de libros y material escolar obligatoria, asistencia a colonias y a escuelas infantiles o primer ciclo de educación infantil, curso 2026/2027","descripcionLeng":"Ajudes econòmiques per a l'adquisició de llibres i material escolar obligatori, assistència a colònies i a escoles infantils o primer cicle d'educació infantil, curs 2026/2027","fechaRecepcion":"2026-05-20","nivel1":"LOCAL","nivel2":"CONSELL COMARCAL DE PRIORAT","nivel3":"CONSELL COMARCAL DE PRIORAT","codigoInvente":null}],"pageable":{"sort":{"sorted":true,"unsorted":false,"empty":false},"pageNumber":27,"pageSize":50,"offset":1350,"unpaged":false,"paged":true},"last":false,"totalElements":10000,"totalPages":200,"first":false,"sort":{"sorted":true,"unsorted":false,"empty":false},"numberOfElements":50,"size":50,"number":27,"empty":false,"advertencia":"La reutilización de los datos del Sistema Nacional de Publicidad de Subvenciones y Ayudas Públicas está sujeta a una serie de restricciones y consideraciones legales. Consulte el aviso legal en https://www.infosubvenciones.es/bdnstrans/GE/es/avisolegal.Además, el usuario debe ser consciente que la información presentada es de naturaleza dinámica, y que los datos pueden ser sometidos a correcciones, inserciones, modificaciones y eliminaciones en momentos posteriores a su extracción. Accesos al API del sistema Nacional de Publicidad de Subvenciones y Ayudas Públicas. La Administración Presupuestaria, para salvaguardar la protección del acceso libre e irrestricto de los ciudadanos a este Portal y a su información podrá adoptar medidas restrictivas de acceso al API ante situaciones de manifiesto abuso del servicio, riesgos de seguridad, o uso fraudulento de la información descargada, de acuerdo con las buenas prácticas de gestión de datos abiertos (https://datos.gob.es/es/blog/limitaciones-la-consulta-de-una-api) establecidas por el Ministerio para la Transformación Digital y de la Función Pública."}