{"content":[{"id":1122896,"mrr":false,"numeroConvocatoria":"921335","descripcion":"Ayudas a favor de Comunidades Balears exterior","descripcionLeng":"Ajudes a favor de les comunitats balears exterior","fechaRecepcion":"2026-07-24","nivel1":"AUTONOMICA","nivel2":"ILLES BALEARS","nivel3":"DIRECCIÓN GENERAL DE RELACIONES INSTITUCIONALES Y ACCIÓN EXTERIOR","codigoInvente":null},{"id":1122895,"mrr":false,"numeroConvocatoria":"921334","descripcion":"Subvencions per a les acadèmies i reials acadèmies de les Illes Balears per a l'any 2024","descripcionLeng":"Subvencions per a les acadèmies i reials acadèmies de les Illes Balears per a l'any 2024","fechaRecepcion":"2026-07-24","nivel1":"AUTONOMICA","nivel2":"ILLES BALEARS","nivel3":"DIRECCIÓN GENERAL DE RELACIONES INSTITUCIONALES Y ACCIÓN EXTERIOR","codigoInvente":null},{"id":1122890,"mrr":false,"numeroConvocatoria":"921329","descripcion":"Convocatoria subvenciones deportistas 2026","descripcionLeng":null,"fechaRecepcion":"2026-07-23","nivel1":"LOCAL","nivel2":"ALTORRICÓN","nivel3":"AYUNTAMIENTO DE ALTORRICÓN","codigoInvente":null},{"id":1122887,"mrr":false,"numeroConvocatoria":"921326","descripcion":"CONVOCATORIA PARA LA CONCESIÓN DE SUBVENCIONES PARA \nFOMENTO DE ACTIVIDADES CULTURALES, EDUCATIVAS, \nDEPORTIVAS Y FESTIVAS PARA EL AÑO 2026","descripcionLeng":null,"fechaRecepcion":"2026-07-23","nivel1":"LOCAL","nivel2":"ALTORRICÓN","nivel3":"AYUNTAMIENTO DE ALTORRICÓN","codigoInvente":null},{"id":1122886,"mrr":false,"numeroConvocatoria":"921325","descripcion":"Convocatoria para la concesión de subvenciones para fomento de actividades culturales, educativas, deportivas y festivas para el año 2025","descripcionLeng":null,"fechaRecepcion":"2026-07-23","nivel1":"LOCAL","nivel2":"ALTORRICÓN","nivel3":"AYUNTAMIENTO DE ALTORRICÓN","codigoInvente":null},{"id":1122883,"mrr":false,"numeroConvocatoria":"921322","descripcion":"PREMIO ÁNGEL GUIMERÀ DE LITERATURA DRAMÁTICA CORRESPONDIENTE AL AÑO 2027","descripcionLeng":"PREMI ÀNGEL GUIMERÀ DE LITERATURA DRAMÀTICA CORRESPONENT A L’ANY 2027","fechaRecepcion":"2026-07-23","nivel1":"LOCAL","nivel2":"DIPUTACIÓN PROV. DE BARCELONA","nivel3":"DIPUTACIÓN PROVINCIAL DE BARCELONA","codigoInvente":null},{"id":1122879,"mrr":false,"numeroConvocatoria":"921318","descripcion":"Convocatoria de ayudas para la elaboración de Trabajos Fin de Grado y Trabajos de Fin de Máster del Instituto de Investigación en Energías Renovables de la Universidad de Castilla-La Mancha del curso académico 2026/2027","descripcionLeng":null,"fechaRecepcion":"2026-07-23","nivel1":"OTROS","nivel2":"UNIVERSIDAD DE CASTILLA-LA MANCHA","nivel3":null,"codigoInvente":"INV00005334"},{"id":1122877,"mrr":false,"numeroConvocatoria":"921316","descripcion":"Convocatoria de Premios a Trabajos Fin de Grado y Trabajos de fin de Máster de la Cátedra de Economía Circular de la Universidad de Castilla-La Mancha. Edición del curso 2025/2026","descripcionLeng":null,"fechaRecepcion":"2026-07-23","nivel1":"OTROS","nivel2":"UNIVERSIDAD DE CASTILLA-LA MANCHA","nivel3":null,"codigoInvente":"INV00005334"},{"id":1122872,"mrr":false,"numeroConvocatoria":"921311","descripcion":"ORDEN POR LA QUE SE CONVOCAN SUBVENCIONES DE APOYO A AGRUPACIONES EMPRESARIALES INNOVADORAS O CLÚSTERES PARA LA REALIZACIÓN DE ACTUACIONES DE INNOVACIÓN EN CANARIAS, EJERCICIO 2027, EN TRAMITACIÓN ANTICIPADA","descripcionLeng":null,"fechaRecepcion":"2026-07-23","nivel1":"AUTONOMICA","nivel2":"CANARIAS","nivel3":"CONSEJERÍA DE UNIVERSIDADES, CIENCIA E INNOVACIÓN Y CULTURA","codigoInvente":null},{"id":1122871,"mrr":false,"numeroConvocatoria":"921310","descripcion":"AYUDAS ALUMNADO NEAE TDAH CON/SIN HIPERACTIVIDAD","descripcionLeng":null,"fechaRecepcion":"2026-07-23","nivel1":"AUTONOMICA","nivel2":"CANARIAS","nivel3":"CONSEJERÍA DE EDUCACIÓN, FORMACIÓN PROFESIONAL, ACTIVIDAD FÍSICA Y DEPORTES","codigoInvente":null},{"id":1122869,"mrr":false,"numeroConvocatoria":"921308","descripcion":"CONVOCATORIA  SUBVENCIONES A ENTIDADES DEL MUNICIPIO DE ONTINYENT EN EL  ÁMBITO CULTURAL, FESTIVO Y TRADICIONAL  2026","descripcionLeng":"CONVOCATÒRIA SUBVENCIONS A ENTITATS DEL MUNICIPI D'ONTINYENT EN L'ÀMBIT  CULTURAL, FESTIU I TRADICIONAL 2026","fechaRecepcion":"2026-07-23","nivel1":"LOCAL","nivel2":"ONTINYENT","nivel3":"AYUNTAMIENTO DE ONTINYENT","codigoInvente":null},{"id":1122868,"mrr":false,"numeroConvocatoria":"921307","descripcion":"Convocatoria de Premios a Trabajos Fin de Estudios en el ámbito de la Ingeniería Mecánica y de Procesos de la Escuela Técnica Superior de Ingeniería Industrial de Albacete, de la Universidad de Castilla-La Mancha, en colaboración con la empresa CADE 25-26","descripcionLeng":null,"fechaRecepcion":"2026-07-23","nivel1":"OTROS","nivel2":"UNIVERSIDAD DE CASTILLA-LA MANCHA","nivel3":null,"codigoInvente":"INV00005334"},{"id":1122866,"mrr":false,"numeroConvocatoria":"921305","descripcion":"onvocatoria de Premios a Trabajos Fin de Estudios en el ámbito de la Ingeniería Electrónica y Automática de la Escuela Técnica Superior de Ingeniería Industrial de Albacete, de la Universidad de Castilla-La Mancha, en colaboración con COJALI 25-26","descripcionLeng":null,"fechaRecepcion":"2026-07-23","nivel1":"OTROS","nivel2":"UNIVERSIDAD DE CASTILLA-LA MANCHA","nivel3":null,"codigoInvente":"INV00005334"},{"id":1122863,"mrr":false,"numeroConvocatoria":"921302","descripcion":"Convocatoria de Premios a Trabajos Fin de Estudios en el ámbito de la Ingeniería Eléctrica de la Escuela Técnica Superior de Ingeniería Industrial de Albacete, de la Universidad de Castilla-La Mancha, en colaboración con la empresa ELECNOR 25-26","descripcionLeng":null,"fechaRecepcion":"2026-07-23","nivel1":"OTROS","nivel2":"UNIVERSIDAD DE CASTILLA-LA MANCHA","nivel3":null,"codigoInvente":"INV00005334"},{"id":1122861,"mrr":false,"numeroConvocatoria":"921300","descripcion":"Convocatoria de Premios a Trabajos Fin de Estudios en el ámbito de la Energía y Sostenibilidad de la Escuela Técnica Superior de Ingeniería Industrial de Albacete, de la Universidad de Castilla-La Mancha, en colaboración con la empresa EIFFAGE 25-26","descripcionLeng":null,"fechaRecepcion":"2026-07-23","nivel1":"OTROS","nivel2":"UNIVERSIDAD DE CASTILLA-LA MANCHA","nivel3":null,"codigoInvente":"INV00005334"},{"id":1122860,"mrr":false,"numeroConvocatoria":"921299","descripcion":"Convocatoria de subvenciones en régimen de concurrencia competitiva para Asociaciones del Tercer Sector para Proyectos 2026.\ncon","descripcionLeng":null,"fechaRecepcion":"2026-07-23","nivel1":"LOCAL","nivel2":"DIPUTACIÓN PROV. DE AVILA","nivel3":"DIPUTACIÓN PROVINCIAL DE ÁVILA","codigoInvente":null},{"id":1122859,"mrr":false,"numeroConvocatoria":"921298","descripcion":"Subvenciones, en régimen de concurrencia pública competitiva, destinadas a la promoción del deporte i fomento de actividades deportivas","descripcionLeng":"Subvencions, en règim de concurrència pública competitiva, destinades a la promoció de l'esport i foment d'activitats esportives","fechaRecepcion":"2026-07-23","nivel1":"LOCAL","nivel2":"SANT FELIU DE BUIXALLEU","nivel3":"AYUNTAMIENTO DE SANT FELIU DE BUIXALLEU","codigoInvente":null},{"id":1122856,"mrr":false,"numeroConvocatoria":"921295","descripcion":"Convocatoria Pyme Global 2026, Misión comercial a Perú, que tendrá lugar del 22 al 28 de noviembre del 2026","descripcionLeng":null,"fechaRecepcion":"2026-07-23","nivel1":"OTROS","nivel2":"CÁMARA DE COMERCIO DE GRAN CANARIA","nivel3":null,"codigoInvente":null},{"id":1122851,"mrr":false,"numeroConvocatoria":"921290","descripcion":"CONVOCATORIA  SUBVENCIONES A ENTIDADES DEL MUNICIPIO DE ONTINYENT EN EL  ÁMBITO VECINAL  2026","descripcionLeng":"CONVOCATÒRIA SUBVENCIONS A ENTITATS DEL MUNICIPI D'ONTINYENT EN L'ÀMBIT  VEÏNAL 2026","fechaRecepcion":"2026-07-23","nivel1":"LOCAL","nivel2":"ONTINYENT","nivel3":"AYUNTAMIENTO DE ONTINYENT","codigoInvente":null},{"id":1122850,"mrr":false,"numeroConvocatoria":"921289","descripcion":"Convocatoria de subvenciones en régimen de concurrencia competitiva para Asociaciones del Tercer Sector para Mantenimiento de Centros 2026 destinadas para disponer, mantener y/o mejora de un centro adecuado a sus necesidades en su localidad.","descripcionLeng":null,"fechaRecepcion":"2026-07-23","nivel1":"LOCAL","nivel2":"DIPUTACIÓN PROV. DE AVILA","nivel3":"DIPUTACIÓN PROVINCIAL DE ÁVILA","codigoInvente":null},{"id":1122844,"mrr":false,"numeroConvocatoria":"921283","descripcion":"Resolución de la Dirección General de Empleo, por la que se aprueba la convocatoria de subvenciones para la contratación en el marco del Programa Horizonte Empleo, para el ejercicio 2026, R. 717/2014.","descripcionLeng":null,"fechaRecepcion":"2026-07-23","nivel1":"AUTONOMICA","nivel2":"CASTILLA-LA MANCHA","nivel3":"DIRECCIÓN GENERAL DE EMPLEO","codigoInvente":null},{"id":1122843,"mrr":false,"numeroConvocatoria":"921282","descripcion":"Subvenciones, en régimen de concurrencia pública competitiva, destinadas a fomentar actividades extraescolares, ocupación del tiempo libre y actividades de carácter cultural para niños","descripcionLeng":"Subvencions, en règim de concurrència pública competitiva,destinades al foment d’activitats extraescolars, ocupació del temps lliure iactivitats de caràcter cultural per a infants","fechaRecepcion":"2026-07-23","nivel1":"LOCAL","nivel2":"SANT FELIU DE BUIXALLEU","nivel3":"AYUNTAMIENTO DE SANT FELIU DE BUIXALLEU","codigoInvente":null},{"id":1122842,"mrr":false,"numeroConvocatoria":"921281","descripcion":"BASES DE CONVOCATORIA DE SUBVENCIÓN MEDIANTE RÉGIMEN DE CONCURRENCIA COMPETITIVA DIRIGIDA A AYUNTAMIENTOS DE LA PROVINCIA DE ÁVILA PARA LA REALIZACIÓN DE ACTIVIDADES DE\nANIMACIÓN COMUNITARIA 2026","descripcionLeng":null,"fechaRecepcion":"2026-07-23","nivel1":"LOCAL","nivel2":"DIPUTACIÓN PROV. DE AVILA","nivel3":"DIPUTACIÓN PROVINCIAL DE ÁVILA","codigoInvente":null},{"id":1122840,"mrr":false,"numeroConvocatoria":"921279","descripcion":"Convocatoria de dos becas de colaboración para realizar tareas de apoyo en los departamentos y vicedecanatos. Facultad de Educación de Ciudad Real de la Universidad de Castilla la Mancha. Año 2026","descripcionLeng":null,"fechaRecepcion":"2026-07-23","nivel1":"OTROS","nivel2":"UNIVERSIDAD DE CASTILLA-LA MANCHA","nivel3":null,"codigoInvente":"INV00005334"},{"id":1122834,"mrr":false,"numeroConvocatoria":"921273","descripcion":"Resolución de la Dirección General de Empleo, por la que se aprueba la convocatoria de subvenciones para la contratación en el marco del Programa Horizonte Empleo, para el ejercicio 2026, R. 1408/2013.","descripcionLeng":null,"fechaRecepcion":"2026-07-23","nivel1":"AUTONOMICA","nivel2":"CASTILLA-LA MANCHA","nivel3":"DIRECCIÓN GENERAL DE EMPLEO","codigoInvente":null},{"id":1122833,"mrr":false,"numeroConvocatoria":"921272","descripcion":"Resolución de la Dirección General de Empleo, por la que se aprueba la convocatoria de subvenciones para la contratación en el marco del Programa Horizonte Empleo, para el ejercicio 2026, R. 2023/2832.","descripcionLeng":null,"fechaRecepcion":"2026-07-23","nivel1":"AUTONOMICA","nivel2":"CASTILLA-LA MANCHA","nivel3":"DIRECCIÓN GENERAL DE EMPLEO","codigoInvente":null},{"id":1122823,"mrr":false,"numeroConvocatoria":"921262","descripcion":"Subvenciones, en régimen de concurrencia pública competitiva, destinadas a la conciliación de la vida familiar y laboral con niños que cursen infantil y primaria en el municipio de Sant Feliu de Buixalleu.","descripcionLeng":"Subvencions, en règim de concurrència pública competitiva, destinades a la conciliació de la vida familiar i laboral amb infants que cursin infantil i primària del municipi de Sant Feliu de Buixalleu. ","fechaRecepcion":"2026-07-23","nivel1":"LOCAL","nivel2":"SANT FELIU DE BUIXALLEU","nivel3":"AYUNTAMIENTO DE SANT FELIU DE BUIXALLEU","codigoInvente":null},{"id":1122822,"mrr":false,"numeroConvocatoria":"921261","descripcion":"SUBVENCIONES A ASOCIACIONES DE MADRES Y PADRES DEL MUNICIPIO DE CASTRILLÓN PARA LA REALIZACIÓN DE\nACTIVIDADES, 2026","descripcionLeng":null,"fechaRecepcion":"2026-07-23","nivel1":"LOCAL","nivel2":"CASTRILLÓN","nivel3":"AYUNTAMIENTO DE CASTRILLÓN","codigoInvente":null},{"id":1122820,"mrr":false,"numeroConvocatoria":"921259","descripcion":" Expediente 2855298R: CONVOCATORIA 2026 CONCESION DE AYUDAS A DEPORTISTAS DESTACADOS NO PROFESIONALES DEL MUNICIPIO DE PICASSENT EN MODALIDADES INDIVIDUALES DEPORTES OLIMPICOS Y NO OLIMPICOS","descripcionLeng":null,"fechaRecepcion":"2026-07-23","nivel1":"LOCAL","nivel2":"PICASSENT","nivel3":"AYUNTAMIENTO DE PICASSENT","codigoInvente":null},{"id":1122816,"mrr":false,"numeroConvocatoria":"921255","descripcion":"Convocatoria para el otorgamiento de subvenciones destinadas a propietarios de viviendas desocupadas que las pongan en alquiler, para el año 2026.","descripcionLeng":"Convocatòria per a l’atorgament de subvencions destinades a propietaris d’habitatges desocupats que els posin en lloguer, per a l’any 2026.","fechaRecepcion":"2026-07-23","nivel1":"LOCAL","nivel2":"OLOT","nivel3":"AYUNTAMIENTO DE OLOT","codigoInvente":null},{"id":1122815,"mrr":false,"numeroConvocatoria":"921254","descripcion":"Subvención del Fondo de Residuos 2026. Flujo de domésticos plurianual - inversiones vertebradoras","descripcionLeng":null,"fechaRecepcion":"2026-07-23","nivel1":"AUTONOMICA","nivel2":"COMUNIDAD FORAL DE NAVARRA","nivel3":"DEPARTAMENTO DE DESARROLLO RURAL Y MEDIO AMBIENTE","codigoInvente":null},{"id":1122808,"mrr":false,"numeroConvocatoria":"921247","descripcion":"Resolución de  Presidencia de la AVSRE por la que se convocan, para el año 2026, subvenciones para la financiación de medios materiales destinados a los ayuntamientos de la Comunitat Valenciana con cuerpo de policía local","descripcionLeng":"Resolució de la Presidència de l'AVSRE per la qual es convoquen, per a l'any 2026, subvencions per al finançament de mitjans materials destinats als ajuntaments de la Comunitat Valenciana amb cos de policia local","fechaRecepcion":"2026-07-23","nivel1":"AUTONOMICA","nivel2":"COMUNITAT VALENCIANA","nivel3":"AGENCIA VALENCIANA DE SEGURIDAD Y RESPUESTA A LAS EMERGENCIAS (AVSRE)","codigoInvente":"INV00000156"},{"id":1122802,"mrr":false,"numeroConvocatoria":"921241","descripcion":"Subvención nominativa para el club infantil y juvenil APAMA","descripcionLeng":null,"fechaRecepcion":"2026-07-23","nivel1":"LOCAL","nivel2":"ALCOBENDAS","nivel3":"AYUNTAMIENTO DE ALCOBENDAS","codigoInvente":null},{"id":1122800,"mrr":false,"numeroConvocatoria":"921239","descripcion":"CONVOCATORIA  SUBVENCIONES A ENTIDADES DEL MUNICIPIO DE ONTINYENT EN EL  ÁMBITO MUSICAL,  ARTES ESCÉNICAS Y   ARTES AUDIOVISUALES  2026","descripcionLeng":"CONVOCATÒRIA SUBVENCIONS A ENTITATS DEL MUNICIPI D'ONTINYENT EN L'ÀMBIT  MUSICAL, ARTS ESCÈNIQUES I ARTS AUDIOVISUALS 2026","fechaRecepcion":"2026-07-23","nivel1":"LOCAL","nivel2":"ONTINYENT","nivel3":"AYUNTAMIENTO DE ONTINYENT","codigoInvente":null},{"id":1122799,"mrr":false,"numeroConvocatoria":"921238","descripcion":"DECRETO FORAL 74/2026, de 23 de julio, de Diputación Foral de Bizkaia, por el que se establecen ayudas de apoyo al sector primario, con el fin de paliar los daños producidos por el ciervo, corzo y el jabalí en el Territorio Histórico de Bizkaia","descripcionLeng":"Bizkaiko Foru Aldundiaren 74/2026, FORU DEKRETUA uztalilaren 23koa, Bizkaiko Lurralde Historikoan oreinak, orkatzek eta basurdeek eragindako kalteak direla-eta lehen sektoreari laguntzeko dirulaguntzak ezartzen dituena","fechaRecepcion":"2026-07-23","nivel1":"LOCAL","nivel2":"DIPUTACIÓN FORAL DE BIZKAIA","nivel3":"DIPUTACIÓN FORAL DE BIZKAIA","codigoInvente":null},{"id":1122793,"mrr":false,"numeroConvocatoria":"921232","descripcion":"Convocatoria de subvenciones a clubes y/o entidades deportivas o deportistas u otras entidades privadas sin ánimo de lucro de Andoain para formación de entrenadores y entrenadoras para el ejercicio 2026.","descripcionLeng":"Andoaingo klubentzako edo/eta kirol-erakundeentzako edo kirolarientzako, edo irabazi asmorik gabeko beste erakunde pribatu batzuentzako diru laguntzen deialdia, 2026. urterako entrenatzaileak prestatzeko","fechaRecepcion":"2026-07-23","nivel1":"LOCAL","nivel2":"ANDOAIN","nivel3":"AYUNTAMIENTO DE ANDOAIN","codigoInvente":null},{"id":1122789,"mrr":false,"numeroConvocatoria":"921228","descripcion":"PREMIOS ESTUDIANTES. CONVOCATORIA AÑO 2026","descripcionLeng":"PREMIS ESTUDIANTS. CONVOCATÒRIA ANY 2026","fechaRecepcion":"2026-07-23","nivel1":"LOCAL","nivel2":"RIUDELLOTS DE LA SELVA","nivel3":"AYUNTAMIENTO DE RIUDELLOTS DE LA SELVA","codigoInvente":null},{"id":1122788,"mrr":false,"numeroConvocatoria":"921227","descripcion":"CONVOCATORIA PÚBLICA SUBVENCION CONCURRENCIA COMPETITIVA INSTALACIONES FOTOVOLTAICAS DE AUTOCONSUMO PARA VIVIENDAS 2026","descripcionLeng":null,"fechaRecepcion":"2026-07-23","nivel1":"LOCAL","nivel2":"CABILDO INSULAR DE LA PALMA","nivel3":"EXCMO. CABILDO INSULAR DE LA PALMA","codigoInvente":null},{"id":1122782,"mrr":false,"numeroConvocatoria":"921221","descripcion":"Expediente 2855264W: CONVOCATORIA 2026 CONCESION DE AYUDAS A DEPORTISTAS DE ELITE NO PROFESIONALES DEL MUNICIPIO DE PICASSENT","descripcionLeng":null,"fechaRecepcion":"2026-07-23","nivel1":"LOCAL","nivel2":"PICASSENT","nivel3":"AYUNTAMIENTO DE PICASSENT","codigoInvente":null},{"id":1122778,"mrr":false,"numeroConvocatoria":"921217","descripcion":"CONVOCATORIA CONCURSO FAROLETS 2026","descripcionLeng":null,"fechaRecepcion":"2026-07-23","nivel1":"LOCAL","nivel2":"ALBERIC","nivel3":"AYUNTAMIENTO DE ALBERIC","codigoInvente":null},{"id":1122777,"mrr":false,"numeroConvocatoria":"921216","descripcion":"BASES REGULADORAS DE LA CONVOCATORIA PÚBLICA DE SUBVENCIONES PARA ACTIVIDADES EDUCATIVAS, CULTURALES Y FORMATIVAS PROMOVIDAS POR LAS APYMAS DE LOS CENTROS EDUCATIVOS DEL VALLE DE BAZTAN - 2026","descripcionLeng":"BAZTANGO HARANEKO IKASTETXEETAKO GURASO ELKARTEEK (APYMAK) SUSTATUTAKO HEZKUNTZA, KULTURA ETA PRESTAKUNTZA JARDUERETARAKO DIRULAGUNTZEN DEIALDI PUBLIKOAREN OINARRI ARAUTZAILEAK - 2026","fechaRecepcion":"2026-07-23","nivel1":"LOCAL","nivel2":"BAZTAN","nivel3":"AYUNTAMIENTO DE BAZTAN","codigoInvente":null},{"id":1122776,"mrr":false,"numeroConvocatoria":"921215","descripcion":"Subvenciones natalidad","descripcionLeng":null,"fechaRecepcion":"2026-07-23","nivel1":"LOCAL","nivel2":"PERDIGUERA","nivel3":"AYUNTAMIENTO DE PERDIGUERA","codigoInvente":null},{"id":1122775,"mrr":false,"numeroConvocatoria":"921214","descripcion":"Convocatoria de subvenciones a clubes y/o entidades deportivas u otras entidades privadas sin ánimo de lucro de Andoain para el desarrollo de sus actividades anuales extraordinarias para el ejercicio 2026.","descripcionLeng":"Andoaingo klubei edo/eta kirol-erakundeei  edo irabazi asmorik gabeko beste erakunde pribatu batzuei bere urteko ezohiko jarduerak aurrera eramateko 2026 ekitaldiko diru laguntza deialdia","fechaRecepcion":"2026-07-23","nivel1":"LOCAL","nivel2":"ANDOAIN","nivel3":"AYUNTAMIENTO DE ANDOAIN","codigoInvente":null},{"id":1122772,"mrr":false,"numeroConvocatoria":"921211","descripcion":"Convocatoria 2026 de ayudas dirigidas al apoyo educativo (libros de texto, material escolar y gastos de cooperativa) y comedor escolar durante el curso 2026-2027 en la Mancomunidad de Servicios Sociales Mejorada-Velilla.","descripcionLeng":null,"fechaRecepcion":"2026-07-23","nivel1":"LOCAL","nivel2":"MANCOMUNIDAD DE SERVICIOS SOCIALES MEJORADA-VELILLA","nivel3":"MANCOMUNIDAD DE SERVICIOS SOCIALES MEJORADA-VELILLA","codigoInvente":null},{"id":1122769,"mrr":false,"numeroConvocatoria":"921208","descripcion":"ORDEN QUE APRUEBA LA CONVOCATORIA DE SUBVENCIONES A ENTIDADES SIN ÁNIMO DE LUCRO, RÉGIMEN CONCURRENCIA COMPETITIVA, PARA ACTUACIONES DESTINADAS A PREVENIR Y COMBATIR LA V. CONTRA LA MUJER CON FONDOS PACTO DE ESTADO CONTRA LA VIOLENCIA DE GÉNERO, EN LA R.M","descripcionLeng":null,"fechaRecepcion":"2026-07-23","nivel1":"AUTONOMICA","nivel2":"REGIÓN DE MURCIA","nivel3":"CONSEJERÍA DE POLÍTICA SOCIAL, FAMILIAS E IGUALDAD","codigoInvente":null},{"id":1122762,"mrr":false,"numeroConvocatoria":"921201","descripcion":"CONVOCATORIA DE CONCESIÓN DE BECAS POR REALIZACIÓN DE CURSOS DE EUSKERA DURANTE EL CURSO 2025-2026","descripcionLeng":"2025-2026 IKASTURTEAN EUSKARA IKASTAROAK EGIN IZANAGATIK BEKAK EMATEKO DEIALDIA","fechaRecepcion":"2026-07-23","nivel1":"LOCAL","nivel2":"MALLABIA","nivel3":"AYUNTAMIENTO DE MALLABIA","codigoInvente":null},{"id":1122761,"mrr":false,"numeroConvocatoria":"921200","descripcion":"RESOLUCIÓN DE LA VICERRECTORA DE INVESTIGACIÓN DE LA UNIVERSIDAD DE OVIEDO, PARA LA CONTRATACIÓN DE PERSONAL INVESTIGADOR Y TÉCNICO DE APOYO, SEGÚN ARTÍCULO 23.bis DE LA LEY 14/2011 DE LA CIENCIA, LA TECNOLOGÍA Y LA INNOVACIÓN (JUNIO EXTRA 8-2026)","descripcionLeng":null,"fechaRecepcion":"2026-07-23","nivel1":"OTROS","nivel2":"UNIVERSIDAD DE OVIEDO","nivel3":null,"codigoInvente":"INV00005347"},{"id":1122757,"mrr":false,"numeroConvocatoria":"921196","descripcion":"bases que rexerán o procedemento de concesión de axudas a entidades privadas para o fomento da gratuidade da atención educativa dos nenos e nenas da Comunidade Autónoma de Galicia en escolas infantís 0-3 para o curso 2026/2027 e se procede á súa convocato","descripcionLeng":"galego-cstelán","fechaRecepcion":"2026-07-23","nivel1":"AUTONOMICA","nivel2":"GALICIA","nivel3":"CONSELLERÍA DE POLÍTICA SOCIAL E IGUALDAD","codigoInvente":null},{"id":1122755,"mrr":false,"numeroConvocatoria":"921194","descripcion":"Acuerdo de Pleno nº 118/26 de 26 de junio de 2026 por el que convocan subvenciones para la conservación y reparación de Iglesias y Ermitas en la provincia, ejercicios 2026 y 2027","descripcionLeng":null,"fechaRecepcion":"2026-07-23","nivel1":"LOCAL","nivel2":"DIPUTACIÓN PROV. DE VALLADOLID","nivel3":"DIPUTACIÓN PROVINCIAL DE VALLADOLID","codigoInvente":null},{"id":1122744,"mrr":false,"numeroConvocatoria":"921183","descripcion":"Orden de 23 de julio de 2026 de la Consejera de Política Social, Familias e Igualdad por la que se aprueba la convocatoria de subvenciones a empresas de la Región de Murcia para la implantación de Planes de Igualdad","descripcionLeng":null,"fechaRecepcion":"2026-07-23","nivel1":"AUTONOMICA","nivel2":"REGIÓN DE MURCIA","nivel3":"CONSEJERÍA DE POLÍTICA SOCIAL, FAMILIAS E IGUALDAD","codigoInvente":null}],"pageable":{"sort":{"sorted":true,"unsorted":false,"empty":false},"pageNumber":0,"pageSize":50,"offset":0,"unpaged":false,"paged":true},"last":false,"totalElements":10000,"totalPages":200,"sort":{"sorted":true,"unsorted":false,"empty":false},"first":true,"numberOfElements":50,"size":50,"number":0,"empty":false,"advertencia":"La reutilización de los datos del Sistema Nacional de Publicidad de Subvenciones y Ayudas Públicas está sujeta a una serie de restricciones y consideraciones legales. Consulte el aviso legal en https://www.infosubvenciones.es/bdnstrans/GE/es/avisolegal.Además, el usuario debe ser consciente que la información presentada es de naturaleza dinámica, y que los datos pueden ser sometidos a correcciones, inserciones, modificaciones y eliminaciones en momentos posteriores a su extracción. Accesos al API del sistema Nacional de Publicidad de Subvenciones y Ayudas Públicas. La Administración Presupuestaria, para salvaguardar la protección del acceso libre e irrestricto de los ciudadanos a este Portal y a su información podrá adoptar medidas restrictivas de acceso al API ante situaciones de manifiesto abuso del servicio, riesgos de seguridad, o uso fraudulento de la información descargada, de acuerdo con las buenas prácticas de gestión de datos abiertos (https://datos.gob.es/es/blog/limitaciones-la-consulta-de-una-api) establecidas por el Ministerio para la Transformación Digital y de la Función Pública."}