{"content":[{"id":1108918,"mrr":false,"numeroConvocatoria":"907357","descripcion":"BequesMenj IEC23 C","descripcionLeng":null,"fechaRecepcion":"2026-05-21","nivel1":"LOCAL","nivel2":"CONSELL COMARCAL  DEL MOIANÈS","nivel3":"CONSELL COMARCAL  DEL MOIANÈS","codigoInvente":null},{"id":1108917,"mrr":false,"numeroConvocatoria":"907356","descripcion":"BequesMenj IEC23 OK","descripcionLeng":null,"fechaRecepcion":"2026-05-21","nivel1":"LOCAL","nivel2":"CONSELL COMARCAL  DEL MOIANÈS","nivel3":"CONSELL COMARCAL  DEL MOIANÈS","codigoInvente":null},{"id":1108916,"mrr":false,"numeroConvocatoria":"907355","descripcion":"ConvAjMenj JOR22 Curs 22-23","descripcionLeng":null,"fechaRecepcion":"2026-05-21","nivel1":"LOCAL","nivel2":"CONSELL COMARCAL  DEL MOIANÈS","nivel3":"CONSELL COMARCAL  DEL MOIANÈS","codigoInvente":null},{"id":1108915,"mrr":false,"numeroConvocatoria":"907354","descripcion":"ConvAjMenj Oló22 Curs 22-23","descripcionLeng":null,"fechaRecepcion":"2026-05-21","nivel1":"LOCAL","nivel2":"CONSELL COMARCAL  DEL MOIANÈS","nivel3":"CONSELL COMARCAL  DEL MOIANÈS","codigoInvente":null},{"id":1108914,"mrr":false,"numeroConvocatoria":"907353","descripcion":"ConvAjMenj EsqueixMonistrol22 Curs 22-23","descripcionLeng":null,"fechaRecepcion":"2026-05-21","nivel1":"LOCAL","nivel2":"CONSELL COMARCAL  DEL MOIANÈS","nivel3":"CONSELL COMARCAL  DEL MOIANÈS","codigoInvente":null},{"id":1108913,"mrr":false,"numeroConvocatoria":"907352","descripcion":"ConvAjMenj CcirLaPopa22 Curs 22-23","descripcionLeng":null,"fechaRecepcion":"2026-05-21","nivel1":"LOCAL","nivel2":"CONSELL COMARCAL  DEL MOIANÈS","nivel3":"CONSELL COMARCAL  DEL MOIANÈS","codigoInvente":null},{"id":1108911,"mrr":false,"numeroConvocatoria":"907350","descripcion":"ConvAjMenj CollsuspVent22 Curs 22-23","descripcionLeng":null,"fechaRecepcion":"2026-05-21","nivel1":"LOCAL","nivel2":"CONSELL COMARCAL  DEL MOIANÈS","nivel3":"CONSELL COMARCAL  DEL MOIANÈS","codigoInvente":null},{"id":1108910,"mrr":false,"numeroConvocatoria":"907349","descripcion":"ConvAjMenj SQS22 Curs 22-23","descripcionLeng":null,"fechaRecepcion":"2026-05-21","nivel1":"LOCAL","nivel2":"CONSELL COMARCAL  DEL MOIANÈS","nivel3":"CONSELL COMARCAL  DEL MOIANÈS","codigoInvente":null},{"id":1108909,"mrr":false,"numeroConvocatoria":"907348","descripcion":"ConvAjMenj Estany22 Curs 22-23","descripcionLeng":null,"fechaRecepcion":"2026-05-21","nivel1":"LOCAL","nivel2":"CONSELL COMARCAL  DEL MOIANÈS","nivel3":"CONSELL COMARCAL  DEL MOIANÈS","codigoInvente":null},{"id":1108908,"mrr":false,"numeroConvocatoria":"907347","descripcion":"ConvAjMenj Calders22 Curs 22-23","descripcionLeng":null,"fechaRecepcion":"2026-05-21","nivel1":"LOCAL","nivel2":"CONSELL COMARCAL  DEL MOIANÈS","nivel3":"CONSELL COMARCAL  DEL MOIANÈS","codigoInvente":null},{"id":1108906,"mrr":false,"numeroConvocatoria":"907345","descripcion":"Convocatoria Pyme Sostenible 2026 - Cámara Tortosa","descripcionLeng":null,"fechaRecepcion":"2026-05-21","nivel1":"OTROS","nivel2":"CÁMARA DE COMERCIO DE TORTOSA","nivel3":null,"codigoInvente":null},{"id":1108905,"mrr":false,"numeroConvocatoria":"907344","descripcion":"Bases y convocatoria de la 87 Exposición Internacional de Artes Plásticas de Valdepeñas","descripcionLeng":null,"fechaRecepcion":"2026-05-21","nivel1":"LOCAL","nivel2":"VALDEPEÑAS","nivel3":"AYUNTAMIENTO DE VALDEPEÑAS","codigoInvente":null},{"id":1108898,"mrr":false,"numeroConvocatoria":"907337","descripcion":"ORDEN Nº 553/2026, DE 12 DE MAYO,POR LA QUE SE APRUEBA EL GASTO Y SE CONVOCAN LAS SUBVENCIONES DE CONCURRENCIA NO COMPETITIVA,  POR RAZÓN DE INTERÉS PÚBLICO Y HUMANITARIO A CENTROS PRIVADOS CONCERTADOS CON UNIDADES DE EDUCACIÓN ESPECIAL, PARA SUFRAGAR  LO","descripcionLeng":null,"fechaRecepcion":"2026-05-21","nivel1":"AUTONOMICA","nivel2":"CANARIAS","nivel3":"CONSEJERÍA DE EDUCACIÓN, FORMACIÓN PROFESIONAL, ACTIVIDAD FÍSICA Y DEPORTES","codigoInvente":null},{"id":1108892,"mrr":false,"numeroConvocatoria":"907331","descripcion":"Resolución de la Vicerrectora de Investigación de la Universidad de Oviedo para la contratación de personal investigador y técnico de apoyo, según artículo 23.bis de la Ley 14/2011 de la Ciencia, la Tecnología y la Innovación (Marzo extra 2-2026)","descripcionLeng":null,"fechaRecepcion":"2026-05-21","nivel1":"OTROS","nivel2":"UNIVERSIDAD DE OVIEDO","nivel3":null,"codigoInvente":"INV00005347"},{"id":1108891,"mrr":false,"numeroConvocatoria":"907330","descripcion":"Orden del XX de mayo de 2026 por la que se establecen las bases reguladoras del programa ES-Transforma en cooperativas o sociedades laborales y se procede a su convocatoria para la anualidad 2026..Regl 1408/2013  ","descripcionLeng":"Orde do XX de maio de 2026 pola que se establecen as bases reguladoras do programa ES-Transforma en cooperativas ou sociedades laborais e se procede a súa convocatoria para a anualidade 2026.  Regl 1408/2013","fechaRecepcion":"2026-05-21","nivel1":"AUTONOMICA","nivel2":"GALICIA","nivel3":"CONSELLERÍA DE EMPLEO, COMERCIO Y EMIGRACIÓN","codigoInvente":null},{"id":1108889,"mrr":false,"numeroConvocatoria":"907328","descripcion":"Resolución de 20/05/2026 de la Agencia de Ciencia, Competitividad Empresarial e Innovación Asturiana, que aprueba Convocatoria de subvenciones a proyectos  I+D+i en soluciones en hiperautomatización, ejercicio 2026, cofinanciables por el FTJ.","descripcionLeng":null,"fechaRecepcion":"2026-05-21","nivel1":"AUTONOMICA","nivel2":"PRINCIPADO DE ASTURIAS","nivel3":"AGENCIA DE CIENCIA, COMPETITIVIDAD EMPRESARIAL E INNOVACIÓN","codigoInvente":"INV00003680"},{"id":1108887,"mrr":false,"numeroConvocatoria":"907326","descripcion":"Ayudas complementarias a las ayudas de movilidad de los estudiantes en el marco del Programa Erasmus+, en régimen de concurrencia competitiva, para el curso 2026-2027","descripcionLeng":null,"fechaRecepcion":"2026-05-21","nivel1":"AUTONOMICA","nivel2":"PRINCIPADO DE ASTURIAS","nivel3":"CONSEJERÍA DE CIENCIA, EMPRESAS, FORMACIÓN Y EMPLEO","codigoInvente":null},{"id":1108886,"mrr":false,"numeroConvocatoria":"907325","descripcion":"AYUDAS PARA MÁSTER UNIVERSITARIO 2026-2027","descripcionLeng":null,"fechaRecepcion":"2026-05-21","nivel1":"AUTONOMICA","nivel2":"PRINCIPADO DE ASTURIAS","nivel3":"CONSEJERÍA DE CIENCIA, EMPRESAS, FORMACIÓN Y EMPLEO","codigoInvente":null},{"id":1108885,"mrr":false,"numeroConvocatoria":"907324","descripcion":"Resolución de la Vicerrectora de Investigación de la Universidad de Oviedo para la contratación de personal investigador y técnico de apoyo, según artículo 23.bis de la Ley 14/2011 de la Ciencia, la Tecnología y la Innovación (Abril extra 6 -2026)","descripcionLeng":null,"fechaRecepcion":"2026-05-21","nivel1":"OTROS","nivel2":"UNIVERSIDAD DE OVIEDO","nivel3":null,"codigoInvente":"INV00005347"},{"id":1108883,"mrr":false,"numeroConvocatoria":"907322","descripcion":"Orden del XX de mayo de 2026 por la que se establecen las bases reguladoras del programa ES-Transforma en cooperativas o sociedades laborales y se procede a su convocatoria para la anualidad 2026.  Regl 717/2014","descripcionLeng":"Orde do XX de maio de 2026 pola que se establecen as bases reguladoras do programa ES-Transforma en cooperativas ou sociedades laborais e se procede a súa convocatoria para a anualidade 2026.  Regl 717/2014","fechaRecepcion":"2026-05-21","nivel1":"AUTONOMICA","nivel2":"GALICIA","nivel3":"CONSELLERÍA DE EMPLEO, COMERCIO Y EMIGRACIÓN","codigoInvente":null},{"id":1108879,"mrr":false,"numeroConvocatoria":"907318","descripcion":"Resolución de la Vicerrectora de Investigación de la Universidad de Oviedo para la contratación de personal investigador y técnico de apoyo, según artículo 23.bis de la Ley 14/2011 de la Ciencia, la Tecnología y la Innovación (Enero Extra 4 - 2026)","descripcionLeng":null,"fechaRecepcion":"2026-05-21","nivel1":"OTROS","nivel2":"UNIVERSIDAD DE OVIEDO","nivel3":null,"codigoInvente":"INV00005347"},{"id":1108877,"mrr":false,"numeroConvocatoria":"907316","descripcion":"Resolución de 21 de mayo de 2026 de la Dirección de la Agencia Andaluza de Instituciones Culturales, por la que seconvocan Subvenciones, en régimen de concurrencia competitiva, para fomentar la participación en ferias de arte contemporáneo fuera de Andalu","descripcionLeng":null,"fechaRecepcion":"2026-05-21","nivel1":"AUTONOMICA","nivel2":"ANDALUCÍA","nivel3":"AGENCIA ANDALUZA DE INSTITUCIONES CULTURALES","codigoInvente":"INV00000046"},{"id":1108871,"mrr":false,"numeroConvocatoria":"907310","descripcion":"Orden del 6 de mayo de 2026 por la que se convoca la primera edición de 2026 del Programa de dinamización e incentivación del consumo en los comercios minoristas de la Comunidad Autónoma de Galicia a través de los bonos Activa comercio (código de procedi","descripcionLeng":"GALEGO","fechaRecepcion":"2026-05-21","nivel1":"AUTONOMICA","nivel2":"GALICIA","nivel3":"CONSELLERÍA DE EMPLEO, COMERCIO Y EMIGRACIÓN","codigoInvente":null},{"id":1108870,"mrr":false,"numeroConvocatoria":"907309","descripcion":"Orden de 20 de mayo de 2026, por la que se convocan subvenciones, en régimen de concurrencia competitiva,  en el ámbito de la Consejería de Inclusión Social, Juventud, Familias e Igualdad, Línea 16. Subv EEPP atención a mujeres jóvenes del Sist. Protecció","descripcionLeng":null,"fechaRecepcion":"2026-05-21","nivel1":"AUTONOMICA","nivel2":"ANDALUCÍA","nivel3":"CONSEJERÍA DE INCLUSIÓN SOCIAL, JUVENTUD, FAMILIAS E IGUALDAD","codigoInvente":null},{"id":1108869,"mrr":false,"numeroConvocatoria":"907308","descripcion":"BASES DEL XXXII TORNEO DE FÚTBOL SALA  “VILA DE ARBO”","descripcionLeng":"BASES DO XXXII TORNEO DE FÚTBOL SALA  “VILA DE ARBO”","fechaRecepcion":"2026-05-21","nivel1":"LOCAL","nivel2":"ARBO","nivel3":"AYUNTAMIENTO DE ARBO","codigoInvente":null},{"id":1108868,"mrr":false,"numeroConvocatoria":"907307","descripcion":"Orden de 20 de mayo de 2026, por la que se convocan subvenciones, en régimen de concurrencia competitiva,  en el ámbito de la Consejería de Inclusión Social, Juventud, Familias e Igualdad, Línea 15. Subv.programas voluntariado ámbito universitario público","descripcionLeng":null,"fechaRecepcion":"2026-05-21","nivel1":"AUTONOMICA","nivel2":"ANDALUCÍA","nivel3":"CONSEJERÍA DE INCLUSIÓN SOCIAL, JUVENTUD, FAMILIAS E IGUALDAD","codigoInvente":null},{"id":1108867,"mrr":false,"numeroConvocatoria":"907306","descripcion":"Orden de 20 de mayo de 2026, por la que se convocan subvenciones, en régimen de concurrencia competitiva,  en el ámbito de la Consejería de Inclusión Social, Juventud, Familias e Igualdad,Línea 14. Subv. institucionales en el ámbito de personas mayores","descripcionLeng":null,"fechaRecepcion":"2026-05-21","nivel1":"AUTONOMICA","nivel2":"ANDALUCÍA","nivel3":"CONSEJERÍA DE INCLUSIÓN SOCIAL, JUVENTUD, FAMILIAS E IGUALDAD","codigoInvente":null},{"id":1108866,"mrr":false,"numeroConvocatoria":"907305","descripcion":"Convocatoria de ayudas de alojamiento para favorecer la participación de estudiantes universitarios en la XLIX Jornadas de teatro Clásico de Almagro. Instituto Almagro de Teatro Clásico de la Universidad de Castilla-La Mancha. Año 2026","descripcionLeng":null,"fechaRecepcion":"2026-05-21","nivel1":"OTROS","nivel2":"UNIVERSIDAD DE CASTILLA-LA MANCHA","nivel3":null,"codigoInvente":"INV00005334"},{"id":1108863,"mrr":false,"numeroConvocatoria":"907302","descripcion":"CONVOCATORIA DE SUBVENCIONES PARA LA REALIZACIÓN DE ACTIVIDADES QUE PROMUEVAN LA SALUD PÚBLICA DURANTE EL AÑO 2026","descripcionLeng":"CONVOCATÒRIA DE SUBVENCIONS PER A LA REALITZACIÓ D’ACTIVITATS QUE PROMOGUIN LA SALUT PÚBLICA DURANT L’ANY 2026","fechaRecepcion":"2026-05-21","nivel1":"LOCAL","nivel2":"CAMBRILS","nivel3":"AYUNTAMIENTO DE CAMBRILS","codigoInvente":null},{"id":1108861,"mrr":false,"numeroConvocatoria":"907300","descripcion":"Orden de 20 de mayo de 2026, por la que se convocan subvenciones, en régimen de concurrencia competitiva,  en el ámbito de la Consejería de Inclusión Social, Juventud, Familias e Igualdad, Línea 13. Subv formación de personas mayores en universidades púb.","descripcionLeng":null,"fechaRecepcion":"2026-05-21","nivel1":"AUTONOMICA","nivel2":"ANDALUCÍA","nivel3":"CONSEJERÍA DE INCLUSIÓN SOCIAL, JUVENTUD, FAMILIAS E IGUALDAD","codigoInvente":null},{"id":1108857,"mrr":false,"numeroConvocatoria":"907296","descripcion":"Orden de 20 de mayo de 2026, por la que se convocan subvenciones, en régimen de concurrencia competitiva,  en el ámbito de la Consejería de Inclusión Social, Juventud, Familias e Igualdad, Línea 12. Subv. promoción, sensib. y form. volunt. y centro de rec","descripcionLeng":null,"fechaRecepcion":"2026-05-21","nivel1":"AUTONOMICA","nivel2":"ANDALUCÍA","nivel3":"CONSEJERÍA DE INCLUSIÓN SOCIAL, JUVENTUD, FAMILIAS E IGUALDAD","codigoInvente":null},{"id":1108853,"mrr":false,"numeroConvocatoria":"907292","descripcion":"Convocatoria 2027 - Proyectos piloto y emblemáticos Reto Demográfico","descripcionLeng":null,"fechaRecepcion":"2026-05-21","nivel1":"AUTONOMICA","nivel2":"LA RIOJA","nivel3":"CONSEJERÍA DE POLÍTICA LOCAL, INFRAESTRUCTURAS Y LUCHA CONTRA LA DESPOBLACIÓN","codigoInvente":null},{"id":1108852,"mrr":false,"numeroConvocatoria":"907291","descripcion":"CONVOCATORIA DE CONCESIÓN DE SUBVENCIONES PARA DIVERSOS\nPROGRAMAS Y SERVICIOS DE ACCIÓN SOCIAL EN LA PROVINCIA DE TERUEL 2026","descripcionLeng":null,"fechaRecepcion":"2026-05-21","nivel1":"LOCAL","nivel2":"DIPUTACIÓN PROV. DE TERUEL","nivel3":"DIPUTACIÓN PROVINCIAL DE TERUEL","codigoInvente":null},{"id":1108850,"mrr":false,"numeroConvocatoria":"907289","descripcion":"Orden de 20 de mayo de 2026, por la que se convocan subvenciones, en régimen de concurrencia competitiva,  en el ámbito de la Consejería de Inclusión Social, Juventud, Familias e Igualdad, Línea 11. Subv.a EEPP para programas de acción social.","descripcionLeng":null,"fechaRecepcion":"2026-05-21","nivel1":"AUTONOMICA","nivel2":"ANDALUCÍA","nivel3":"CONSEJERÍA DE INCLUSIÓN SOCIAL, JUVENTUD, FAMILIAS E IGUALDAD","codigoInvente":null},{"id":1108849,"mrr":false,"numeroConvocatoria":"907288","descripcion":"Decreto Foral 50/2026, de 21 de mayo, de la Diputación Foral de Bizkaia, que aprueba las bases reguladoras y la convocatoria de su bvenciones destinadas a financiar los gastos de preproducción, producción y promoción de proyectos audiovisuales en 2026.","descripcionLeng":"Bizkaiko Foru Aldundiaren maiatzaren 21eko 50/2026 Foru Dekretua, 2026an ikus-entzunezko proiektuen preprodukzio, ekoizpen eta sustapen gastuak finantzatzeko dirulaguntzen deialdia eta oinarri arautzaileak onartzen dituena","fechaRecepcion":"2026-05-21","nivel1":"LOCAL","nivel2":"DIPUTACIÓN FORAL DE BIZKAIA","nivel3":"DIPUTACIÓN FORAL DE BIZKAIA","codigoInvente":null},{"id":1108847,"mrr":false,"numeroConvocatoria":"907286","descripcion":"Orden de 20 de mayo de 2026, por la que se convocan subvenciones, en régimen de concurrencia competitiva,  en el ámbito de la Consejería de Inclusión Social, Juventud, Familias e Igualdad, Línea 10. Subv. mant. a EEPP dedicadas a la acción social","descripcionLeng":null,"fechaRecepcion":"2026-05-21","nivel1":"AUTONOMICA","nivel2":"ANDALUCÍA","nivel3":"CONSEJERÍA DE INCLUSIÓN SOCIAL, JUVENTUD, FAMILIAS E IGUALDAD","codigoInvente":null},{"id":1108846,"mrr":false,"numeroConvocatoria":"907285","descripcion":"Orden de 20 de mayo de 2026, por la que se convocan subvenciones, en régimen de concurrencia competitiva,  en el ámbito de la Consejería de Inclusión Social, Juventud, Familias e Igualdad, Línea 9. Subv. a EELL para promoción de la participación ciudadana","descripcionLeng":null,"fechaRecepcion":"2026-05-21","nivel1":"AUTONOMICA","nivel2":"ANDALUCÍA","nivel3":"CONSEJERÍA DE INCLUSIÓN SOCIAL, JUVENTUD, FAMILIAS E IGUALDAD","codigoInvente":null},{"id":1108843,"mrr":false,"numeroConvocatoria":"907282","descripcion":"Orden de 11 de mayo de 2026 por la que se convocan ayudas dirigidas a escuelas de música públicas y escuelas de música privadas dependientes de instituciones sin ánimo de lucro","descripcionLeng":"Orde do 11 de maio de 2026 pola que se convocan axudas dirixidas a escolas de música públicas e escolas de música privadas dependentes de institucións sen ánimo de lucro ","fechaRecepcion":"2026-05-21","nivel1":"AUTONOMICA","nivel2":"GALICIA","nivel3":"CONSELLERÍA DE EDUCACIÓN, CIENCIA, UNIVERSIDADES E FORMACIÓN PROFESIONAL","codigoInvente":null},{"id":1108840,"mrr":false,"numeroConvocatoria":"907279","descripcion":"AJUTS LLOGUER JOVE 2026 X2026001676","descripcionLeng":null,"fechaRecepcion":"2026-05-21","nivel1":"LOCAL","nivel2":"ALELLA","nivel3":"AYUNTAMIENTO DE ALELLA","codigoInvente":null},{"id":1108838,"mrr":false,"numeroConvocatoria":"907277","descripcion":"Orden de 20 de mayo de 2026, por la que se convocan subvenciones, en régimen de concurrencia competitiva,  en el ámbito de la Consejería de Inclusión Social, Juventud, Familias e Igualdad, Línea 8. Subv. garant derechos igualdad y no discriminación LGTBI","descripcionLeng":null,"fechaRecepcion":"2026-05-21","nivel1":"AUTONOMICA","nivel2":"ANDALUCÍA","nivel3":"CONSEJERÍA DE INCLUSIÓN SOCIAL, JUVENTUD, FAMILIAS E IGUALDAD","codigoInvente":null},{"id":1108835,"mrr":false,"numeroConvocatoria":"907274","descripcion":"Resolución de 20/05/2026, del Director del Instituto de Fomento Región de Murcia, de convocatoria plurianual de ayudas para la realización de proyectos empresariales en las fases de creación y consolidación de Empresas con Potencial Tenológico y Escalable","descripcionLeng":null,"fechaRecepcion":"2026-05-21","nivel1":"AUTONOMICA","nivel2":"REGIÓN DE MURCIA","nivel3":"INSTITUTO DE FOMENTO DE LA REGIÓN DE MURCIA (INFO)","codigoInvente":"INV00003691"},{"id":1108834,"mrr":false,"numeroConvocatoria":"907273","descripcion":"Orden de 20 de mayo de 2026, por la que se convocan subvenciones, en régimen de concurrencia competitiva,  en el ámbito de la Consejería de Inclusión Social, Juventud, Familias e Igualdad,Línea 7. Subv. EEPP programas Solidaridad y Garantía Aliment. 1 y 2","descripcionLeng":null,"fechaRecepcion":"2026-05-21","nivel1":"AUTONOMICA","nivel2":"ANDALUCÍA","nivel3":"CONSEJERÍA DE INCLUSIÓN SOCIAL, JUVENTUD, FAMILIAS E IGUALDAD","codigoInvente":null},{"id":1108833,"mrr":false,"numeroConvocatoria":"907272","descripcion":"Concurso para la elección del Cartel Oficial de la Feria de Bornos 2026","descripcionLeng":null,"fechaRecepcion":"2026-05-21","nivel1":"LOCAL","nivel2":"BORNOS","nivel3":"AYUNTAMIENTO DE BORNOS","codigoInvente":null},{"id":1108831,"mrr":false,"numeroConvocatoria":"907270","descripcion":"CONVOCATORIA SUBVENCIONES PARA LA REALIZACIÓN DE ACTIVIDADES CULTURALES Y JUVENILES AÑO 2025","descripcionLeng":null,"fechaRecepcion":"2026-05-21","nivel1":"LOCAL","nivel2":"ÁGREDA","nivel3":"AYUNTAMIENTO DE ÁGREDA","codigoInvente":null},{"id":1108828,"mrr":false,"numeroConvocatoria":"907267","descripcion":"Orden de 20 de mayo de 2026, por la que se convocan subvenciones, en régimen de concurrencia competitiva,  en el ámbito de la Consejería de Inclusión Social, Juventud, Familias e Igualdad,Línea 6. Subv. a EELL para la atención a pers. inmigr. y emigr.temp","descripcionLeng":null,"fechaRecepcion":"2026-05-21","nivel1":"AUTONOMICA","nivel2":"ANDALUCÍA","nivel3":"CONSEJERÍA DE INCLUSIÓN SOCIAL, JUVENTUD, FAMILIAS E IGUALDAD","codigoInvente":null},{"id":1108827,"mrr":false,"numeroConvocatoria":"907266","descripcion":"CONVOCATORIA PARA EL OTORGAMIENTO DE SUBVENCIONES PARA COMBATIR EL EDADISMO A FAVOR DE PERSONAS DE ENTRE 55 Y 75 AÑOS PARA EL DESARROLLO DE ACTIVIDADES COMUNITARIAS, SOCIALES Y DE AUTOCUIDADO.","descripcionLeng":"CONVOCATORIA PER L'ATORGAMENT DE SUBVENCIONS PER COMBATRE L'EDATISME A FAVOR DE PERSONES ENTRE 55 Y 75 ANYS, PEL DESENVOLUPAMENT D'ACTIVITATS COMUNITÀRIES, SOCIALS I AUTOCURA","fechaRecepcion":"2026-05-21","nivel1":"LOCAL","nivel2":"TORDERA","nivel3":"AYUNTAMIENTO DE TORDERA","codigoInvente":null},{"id":1108826,"mrr":false,"numeroConvocatoria":"907265","descripcion":"Convocatoria Programa Pyme Digital 2026 - Cámara de  Tortosa","descripcionLeng":null,"fechaRecepcion":"2026-05-21","nivel1":"OTROS","nivel2":"CÁMARA DE COMERCIO DE TORTOSA","nivel3":null,"codigoInvente":null},{"id":1108825,"mrr":false,"numeroConvocatoria":"907264","descripcion":"LÍNEA S0145. Resolución del conseller de Sanidad que efectúa la convocatoria de las ayudas destinadas a promover la salud sexual, principalmente en población de especial vulnerabilidad por su edad, opciones sexuales o identidad sexual y prevención del est","descripcionLeng":"Resolució del conseller de Sanitat, per la qual s'efectua la convocatòria de les ajudes destinades a promoure la salut sexual, principalment en població d'especial vulnerabilitat per la seua edat, opciones sexuals o identitat sexual i prevenció de l'estig","fechaRecepcion":"2026-05-21","nivel1":"AUTONOMICA","nivel2":"COMUNITAT VALENCIANA","nivel3":"SECRETARÍA AUTONÓMICA DE SALUD PÚBLICA Y DEL SISTEMA SANITARIO PÚBLICO","codigoInvente":null},{"id":1108824,"mrr":false,"numeroConvocatoria":"907263","descripcion":"Concurso para la elección del Cartel Oficial de la Feria de Coto de Bornos 2026","descripcionLeng":null,"fechaRecepcion":"2026-05-21","nivel1":"LOCAL","nivel2":"BORNOS","nivel3":"AYUNTAMIENTO DE BORNOS","codigoInvente":null},{"id":1108823,"mrr":false,"numeroConvocatoria":"907262","descripcion":"CONVOCATORIA PÚBLICA CONCESIÓN AYUDAS Y SUBVENCIONES, A LAS ENTIDADES PRIVADAS QUE EJECUTEN ACTIVIDADES EN EL ÁMBITO DE LA SALUD DE LAS PERSONAS, AÑO 2026","descripcionLeng":"CONVOCATÒRIA PÚBLICA CONCESSIÓ AJUDES I SUBVENCIONS, A LES ENTITATS PRIVADES QUE EXECUTIN ACTIVITATS EN L'ÀMBIT DE LA SALUT DE LES PERSONES, ANY 2026","fechaRecepcion":"2026-05-21","nivel1":"LOCAL","nivel2":"VILAFRANCA DEL PENEDÈS","nivel3":"AYUNTAMIENTO DE VILAFRANCA DEL PENEDÈS","codigoInvente":null}],"pageable":{"sort":{"sorted":true,"unsorted":false,"empty":false},"pageNumber":36,"pageSize":50,"offset":1800,"unpaged":false,"paged":true},"last":false,"totalPages":200,"totalElements":10000,"first":false,"sort":{"sorted":true,"unsorted":false,"empty":false},"numberOfElements":50,"size":50,"number":36,"empty":false,"advertencia":"La reutilización de los datos del Sistema Nacional de Publicidad de Subvenciones y Ayudas Públicas está sujeta a una serie de restricciones y consideraciones legales. Consulte el aviso legal en https://www.infosubvenciones.es/bdnstrans/GE/es/avisolegal.Además, el usuario debe ser consciente que la información presentada es de naturaleza dinámica, y que los datos pueden ser sometidos a correcciones, inserciones, modificaciones y eliminaciones en momentos posteriores a su extracción. Accesos al API del sistema Nacional de Publicidad de Subvenciones y Ayudas Públicas. La Administración Presupuestaria, para salvaguardar la protección del acceso libre e irrestricto de los ciudadanos a este Portal y a su información podrá adoptar medidas restrictivas de acceso al API ante situaciones de manifiesto abuso del servicio, riesgos de seguridad, o uso fraudulento de la información descargada, de acuerdo con las buenas prácticas de gestión de datos abiertos (https://datos.gob.es/es/blog/limitaciones-la-consulta-de-una-api) establecidas por el Ministerio para la Transformación Digital y de la Función Pública."}