{"content":[{"id":1108677,"mrr":false,"numeroConvocatoria":"907116","descripcion":"Resolución de la alcaldía del 14 de mayo de 2026, por la que se aprueba la convocatoria y las bases para la concesión de bolsas a deportistas individuales del Concello do Porriño, año 2026","descripcionLeng":"Resolución da alcaldía do 14 de maio de 2026, pola que se aproba a convocatoria e as bases para a concesión de bolsas a deportistas individuais do Concello do Porriño, ano 2026","fechaRecepcion":"2026-05-21","nivel1":"LOCAL","nivel2":"PORRIÑO, O","nivel3":"AYUNTAMIENTO DE PORRIÑO, O","codigoInvente":null},{"id":1108675,"mrr":false,"numeroConvocatoria":"907114","descripcion":"HIZKUNTZA-PAISAIA EUSKARATZEKO DIRULAGUNTZAK 2026 / AYUDA PARA LA EUSKALDUNIZACIÓN DEL PAISAJE LINGUÏSTICO 2026","descripcionLeng":"HIZKUNTZA-PAISAIA EUSKARATZEKO DIRULAGUNTZAK 2026 ","fechaRecepcion":"2026-05-21","nivel1":"LOCAL","nivel2":"BAZTAN","nivel3":"AYUNTAMIENTO DE BAZTAN","codigoInvente":null},{"id":1108674,"mrr":false,"numeroConvocatoria":"907113","descripcion":"CONVOCATORIA PARA PARTICIPAR EN EL CONCURSO DEL CARTEL ANUNCIADOR DEL CARNAVAL 2026","descripcionLeng":null,"fechaRecepcion":"2026-05-21","nivel1":"LOCAL","nivel2":"CHIPIONA","nivel3":"AYUNTAMIENTO DE CHIPIONA","codigoInvente":null},{"id":1108672,"mrr":false,"numeroConvocatoria":"907111","descripcion":"CONVOCATORIA QUE DESARROLLA EL PROCEDIMIENTO DE CONCESIÓN DE SUBVENCIONES EN RÉGIMEN DE CONCURRENCIA COMPETITIVA PARA ACTIVIDADES EN MATERIA SOCIAL A FAVOR DE ASOCIACIONES E INSTITUCIONES SIN ÁNIMO DE LUCRO (EJERCICIO 2026)","descripcionLeng":null,"fechaRecepcion":"2026-05-21","nivel1":"LOCAL","nivel2":"TORREDONJIMENO","nivel3":"AYUNTAMIENTO DE TORREDONJIMENO","codigoInvente":null},{"id":1108670,"mrr":false,"numeroConvocatoria":"907109","descripcion":"Convocatoria de subvenciones para el apoyo a la organización y celebración de premios y concursos culturales","descripcionLeng":"Convocatòria de subvencions per al suport a l'organització i celebració de premis i concursos culturals","fechaRecepcion":"2026-05-21","nivel1":"AUTONOMICA","nivel2":"CATALUÑA","nivel3":"OFICINA DE SUPORT A LA INICIATIVA CULTURAL","codigoInvente":null},{"id":1108666,"mrr":false,"numeroConvocatoria":"907105","descripcion":"III FERIA DE LA TAPA MECO 2026","descripcionLeng":null,"fechaRecepcion":"2026-05-21","nivel1":"LOCAL","nivel2":"MECO","nivel3":"AYUNTAMIENTO DE MECO","codigoInvente":null},{"id":1108665,"mrr":false,"numeroConvocatoria":"907104","descripcion":"Decreto de 20 de mayo de 2026 de la Delegada del Área de Gobierno de Economía, Innovación y Hacienda por el que se aprueba la convocatoria pública para la concesión de subvenciones dirigidas a la promoción y desarrollo de la economía social para la anuali","descripcionLeng":null,"fechaRecepcion":"2026-05-21","nivel1":"LOCAL","nivel2":"MADRID","nivel3":"ÁREA DE GOBIERNO DE ECONOMÍA, INNOVACIÓN Y HACIENDA","codigoInvente":null},{"id":1108664,"mrr":false,"numeroConvocatoria":"907103","descripcion":"Decreto de 20 de mayo de 2026 de la Delegada del Área de Gobierno de Economía, Innovación y Hacienda por el que se aprueba la convocatoria pública para la concesión de subvenciones dirigidas a la promoción y desarrollo de la economía social para la anuali","descripcionLeng":null,"fechaRecepcion":"2026-05-21","nivel1":"LOCAL","nivel2":"MADRID","nivel3":"ÁREA DE GOBIERNO DE ECONOMÍA, INNOVACIÓN Y HACIENDA","codigoInvente":null},{"id":1108662,"mrr":false,"numeroConvocatoria":"907101","descripcion":"XXX CERTAMEN LITERARIO INTERNACIONAL “CIUDAD DE GETAFE 2026” EN SU MODALIDAD DE NOVELA NEGRA","descripcionLeng":null,"fechaRecepcion":"2026-05-21","nivel1":"LOCAL","nivel2":"GETAFE","nivel3":"AYUNTAMIENTO DE GETAFE","codigoInvente":null},{"id":1108661,"mrr":false,"numeroConvocatoria":"907100","descripcion":"Bases Reguladoras y Convocatoria de las Ayudas “Bono Lo Mejor de Haro Primavera 2026” del Ayuntamiento de Haro para incentivar la compra en el sector comercial y de servicios dentro del municipio.","descripcionLeng":null,"fechaRecepcion":"2026-05-21","nivel1":"LOCAL","nivel2":"HARO","nivel3":"AYUNTAMIENTO DE HARO","codigoInvente":null},{"id":1108658,"mrr":false,"numeroConvocatoria":"907097","descripcion":"Actuacions de promoció de la convivència, integració, respecta a la diversitat i tolerància, i actuacions de foment de l'associacionisme de persones immigrants.","descripcionLeng":"Actuacions de promoció de la convivència, integració, respecta a la diversitat i tolerància, i actuacions de foment de l'associacionisme de persones immigrants.","fechaRecepcion":"2026-05-21","nivel1":"AUTONOMICA","nivel2":"ILLES BALEARS","nivel3":"DIRECCIÓN GENERAL DE INMIGRACIÓN Y COOPERACIÓN AL DESARROLLO","codigoInvente":null},{"id":1108657,"mrr":false,"numeroConvocatoria":"907096","descripcion":"Convocatoria de subvenciones para ejecutar proyectos de cooperación para la transformación global para el año 2026","descripcionLeng":"Convocatòria de subvencions per executar projectes de cooperació per a la transformació global per a l’any 2026","fechaRecepcion":"2026-05-21","nivel1":"AUTONOMICA","nivel2":"ILLES BALEARS","nivel3":"DIRECCIÓN GENERAL DE INMIGRACIÓN Y COOPERACIÓN AL DESARROLLO","codigoInvente":null},{"id":1108655,"mrr":false,"numeroConvocatoria":"907094","descripcion":"CONVOCATORIA DE SUBVENCIONES EN RÉGIMEN DE CONCURRENCIA COMPETITIVA PARA ASOCIACIONES DE COMERCIANTES DE PAMPLONA PARA LA REALIZACIÓN DE ACTIVIDADES DE DINAMIZACIÓN, PROMOCIÓN, FOMENTO Y URBANISMO COMERCIAL DEL 01 DE OCTUBRE 2025 AL 30 DE SEPTIEMBRE 2026","descripcionLeng":"DIRULAGUNTZAK NORGEHIAGOKAKO ARAUBIDEAN EMATEKO DEIALDIA, IRUÑEKO MERKATARIEN ELKARTEEK MERKATARITZA DINAMIZATZEKO, BULTZATZEKO ETA SUSTATZEKO JARDUERAK, ETA MERKATARITZA-HIRIGINTZAKOAK EGIN DITZATEN 2025EKO URRIAREN 1ETIK 2026KO IRAILAREN 30ERA ","fechaRecepcion":"2026-05-21","nivel1":"LOCAL","nivel2":"PAMPLONA/IRUÑA","nivel3":"AYUNTAMIENTO DE PAMPLONA/IRUÑA","codigoInvente":null},{"id":1108652,"mrr":false,"numeroConvocatoria":"907091","descripcion":"BASES REGULADORAS DE LA CONCESIÓN DE SUBVENCIONES DESTINADAS AL FOMENTO Y DESARROLLO DE LOS CLUBES DEPORTIVOS DEL MUNICIPIO DE INGENIO-EJERCICIO 2026","descripcionLeng":null,"fechaRecepcion":"2026-05-21","nivel1":"LOCAL","nivel2":"INGENIO","nivel3":"AYUNTAMIENTO DE INGENIO","codigoInvente":null},{"id":1108650,"mrr":false,"numeroConvocatoria":"907089","descripcion":"Acuerdo de Junta de Gobierno de 6 de mayo de 2026, punto 4.4.1., de aprobación de la Convocatoria del Premio Provincial de Solidaridad Internacional y Derechos Humanos correspondiente al año 2026.","descripcionLeng":null,"fechaRecepcion":"2026-05-21","nivel1":"LOCAL","nivel2":"DIPUTACIÓN PROV. DE MÁLAGA","nivel3":"DIPUTACIÓN PROVINCIAL DE MÁLAGA","codigoInvente":null},{"id":1108649,"mrr":false,"numeroConvocatoria":"907088","descripcion":"PREMIOS AL DESARROLLO DE PROYECTOS EDUCATIVOS INNOVADORES REALIZADOS EN LOS CENTROS EDUCATIVOS PÚBLICOS DE GETAFE DURANTE EL CURSO 2025/2026.","descripcionLeng":null,"fechaRecepcion":"2026-05-21","nivel1":"LOCAL","nivel2":"GETAFE","nivel3":"AYUNTAMIENTO DE GETAFE","codigoInvente":null},{"id":1108648,"mrr":false,"numeroConvocatoria":"907087","descripcion":"Orden de 15 de mayo de 2026, de la Consejería de Cultura, Turismo y Deporte, por la que se convocan becas de colaboradores y tutores de estudios en Residencias Deportivas de la Comunidad de Castilla y León para el curso 2026-2027","descripcionLeng":null,"fechaRecepcion":"2026-05-21","nivel1":"AUTONOMICA","nivel2":"CASTILLA Y LEÓN","nivel3":"CONSEJERÍA DE CULTURA, TURISMO Y DEPORTE","codigoInvente":null},{"id":1108647,"mrr":false,"numeroConvocatoria":"907086","descripcion":"CONVOCATORIA DE SUBVENCIONES PARA ACTIVIDADES EDUCATIVAS A FAVOR DE AMPAS Y DEMAS ASOCIACIONES DE CARÁCTER EDUCATIVO, 2026","descripcionLeng":null,"fechaRecepcion":"2026-05-21","nivel1":"LOCAL","nivel2":"TORREDONJIMENO","nivel3":"AYUNTAMIENTO DE TORREDONJIMENO","codigoInvente":null},{"id":1108638,"mrr":false,"numeroConvocatoria":"907077","descripcion":"Ayuda a la inversión en emprendimiento en el ámbito territorial del Plan del Pirineo 2026","descripcionLeng":null,"fechaRecepcion":"2026-05-21","nivel1":"AUTONOMICA","nivel2":"COMUNIDAD FORAL DE NAVARRA","nivel3":"DEPARTAMENTO DE COHESIÓN TERRITORIAL","codigoInvente":null},{"id":1108637,"mrr":false,"numeroConvocatoria":"907076","descripcion":"CNAL 2026","descripcionLeng":null,"fechaRecepcion":"2026-05-21","nivel1":"LOCAL","nivel2":"VALDÉS","nivel3":"AYUNTAMIENTO DE VALDÉS","codigoInvente":null},{"id":1108636,"mrr":false,"numeroConvocatoria":"907075","descripcion":"Convocatoria de concesiones de subvenciones en régimen de concurrencia competitiva a proyectos promovidos por las entidades sin finalidad de lucro de Sant Quirze del Vallès","descripcionLeng":"Convocatòria de concessions de subvencions en règim de concurrència competitiva a projectes promoguts per les entitats sense finalitat de lucre de Sant Quirze del Vallès","fechaRecepcion":"2026-05-21","nivel1":"LOCAL","nivel2":"SANT QUIRZE DEL VALLÈS","nivel3":"AYUNTAMIENTO DE SANT QUIRZE DEL VALLÈS","codigoInvente":null},{"id":1108635,"mrr":false,"numeroConvocatoria":"907074","descripcion":"Convenio de colaboración entre el Ayuntamiento de Ferrol y el Real Coro Toxos e Froles para la realización de actividades culturales año 2026","descripcionLeng":"Convenio de colaboración entre o Concello de Ferrol e o Real Coro Toxos e Froles para a realización de actividades culturais ano 2026","fechaRecepcion":"2026-05-21","nivel1":"LOCAL","nivel2":"FERROL","nivel3":"AYUNTAMIENTO DE FERROL","codigoInvente":null},{"id":1108632,"mrr":false,"numeroConvocatoria":"907071","descripcion":"Orden de 15 de mayo de 2026, de la Consejería de Cultura, Turismo y Deporte por la que se convocan becas para deportistas en las residencias deportivas de la Comunidad de Castilla y León para el curso 2026-2027","descripcionLeng":null,"fechaRecepcion":"2026-05-21","nivel1":"AUTONOMICA","nivel2":"CASTILLA Y LEÓN","nivel3":"CONSEJERÍA DE CULTURA, TURISMO Y DEPORTE","codigoInvente":null},{"id":1108629,"mrr":false,"numeroConvocatoria":"907068","descripcion":"SUBVENCIONES AYTOS Y ELM PROVINCIA CASTELLÓN  SPAP 2026","descripcionLeng":null,"fechaRecepcion":"2026-05-21","nivel1":"LOCAL","nivel2":"DIPUTACIÓN PROV. DE CASTELLÓN","nivel3":"DIPUTACIÓN PROVINCIAL DE CASTELLÓ/CASTELLÓN","codigoInvente":null},{"id":1108628,"mrr":false,"numeroConvocatoria":"907067","descripcion":"Acuerdo AC0000027855 de 20 de mayo de 2026, del Consejo de Gobierno Insular, por el que se convocan Subvenciones para la “RENOVACIÓN DE LA IMAGEN DE LOS RÓTULOS EN LOS ESTABLECIMIENTOS INDUSTRIALES”, convocatoria 2026.","descripcionLeng":null,"fechaRecepcion":"2026-05-21","nivel1":"LOCAL","nivel2":"CABILDO INSULAR DE TENERIFE","nivel3":"CABILDO INSULAR DE TENERIFE","codigoInvente":null},{"id":1108626,"mrr":false,"numeroConvocatoria":"907065","descripcion":"Resolución del Instituto de Estudios Fiscales, por la que se convocan becas para la preparación de pruebas selectivas de ingreso en cuerpos adscritos al Ministerio de Hacienda, con funciones de administración y gestión de la Hacienda Pública","descripcionLeng":null,"fechaRecepcion":"2026-05-21","nivel1":"ESTADO","nivel2":"MINISTERIO DE HACIENDA","nivel3":"INSTITUTO DE ESTUDIOS FISCALES","codigoInvente":"INV00003686"},{"id":1108623,"mrr":false,"numeroConvocatoria":"907062","descripcion":"Orden de la Consejera de Presidencia, Justicia y Cultura, por la que se convocan ayudas para las actividades ordinarias de las federaciones deportivas aragonesas 2026","descripcionLeng":null,"fechaRecepcion":"2026-05-21","nivel1":"AUTONOMICA","nivel2":"ARAGÓN","nivel3":"D. GRAL. DE DEPORTE","codigoInvente":null},{"id":1108622,"mrr":false,"numeroConvocatoria":"907061","descripcion":"CONVOCATORIA SUBVENCION ENTIDADES LOCALES Y PROGRAMA PERIFERICOS 2026","descripcionLeng":null,"fechaRecepcion":"2026-05-21","nivel1":"LOCAL","nivel2":"DIPUTACIÓN PROV. DE CÓRDOBA","nivel3":"FUNDACIÓN PROVINCIAL ARTES PLÁSTICAS RAFAEL BOTÍ","codigoInvente":"INV00002528"},{"id":1108621,"mrr":false,"numeroConvocatoria":"907060","descripcion":"CONVOCATORIA DE AYUDAS PARA LA ADQUISICIÓN DE MATERIAL ESCOLAR PARA EL CURSO ACADÉMICO 2026/2027","descripcionLeng":null,"fechaRecepcion":"2026-05-21","nivel1":"LOCAL","nivel2":"TORREDONJIMENO","nivel3":"AYUNTAMIENTO DE TORREDONJIMENO","codigoInvente":null},{"id":1108620,"mrr":false,"numeroConvocatoria":"907059","descripcion":"CONVOCATORIA CERTAMEN NAZARENO DE BUENAS PRÁCTICAS EN PROYECTOS DE APRENDIZAJE-SERVICIO 2026 PARA CENTROS DOCENTES DE DOS HERMANAS Y ENTIDADES SOCIALES","descripcionLeng":null,"fechaRecepcion":"2026-05-21","nivel1":"LOCAL","nivel2":"DOS HERMANAS","nivel3":"AYUNTAMIENTO DE DOS HERMANAS","codigoInvente":null},{"id":1108617,"mrr":false,"numeroConvocatoria":"907056","descripcion":"AYUDAS MUNICIPALES PARA ADQUISICION DE LIBROS DE TEXTO PARA EL CURSO 2026/2027 CONVOCATORIA 2026","descripcionLeng":null,"fechaRecepcion":"2026-05-21","nivel1":"LOCAL","nivel2":"TORREDONJIMENO","nivel3":"AYUNTAMIENTO DE TORREDONJIMENO","codigoInvente":null},{"id":1108607,"mrr":false,"numeroConvocatoria":"907046","descripcion":"SUBV.ENTID.INIC.SOCIAL S.F.L. PROYECTOS INSERCIÓN SOCIOLABORAL FSE+ 40%.","descripcionLeng":null,"fechaRecepcion":"2026-05-21","nivel1":"AUTONOMICA","nivel2":"COMUNIDAD DE MADRID","nivel3":"CONSEJERÍA DE FAMILIA, JUVENTUD Y ASUNTOS SOCIALES","codigoInvente":null},{"id":1108603,"mrr":false,"numeroConvocatoria":"907042","descripcion":"CTP 2026 Ayudas a la comercialización turística y a la promoción","descripcionLeng":"2026 CTP Turismoa merkaturatzeko eta sustatzeko laguntzak","fechaRecepcion":"2026-05-20","nivel1":"AUTONOMICA","nivel2":"PAÍS VASCO","nivel3":"DEPARTAMENTO DE TURISMO, COMERCIO Y CONSUMO","codigoInvente":null},{"id":1108516,"mrr":false,"numeroConvocatoria":"906955","descripcion":"Ayudas económicas para la adquisición de libros y material escolar obligatoria, asistencia a colonias y a escuelas infantiles o primer ciclo de educación infantil, curso 2026/2027","descripcionLeng":"Ajudes econòmiques per a l'adquisició de llibres i material escolar obligatori, assistència a colònies i a escoles infantils o primer cicle d'educació infantil, curs 2026/2027","fechaRecepcion":"2026-05-20","nivel1":"LOCAL","nivel2":"CONSELL COMARCAL DE PRIORAT","nivel3":"CONSELL COMARCAL DE PRIORAT","codigoInvente":null},{"id":1108502,"mrr":false,"numeroConvocatoria":"906941","descripcion":"Convocatoria para la solicitud y otorgamiento de subvenciones para la igualdad de oportunidades de la infancia en el entorno educativo.\nConvocatoria Línea 6: Apoyo a la inclusión en centros de verano y extraescolares","descripcionLeng":"Convocatòria per a la sol.licitud i atorgament de subvencions per a la igualtat d´oportunitats de la infància en l´entorn educatiu.\nConvocatòria linea 6: Suport a la inclusió en casals d´estiu i extraescolars.","fechaRecepcion":"2026-05-20","nivel1":"LOCAL","nivel2":"SANT ANDREU DE LA BARCA","nivel3":"AYUNTAMIENTO DE SANT ANDREU DE LA BARCA","codigoInvente":null},{"id":1108499,"mrr":false,"numeroConvocatoria":"906938","descripcion":"CONCESIÓN DE SUBVENCIONES A LAS ASOCIACIONES QUE DESARROLLAN ACTIVIDADES EN EL ÁMBITO DEL DEPORTE EN EL MUNICIPIO DE ORDUÑA DURANTE EL 2026","descripcionLeng":"2026AN URDUÑAKO UDALERRIAN KIROLAREN ARLOKO JARDUERAK GARATZEN DITUZTEN ELKARTEEI DIRULAGUNTZAK","fechaRecepcion":"2026-05-20","nivel1":"LOCAL","nivel2":"URDUÑA/ORDUÑA","nivel3":"AYUNTAMIENTO DE URDUÑA/ORDUÑA","codigoInvente":null},{"id":1108493,"mrr":false,"numeroConvocatoria":"906932","descripcion":"ORDEN CONVOCATORIA PREMIOS DOLORES ESCRIBANO 2025/2026","descripcionLeng":null,"fechaRecepcion":"2026-05-20","nivel1":"AUTONOMICA","nivel2":"COMUNIDAD DE MADRID","nivel3":"CONSEJERÍA DE EDUCACIÓN, CIENCIA Y UNIVERSIDADES","codigoInvente":null},{"id":1108492,"mrr":false,"numeroConvocatoria":"906931","descripcion":"SUBVENCIONES PARA PERSONAS MAYORES DE 65 AÑOS, RESIDENTES EN EL MUNICIPIO DE HERMIGUA, Y QUE NO PERCIBAN NINGÚN TIPO DE PENSIÓN, EJERCICIO 2026.","descripcionLeng":null,"fechaRecepcion":"2026-05-20","nivel1":"LOCAL","nivel2":"HERMIGUA","nivel3":"AYUNTAMIENTO DE HERMIGUA","codigoInvente":null},{"id":1108491,"mrr":false,"numeroConvocatoria":"906930","descripcion":"Convocatoria pública para la concesión de ayudas económicas para la asistencia a comedores escolares para el curso escolar 2026/2027","descripcionLeng":"Convocatòria pública per a la concessió d'ajudes econòmiques per a l'assistència a menjadors escolars per al curs escolar 2026/2027","fechaRecepcion":"2026-05-20","nivel1":"LOCAL","nivel2":"CONSELL COMARCAL DE PRIORAT","nivel3":"CONSELL COMARCAL DE PRIORAT","codigoInvente":null},{"id":1108486,"mrr":false,"numeroConvocatoria":"906925","descripcion":"SUBVENCIONES DESTINADAS A SUFRAGAR GASTOS DIVERSOS DE LOS ESTUDIANTES RESIDENTES EN EL MUNICIPIO DE HERMIGUA QUE CURSAN ESTUDIOS MEDIOS Y SUPERIORES FUERA DE LA ISLA DE LA GOMERA DURANTE EL CURSO 2025/2026","descripcionLeng":null,"fechaRecepcion":"2026-05-20","nivel1":"LOCAL","nivel2":"HERMIGUA","nivel3":"AYUNTAMIENTO DE HERMIGUA","codigoInvente":null},{"id":1108483,"mrr":false,"numeroConvocatoria":"906922","descripcion":"Decreto 1969/2026, de 19 de mayo, de la Concejala delegada de Desarrollo Económico, Empleo y Comercio, por la que se convoca la segunda edición de los “Premios Majadahonda Emprende”.","descripcionLeng":null,"fechaRecepcion":"2026-05-20","nivel1":"LOCAL","nivel2":"MAJADAHONDA","nivel3":"AYUNTAMIENTO DE MAJADAHONDA","codigoInvente":null},{"id":1108482,"mrr":false,"numeroConvocatoria":"906921","descripcion":"Resolución de la Secretaría de Estado de Comercio por la que se convocan los Premios Nacionales de Comercio Interior 2026","descripcionLeng":null,"fechaRecepcion":"2026-05-20","nivel1":"ESTADO","nivel2":"MINISTERIO DE ECONOMÍA, COMERCIO Y EMPRESA","nivel3":"DIRECCIÓN GENERAL DE POLÍTICA COMERCIAL","codigoInvente":null},{"id":1108476,"mrr":false,"numeroConvocatoria":"906915","descripcion":"CONCESIÓN DE SUBVENCIONES A LAS ASOCIACIONES QUE DESARROLLAN ACTIVIDADES EN EL ÁMBITO DE LA CULTURA EN EL MUNICIPIO DE ORDUÑA DURANTE EL 2026","descripcionLeng":"2026AN URDUÑAKO UDALERRIAN KULTURAREN ARLOKO JARDUERAK GARATZEN DITUZTEN ELKARTEEI DIRULAGUNTZAK EMATEKO DEIALDIA","fechaRecepcion":"2026-05-20","nivel1":"LOCAL","nivel2":"URDUÑA/ORDUÑA","nivel3":"AYUNTAMIENTO DE URDUÑA/ORDUÑA","codigoInvente":null},{"id":1108473,"mrr":false,"numeroConvocatoria":"906912","descripcion":"S0228 - AYUDAS PERSONALES PARA LA PROMOCIÓN DE LA AUTONOMÍA PERSONAL - 2026","descripcionLeng":"S0228 - AJUDES PERSONALS PER A LA PROMOCIÓ DE L'AUTONOMIA PERSONAL - 2026","fechaRecepcion":"2026-05-20","nivel1":"AUTONOMICA","nivel2":"COMUNITAT VALENCIANA","nivel3":"SECRETARÍA AUTONÓMICA DE  FAMILIA Y SERVICIOS SOCIALES","codigoInvente":null},{"id":1108464,"mrr":false,"numeroConvocatoria":"906903","descripcion":"ORDEN de la Consejería de Agricultura, Ganadería, Pesca y Soberanía Alimentaria por la que se convocan para las campañas 2024 y 2025, la Ayuda a la Producción y Comercialización de Cochinilla DOP","descripcionLeng":null,"fechaRecepcion":"2026-05-20","nivel1":"AUTONOMICA","nivel2":"CANARIAS","nivel3":"CONSEJERÍA DE AGRICULTURA, GANADERÍA, PESCA Y SOBERANÍA ALIMENTARIA","codigoInvente":null},{"id":1108463,"mrr":false,"numeroConvocatoria":"906902","descripcion":"BASES XXXIV CERTAMEN DE POESÍA Y CUENTO DE HUMOR JARA CARRILLO AÑO 2026","descripcionLeng":null,"fechaRecepcion":"2026-05-20","nivel1":"LOCAL","nivel2":"ALCANTARILLA","nivel3":"AYUNTAMIENTO DE ALCANTARILLA","codigoInvente":null},{"id":1108458,"mrr":false,"numeroConvocatoria":"906897","descripcion":"CONVOCATORIA DE AYUDAS SOCIALES INDIVIDUALIZADAS EN MATERIA DE AYUDAS DE POBREZA ENERGÉTICA (SUMINISTROS BÁSICOS)","descripcionLeng":null,"fechaRecepcion":"2026-05-20","nivel1":"LOCAL","nivel2":"VILAMARXANT","nivel3":"AYUNTAMIENTO DE VILAMARXANT","codigoInvente":null},{"id":1108454,"mrr":false,"numeroConvocatoria":"906893","descripcion":"CRITERIOS MUNICIPALES PARA REPARTO DE LAS AYUDAS DE EMERGENCIA SOCIAL (AES) AÑO 2026.","descripcionLeng":"GIZARTE LARRIALDITARAKO LAGUNTZAK (GLL) BANATZEKO UDAL IRIZPIDEAK 2026. URTEA","fechaRecepcion":"2026-05-20","nivel1":"LOCAL","nivel2":"BEASAIN","nivel3":"AYUNTAMIENTO DE BEASAIN","codigoInvente":null},{"id":1108448,"mrr":false,"numeroConvocatoria":"906887","descripcion":"SUBVENCIONES PARTICIPACIÓN CIUDADANA 2026- LÍNEA 4.- SUBVENCIONES A ENTIDADES PARA EL DESARROLLO DE PROYECTOS DE VOLUNTARIADO","descripcionLeng":null,"fechaRecepcion":"2026-05-20","nivel1":"LOCAL","nivel2":"AVILÉS","nivel3":"AYUNTAMIENTO DE AVILÉS","codigoInvente":null},{"id":1108447,"mrr":false,"numeroConvocatoria":"906886","descripcion":"SUBVENCIONES PARTICIPACIÓN CIUDADANA 2026-LÍNEA 3.- PROYECTOS Y ACTIVIDADES DE VOLUNTARIADO EN MATERIA DE SOLEDAD NO DESEADA EN PERSONAS MAYORES","descripcionLeng":null,"fechaRecepcion":"2026-05-20","nivel1":"LOCAL","nivel2":"AVILÉS","nivel3":"AYUNTAMIENTO DE AVILÉS","codigoInvente":null}],"pageable":{"sort":{"sorted":true,"unsorted":false,"empty":false},"pageNumber":40,"pageSize":50,"offset":2000,"paged":true,"unpaged":false},"last":false,"totalPages":200,"totalElements":10000,"first":false,"sort":{"sorted":true,"unsorted":false,"empty":false},"numberOfElements":50,"size":50,"number":40,"empty":false,"advertencia":"La reutilización de los datos del Sistema Nacional de Publicidad de Subvenciones y Ayudas Públicas está sujeta a una serie de restricciones y consideraciones legales. Consulte el aviso legal en https://www.infosubvenciones.es/bdnstrans/GE/es/avisolegal.Además, el usuario debe ser consciente que la información presentada es de naturaleza dinámica, y que los datos pueden ser sometidos a correcciones, inserciones, modificaciones y eliminaciones en momentos posteriores a su extracción. Accesos al API del sistema Nacional de Publicidad de Subvenciones y Ayudas Públicas. La Administración Presupuestaria, para salvaguardar la protección del acceso libre e irrestricto de los ciudadanos a este Portal y a su información podrá adoptar medidas restrictivas de acceso al API ante situaciones de manifiesto abuso del servicio, riesgos de seguridad, o uso fraudulento de la información descargada, de acuerdo con las buenas prácticas de gestión de datos abiertos (https://datos.gob.es/es/blog/limitaciones-la-consulta-de-una-api) establecidas por el Ministerio para la Transformación Digital y de la Función Pública."}