{"content":[{"id":1106619,"mrr":false,"numeroConvocatoria":"905058","descripcion":"Convocatoria y cuantías máximas para las Ayudas de Emergencia Social 2026","descripcionLeng":"2026ko Gizarte Larrialdietarako Laguntzen deialdia eta gehieneko zenbatekoak","fechaRecepcion":"2026-05-12","nivel1":"LOCAL","nivel2":"ORDIZIA","nivel3":"AYUNTAMIENTO DE ORDIZIA","codigoInvente":null},{"id":1106591,"mrr":false,"numeroConvocatoria":"905030","descripcion":"CONCURSO DE CARTELES FIESTAS DE SANTA ROSA DE LIMA 2026","descripcionLeng":null,"fechaRecepcion":"2026-05-12","nivel1":"LOCAL","nivel2":"VENTA DE BAÑOS","nivel3":"AYUNTAMIENTO DE VENTA DE BAÑOS","codigoInvente":null},{"id":1106589,"mrr":false,"numeroConvocatoria":"905028","descripcion":"Subvención destinada a la renovación de instalaciones y equipamientos de oficinas de empleo con personal del SEPE","descripcionLeng":null,"fechaRecepcion":"2026-05-12","nivel1":"ESTADO","nivel2":"MINISTERIO DE TRABAJO Y ECONOMÍA SOCIAL","nivel3":"SERVICIO PÚBLICO DE EMPLEO ESTATAL","codigoInvente":"INV00005059"},{"id":1106584,"mrr":false,"numeroConvocatoria":"905023","descripcion":"Resolucion de la Directora del Instituto de las Mujeres, por la que se convoca la concesion de subvenciones ,destinadas a apoyar al movimiento asociativo y fundacional de ambito estatal 2026","descripcionLeng":null,"fechaRecepcion":"2026-05-12","nivel1":"ESTADO","nivel2":"MINISTERIO DE IGUALDAD","nivel3":"INSTITUTO DE LAS MUJERES","codigoInvente":"INV00003697"},{"id":1106581,"mrr":false,"numeroConvocatoria":"905020","descripcion":"convocatoria para la concesión de ayudas destinadas a la realización de Planes para la Generación de Transferencia y Proyectos de Transferencia Colaborativa, cofinanciadas en un 85 % por FEDER, mediante la presentación de expresiones de interés, 2026","descripcionLeng":null,"fechaRecepcion":"2026-05-12","nivel1":"OTROS","nivel2":"UNIVERSIDAD DE CASTILLA-LA MANCHA","nivel3":null,"codigoInvente":"INV00005334"},{"id":1106580,"mrr":false,"numeroConvocatoria":"905019","descripcion":"Ayudas a establecimientos de restauración, casas rurales, comercios e industrias minoristas, ganaderos y sociedades ganaderas, regentados por personas físicas, que desarrollen su actividad en la localidad de Villasur de Herreros.","descripcionLeng":null,"fechaRecepcion":"2026-05-12","nivel1":"LOCAL","nivel2":"VILLASUR DE HERREROS","nivel3":"AYUNTAMIENTO DE VILLASUR DE HERREROS","codigoInvente":null},{"id":1106577,"mrr":false,"numeroConvocatoria":"905016","descripcion":"Resol. por la que se aprueban bases reg. conces. subv. concurrencia no compet. actuac. minim.pdas. agua en aytos. y entidades locales menores CA Galicia, cofinanc. 70% FEDER marco programa Galicia FEDER 2021-2027, conv. 2026 plurianual","descripcionLeng":null,"fechaRecepcion":"2026-05-12","nivel1":"AUTONOMICA","nivel2":"GALICIA","nivel3":"AGUAS DE GALICIA","codigoInvente":"INV00000186"},{"id":1106576,"mrr":false,"numeroConvocatoria":"905015","descripcion":"AYUDAS EN MATERIA DE COOPERACION AL DESARROLLO","descripcionLeng":"GARAPENERAKO LANKIDETZA GAIETARAKO LAGUNTZAK","fechaRecepcion":"2026-05-12","nivel1":"LOCAL","nivel2":"GALDAKAO","nivel3":"AYUNTAMIENTO DE GALDAKAO","codigoInvente":null},{"id":1106575,"mrr":false,"numeroConvocatoria":"905014","descripcion":"Ayudas para la financiación del precio de las actividades educativas de verano, programadas por entidades locales y dirigidas al alumnado de Navarra, de entre 4 y 14 años, censado en el eje 9, durante el verano de 2026","descripcionLeng":null,"fechaRecepcion":"2026-05-12","nivel1":"AUTONOMICA","nivel2":"COMUNIDAD FORAL DE NAVARRA","nivel3":"DEPARTAMENTO DE EDUCACION","codigoInvente":null},{"id":1106573,"mrr":false,"numeroConvocatoria":"905012","descripcion":"Convocatoria Presentación de producto vino en China","descripcionLeng":null,"fechaRecepcion":"2026-05-12","nivel1":"AUTONOMICA","nivel2":"CASTILLA-LA MANCHA","nivel3":"INSTITUTO DE PROMOCIÓN EXTERIOR DE CASTILLA-LA MANCHA","codigoInvente":null},{"id":1106572,"mrr":false,"numeroConvocatoria":"905011","descripcion":"Resolución de la Dirección del ISCIII por la que se aprueba la convocatoria para el año 2026 de concesión de subvenciones para Plataformas ISCIII de apoyo a la I+D+I en Biomedicina y Ciencias de la Salud de la Acción Estratégica en Salud","descripcionLeng":null,"fechaRecepcion":"2026-05-12","nivel1":"ESTADO","nivel2":"MINISTERIO DE CIENCIA, INNOVACIÓN Y UNIVERSIDADES","nivel3":"INSTITUTO DE SALUD CARLOS III (ISCIII)","codigoInvente":"INV00003703"},{"id":1106570,"mrr":false,"numeroConvocatoria":"905009","descripcion":"Resolución 11/05/26 Director General de LABORA Servicio Valenciano de Empleo y Formación, por la que se convocan las subvenciones públicas destinadas a la integración sociolaboral de personas trabajadoras en situación de exclusión social en empresas de","descripcionLeng":"Resolució 11/05/26 director general de Labora Servici Valencià d’Ocupació i Formació, per la qual es convoquen les subvencions públiques destinades a la integració sociolaboral de persones treballadores en situació d’exclusió social en empreses d’inserc","fechaRecepcion":"2026-05-12","nivel1":"AUTONOMICA","nivel2":"COMUNITAT VALENCIANA","nivel3":"DIRECCIÓN GENERAL DE EMPLEO Y FORMACIÓN","codigoInvente":null},{"id":1106568,"mrr":false,"numeroConvocatoria":"905007","descripcion":"CONVOCATORIA DE SUBVENCIONES DESTINADAS AL APOYO A DEPORTISTAS DE LLORET DE MAR MENORES DE 25 AÑOS, NO PROFESIONALES, DE ALTO NIVEL PARTICIPANTES EN COMPETICIONES OFICIALES PARA 2025. PROGRAMA E3.","descripcionLeng":"CONVOCATÒRIA DE SUBVENCIONS DESTINADES AL SUPORT A ESPORTISTES DE LLORET DE MAR MENORS DE 25 ANYS, NO PROFESSIONALS, D’ALT NIVELL PARTICIPANTS A COMPETICIONS OFICIALS PER A 2025. PROGRAMA E3.","fechaRecepcion":"2026-05-12","nivel1":"LOCAL","nivel2":"LLORET DE MAR","nivel3":"AYUNTAMIENTO DE LLORET DE MAR","codigoInvente":null},{"id":1106567,"mrr":false,"numeroConvocatoria":"905006","descripcion":"AYUDAS A ASOCIACIONES DE PERSONAS MAYORES","descripcionLeng":"NAGUSIEN ELKARTEENTZAKO LAGUNTZAK","fechaRecepcion":"2026-05-12","nivel1":"LOCAL","nivel2":"GALDAKAO","nivel3":"AYUNTAMIENTO DE GALDAKAO","codigoInvente":null},{"id":1106566,"mrr":false,"numeroConvocatoria":"905005","descripcion":"Premios Xavier Gómez i Font a la calidad lingüística de los trabajos de fin de grado (TFG) y de máster (TFM) en valenciano y en inglés 2026","descripcionLeng":"Premis Xavier Gómez i Font a la qualitat lingüistica dels treballs de fi de grau (TFG) i de màster (TFM) en valencià i en anglès 2026","fechaRecepcion":"2026-05-12","nivel1":"OTROS","nivel2":"UNIVERSITAT DE VALÈNCIA (ESTUDI GENERAL)","nivel3":null,"codigoInvente":"INV00005380"},{"id":1106565,"mrr":false,"numeroConvocatoria":"905004","descripcion":"TANQUES. Subvenciones destinadas a municipios de la provincia de menos de 5.000 habitantes para la instalación de tanques de agua elevados para usos agrícolas","descripcionLeng":null,"fechaRecepcion":"2026-05-12","nivel1":"LOCAL","nivel2":"DIPUTACIÓN PROV. DE ZAMORA","nivel3":"DIPUTACIÓN PROVINCIAL DE ZAMORA","codigoInvente":null},{"id":1106564,"mrr":false,"numeroConvocatoria":"905003","descripcion":"Convocatoria  ayudas económicas adquisición  de libros  de texto, material didáctico y/o material  escolar para los/las alumnos/as que cursen enseñanzas de E. Infantil, Primaria y Secundaria del municipio de la Villa de Breña Alta, para el curso 2026-2027","descripcionLeng":null,"fechaRecepcion":"2026-05-12","nivel1":"LOCAL","nivel2":"BREÑA ALTA","nivel3":"AYUNTAMIENTO DE BREÑA ALTA","codigoInvente":null},{"id":1106563,"mrr":false,"numeroConvocatoria":"905002","descripcion":"Convocatoria Decimonovena Edición de los Premios Nacionales de Artesanía","descripcionLeng":null,"fechaRecepcion":"2026-05-12","nivel1":"ESTADO","nivel2":"MINISTERIO DE INDUSTRIA Y TURISMO","nivel3":"FUNDACIÓN EOI, F.S.P.","codigoInvente":"INV00002967"},{"id":1106561,"mrr":false,"numeroConvocatoria":"905000","descripcion":"Convocatoria Presentación producto en Uruguay y Brasil","descripcionLeng":null,"fechaRecepcion":"2026-05-12","nivel1":"AUTONOMICA","nivel2":"CASTILLA-LA MANCHA","nivel3":"INSTITUTO DE PROMOCIÓN EXTERIOR DE CASTILLA-LA MANCHA","codigoInvente":null},{"id":1106560,"mrr":false,"numeroConvocatoria":"904999","descripcion":"CONVOCATORIA DE SUBVENCIONES DE MADRES Y PADRES DE ALUMNOS DE CENTROS DE ENSEÑANZA PUBLICOS DE MOSTOLES PARA LA TEMPORADA 2025-2026","descripcionLeng":null,"fechaRecepcion":"2026-05-12","nivel1":"LOCAL","nivel2":"MÓSTOLES","nivel3":"AYUNTAMIENTO DE MÓSTOLES","codigoInvente":null},{"id":1106559,"mrr":false,"numeroConvocatoria":"904998","descripcion":"CONVOCATORIA DE SUBVENCIONES DESTINADAS A LAS ENTIDADES DEPORTIVAS DE LLORET DE MAR PARA EL APOYO A LA ALTA COMPETICIÓN PARA 2025. PROGRAMA E2.","descripcionLeng":"CONVOCATÒRIA DE SUBVENCIONS DESTINADES A LES ENTITATS ESPORTIVES DE LLORET DE MAR PEL SUPORT A L’ALTA COMPETICIÓ PER A 2025. PROGRAMA E2.","fechaRecepcion":"2026-05-12","nivel1":"LOCAL","nivel2":"LLORET DE MAR","nivel3":"AYUNTAMIENTO DE LLORET DE MAR","codigoInvente":null},{"id":1106556,"mrr":false,"numeroConvocatoria":"904995","descripcion":"CONVOCATORIA DE SUBVENCIONES DESTINADAS A LAS ENTIDADES DEPORTIVAS DE LLORET DE MAR PARA LA PROMOCIÓN Y EL FOMENTO DE LA ACTIVIDAD FÍSICODEPORTIVA DE BASE Y DE OCIO PARA 2025. PROGRAMA E1.","descripcionLeng":null,"fechaRecepcion":"2026-05-12","nivel1":"LOCAL","nivel2":"LLORET DE MAR","nivel3":"AYUNTAMIENTO DE LLORET DE MAR","codigoInvente":null},{"id":1106554,"mrr":false,"numeroConvocatoria":"904993","descripcion":"CONVOCATORIA DE SUBVENCIONES  A ASOCIACIONES CULTURALES LOCALES SIN ÁNIMO DE LUCCRO PARA LA REALIZACIÓN DE ACTIVIDADES CULTURALES DURANTE EL EJERCICIO 2026","descripcionLeng":null,"fechaRecepcion":"2026-05-12","nivel1":"LOCAL","nivel2":"ARANDA DE DUERO","nivel3":"AYUNTAMIENTO DE ARANDA DE DUERO","codigoInvente":null},{"id":1106553,"mrr":false,"numeroConvocatoria":"904992","descripcion":"Programa Bienestar en Balnearios 2026","descripcionLeng":"Programa Benestar en Balnearios 2026","fechaRecepcion":"2026-05-12","nivel1":"AUTONOMICA","nivel2":"GALICIA","nivel3":"CONSELLERÍA DE POLÍTICA SOCIAL E IGUALDAD","codigoInvente":null},{"id":1106551,"mrr":false,"numeroConvocatoria":"904990","descripcion":"CERCADOS PASTOS COMUNALES. Subvención destinada a ayuntamientos de la provincia de Zamora para la instalación y reparación de cercados ganaderos en parcelas de pastos comunales de la provincia de Zamora","descripcionLeng":null,"fechaRecepcion":"2026-05-12","nivel1":"LOCAL","nivel2":"DIPUTACIÓN PROV. DE ZAMORA","nivel3":"DIPUTACIÓN PROVINCIAL DE ZAMORA","codigoInvente":null},{"id":1106549,"mrr":false,"numeroConvocatoria":"904988","descripcion":"S1743 PROYECTOS PROGRAMAS STEAM","descripcionLeng":"S1743 PROJECTES PROGRAMES STEAM","fechaRecepcion":"2026-05-12","nivel1":"AUTONOMICA","nivel2":"COMUNITAT VALENCIANA","nivel3":"SECRETARÍA AUTONÓMICA DE IGUALDAD Y DIVERSIDAD","codigoInvente":null},{"id":1106548,"mrr":false,"numeroConvocatoria":"904987","descripcion":"CONVOCATÒRIA CONCURS FOTOGRAFIA FIRA DEL VAPOR 2026","descripcionLeng":null,"fechaRecepcion":"2026-05-12","nivel1":"LOCAL","nivel2":"SANT VICENÇ DE CASTELLET","nivel3":"AYUNTAMIENTO DE SANT VICENÇ DE CASTELLET","codigoInvente":null},{"id":1106547,"mrr":false,"numeroConvocatoria":"904986","descripcion":"SUBVENC. 07% IRPF 2026.LÍNEA A.MUJER. A1.LUCHA VIOLENCIA DE GÉNERO","descripcionLeng":null,"fechaRecepcion":"2026-05-12","nivel1":"AUTONOMICA","nivel2":"COMUNIDAD DE MADRID","nivel3":"CONSEJERÍA DE FAMILIA, JUVENTUD Y ASUNTOS SOCIALES","codigoInvente":null},{"id":1106546,"mrr":false,"numeroConvocatoria":"904985","descripcion":"AYUDAS A ENTIDADES SOCIALES","descripcionLeng":"GIZARTE ENTITATEENTZAKO\nLAGUNTZAK","fechaRecepcion":"2026-05-12","nivel1":"LOCAL","nivel2":"GALDAKAO","nivel3":"AYUNTAMIENTO DE GALDAKAO","codigoInvente":null},{"id":1106545,"mrr":false,"numeroConvocatoria":"904984","descripcion":"SUBVENCIONES A CLUBES DEPORTIVOS CON DOMICILIO SOCIAL EN EL CUERVO DE SEVILLA QUE PARTICIPAN EN COMPETICIONES FEDERADAS LA TEMPORADA 2025-26","descripcionLeng":null,"fechaRecepcion":"2026-05-12","nivel1":"LOCAL","nivel2":"CUERVO DE SEVILLA, EL","nivel3":"AYUNTAMIENTO DE CUERVO DE SEVILLA, EL","codigoInvente":null},{"id":1106544,"mrr":false,"numeroConvocatoria":"904983","descripcion":"Orden de 4 de mayo de 2026 por la que se establecen las bases reguladoras de las ayudas para la realización de los cursos para la obtención del certificado de aptitud profesional acreditativo de la cualificación inicial y en la modalidad “ampliación o pro","descripcionLeng":null,"fechaRecepcion":"2026-05-12","nivel1":"AUTONOMICA","nivel2":"GALICIA","nivel3":"CONSELLERÍA DE PRESIDENCIA, JUSTICIA Y DEPORTES","codigoInvente":null},{"id":1106535,"mrr":false,"numeroConvocatoria":"904974","descripcion":"SUBVENC. 07% IRPF 2026. LÍNEA H. PLAN CORRESPONSABLES","descripcionLeng":null,"fechaRecepcion":"2026-05-12","nivel1":"AUTONOMICA","nivel2":"COMUNIDAD DE MADRID","nivel3":"CONSEJERÍA DE FAMILIA, JUVENTUD Y ASUNTOS SOCIALES","codigoInvente":null},{"id":1106534,"mrr":false,"numeroConvocatoria":"904973","descripcion":"SUBVENC. 07% IRPF 2026.LÍNEA B.AT.INTEGR. VULNERABILIDAD.B2.PSH","descripcionLeng":null,"fechaRecepcion":"2026-05-12","nivel1":"AUTONOMICA","nivel2":"COMUNIDAD DE MADRID","nivel3":"CONSEJERÍA DE FAMILIA, JUVENTUD Y ASUNTOS SOCIALES","codigoInvente":null},{"id":1106533,"mrr":false,"numeroConvocatoria":"904972","descripcion":"SUBV.0,7% IRPF.PROY.INVERSIÓN. LÍNEA B.ATENC.INTEG.VULNERAB.2026","descripcionLeng":null,"fechaRecepcion":"2026-05-12","nivel1":"AUTONOMICA","nivel2":"COMUNIDAD DE MADRID","nivel3":"CONSEJERÍA DE FAMILIA, JUVENTUD Y ASUNTOS SOCIALES","codigoInvente":null},{"id":1106532,"mrr":false,"numeroConvocatoria":"904971","descripcion":"SUBVENCIÓN PROY.INT.SOC.07% IRPF 2026.LÍNEA I.LGTBI. I2.FOMENTO CONVIV.","descripcionLeng":null,"fechaRecepcion":"2026-05-12","nivel1":"AUTONOMICA","nivel2":"COMUNIDAD DE MADRID","nivel3":"CONSEJERÍA DE FAMILIA, JUVENTUD Y ASUNTOS SOCIALES","codigoInvente":null},{"id":1106531,"mrr":false,"numeroConvocatoria":"904970","descripcion":"SUBVENCIÓN PROY.INT.SOC.07% IRPF 2026.LÍNEA I.LGTBI. I1.VULNERABILIDAD","descripcionLeng":null,"fechaRecepcion":"2026-05-12","nivel1":"AUTONOMICA","nivel2":"COMUNIDAD DE MADRID","nivel3":"CONSEJERÍA DE FAMILIA, JUVENTUD Y ASUNTOS SOCIALES","codigoInvente":null},{"id":1106530,"mrr":false,"numeroConvocatoria":"904969","descripcion":"SUBVENC. 07% IRPF 2026.LÍNEA G.INTEGRACIÓN. G4.CAÑADA REAL","descripcionLeng":null,"fechaRecepcion":"2026-05-12","nivel1":"AUTONOMICA","nivel2":"COMUNIDAD DE MADRID","nivel3":"CONSEJERÍA DE FAMILIA, JUVENTUD Y ASUNTOS SOCIALES","codigoInvente":null},{"id":1106529,"mrr":false,"numeroConvocatoria":"904968","descripcion":"SUBVENC. 07% IRPF 2026.LÍNEA G.INTEGRACIÓN. G3.PUEBLO GITANO","descripcionLeng":null,"fechaRecepcion":"2026-05-12","nivel1":"AUTONOMICA","nivel2":"COMUNIDAD DE MADRID","nivel3":"CONSEJERÍA DE FAMILIA, JUVENTUD Y ASUNTOS SOCIALES","codigoInvente":null},{"id":1106528,"mrr":false,"numeroConvocatoria":"904967","descripcion":"SUBVENC. 07% IRPF 2026.LÍNEA G.INTEGRACIÓN. G2.ADICCIONES Y VIH-SIDA","descripcionLeng":null,"fechaRecepcion":"2026-05-12","nivel1":"AUTONOMICA","nivel2":"COMUNIDAD DE MADRID","nivel3":"CONSEJERÍA DE FAMILIA, JUVENTUD Y ASUNTOS SOCIALES","codigoInvente":null},{"id":1106527,"mrr":false,"numeroConvocatoria":"904966","descripcion":"SUBVENC. 07% IRPF 2026.LÍNEA G.INTEGRACIÓN. G1.INMIGRANTES","descripcionLeng":null,"fechaRecepcion":"2026-05-12","nivel1":"AUTONOMICA","nivel2":"COMUNIDAD DE MADRID","nivel3":"CONSEJERÍA DE FAMILIA, JUVENTUD Y ASUNTOS SOCIALES","codigoInvente":null},{"id":1106526,"mrr":false,"numeroConvocatoria":"904965","descripcion":"SUBVENC. 07% IRPF 2026.LÍNEA F.VOLUNTARIADO. F2.APOYO MOVIM. VOLUNTARIO","descripcionLeng":null,"fechaRecepcion":"2026-05-12","nivel1":"AUTONOMICA","nivel2":"COMUNIDAD DE MADRID","nivel3":"CONSEJERÍA DE FAMILIA, JUVENTUD Y ASUNTOS SOCIALES","codigoInvente":null},{"id":1106525,"mrr":false,"numeroConvocatoria":"904964","descripcion":"SUBVENC. 07% IRPF 2026.LÍNEA F.VOLUNTARIADO. F1.IMPULSO VOLUNTARIADO","descripcionLeng":null,"fechaRecepcion":"2026-05-12","nivel1":"AUTONOMICA","nivel2":"COMUNIDAD DE MADRID","nivel3":"CONSEJERÍA DE FAMILIA, JUVENTUD Y ASUNTOS SOCIALES","codigoInvente":null},{"id":1106524,"mrr":false,"numeroConvocatoria":"904963","descripcion":"MEJORA GENÉTICA. Subvenciones destinadas a asociaciones de ganaderos de vacuno para la mejora genética de sus explotaciones","descripcionLeng":null,"fechaRecepcion":"2026-05-12","nivel1":"LOCAL","nivel2":"DIPUTACIÓN PROV. DE ZAMORA","nivel3":"DIPUTACIÓN PROVINCIAL DE ZAMORA","codigoInvente":null},{"id":1106523,"mrr":false,"numeroConvocatoria":"904962","descripcion":"SUBVENC. 07% IRPF 2026.LÍNEA E.MAYORES. E2.INNOVACIÓN, PROMOCIÓN Y APOYO","descripcionLeng":null,"fechaRecepcion":"2026-05-12","nivel1":"AUTONOMICA","nivel2":"COMUNIDAD DE MADRID","nivel3":"CONSEJERÍA DE FAMILIA, JUVENTUD Y ASUNTOS SOCIALES","codigoInvente":null},{"id":1106522,"mrr":false,"numeroConvocatoria":"904961","descripcion":"SUBVENC. 07% IRPF 2026.LÍNEA E.MAYORES. E1.AT.INTEGRAL A MAYORES","descripcionLeng":null,"fechaRecepcion":"2026-05-12","nivel1":"AUTONOMICA","nivel2":"COMUNIDAD DE MADRID","nivel3":"CONSEJERÍA DE FAMILIA, JUVENTUD Y ASUNTOS SOCIALES","codigoInvente":null},{"id":1106521,"mrr":false,"numeroConvocatoria":"904960","descripcion":"SUBVENC. 07% IRPF 2026.LÍNEA D.DISCAPACIDAD. D2.APOYO Y DESCANSO","descripcionLeng":null,"fechaRecepcion":"2026-05-12","nivel1":"AUTONOMICA","nivel2":"COMUNIDAD DE MADRID","nivel3":"CONSEJERÍA DE FAMILIA, JUVENTUD Y ASUNTOS SOCIALES","codigoInvente":null},{"id":1106520,"mrr":false,"numeroConvocatoria":"904959","descripcion":"SUBVENC. 07% IRPF 2026.LÍNEA D.DISCAPAC. D1.AT.INTEGRAL","descripcionLeng":null,"fechaRecepcion":"2026-05-12","nivel1":"AUTONOMICA","nivel2":"COMUNIDAD DE MADRID","nivel3":"CONSEJERÍA DE FAMILIA, JUVENTUD Y ASUNTOS SOCIALES","codigoInvente":null},{"id":1106519,"mrr":false,"numeroConvocatoria":"904958","descripcion":"SUBVENC. 07% IRPF 2026.LÍNEA C.INFANCIA. C3.JOVENES","descripcionLeng":null,"fechaRecepcion":"2026-05-12","nivel1":"AUTONOMICA","nivel2":"COMUNIDAD DE MADRID","nivel3":"CONSEJERÍA DE FAMILIA, JUVENTUD Y ASUNTOS SOCIALES","codigoInvente":null},{"id":1106518,"mrr":false,"numeroConvocatoria":"904957","descripcion":"SUBVENC. 07% IRPF 2026.LÍNEA C.INFANCIA. C2.PROMOC.EDUCACIÓN","descripcionLeng":null,"fechaRecepcion":"2026-05-12","nivel1":"AUTONOMICA","nivel2":"COMUNIDAD DE MADRID","nivel3":"CONSEJERÍA DE FAMILIA, JUVENTUD Y ASUNTOS SOCIALES","codigoInvente":null},{"id":1106517,"mrr":false,"numeroConvocatoria":"904956","descripcion":"SUBVENC. 07% IRPF 2026.LÍNEA C.INFANCIA. C1.AT.INT.EDUCATIVA","descripcionLeng":null,"fechaRecepcion":"2026-05-12","nivel1":"AUTONOMICA","nivel2":"COMUNIDAD DE MADRID","nivel3":"CONSEJERÍA DE FAMILIA, JUVENTUD Y ASUNTOS SOCIALES","codigoInvente":null}],"pageable":{"sort":{"sorted":true,"unsorted":false,"empty":false},"pageNumber":7,"pageSize":50,"offset":350,"unpaged":false,"paged":true},"last":false,"totalElements":10000,"totalPages":200,"first":false,"sort":{"sorted":true,"unsorted":false,"empty":false},"numberOfElements":50,"size":50,"number":7,"empty":false,"advertencia":"La reutilización de los datos del Sistema Nacional de Publicidad de Subvenciones y Ayudas Públicas está sujeta a una serie de restricciones y consideraciones legales. Consulte el aviso legal en https://www.infosubvenciones.es/bdnstrans/GE/es/avisolegal.Además, el usuario debe ser consciente que la información presentada es de naturaleza dinámica, y que los datos pueden ser sometidos a correcciones, inserciones, modificaciones y eliminaciones en momentos posteriores a su extracción. Accesos al API del sistema Nacional de Publicidad de Subvenciones y Ayudas Públicas. La Administración Presupuestaria, para salvaguardar la protección del acceso libre e irrestricto de los ciudadanos a este Portal y a su información podrá adoptar medidas restrictivas de acceso al API ante situaciones de manifiesto abuso del servicio, riesgos de seguridad, o uso fraudulento de la información descargada, de acuerdo con las buenas prácticas de gestión de datos abiertos (https://datos.gob.es/es/blog/limitaciones-la-consulta-de-una-api) establecidas por el Ministerio para la Transformación Digital y de la Función Pública."}