{"content":[{"id":1106010,"mrr":false,"numeroConvocatoria":"904449","descripcion":"Convocatoria de subvenciones para el sector primario en el año 2026.","descripcionLeng":null,"fechaRecepcion":"2026-05-08","nivel1":"LOCAL","nivel2":"JACA","nivel3":"AYUNTAMIENTO DE JACA","codigoInvente":null},{"id":1106009,"mrr":false,"numeroConvocatoria":"904448","descripcion":"Convocatoria de subvenciones de ANIMALES, año 2026.","descripcionLeng":null,"fechaRecepcion":"2026-05-08","nivel1":"LOCAL","nivel2":"BURGOS","nivel3":"AYUNTAMIENTO DE BURGOS","codigoInvente":null},{"id":1106006,"mrr":false,"numeroConvocatoria":"904445","descripcion":"Bases reguladoras y la Convocatoria de subvenciones para la realización de actividades en materia de deportes de CLUBES DEPORTIVOS de la provincia de Toledo de Categoría Juvenil que participen en competiciones federadas en el año 2026","descripcionLeng":null,"fechaRecepcion":"2026-05-08","nivel1":"LOCAL","nivel2":"DIPUTACIÓN PROV. DE TOLEDO","nivel3":"DIPUTACIÓN PROVINCIAL DE TOLEDO","codigoInvente":null},{"id":1106005,"mrr":false,"numeroConvocatoria":"904444","descripcion":"BASES DEL CONCURSO DE CARRERA DE CINTA A CABALLO SAN ISIDRO 2026","descripcionLeng":null,"fechaRecepcion":"2026-05-08","nivel1":"LOCAL","nivel2":"FUENTE DEL MAESTRE","nivel3":"AYUNTAMIENTO DE FUENTE DEL MAESTRE","codigoInvente":null},{"id":1106003,"mrr":false,"numeroConvocatoria":"904442","descripcion":"Programa Leader 2025","descripcionLeng":"LEADER Programa, 2025","fechaRecepcion":"2026-05-08","nivel1":"AUTONOMICA","nivel2":"PAÍS VASCO","nivel3":"DEPARTAMENTO DE ALIMENTACIÓN, DESARROLLO RURAL, AGRICULTURA Y PESCA","codigoInvente":null},{"id":1106002,"mrr":false,"numeroConvocatoria":"904441","descripcion":"CONVOCATORIA PREMIOS AL EMPRENDIMIENTO SOCIAL 2026","descripcionLeng":null,"fechaRecepcion":"2026-05-08","nivel1":"LOCAL","nivel2":"VALENCIA","nivel3":"AYUNTAMIENTO DE VALENCIA","codigoInvente":null},{"id":1106001,"mrr":false,"numeroConvocatoria":"904440","descripcion":"Convocatoria de Subvenciones para la realización de programas y proyectos de interés cultural, por asociaciones del municipio, para el año 2026.","descripcionLeng":null,"fechaRecepcion":"2026-05-08","nivel1":"LOCAL","nivel2":"ROZAS DE MADRID, LAS","nivel3":"AYUNTAMIENTO DE ROZAS DE MADRID, LAS","codigoInvente":null},{"id":1105999,"mrr":false,"numeroConvocatoria":"904438","descripcion":"Bases reguladoras y la Convocatoria de subvenciones para la realización de actividades en materia de deportes de CLUBES DEPORTIVOS de la provincia de Toledo para el año 2026","descripcionLeng":null,"fechaRecepcion":"2026-05-08","nivel1":"LOCAL","nivel2":"DIPUTACIÓN PROV. DE TOLEDO","nivel3":"DIPUTACIÓN PROVINCIAL DE TOLEDO","codigoInvente":null},{"id":1105998,"mrr":false,"numeroConvocatoria":"904437","descripcion":"onvocatoria de Premios a Trabajos Fin de Grado, Trabajos de fin de Máster y Trabajos Fin de Grado nivel MECES 3 de la Cátedra institucional de transporte sensible a la demanda en CLM de la Consejería de Fomento de la JCCM y la UCLM. Cursos 24-25 y 25-26","descripcionLeng":null,"fechaRecepcion":"2026-05-08","nivel1":"OTROS","nivel2":"UNIVERSIDAD DE CASTILLA-LA MANCHA","nivel3":null,"codigoInvente":"INV00005334"},{"id":1105996,"mrr":false,"numeroConvocatoria":"904435","descripcion":"CONVOCATORIA DEL CONCURSO DE CREACIÓN ISORA JOVEN 2026.","descripcionLeng":null,"fechaRecepcion":"2026-05-08","nivel1":"LOCAL","nivel2":"GUÍA DE ISORA","nivel3":"AYUNTAMIENTO DE GUÍA DE ISORA","codigoInvente":null},{"id":1105995,"mrr":false,"numeroConvocatoria":"904434","descripcion":"Convocatoria subvenciones para el desarrollo Programa de Respiro Familiar para el cuidado de personas con necesidad de apoyo para las actividades básicas de la vida diaria en poblaciones entre 5.000 y 20.000 habitantes de la provincia de Toledo 2026","descripcionLeng":null,"fechaRecepcion":"2026-05-08","nivel1":"LOCAL","nivel2":"DIPUTACIÓN PROV. DE TOLEDO","nivel3":"DIPUTACIÓN PROVINCIAL DE TOLEDO","codigoInvente":null},{"id":1105993,"mrr":false,"numeroConvocatoria":"904432","descripcion":"Convocatoria para la concesión de ayuda municipal a estudiantes universitarios lorquinos que utilicen el transporte público en sus desplazamientos a los centros universitarios de la Región de Murcia durante el curso académico 2025-2026","descripcionLeng":null,"fechaRecepcion":"2026-05-08","nivel1":"LOCAL","nivel2":"LORCA","nivel3":"AYUNTAMIENTO DE LORCA","codigoInvente":null},{"id":1105992,"mrr":false,"numeroConvocatoria":"904431","descripcion":"BASES CONCURSO DE VINOS ARTESANALES SAN ISIDRO 2026","descripcionLeng":null,"fechaRecepcion":"2026-05-08","nivel1":"LOCAL","nivel2":"FUENTE DEL MAESTRE","nivel3":"AYUNTAMIENTO DE FUENTE DEL MAESTRE","codigoInvente":null},{"id":1105991,"mrr":false,"numeroConvocatoria":"904430","descripcion":"CONVOCATORIA DEL CONCURSO DE PINTURA RÁPIDA DE CUBELLES 2026","descripcionLeng":"CONVOCATÒRIA DEL CONCURS DE PINTURA RÀPIDA DE CUBELLES 2026","fechaRecepcion":"2026-05-08","nivel1":"LOCAL","nivel2":"CUBELLES","nivel3":"AYUNTAMIENTO DE CUBELLES","codigoInvente":null},{"id":1105990,"mrr":false,"numeroConvocatoria":"904429","descripcion":"Aprobación convocatoria subvención concurrencia competitiva, para la \"REALIZACIÓN DE PROYECTOS EDUCATIVOS ENCAMINADOS A MEJORAR LOS SERVICIOS EDUCATIVOS DURANTE EL CURSO ESCOLAR 2025/2026 EN CENTROS EDUCATIVOS DE POZUELO DE ALARCÓN\"","descripcionLeng":null,"fechaRecepcion":"2026-05-08","nivel1":"LOCAL","nivel2":"POZUELO DE ALARCÓN","nivel3":"AYUNTAMIENTO DE POZUELO DE ALARCÓN","codigoInvente":null},{"id":1105987,"mrr":false,"numeroConvocatoria":"904426","descripcion":"Acuerdo de fecha 29/04/2026 de la Junta de Gobierno Local del Ayuntamiento de Villanueva de Córdoba por el que se convocan subvenciones para Asociaciones de Carácter Social para el ejercicio 2026.","descripcionLeng":null,"fechaRecepcion":"2026-05-08","nivel1":"LOCAL","nivel2":"VILLANUEVA DE CÓRDOBA","nivel3":"AYUNTAMIENTO DE VILLANUEVA DE CÓRDOBA","codigoInvente":null},{"id":1105986,"mrr":false,"numeroConvocatoria":"904425","descripcion":"Resolución 08/05/2026 Director General de LABORA Servicio Valenciano de Empleo y Formación, por la que se convocan las subvenciones públicas destinadas al fomento del empleo de personas con discapacidad en centros especiales de empleo (CEE)","descripcionLeng":"Resolució 08/05/2026 Director General de Labora Servici Valencià d’Ocupació i Formació, per la qual es convoquen les subvencions públiques destinades al foment de l’ocupació de persones amb discapacitat en centres especials d’ocupació (CEO) per a l","fechaRecepcion":"2026-05-08","nivel1":"AUTONOMICA","nivel2":"COMUNITAT VALENCIANA","nivel3":"DIRECCIÓN GENERAL DE EMPLEO Y FORMACIÓN","codigoInvente":null},{"id":1105985,"mrr":false,"numeroConvocatoria":"904424","descripcion":"SUBVENCIONES A GRUPOS, COLECTIVOS Y ASOCIACIONES SIN ANIMO DE LUCRO QUE DESARROLLEN PROYECTOS Y ACTIVIDADES SOCIALES EN LA ZONA DE BAZTAN. AÑO 2026.","descripcionLeng":"BAZTANEN GIZARTE ARLOKO PROIEKTUAK ETA JARDUERAK BURUTZEN DITUZTEN IRABAZI-ASMORIK GABEKO TALDE, KOLEKTIBO ETA ELKARTEEI DIRU-LAGUNTZAK. 2026 URTEA","fechaRecepcion":"2026-05-08","nivel1":"LOCAL","nivel2":"BAZTAN","nivel3":"AYUNTAMIENTO DE BAZTAN","codigoInvente":null},{"id":1105984,"mrr":false,"numeroConvocatoria":"904423","descripcion":"CONVOCATORIA DE LAS AYUDAS EN REGIMEN DE CONCURRENCIA COMPETITIVA PARA EL ACCESO A LAS AYUDAS DEL PROGRAMA “UN FUTUR EN LA MOTXILLA\"","descripcionLeng":"CONVOCATÒRIA D'AJUDES EN RÈGIM DE CONCURRÈNCIA COMPETITIVA PER A L'ACCÉS D'AJUDES DEL PROGRAMA “UN FUTUR EN LA MOTXILLA”","fechaRecepcion":"2026-05-08","nivel1":"LOCAL","nivel2":"RAFELBUNYOL","nivel3":"AYUNTAMIENTO DE RAFELBUNYOL","codigoInvente":null},{"id":1105983,"mrr":false,"numeroConvocatoria":"904422","descripcion":"Resolución de 6 de mayo de 2026 de la Secretaria de Estado de Educación por la que se convocan ayudas para la adquisición de libros de texto y material didáctico e informático para alumnos matriculados en centro docentes en el exterior, en las ciudades de","descripcionLeng":null,"fechaRecepcion":"2026-05-08","nivel1":"ESTADO","nivel2":"MINISTERIO DE EDUCACIÓN, FORMACIÓN PROFESIONAL Y DEPORTES","nivel3":"DIRECCIÓN GENERAL DE PLANIFICACIÓN Y GESTIÓN EDUCATIVA","codigoInvente":null},{"id":1105982,"mrr":false,"numeroConvocatoria":"904421","descripcion":"Convocatoria extraordinaria de becas Erasmus para realizar estudios de Máster durante el curso 2026/2027.","descripcionLeng":null,"fechaRecepcion":"2026-05-08","nivel1":"OTROS","nivel2":"UNIVERSIDAD DE SALAMANCA","nivel3":null,"codigoInvente":"INV00005348"},{"id":1105981,"mrr":false,"numeroConvocatoria":"904420","descripcion":"Acuerdo de 6 mayo 2026 de Junta de Gobierno Diputación de Alicante por el que convoca subvenciones consistentes en servicios de redacción de documentos técnicos y control relativo al abastecimiento y saneamiento municipal de agua, año 2026","descripcionLeng":null,"fechaRecepcion":"2026-05-08","nivel1":"LOCAL","nivel2":"DIPUTACIÓN PROV. DE ALICANTE","nivel3":"DIPUTACIÓN PROVINCIAL DE ALACANT/ALICANTE","codigoInvente":null},{"id":1105980,"mrr":false,"numeroConvocatoria":"904419","descripcion":"Convocatoria de Ayudas Económicas destinadas al fomento del empleo\n\nAyudas a la contratación. Anualidad 2026. TALENTO JOVEN","descripcionLeng":"Convocatòria d´ajudes econòmiques destinades al foment de l´ocupació \n\nAjudes a la contractació. Anualitat 2026. ","fechaRecepcion":"2026-05-08","nivel1":"OTROS","nivel2":"CÁMARA DE COMERCIO DE ALCOY","nivel3":null,"codigoInvente":null},{"id":1105977,"mrr":false,"numeroConvocatoria":"904416","descripcion":"Orde do 28 de abril de 2026 pola que se establecen as bases reguladoras e se fai pública a convocatoria para a concesión, en réxime de concorrencia competitiva, dos premios do Comercio Galego 2026 (código de procedemento IN214C).","descripcionLeng":null,"fechaRecepcion":"2026-05-08","nivel1":"AUTONOMICA","nivel2":"GALICIA","nivel3":"CONSELLERÍA DE EMPLEO, COMERCIO Y EMIGRACIÓN","codigoInvente":null},{"id":1105971,"mrr":false,"numeroConvocatoria":"904410","descripcion":"Convocatoria pública del Plan de Ayudas Culturales para el año 2026","descripcionLeng":null,"fechaRecepcion":"2026-05-08","nivel1":"LOCAL","nivel2":"DIPUTACIÓN PROV. DE SALAMANCA","nivel3":"DIPUTACIÓN DE SALAMANCA","codigoInvente":null},{"id":1105966,"mrr":false,"numeroConvocatoria":"904405","descripcion":"Resolución de 08/05/2026 del SEPE por la que se aprueba, en régimen de concurrencia competitiva, la convocatoria de sub. púb. destinadas a la financiación de proyectos de prog. experienciales de empleo TándEM.2026.Melilla.","descripcionLeng":null,"fechaRecepcion":"2026-05-08","nivel1":"ESTADO","nivel2":"MINISTERIO DE TRABAJO Y ECONOMÍA SOCIAL","nivel3":"DIRECCIÓN PROVINCIAL DEL SEPE DE MELILLA","codigoInvente":null},{"id":1105965,"mrr":false,"numeroConvocatoria":"904404","descripcion":"CONVOCATORIA DE LOS PREMIOS COMPROMISO SOCIAL EN LAS ARTES VISUALES BIENAL DE MISLATA \"MIQUEL NAVARRO\", 2026","descripcionLeng":null,"fechaRecepcion":"2026-05-08","nivel1":"LOCAL","nivel2":"MISLATA","nivel3":"AYUNTAMIENTO DE MISLATA","codigoInvente":null},{"id":1105960,"mrr":false,"numeroConvocatoria":"904399","descripcion":"Convocatoria de subvenciones, en régimen de concurrencia competitiva, para el desarrollo de proyectos del programa de colaboración del Servicio Público de Empleo Estatal con los órganos de la Administración General del Estado en Ceuta y Melilla.","descripcionLeng":null,"fechaRecepcion":"2026-05-08","nivel1":"ESTADO","nivel2":"MINISTERIO DE TRABAJO Y ECONOMÍA SOCIAL","nivel3":"SERVICIO PÚBLICO DE EMPLEO ESTATAL","codigoInvente":"INV00005059"},{"id":1105959,"mrr":false,"numeroConvocatoria":"904398","descripcion":"Convocatoria de subvenciones para el otorgamiento del premio del concurso de carteles de la Fiesta Mayor 2026 de Santa Cristina d’Aro","descripcionLeng":"Convocatòria de subvencions per a l’atorgament del premi del concurs de cartells de la Festa Major 2026 de Santa Cristina d’Aro","fechaRecepcion":"2026-05-08","nivel1":"LOCAL","nivel2":"SANTA CRISTINA D'ARO","nivel3":"AYUNTAMIENTO DE SANTA CRISTINA D'ARO","codigoInvente":null},{"id":1105954,"mrr":false,"numeroConvocatoria":"904393","descripcion":"CONVOCATORIA DE SUBVENCIONES PARA EL IMPULSAR EL USO DEL EUSKERA EN LA IMAGEN PÚBLICA DE LOS ESTABLECIMIENTOS COMERCIALES DE BERRIOPLANO\nAño 2026","descripcionLeng":"DIRULAGUNTZA DEIALDIA, BERRIOBEITIKO MERKATARITZA ESTABLEZIMENDUETAKO IRUDI PUBLIKOAN EUSKARAREN ERABILERA SUSTATZEKO\n2026. urtea","fechaRecepcion":"2026-05-08","nivel1":"LOCAL","nivel2":"BERRIOPLANO/BERRIOBEITI","nivel3":"AYUNTAMIENTO DE BERRIOPLANO","codigoInvente":null},{"id":1105953,"mrr":false,"numeroConvocatoria":"904392","descripcion":"RR 110/2026 POR LA QUE SE CONVOCAN AYUDAS A LA CREACIÓN E\nINVESTIGACIÓN 2026-2027, EN EL MARCO DEL PROGRAMA DE AGITACIÓN\nCIENTÍFICA DE ESTA UNIVERSIDAD","descripcionLeng":null,"fechaRecepcion":"2026-05-08","nivel1":"OTROS","nivel2":"UNIVERSIDAD INTERNACIONAL DE ANDALUCÍA","nivel3":null,"codigoInvente":"INV00005355"},{"id":1105947,"mrr":false,"numeroConvocatoria":"904386","descripcion":"CORRECCIÓN ERRORES CONVOCATORIA ACCIÓN SOCIAL 25-26","descripcionLeng":null,"fechaRecepcion":"2026-05-08","nivel1":"OTROS","nivel2":"UNIVERSITAT POLITÈCNICA DE VALÈNCIA","nivel3":null,"codigoInvente":"INV00005383"},{"id":1105946,"mrr":false,"numeroConvocatoria":"904385","descripcion":"SUBVENCIONES PARA ENTIDADES Y ACTIVIDADES QUE PROMUEVAN ACCIONES DE PROTECCIÓN DE LA SALUBRIDAD PÚBLICA EN EL AÑO 2026","descripcionLeng":null,"fechaRecepcion":"2026-05-08","nivel1":"LOCAL","nivel2":"LLANES","nivel3":"AYUNTAMIENTO DE LLANES","codigoInvente":null},{"id":1105941,"mrr":false,"numeroConvocatoria":"904380","descripcion":"Resolución de 7 de mayo de 2026 del Servicio Público de Empleo de Castilla y León por la que se convocan subvenciones destinadas a entidades locales de Castilla y León como apoyo a la contratación de personas con discapacidad (ELEX 2026)","descripcionLeng":null,"fechaRecepcion":"2026-05-08","nivel1":"AUTONOMICA","nivel2":"CASTILLA Y LEÓN","nivel3":"SERVICIO PÚBLICO DE EMPLEO DE CASTILLA Y LEÓN","codigoInvente":null},{"id":1105939,"mrr":false,"numeroConvocatoria":"904378","descripcion":"Convocatoria y bases reguladoras específicas de la XVII edición del Maratón fotográfico villa de Sisante (año 2026)","descripcionLeng":null,"fechaRecepcion":"2026-05-08","nivel1":"LOCAL","nivel2":"SISANTE","nivel3":"AYUNTAMIENTO DE SISANTE","codigoInvente":null},{"id":1105937,"mrr":false,"numeroConvocatoria":"904376","descripcion":"Ayudas R-Activa 2026 destinadas a icentivar la creación, consolidación y crecimientos de empresas localizadas en  el municipio de l'Olleria.","descripcionLeng":"Ajudes R-Activa 2026 destinades a incentivar la creació, consolidació i creiximent d'empreses localitzades al municipi de l'Olleria.","fechaRecepcion":"2026-05-08","nivel1":"LOCAL","nivel2":"OLLERIA, L'","nivel3":"AYUNTAMIENTO DE OLLERIA, L'","codigoInvente":null},{"id":1105935,"mrr":false,"numeroConvocatoria":"904374","descripcion":"Convocatoria concesión prestaciones económicas de carácter social para ayudas a la infancia. 2026","descripcionLeng":"Convocatòria concessió prestacions econòmiques de caràcter social per ajuts a la infància. 2026","fechaRecepcion":"2026-05-08","nivel1":"LOCAL","nivel2":"VALLS","nivel3":"AYUNTAMIENTO DE VALLS","codigoInvente":null},{"id":1105934,"mrr":false,"numeroConvocatoria":"904373","descripcion":"Convocatoria de concesión de prestaciones económicas de caracter social para ayudas de emergencia social.2026","descripcionLeng":"Convocatòria de concessió de prestacions econòmiques de caràcter social per ajuts d'emergència social.2026","fechaRecepcion":"2026-05-08","nivel1":"LOCAL","nivel2":"VALLS","nivel3":"AYUNTAMIENTO DE VALLS","codigoInvente":null},{"id":1105930,"mrr":false,"numeroConvocatoria":"904369","descripcion":"SÉPTIMA EDICIÓN DE LOS “PREMIOS UNIA-DIGITAL A LA INVESTIGACIÓN”","descripcionLeng":null,"fechaRecepcion":"2026-05-08","nivel1":"OTROS","nivel2":"UNIVERSIDAD INTERNACIONAL DE ANDALUCÍA","nivel3":null,"codigoInvente":"INV00005355"},{"id":1105926,"mrr":false,"numeroConvocatoria":"904365","descripcion":"Convocatoria de subvenciones en régimen de concurrencia competitiva consistente en el financiamiento de autobuses para el desplazamiento de diferentes actividades de centros e institutos del Alt Empordà","descripcionLeng":"Convocatòria de subvencions, en règim de concurrència competitiva, consistent en el finançament d'autobusos pel desplaçament de diferents activitats dels centres i instituts de l'Alt Empordà.","fechaRecepcion":"2026-05-08","nivel1":"LOCAL","nivel2":"CONSELL COMARCAL DE ALT EMPORDÀ","nivel3":"CONSELL COMARCAL DE ALT EMPORDÀ","codigoInvente":null},{"id":1105924,"mrr":false,"numeroConvocatoria":"904363","descripcion":"BASES REGULADORAS DE LAS AYUDAS PARA SUMINISTROS MÍNIMOS VITALES DEL AYUNTAMIENTO DE GUAREÑA PARA EL AÑO 2.026.-","descripcionLeng":null,"fechaRecepcion":"2026-05-08","nivel1":"LOCAL","nivel2":"GUAREÑA","nivel3":"AYUNTAMIENTO DE GUAREÑA","codigoInvente":null},{"id":1105923,"mrr":false,"numeroConvocatoria":"904362","descripcion":"CONVOCATORIA PARA REGULAR LA CONCESION DE SUBVENCIONES POR EL AYUNTAMIENTO DE SORIA DESTINADAS A LA AYUDA Y COOPERACION A REGIONES O PAISES EN VIAS DE DESARROLLO 2026.","descripcionLeng":null,"fechaRecepcion":"2026-05-08","nivel1":"LOCAL","nivel2":"SORIA","nivel3":"AYUNTAMIENTO DE SORIA","codigoInvente":null},{"id":1105922,"mrr":false,"numeroConvocatoria":"904361","descripcion":"BASES Y CONVOCATORIA DE BOLSAS PARA LA ADQUISICIÓN DE LIBROS DE TEXTO Y MATERIAL ESCOLAR DESTINADOS AL ALUMNADO DEL 2º CICLO DE EDUCACION INFANTIL CURSO 2026/27","descripcionLeng":"BASES E CONVOCATORIA DE BOLSAS PARA A ADQUISICIÓN DE LIBROS DE TEXTO E MATERIAL ESCOLAR DESTINADOS AO ALUMNADO DO 2º CICLO DE EDUCACION INFANTIL CURSO 2026/27","fechaRecepcion":"2026-05-08","nivel1":"LOCAL","nivel2":"BARCO DE VALDEORRAS, O","nivel3":"AYUNTAMIENTO DE BARCO DE VALDEORRAS, O","codigoInvente":null},{"id":1105921,"mrr":false,"numeroConvocatoria":"904360","descripcion":"BASES QUE REGIRÁN LA CONVOCATORIA DE LA CONCESIÓN DE PREMIOS EN LA GALA “QUEEN OF QUEENS” PRIDE GÁLDAR 2026","descripcionLeng":null,"fechaRecepcion":"2026-05-08","nivel1":"LOCAL","nivel2":"GÁLDAR","nivel3":"AYUNTAMIENTO DE GÁLDAR","codigoInvente":null},{"id":1105920,"mrr":false,"numeroConvocatoria":"904359","descripcion":"BASES ESPECÍFICAS REGULADORAS DE LAS AYUDAS ECONÓMICAS MUNICIPALES EN RELACIÓN CON LA VIVIENDA HABITUAL 2025 Y 2026","descripcionLeng":null,"fechaRecepcion":"2026-05-08","nivel1":"LOCAL","nivel2":"ONDA","nivel3":"AYUNTAMIENTO DE ONDA","codigoInvente":null},{"id":1105917,"mrr":false,"numeroConvocatoria":"904356","descripcion":"BASES CONVOCATORIA AYUDAS ENTIDADES SIN ANIMO DE LUCRO PARA 2026","descripcionLeng":null,"fechaRecepcion":"2026-05-08","nivel1":"LOCAL","nivel2":"ALTSASU/ALSASUA","nivel3":"AYUNTAMIENTO DE ALTSASU/ALSASUA","codigoInvente":null},{"id":1105914,"mrr":false,"numeroConvocatoria":"904353","descripcion":"Orden de 29 de abril de 2026, de la Consejería de Industria, Comercio y Empleo, se convocan subvenciones para financiar al personal de fundaciones, asociaciones y ESAL, que presten el apoyo a los trabajadores con discapacidad de empresas ordinarias.","descripcionLeng":null,"fechaRecepcion":"2026-05-08","nivel1":"AUTONOMICA","nivel2":"CASTILLA Y LEÓN","nivel3":"CONSEJERÍA DE INDUSTRIA, COMERCIO Y EMPLEO","codigoInvente":null},{"id":1105911,"mrr":false,"numeroConvocatoria":"904350","descripcion":"Convocatoria para la concesión de subvenciones a Asociaciones Deportivas de Íscar, año 2026","descripcionLeng":null,"fechaRecepcion":"2026-05-08","nivel1":"LOCAL","nivel2":"ÍSCAR","nivel3":"AYUNTAMIENTO DE ÍSCAR","codigoInvente":null},{"id":1105910,"mrr":false,"numeroConvocatoria":"904349","descripcion":"Resolución de 29 de abril de 2026, de la Secretaría General de la Emigración, por la que se regulan las bases para la concesión de ayudas para la participación en el programa Reencuentros con Galicia, dirigido a personas emigrantes mayores de 65 años que ","descripcionLeng":null,"fechaRecepcion":"2026-05-08","nivel1":"AUTONOMICA","nivel2":"GALICIA","nivel3":"CONSELLERÍA DE EMPLEO, COMERCIO Y EMIGRACIÓN","codigoInvente":null},{"id":1105906,"mrr":false,"numeroConvocatoria":"904345","descripcion":"Convocatoria para la concesión de ayudas individualizadas a familias en situaciones socioeconómicas desfavorecidas para la adquisición de libros de texto para el curso escolar 2026-2027","descripcionLeng":"Convocatòria per a la concessió d’ajuts individualitzats a famílies en situacions socioeconòmiques desfavorides per a l’adquisició de llibres de text per al curs escolar 2026-2027","fechaRecepcion":"2026-05-08","nivel1":"LOCAL","nivel2":"CUNIT","nivel3":"AYUNTAMIENTO DE CUNIT","codigoInvente":null}],"pageable":{"sort":{"sorted":true,"unsorted":false,"empty":false},"pageNumber":12,"pageSize":50,"offset":600,"unpaged":false,"paged":true},"last":false,"totalPages":200,"totalElements":10000,"first":false,"sort":{"sorted":true,"unsorted":false,"empty":false},"numberOfElements":50,"size":50,"number":12,"empty":false,"advertencia":"La reutilización de los datos del Sistema Nacional de Publicidad de Subvenciones y Ayudas Públicas está sujeta a una serie de restricciones y consideraciones legales. Consulte el aviso legal en https://www.infosubvenciones.es/bdnstrans/GE/es/avisolegal.Además, el usuario debe ser consciente que la información presentada es de naturaleza dinámica, y que los datos pueden ser sometidos a correcciones, inserciones, modificaciones y eliminaciones en momentos posteriores a su extracción. Accesos al API del sistema Nacional de Publicidad de Subvenciones y Ayudas Públicas. La Administración Presupuestaria, para salvaguardar la protección del acceso libre e irrestricto de los ciudadanos a este Portal y a su información podrá adoptar medidas restrictivas de acceso al API ante situaciones de manifiesto abuso del servicio, riesgos de seguridad, o uso fraudulento de la información descargada, de acuerdo con las buenas prácticas de gestión de datos abiertos (https://datos.gob.es/es/blog/limitaciones-la-consulta-de-una-api) establecidas por el Ministerio para la Transformación Digital y de la Función Pública."}