{"content":[{"id":1119664,"mrr":false,"numeroConvocatoria":"918103","descripcion":"CONVOCATORIA DE SUBVENCIONES PARA ENTIDADES DENTRO DEL ÁREA DE DEPORTES PARA EL AÑO 2026","descripcionLeng":null,"fechaRecepcion":"2026-07-09","nivel1":"LOCAL","nivel2":"HARO","nivel3":"AYUNTAMIENTO DE HARO","codigoInvente":null},{"id":1119660,"mrr":false,"numeroConvocatoria":"918099","descripcion":"CONVOCATORIA DE CONCESIÓN DE AYUDAS ECONÓMICAS DE MATERIAL ESCOLAR Y/O ACTIVIDADES DIVERSAS. CURSO 2026-2027","descripcionLeng":null,"fechaRecepcion":"2026-07-09","nivel1":"LOCAL","nivel2":"BARBERÀ DEL VALLÈS","nivel3":"AYUNTAMIENTO DE BARBERÀ DEL VALLÈS","codigoInvente":null},{"id":1119659,"mrr":false,"numeroConvocatoria":"918098","descripcion":"SUBVENCIONES POR CONCURRENCIA COMPETITIVA ENTIDADES Y CLUBES DEPORTIVOS 2026","descripcionLeng":null,"fechaRecepcion":"2026-07-09","nivel1":"LOCAL","nivel2":"TARANCÓN","nivel3":"AYUNTAMIENTO DE TARANCÓN","codigoInvente":null},{"id":1119658,"mrr":false,"numeroConvocatoria":"918097","descripcion":"CONVOCATORIA DE SUBVENCIONES DE LÍNEA 8.1 SUBVENCIONES DESTINADAS A FORTALECER, FAVORECER Y DAR APOYO AL TEJIDO CULTURAL DE LLEIDA\nModalidad a):\nPara proyectos culturales y actividades de las diferentes entidades culturales sin ánimo de lucro en Lleida","descripcionLeng":"CONVOCATÒRIA DE SUBVENCIONS DE LÍNIA 8.1 SUBVENCIONS DESTINADES A ENFORTIR, AFAVORIR I DONAR SUPORT AL TEIXIT CULTURAL DE LLEIDA Modalitat a):\nPer a projectes culturals i activitats de les diferents entitats culturals sense ànim de lucre a Lleida","fechaRecepcion":"2026-07-09","nivel1":"LOCAL","nivel2":"LLEIDA","nivel3":"AYUNTAMIENTO DE LLEIDA","codigoInvente":null},{"id":1119654,"mrr":false,"numeroConvocatoria":"918093","descripcion":"BASES ESPECÍFICAS Y CONVOCATORIA PÚBLICA DE SUBVENCIONES A ASOCIACIONES SIN ÁNIMO DE LUCRO PARA LA REALIZACIÓN DE PROYECTOS Y ACTIVIDADES RELACIONADAS CON LA VIDA EDUCATIVA DEL MUNICIPIO DURANTE EL EJERCICIO 2026.","descripcionLeng":null,"fechaRecepcion":"2026-07-09","nivel1":"LOCAL","nivel2":"GUILLENA","nivel3":"AYUNTAMIENTO DE GUILLENA","codigoInvente":null},{"id":1119648,"mrr":false,"numeroConvocatoria":"918087","descripcion":"Convocatoria de movilidad en el marco del programa Erasmus+ KA131 – Máster/Doctorado 2026/27","descripcionLeng":null,"fechaRecepcion":"2026-07-08","nivel1":"OTROS","nivel2":"UNIVERSIDAD DE LEÓN","nivel3":null,"codigoInvente":"INV00005344"},{"id":1119647,"mrr":false,"numeroConvocatoria":"918086","descripcion":"Convocatoria para el año 2026 de las ayudas para el alquiler de vivienda en el municipio de Zumaia, destinadas a personas mayores de 36 años","descripcionLeng":"Zumaiako herrian, 36 urtetik gorako pertsonei etxebizitzak alokatzeko diru-laguntza emateko deialdia 2026 urterako","fechaRecepcion":"2026-07-08","nivel1":"LOCAL","nivel2":"ZUMAIA","nivel3":"AYUNTAMIENTO DE ZUMAIA","codigoInvente":null},{"id":1119645,"mrr":false,"numeroConvocatoria":"918084","descripcion":"Convocatoria para el año 2026 de las ayudas para el alquiler de vivienda en el municipio de Zumaia, destinadas a jóvenes de entre 18-35 años","descripcionLeng":"Zumaiako herrian, 18-35 urte bitarteko gazteei etxebizitzak alokatzeko diru- laguntza emateko deialdia 2026 urterako","fechaRecepcion":"2026-07-08","nivel1":"LOCAL","nivel2":"ZUMAIA","nivel3":"AYUNTAMIENTO DE ZUMAIA","codigoInvente":null},{"id":1119644,"mrr":false,"numeroConvocatoria":"918083","descripcion":"Resolución de 07/07/2026 de la Agencia de Ciencia, Competitividad Empresarial e Innovación Asturiana, que aprueba la convocatoria de subvención para Grupos de Investigación de Organismos del Principado de Asturias ejercicio 2026","descripcionLeng":null,"fechaRecepcion":"2026-07-08","nivel1":"AUTONOMICA","nivel2":"PRINCIPADO DE ASTURIAS","nivel3":"AGENCIA DE CIENCIA, COMPETITIVIDAD EMPRESARIAL E INNOVACIÓN","codigoInvente":"INV00003680"},{"id":1119643,"mrr":false,"numeroConvocatoria":"918082","descripcion":"Resolución 14 de abril de 2026 que aprueba convocatoria de ayudas plurianuales para entidades asociativas para inversiones en explotaciones agrarias ejercicio 2026","descripcionLeng":null,"fechaRecepcion":"2026-07-08","nivel1":"AUTONOMICA","nivel2":"PRINCIPADO DE ASTURIAS","nivel3":"CONSEJERÍA DE MEDIO RURAL Y POLÍTICA AGRARIA","codigoInvente":null},{"id":1119641,"mrr":false,"numeroConvocatoria":"918080","descripcion":"Premios Fundación Trinidad Alfonso para deportistas universitarios, según el Convenio entre las universidades valencianas del CADU y la FTA para la promoción del deporte universitario para el año 2026","descripcionLeng":"Premis Fundació Trinidad Alfonso per a esportistes universitaris, en compliment del Conveni entre les universitats Valencianes del CADU i la FTA per a la promoció de l'esport universitari per a l'any 2026","fechaRecepcion":"2026-07-08","nivel1":"OTROS","nivel2":"UNIVERSITAT DE VALÈNCIA (ESTUDI GENERAL)","nivel3":null,"codigoInvente":"INV00005380"},{"id":1119640,"mrr":false,"numeroConvocatoria":"918079","descripcion":"RESOLUCIÓN DE LA CONCEJALÍA-DELEGADA DE JUVENTUD SOBRE LA RECTIFICACIÓN DE ERROR MATERIAL DETECTADO EN LA RESOLUCIÓN  NÚM. 1028 DE 22 DE JUNIO DE 2026 SOBRE LAS BASES DE LOS CONCURSOS DE LA JUVENTUD MOIXENT 2026","descripcionLeng":"RESOLUCIÓ DE LA REGIDORIA-DELEGADA DE JOVENTUT SOBRE LA RECTIFICACIÓ D'ERROR MATERIAL DETECTAT EN LA RESOLUCIÓ Núm. 1028 DE 22 DE JUNY DE 2026 SOBRE LES BASES DELS CONCURSOS DE LA JOVENTUT MOIXENT 2026","fechaRecepcion":"2026-07-08","nivel1":"LOCAL","nivel2":"MOGENTE/MOIXENT","nivel3":"AYUNTAMIENTO DE MOGENTE/MOIXENT","codigoInvente":null},{"id":1119637,"mrr":false,"numeroConvocatoria":"918076","descripcion":"XXIII EDICIÓN DEL PREMIO INTERNACIONAL DE COCINA CON ACEITE DE OLIVA VIRGEN EXTRA 'JAÉN PARAÍSO INTERIOR'","descripcionLeng":null,"fechaRecepcion":"2026-07-08","nivel1":"LOCAL","nivel2":"DIPUTACIÓN PROV. DE JAÉN","nivel3":"DIPUTACIÓN PROVINCIAL DE JAÉN","codigoInvente":null},{"id":1119633,"mrr":false,"numeroConvocatoria":"918072","descripcion":"TALENTIUM EMPRESA. CONVOCATORIA DE SUBVENCIONES DIRIGIDAS A EMPRESAS LOCALES EN MUNICIPIOS MENORES DE 20.000 HAB.","descripcionLeng":null,"fechaRecepcion":"2026-07-08","nivel1":"LOCAL","nivel2":"DIPUTACIÓN PROV. DE JAÉN","nivel3":"DIPUTACIÓN PROVINCIAL DE JAÉN","codigoInvente":null},{"id":1119621,"mrr":false,"numeroConvocatoria":"918060","descripcion":"Convocatoria de la 10ª edición del Concurso de Instagram de Turismo del Masnou 2026 #TarannàMasnoví2026","descripcionLeng":"Convocatòria de la 10a edició del Concurs d`Instagram de Turisme del Masnou 2026 #TarannàMasnoví2026","fechaRecepcion":"2026-07-08","nivel1":"LOCAL","nivel2":"MASNOU, EL","nivel3":"AYUNTAMIENTO DE MASNOU, EL","codigoInvente":null},{"id":1119620,"mrr":false,"numeroConvocatoria":"918059","descripcion":"IV Edición de ayudas de la Cátedra de Joventut al mejor proyecto de investigación relacionado con la mejora de la salud mental y la promoción del bienestar en jóvenes","descripcionLeng":"IV Edició d'ajudes de la Càtedra de Joventut al millor projecte d'investigació relacionat amb la millora de la salut mental i la promoció del benestar en joves","fechaRecepcion":"2026-07-08","nivel1":"OTROS","nivel2":"UNIVERSITAT DE VALÈNCIA (ESTUDI GENERAL)","nivel3":null,"codigoInvente":"INV00005380"},{"id":1119619,"mrr":false,"numeroConvocatoria":"918058","descripcion":"DIALOGO SOCIAL Y NEGOCIACIÓN COLECTIVA 2026 (MODALIDAD 1) - FORMACIÓN PROFESIONAL PARA EL EMPLEO","descripcionLeng":null,"fechaRecepcion":"2026-07-08","nivel1":"AUTONOMICA","nivel2":"REGIÓN DE MURCIA","nivel3":"SERVICIO REGIONAL DE EMPLEO Y FORMACIÓN (SEF)","codigoInvente":"INV00005060"},{"id":1119618,"mrr":false,"numeroConvocatoria":"918057","descripcion":"Bases  y convocatoria para la concesión de ayudas al transporte para estudiantes jóvenes desplazados fuera del municipio de Guardamar del Segura, curso 2025-2026.","descripcionLeng":null,"fechaRecepcion":"2026-07-08","nivel1":"LOCAL","nivel2":"GUARDAMAR DEL SEGURA","nivel3":"AYUNTAMIENTO DE GUARDAMAR DEL SEGURA","codigoInvente":null},{"id":1119617,"mrr":false,"numeroConvocatoria":"918056","descripcion":"Convocatoria extraordinaria del programa EC2U para movilidades de estudiantes USAL: “Entrepreneurial Week: Responsible innovation and caring futures”, Johannes Kepler University – JKU (Linz, Austria), curso 2026/2027.","descripcionLeng":null,"fechaRecepcion":"2026-07-08","nivel1":"OTROS","nivel2":"UNIVERSIDAD DE SALAMANCA","nivel3":null,"codigoInvente":"INV00005348"},{"id":1119616,"mrr":false,"numeroConvocatoria":"918055","descripcion":"CONVOCTORIA DISSENY IMATGE DE LA FESTA DE L`ESPORT","descripcionLeng":null,"fechaRecepcion":"2026-07-08","nivel1":"LOCAL","nivel2":"PALAFOLLS","nivel3":"AYUNTAMIENTO DE PALAFOLLS","codigoInvente":null},{"id":1119615,"mrr":false,"numeroConvocatoria":"918054","descripcion":"CONVOCATORIA ENTIDADES DE ENLACE 2026-2027","descripcionLeng":null,"fechaRecepcion":"2026-07-08","nivel1":"AUTONOMICA","nivel2":"COMUNIDAD DE MADRID","nivel3":"CONSEJERÍA DE EDUCACIÓN, CIENCIA Y UNIVERSIDADES","codigoInvente":null},{"id":1119613,"mrr":false,"numeroConvocatoria":"918052","descripcion":"Bases subvenciones eventos deportivos 2026","descripcionLeng":"Bases subvencións eventos deportivos 2026","fechaRecepcion":"2026-07-08","nivel1":"LOCAL","nivel2":"GROVE, O","nivel3":"AYUNTAMIENTO DE GROVE, O","codigoInvente":null},{"id":1119612,"mrr":false,"numeroConvocatoria":"918051","descripcion":"Convocatoria extraordinaria del programa EC2U para movilidades de estudiantes del Máster Universitario en Lenguas, Culturas y Sociedades Europeas en contacto de las universidades de la Alianza de EC2U acreditadas en el máster, curso 2026/2027.","descripcionLeng":null,"fechaRecepcion":"2026-07-08","nivel1":"OTROS","nivel2":"UNIVERSIDAD DE SALAMANCA","nivel3":null,"codigoInvente":"INV00005348"},{"id":1119611,"mrr":false,"numeroConvocatoria":"918050","descripcion":"Subvenciones para las entidades deportivas municipales 2026","descripcionLeng":null,"fechaRecepcion":"2026-07-08","nivel1":"LOCAL","nivel2":"SANTA COLOMA DE CERVELLÓ","nivel3":"AYUNTAMIENTO DE SANTA COLOMA DE CERVELLÓ","codigoInvente":null},{"id":1119610,"mrr":false,"numeroConvocatoria":"918049","descripcion":"V Edición del premio Cátedra de Joventut de la UV al mejor trabajo Fin de Ciclo, Fin de Grado, Fin de Máster y Tesis Doctoral sobre juventud","descripcionLeng":"V Edició del premi Càtedra de Joventut de la UV al millor treball fi de cicle, fi de grau, fi de màster i tesi doctoral sobre joventut","fechaRecepcion":"2026-07-08","nivel1":"OTROS","nivel2":"UNIVERSITAT DE VALÈNCIA (ESTUDI GENERAL)","nivel3":null,"codigoInvente":"INV00005380"},{"id":1119609,"mrr":false,"numeroConvocatoria":"918048","descripcion":"Convocatoria de los Premios a TFG, TFM y Tesis Doctorales 2025/26 en Ciberseguridad en el marco de la Cátedra de Ciberseguridad Binter-Universidad de La Laguna.","descripcionLeng":null,"fechaRecepcion":"2026-07-08","nivel1":"OTROS","nivel2":"UNIVERSIDAD DE LA LAGUNA","nivel3":null,"codigoInvente":"INV00005341"},{"id":1119608,"mrr":false,"numeroConvocatoria":"918047","descripcion":"CONVOCATORIA PARA LA CONCESIÓN DE AYUDAS PARA LA ADQUISICIÓN DE LIBROS DE TEXTO Y/O MATERIAL ESCOLAR  (CURSO 2026-2027).-","descripcionLeng":"CONVOCATORIA PARA A CONCESIÓN DE AXUDAS PARA A ADQUISICIÓN DE LIBROS DE TEXTO E/OU MATERIAL ESCOLAR  (CURSO 2026-2027).-","fechaRecepcion":"2026-07-08","nivel1":"LOCAL","nivel2":"NIGRÁN","nivel3":"AYUNTAMIENTO DE NIGRÁN","codigoInvente":null},{"id":1119607,"mrr":false,"numeroConvocatoria":"918046","descripcion":"Convocatoria del XXXI Concurso Escolar de Dibujo de los Premios Literarios Ciudad de Alzira 2026.","descripcionLeng":"Convocatòria del XXXI Concurs Escolar de Dibuix dels Premis Literaris Ciutat d'Alzira 2026.","fechaRecepcion":"2026-07-08","nivel1":"LOCAL","nivel2":"ALZIRA","nivel3":"AYUNTAMIENTO DE ALZIRA","codigoInvente":null},{"id":1119606,"mrr":false,"numeroConvocatoria":"918045","descripcion":"Orde pola que se establecen as bases reguladoras e se convoca o procedemento para a concesión de subvencións destinadas á realización de programas de interese xeral para fins de carácter social dirixidos á xuventude e ao voluntariado, con cargo á asignaci","descripcionLeng":"Orde pola que se establecen as bases reguladoras e se convoca o procedemento para a concesión de subvencións destinadas á realización de programas de interese xeral para fins de carácter social dirixidos á xuventude e ao voluntariado, con cargo á asignaci","fechaRecepcion":"2026-07-08","nivel1":"AUTONOMICA","nivel2":"GALICIA","nivel3":"CONSELLERÍA DE CULTURA, LENGUA Y JUVENTUD","codigoInvente":null},{"id":1119601,"mrr":false,"numeroConvocatoria":"918040","descripcion":"Convocatoria XXVI Certamen Literari Relats Breus Conta’m Dona, 2026","descripcionLeng":"Convocatòria XXVI Certamen Literari Relats Breus Conta’m Dona, 2026 ","fechaRecepcion":"2026-07-08","nivel1":"LOCAL","nivel2":"CATARROJA","nivel3":"AYUNTAMIENTO DE CATARROJA","codigoInvente":null},{"id":1119600,"mrr":false,"numeroConvocatoria":"918039","descripcion":"AYUDAS FOMENTO TECNOLOGÍAS RELACIONADAS SISTEMAS AÉREOS NO TRIPULADOS-2026","descripcionLeng":null,"fechaRecepcion":"2026-07-08","nivel1":"AUTONOMICA","nivel2":"COMUNIDAD DE MADRID","nivel3":"CONSEJERÍA ECONOMÍA, HACIENDA Y EMPLEO","codigoInvente":null},{"id":1119598,"mrr":false,"numeroConvocatoria":"918037","descripcion":"Convocatoria de 16 becas de iniciación a la investigación para estudiantes de grado de la UCLM que realizaron la PAU 2026 (Convenio Globalcaja)","descripcionLeng":null,"fechaRecepcion":"2026-07-08","nivel1":"OTROS","nivel2":"UNIVERSIDAD DE CASTILLA-LA MANCHA","nivel3":null,"codigoInvente":"INV00005334"},{"id":1119596,"mrr":false,"numeroConvocatoria":"918035","descripcion":"RESOLUCIÓN del Vicerrector de Estudiantes y Empleabilidad por la que se autoriza el gasto y se aprueba la convocatoria pública de ayudas económicas a estudiantado de la Universidad de Oviedo subvencionadas por personas físicas o jurídicas, ayudas a estudi","descripcionLeng":null,"fechaRecepcion":"2026-07-08","nivel1":"OTROS","nivel2":"UNIVERSIDAD DE OVIEDO","nivel3":null,"codigoInvente":"INV00005347"},{"id":1119595,"mrr":false,"numeroConvocatoria":"918034","descripcion":"Resolución de 08/07/2026, por la que se aprueba la convocatoria de las ayudas del Programa de apoyo a la innovación Innova-Adelante en Castilla-La Mancha, cofinanciable en el marco del programa Feder de Castilla-La Mancha 2021-2027, ejercicio 2026.","descripcionLeng":null,"fechaRecepcion":"2026-07-08","nivel1":"AUTONOMICA","nivel2":"CASTILLA-LA MANCHA","nivel3":"DIRECCIÓN GENERAL DE EMPRESAS","codigoInvente":null},{"id":1119592,"mrr":false,"numeroConvocatoria":"918031","descripcion":"Convocatoria de becas para el apoyo al alumnado de estudios superiores para el curso 2025-2026","descripcionLeng":"Convocatòria de beques per al suport a l'alumnat d'estudis superiors per al curs 2025-2026","fechaRecepcion":"2026-07-08","nivel1":"LOCAL","nivel2":"LA RÀPITA","nivel3":"AYUNTAMIENTO DE LA RÀPITA","codigoInvente":null},{"id":1119591,"mrr":false,"numeroConvocatoria":"918030","descripcion":"RESOLUCIÓN de la Conselleria de Servicios Sociales, Familia e Infancia, de las bases reguladoras de los premios a Tesis Doctorales y Trabajos Finales de master y convocatoria 2026","descripcionLeng":"RESOLUCIÓ de la Conselleria de Servicis Socials, Família i Infància,de les bases reguladores dels Premis a Tesis Doctorals i Treballs Finals de master i convocatoria 2026","fechaRecepcion":"2026-07-08","nivel1":"AUTONOMICA","nivel2":"COMUNITAT VALENCIANA","nivel3":"SECRETARÍA AUTONÓMICA DE SISTEMA SOCIOSANITARIO","codigoInvente":null},{"id":1119580,"mrr":false,"numeroConvocatoria":"918019","descripcion":"Convocatoria subvenciones DIGINNOVA PARA LA INCORPORACIÓN DE TALENTO JOVEN A LAS EMPRESAS Y CENTROS DE INVESTIGACIÓN DE CANARIAS 2026","descripcionLeng":null,"fechaRecepcion":"2026-07-08","nivel1":"AUTONOMICA","nivel2":"CANARIAS","nivel3":"CONSEJERÍA DE UNIVERSIDADES, CIENCIA E INNOVACIÓN Y CULTURA","codigoInvente":null},{"id":1119578,"mrr":false,"numeroConvocatoria":"918017","descripcion":"V CERTAMEN ARTÍSTICO AMIGOS DE LOS ANIMALES. MODALIDAD CLIPMETRAJE “MI VIDA CON UN ANIMAL”.","descripcionLeng":null,"fechaRecepcion":"2026-07-08","nivel1":"ESTADO","nivel2":"MINISTERIO DE DERECHOS SOCIALES, CONSUMO Y AGENDA 2030","nivel3":"DIRECCIÓN GENERAL DE DERECHOS DE LOS ANIMALES","codigoInvente":null},{"id":1119574,"mrr":false,"numeroConvocatoria":"918013","descripcion":"BASES PARA LA CONCESION DE SUBVENCIONES EN ESPECIE PARA EL FOMENTO TECNOLÓGICO EN FONTANAR. CURSO 2026-2027","descripcionLeng":"BASES PARA LA CONCESION DE SUBVENCIONES EN ESPECIE PARA EL FOMENTO TECNOLÓGICO EN FONTANAR. CURSO 2026-2027","fechaRecepcion":"2026-07-08","nivel1":"LOCAL","nivel2":"FONTANAR","nivel3":"AYUNTAMIENTO DE FONTANAR","codigoInvente":null},{"id":1119571,"mrr":false,"numeroConvocatoria":"918010","descripcion":"Convocatoria de ayudas para la reducción del desempleo y para la promoción de la actividad económica en Balmaseda durante 2026","descripcionLeng":"2026ko urtean zehar Balmasedako jarduera ekonomikoa sustatu eta langabezia murrizteko laguntzak emateko oinarriak diru-laguntzen deialdia","fechaRecepcion":"2026-07-08","nivel1":"LOCAL","nivel2":"BALMASEDA","nivel3":"AYUNTAMIENTO DE BALMASEDA","codigoInvente":null},{"id":1119570,"mrr":false,"numeroConvocatoria":"918009","descripcion":"BASES REGULADORAS Y CONVOCATORIA DE SUBVENCIONES A ASOCIACIONES CULTURALES EJERCICIO 2025-2026","descripcionLeng":null,"fechaRecepcion":"2026-07-08","nivel1":"LOCAL","nivel2":"ARROYOMOLINOS","nivel3":"AYUNTAMIENTO DE ARROYOMOLINOS","codigoInvente":null},{"id":1119567,"mrr":false,"numeroConvocatoria":"918006","descripcion":"Ayudas económicas para honorarios de redacción del Informe de Evaluación de las edificaciones, ejercicio 2026","descripcionLeng":"Ajudes econòmiques per a honoraris de redacció de l'Informe d'Avaluació de les edificacions, exercici 2026","fechaRecepcion":"2026-07-08","nivel1":"LOCAL","nivel2":"ONDA","nivel3":"AYUNTAMIENTO DE ONDA","codigoInvente":null},{"id":1119564,"mrr":false,"numeroConvocatoria":"918003","descripcion":"Convocatoria para la concesión de subvenciones 2026, en régimen de concurrencia competitiva, para cofradías y hermandades.","descripcionLeng":null,"fechaRecepcion":"2026-07-08","nivel1":"LOCAL","nivel2":"ALCALÁ LA REAL","nivel3":"AYUNTAMIENTO DE ALCALÁ LA REAL","codigoInvente":null},{"id":1119558,"mrr":false,"numeroConvocatoria":"917997","descripcion":"ORDEN DE LA CONSEJERÍA PRESIDENCIA, JUVENTUD, ACCIÓN EXTERIOR Y EMERGENCIAS POR LA QUE SE CONVOCA UNA SUBVENCIÓN, EN RÉGIMEN DE CONCURRENCIA COMPETITIVA, PARA LA CONCESIÓN DE DOS BECAS PARA CURSAR ESTUDIOS DE POSGRADO EN EL COLEGIO DE EUROPA, PARA EL CURS","descripcionLeng":null,"fechaRecepcion":"2026-07-08","nivel1":"AUTONOMICA","nivel2":"REGIÓN DE MURCIA","nivel3":"CONSEJERÍA DE PRESIDENCIA, JUVENTUD, ACCIÓN EXTERIOR Y EMERGENCIAS","codigoInvente":null},{"id":1119554,"mrr":false,"numeroConvocatoria":"917993","descripcion":"Convocatoria para la concesión de subvenciones por el Ayuntamiento de Benicarló destinadas a clubs deportivos por su participación en competiciones oficiales de ámbito nacional o internacional, deporte colectivo 2025","descripcionLeng":null,"fechaRecepcion":"2026-07-08","nivel1":"LOCAL","nivel2":"BENICARLÓ","nivel3":"AYUNTAMIENTO DE BENICARLÓ","codigoInvente":null},{"id":1119552,"mrr":false,"numeroConvocatoria":"917991","descripcion":"BASES REGULADORAS DE LAS SUBVENCIONES OTORGADAS EN RÉGIMEN DE CONCURRENCIA COMPETITIVA, DESTINADAS A FINANCIAR A EMPRENDEDORES DEL PROGRAMA BENEMPRENDE EN EL MARCO DEL PLAN TERRITORIAL DE FOMENTO DEL MUNICIPIO DE BENAVENTE, ANUALIDAD 2026.","descripcionLeng":null,"fechaRecepcion":"2026-07-08","nivel1":"LOCAL","nivel2":"BENAVENTE","nivel3":"AYUNTAMIENTO DE BENAVENTE","codigoInvente":null},{"id":1119545,"mrr":false,"numeroConvocatoria":"917984","descripcion":"Convocatoria de ayudas para estudios del Ayuntamiento de Vedra curso escolar 2026/2027 destinadas a familias vulnerables","descripcionLeng":"Convocatoria de axudas para o estudo do Concello de Vedra curso escolar 2026/2027 destinadas a familias vulnerables","fechaRecepcion":"2026-07-08","nivel1":"LOCAL","nivel2":"VEDRA","nivel3":"AYUNTAMIENTO DE VEDRA","codigoInvente":null},{"id":1119544,"mrr":false,"numeroConvocatoria":"917983","descripcion":"Convocatoria del XXXI Certamen literario Villa de Villamayor de Santiago","descripcionLeng":null,"fechaRecepcion":"2026-07-08","nivel1":"LOCAL","nivel2":"VILLAMAYOR DE SANTIAGO","nivel3":"AYUNTAMIENTO DE VILLAMAYOR DE SANTIAGO","codigoInvente":null},{"id":1119541,"mrr":false,"numeroConvocatoria":"917980","descripcion":"Convocatoria para la concesión de subvenciones 2026, en régimen de concurrencia competitiva, a asociaciones para la organización de actividades en materia de bienestar social.","descripcionLeng":null,"fechaRecepcion":"2026-07-08","nivel1":"LOCAL","nivel2":"ALCALÁ LA REAL","nivel3":"AYUNTAMIENTO DE ALCALÁ LA REAL","codigoInvente":null},{"id":1119537,"mrr":false,"numeroConvocatoria":"917976","descripcion":"Convocatoria pública de subvenciones, en régimen de concurrencia competitiva, destinadas a entidades sin ánimo de lucro para la realización de proyectos y actividades en materia de inclusión social, ejercicio 2026.","descripcionLeng":null,"fechaRecepcion":"2026-07-08","nivel1":"LOCAL","nivel2":"SIERO","nivel3":"AYUNTAMIENTO DE SIERO","codigoInvente":null}],"pageable":{"sort":{"sorted":true,"unsorted":false,"empty":false},"pageNumber":15,"pageSize":50,"offset":750,"unpaged":false,"paged":true},"last":false,"totalElements":10000,"totalPages":200,"sort":{"sorted":true,"unsorted":false,"empty":false},"first":false,"numberOfElements":50,"size":50,"number":15,"empty":false,"advertencia":"La reutilización de los datos del Sistema Nacional de Publicidad de Subvenciones y Ayudas Públicas está sujeta a una serie de restricciones y consideraciones legales. Consulte el aviso legal en https://www.infosubvenciones.es/bdnstrans/GE/es/avisolegal.Además, el usuario debe ser consciente que la información presentada es de naturaleza dinámica, y que los datos pueden ser sometidos a correcciones, inserciones, modificaciones y eliminaciones en momentos posteriores a su extracción. Accesos al API del sistema Nacional de Publicidad de Subvenciones y Ayudas Públicas. La Administración Presupuestaria, para salvaguardar la protección del acceso libre e irrestricto de los ciudadanos a este Portal y a su información podrá adoptar medidas restrictivas de acceso al API ante situaciones de manifiesto abuso del servicio, riesgos de seguridad, o uso fraudulento de la información descargada, de acuerdo con las buenas prácticas de gestión de datos abiertos (https://datos.gob.es/es/blog/limitaciones-la-consulta-de-una-api) establecidas por el Ministerio para la Transformación Digital y de la Función Pública."}