{"content":[{"id":1105066,"mrr":false,"numeroConvocatoria":"903505","descripcion":"Resolución TER//2026, de 28 de abril, por la que se abre la convocatoria para la concesión de ayudas, en régimen de concurrencia pública no competitiva, para la promoción de viviendas con protección oficial en suelos inscritos en reserva pública solares","descripcionLeng":"Resolució TER//2026, de 28 d’abril, per la qual s'obre la convocatòria per a la concessió d’ajuts, en règim de concurrència pública no competitiva, per a la promoció d’habitatges amb protecció oficial en sòls inscrits a la reserva pública de solars","fechaRecepcion":"2026-05-05","nivel1":"AUTONOMICA","nivel2":"CATALUÑA","nivel3":"AGENCIA DE LA VIVIENDA DE CATALUÑA","codigoInvente":null},{"id":1105056,"mrr":false,"numeroConvocatoria":"903495","descripcion":"Orden DBF/…/2026, de 19 de mayo, por la que se convoca el Certamen “IX Premio Jóvenes Creadores Aragoneses” para el año 2026.","descripcionLeng":null,"fechaRecepcion":"2026-05-05","nivel1":"AUTONOMICA","nivel2":"ARAGÓN","nivel3":"INSTITUTO ARAGONÉS DE LA JUVENTUD (IAJ)","codigoInvente":"INV00003655"},{"id":1105053,"mrr":false,"numeroConvocatoria":"903492","descripcion":"CONVOCATORIA SUBVENCIONES PARA EL CONCURSO DE CABALLOS DE PURA RAZA ESPAÑOLA Y CRUZADOS","descripcionLeng":null,"fechaRecepcion":"2026-05-05","nivel1":"LOCAL","nivel2":"TINEO","nivel3":"AYUNTAMIENTO DE TINEO","codigoInvente":null},{"id":1105049,"mrr":false,"numeroConvocatoria":"903488","descripcion":"Subvenciones dirigidas al pequeño y mediano campesinado de Collserola por los servicios ecosistémicos que provee a la sociedad, promover buenas prácticas en fincas agroganaderas y tender a la producción ecológica y la agroecología en el Parque - 2026.","descripcionLeng":"Subvencions adreçades a la petita i mitjana pagesia de Collserola pels serveis ecosistèmics que proveeix a la societat, promoure bones pràctiques en finques agroramaderes i tendir a la producció ecològica i la agroecologia a l'àmbit del Parc - 2026.","fechaRecepcion":"2026-05-05","nivel1":"OTROS","nivel2":"CONSORCIO DEL PARQUE NATURAL DE LA SIERRA DE COLLSEROLA","nivel3":null,"codigoInvente":"INV00000753"},{"id":1105048,"mrr":false,"numeroConvocatoria":"903487","descripcion":"Expediente 2747838R: APROBACIÓN BASES REGULADORAS DEL PROCEDIMIENTO DE CONCESIÓN DIRECTA DE AYUDAS ECONÓMICAS EN MATERIA DE NECESIDADES BÁSICAS ESTIVALES DE MENORES CON BECA ESCOLAR DE COMEDOR A y B. EJERCICIO 2026","descripcionLeng":null,"fechaRecepcion":"2026-05-05","nivel1":"LOCAL","nivel2":"PICASSENT","nivel3":"AYUNTAMIENTO DE PICASSENT","codigoInvente":null},{"id":1105046,"mrr":false,"numeroConvocatoria":"903485","descripcion":"CONVOCATORIA DEL XXVI CERTAMEN JÓVENES CREADORES 2026","descripcionLeng":null,"fechaRecepcion":"2026-05-05","nivel1":"LOCAL","nivel2":"SALAMANCA","nivel3":"AYUNTAMIENTO DE SALAMANCA","codigoInvente":null},{"id":1105045,"mrr":false,"numeroConvocatoria":"903484","descripcion":"Resolución de 4 de mayo de 2026 del Rector de la Universidad de Burgos, por la que se convocan ayudas para el programa de trabajos fin de grado/máster, practicum y prácticas universitarias curriculares en cooperación internacional para el desarrollo","descripcionLeng":null,"fechaRecepcion":"2026-05-05","nivel1":"OTROS","nivel2":"UNIVERSIDAD DE BURGOS","nivel3":null,"codigoInvente":"INV00005331"},{"id":1105040,"mrr":false,"numeroConvocatoria":"903479","descripcion":"CONVOCATORIA PARA LA CONCESIÓN DE SUBVENCIONES DEL AREA DE SERVICIOS AL TERRITORIO PARA EL AÑO 2026","descripcionLeng":"CONVOCATÒRIA PER A LA CONCESSIÓ DE SUBVENCIONS DE L’ÀREA DE SERVEIS AL TERRITORI PER A L’ANY 2026.","fechaRecepcion":"2026-05-05","nivel1":"LOCAL","nivel2":"VILA-SECA","nivel3":"AYUNTAMIENTO DE VILA-SECA","codigoInvente":null},{"id":1105039,"mrr":false,"numeroConvocatoria":"903478","descripcion":"CONVOCATORIA SUBVENCIONES PARA LA MEJORA DE LA ACCESIBILIDAD Y ELIMINACIÓN DE BARRERAS ARQUITECTÓNICAS EN EDIFICIOS DE USO RESIDENCIAL Y VIVIENDAS","descripcionLeng":"CONVOCATÒRIA SUBVENCIONS PER A LA MILLORA DE L'ACCESSIBILITAT I ELIMINACIÓ DE BARRERES ARQUITECTÒNIQUES EN EDIFICIS D’ÚS RESIDENCIAL I HABITATGES","fechaRecepcion":"2026-05-05","nivel1":"LOCAL","nivel2":"POBLA DE MAFUMET, LA","nivel3":"AYUNTAMIENTO DE LA POBLA DE MAFUMET","codigoInvente":null},{"id":1105032,"mrr":false,"numeroConvocatoria":"903471","descripcion":"BASES ESPECÍFICAS DE SUBVENCIONES A ENTIDADES DEPORTIVAS SIN ÁNIMO DE LUCRO DE ONDA, PARA LA REALIZACIÓN DE ACTIVIDADES DEPORTIVAS (EJERCICIO 2026)","descripcionLeng":null,"fechaRecepcion":"2026-05-05","nivel1":"LOCAL","nivel2":"ONDA","nivel3":"AYUNTAMIENTO DE ONDA","codigoInvente":null},{"id":1105029,"mrr":false,"numeroConvocatoria":"903468","descripcion":"BASES REGULADORAS DE LA CONVOCATORIA DEL CONCURSO PÚBLICO PARA LA CONCESIÓN DE SUBVENCIONES PARA OBRAS DE REFORMA DE VIVIENDAS Y ADQUISICIÓN DE EQUIPAMIENTO TÉCNICO DIRIGIDO A PERSONAS MAYORES DE 65 AÑOS CORRESPONDIENTE AL AÑO 2026.","descripcionLeng":"BASES REGULADORAS DA CONVOCATORIA DO CONCURSO PÚBLICO PARA A CONCESIÓN DE SUBVENCIÓNS PARA OBRAS DE REFORMA DE VIVENDAS E ADQUISICIÓN DE EQUIPAMENTO TÉCNICO DIRIXIDO A PERSOAS MAIORES DE 65 ANOS CORRESPONDENTE AO ANO 2026.","fechaRecepcion":"2026-05-05","nivel1":"LOCAL","nivel2":"DIPUTACIÓN PROV. DE OURENSE","nivel3":"DIPUTACIÓN PROVINCIAL DE OURENSE","codigoInvente":null},{"id":1105028,"mrr":false,"numeroConvocatoria":"903467","descripcion":"RESOLUCIÓN de 5 de mayo de 2026, del director general de LABORA Servicio Valenciano de Empleo y Formación, por la que se convocan para el ejercicio 2026 las subvenciones destinadas a la contratación de personas desempleadas con trastorno mental grave o pr","descripcionLeng":"RESOLUCIÓ de 5 de maig de2026, del director general de Labora Servici Valencià d'Ocupació i Formació, per la qual es convoquen, per a l'exercici 2026, les subvencions que es destinen a contractar persones desocupades amb trastorn mental greu o problemes d","fechaRecepcion":"2026-05-05","nivel1":"AUTONOMICA","nivel2":"COMUNITAT VALENCIANA","nivel3":"DIRECCIÓN GENERAL DE EMPLEO Y FORMACIÓN","codigoInvente":null},{"id":1105022,"mrr":false,"numeroConvocatoria":"903461","descripcion":"CONVOCATORIA DE PREMIOS/SUBVENCIONES DESTINADAS A DEPORTISTAS DE CABRA POR SUS MERITOS DEPORTIVOS DURANTE EL AÑO 2026","descripcionLeng":null,"fechaRecepcion":"2026-05-05","nivel1":"LOCAL","nivel2":"CABRA","nivel3":"AYUNTAMIENTO DE CABRA","codigoInvente":null},{"id":1105020,"mrr":false,"numeroConvocatoria":"903459","descripcion":"Subvenciones a los ayuntamientos de la isla de Tenerife y su sector público institucional para la realización de proyectos culturales, 2026","descripcionLeng":null,"fechaRecepcion":"2026-05-05","nivel1":"LOCAL","nivel2":"CABILDO INSULAR DE TENERIFE","nivel3":"CABILDO INSULAR DE TENERIFE","codigoInvente":null},{"id":1105017,"mrr":false,"numeroConvocatoria":"903456","descripcion":"CONVOCATORIA INCENTIVOS A EMPRESAS Y EMPRENDEDORES PARA EL FOMENTO DEL EMPLEO","descripcionLeng":"CONVOCATÒRIA INCENTIUS A EMPRESES I EMPRENEDORS PER A LA PROMOCIÓ DE L’OCUPACIÓ","fechaRecepcion":"2026-05-05","nivel1":"LOCAL","nivel2":"POBLA DE MAFUMET, LA","nivel3":"AYUNTAMIENTO DE LA POBLA DE MAFUMET","codigoInvente":null},{"id":1105015,"mrr":false,"numeroConvocatoria":"903454","descripcion":"CONVOCATORIA DE SUBVENCIONES EN CONCURRENCIA COMPETITIVA “SER JOVE, PROYECTOS JÓVENES” 2026","descripcionLeng":"Convocatòria de subvencions en concurrència competitiva “Ser Jove: projectes joves\" 2026","fechaRecepcion":"2026-05-05","nivel1":"LOCAL","nivel2":"QUART DE POBLET","nivel3":"AYUNTAMIENTO DE QUART DE POBLET","codigoInvente":null},{"id":1105008,"mrr":false,"numeroConvocatoria":"903447","descripcion":"Acuerdo de Junta de Gobierno de 29 de abril de 2026, punto 4.4.1., de aprobación de la Convocatoria de subvenciones a entidades del Tercer Sector de Acción Social para la ejecución de proyectos de atención a la ciudadanía, ejercicio 2026.","descripcionLeng":null,"fechaRecepcion":"2026-05-05","nivel1":"LOCAL","nivel2":"DIPUTACIÓN PROV. DE MÁLAGA","nivel3":"DIPUTACIÓN PROVINCIAL DE MÁLAGA","codigoInvente":null},{"id":1105006,"mrr":false,"numeroConvocatoria":"903445","descripcion":"Convocatoria pública para el otorgamiento de las ayudas para la adquisición de vehículos nuevos y transformación a vehículos de taxi accesibles del año 2026.","descripcionLeng":"Convocatòria pública per l'atorgament dels ajuts per a l'adquisició de vehicles nous i transformació a vehicles de taxi accessibles de l'any 2026.","fechaRecepcion":"2026-05-05","nivel1":"LOCAL","nivel2":"SABADELL","nivel3":"AJUNTAMENT DE SABADELL","codigoInvente":null},{"id":1105005,"mrr":false,"numeroConvocatoria":"903444","descripcion":"BEQUES PER A ACTIVITATS D`ESTIU 2026","descripcionLeng":null,"fechaRecepcion":"2026-05-05","nivel1":"LOCAL","nivel2":"ROCA DEL VALLÈS, LA","nivel3":"AYUNTAMIENTO DE ROCA DEL VALLÈS, LA","codigoInvente":null},{"id":1105000,"mrr":false,"numeroConvocatoria":"903439","descripcion":"BASES REGULADORAS Y CONVOCATORIA PARA LA CONCESIÓN DE SUBVENCIONES EN RÉGIMEN DE CONCURRENCIA COMPETITIVA DE PAGO ÚNICO POR NACIMIENTO Y/O ADOPCIÓN DE HIJO/A DURANTE EL EJERCICIO 2026","descripcionLeng":null,"fechaRecepcion":"2026-05-05","nivel1":"LOCAL","nivel2":"CIUDAD RODRIGO","nivel3":"AYUNTAMIENTO DE CIUDAD RODRIGO","codigoInvente":null},{"id":1104998,"mrr":false,"numeroConvocatoria":"903437","descripcion":"JUNTA DE GOBIERNO DE 28/04/20236 QUE APRUEBA LA CONVOCATORIA DE SUBVENCIONES DIRIGIDA A TRABAJADORES AUTÓNOMOS DEL SECTOR DE LA RESINA EN LA PROVINCIA DE GUADALAJARA","descripcionLeng":null,"fechaRecepcion":"2026-05-05","nivel1":"LOCAL","nivel2":"DIPUTACIÓN PROV. DE GUADALAJARA","nivel3":"DIPUTACIÓN PROVINCIAL DE GUADALAJARA","codigoInvente":null},{"id":1104994,"mrr":false,"numeroConvocatoria":"903433","descripcion":"SGBA - CONVOCATORIA BECAS SEGUNDA OPORTUNIDAD 2026/2027","descripcionLeng":null,"fechaRecepcion":"2026-05-05","nivel1":"AUTONOMICA","nivel2":"COMUNIDAD DE MADRID","nivel3":"CONSEJERÍA DE EDUCACIÓN, CIENCIA Y UNIVERSIDADES","codigoInvente":null},{"id":1104990,"mrr":false,"numeroConvocatoria":"903429","descripcion":"CONVOCATORIA PARA LA CONCESIÓN DE UNA AYUDA ECONÓMICA COMPLEMENTARIA A LAS PERSONAS JÓVENES UNIVERSITARIAS DE QUART DE POBLET QUE SE DESPLACEN PARA LA REALIZACIÓN DE ESTUDIOS\nUNIVERSITARIOS Y PRÁCTICAS FORMATIVAS EN EL EXTRANJERO, ERASMUS 2026","descripcionLeng":"CONVOCATÒRIA PER A LA CONCESSIÓ D'UNA AJUDA ECONÒMICA COMPLEMENTÀRIA A LES PERSONES JOVES UNIVERSITÀRIES DE QUART DE POBLET QUE ES DESPLACEN PER A DUR A TERME ESTUDIS UNIVERSITARIS I PRÀCTIQUES FORMATIVES A L'ESTRANGER, ERASMUS 2026","fechaRecepcion":"2026-05-05","nivel1":"LOCAL","nivel2":"QUART DE POBLET","nivel3":"AYUNTAMIENTO DE QUART DE POBLET","codigoInvente":null},{"id":1104989,"mrr":false,"numeroConvocatoria":"903428","descripcion":"PREMIOS XX CONCURSO COREOGRAFÍAS 2025","descripcionLeng":null,"fechaRecepcion":"2026-05-05","nivel1":"LOCAL","nivel2":"PINÓS, EL/PINOSO","nivel3":"AYUNTAMIENTO DE PINÓS, EL/PINOSO","codigoInvente":null},{"id":1104988,"mrr":false,"numeroConvocatoria":"903427","descripcion":"JUNTA DE GOBIERNO DE 28/04/2026 QUE APRUEBA CONVOCATORIA DE SUBVENCIONES A CLUBES DEPORTIVOS DE LA PROVINCIA DE GUADALAJARA PARA LA REALIZACIÓN DE ACTIVIDADES Y EVENTOS DEPORTIVOS","descripcionLeng":null,"fechaRecepcion":"2026-05-05","nivel1":"LOCAL","nivel2":"DIPUTACIÓN PROV. DE GUADALAJARA","nivel3":"DIPUTACIÓN PROVINCIAL DE GUADALAJARA","codigoInvente":null},{"id":1104987,"mrr":false,"numeroConvocatoria":"903426","descripcion":"Subvenciones para la promoción de viviendas colaborativas","descripcionLeng":null,"fechaRecepcion":"2026-05-05","nivel1":"AUTONOMICA","nivel2":"COMUNIDAD FORAL DE NAVARRA","nivel3":"DEPARTAMENTO DE VIVIENDA, JUVENTUD Y POLÍTICAS MIGRATORIAS","codigoInvente":null},{"id":1104982,"mrr":false,"numeroConvocatoria":"903421","descripcion":"CONVOCATORIA PARA LA 41 EDICIÓN DE MOSTRA DE VALÈNCIA-CINEMA DEL MEDITERRANI","descripcionLeng":"CONVOCATÒRIA PER A LA 41 EDICIÓ DE MOSTRA DE VALÈNCIA-CINEMA DEL MEDITERRANI\n","fechaRecepcion":"2026-05-05","nivel1":"LOCAL","nivel2":"VALENCIA","nivel3":"PALAU DE LA MÚSICA, CONGRESOS Y ORQUESTA DE VALENCIA","codigoInvente":null},{"id":1104981,"mrr":false,"numeroConvocatoria":"903420","descripcion":"Resolución Rector URJC bases reguladoras de la convocatoria para participar en el programa intensivo combinado (BIP) “Sustainable Food Value Chain Transition” coordinado la\nLappeenranta-Lahti University of Technology dentro del programa erasmus+ 2025/2026","descripcionLeng":null,"fechaRecepcion":"2026-05-05","nivel1":"OTROS","nivel2":"UNIVERSIDAD REY JUAN CARLOS","nivel3":null,"codigoInvente":"INV00005374"},{"id":1104972,"mrr":false,"numeroConvocatoria":"903411","descripcion":"Convocatoria 2026de ayudas a entidades locales de Navarra para la realización de inversiones para la creación o ampliación de centros de acogida de animales de compañía.","descripcionLeng":null,"fechaRecepcion":"2026-05-05","nivel1":"AUTONOMICA","nivel2":"COMUNIDAD FORAL DE NAVARRA","nivel3":"DEPARTAMENTO DE DESARROLLO RURAL Y MEDIO AMBIENTE","codigoInvente":null},{"id":1104970,"mrr":false,"numeroConvocatoria":"903409","descripcion":"CONVOCATORIA PARA LA CONCESIÓN DE SUBVENCIONES PARA LA REHABILITACIÓN DE VIVIENDAS PARA EL AÑO 2024 (2ª CONVOCATORIA)","descripcionLeng":null,"fechaRecepcion":"2026-05-05","nivel1":"LOCAL","nivel2":"FASNIA","nivel3":"AYUNTAMIENTO DE FASNIA","codigoInvente":null},{"id":1104961,"mrr":false,"numeroConvocatoria":"903400","descripcion":"Resolución Universidad Rey Juan Carlos convocatoria (BIP) “Victims of Sexual Offences as “Third” and Vulnerable Parties in Criminal Proceedings: European, Italian and Spanish Perspectives\" coordinado Universidad de Palermo, programa Erasmus+ 2025/2026","descripcionLeng":null,"fechaRecepcion":"2026-05-05","nivel1":"OTROS","nivel2":"UNIVERSIDAD REY JUAN CARLOS","nivel3":null,"codigoInvente":"INV00005374"},{"id":1104960,"mrr":false,"numeroConvocatoria":"903399","descripcion":"Convocatoria de 30 prácticas para estudiantes de la Universidad de Murcia dentro del programa «Campus rural: prácticas universitarias en entornos rurales». Año 2026.","descripcionLeng":null,"fechaRecepcion":"2026-05-05","nivel1":"OTROS","nivel2":"UNIVERSIDAD DE MURCIA","nivel3":null,"codigoInvente":"INV00005346"},{"id":1104955,"mrr":false,"numeroConvocatoria":"903394","descripcion":"CONVOCATORIA PARA LA CONCESIÓN DE SUBVENCIONES EN MATERIA DE AYUDAS INDIVIDUALES A PERSONAS MAYORES Y\nPERSONAS CON DISCAPACIDAD AÑO 2026","descripcionLeng":null,"fechaRecepcion":"2026-05-05","nivel1":"LOCAL","nivel2":"FASNIA","nivel3":"AYUNTAMIENTO DE FASNIA","codigoInvente":null},{"id":1104954,"mrr":false,"numeroConvocatoria":"903393","descripcion":"Convocatoria de ayudas económicas para estudiantes del Máster Universitario en Producción y Gestión Artística de la Universidad de Murcia, curso 2025-2026","descripcionLeng":null,"fechaRecepcion":"2026-05-05","nivel1":"OTROS","nivel2":"UNIVERSIDAD DE MURCIA","nivel3":null,"codigoInvente":"INV00005346"},{"id":1104951,"mrr":false,"numeroConvocatoria":"903390","descripcion":"Decreto de 6 de mayo de 2026 de la concejala delegada de Juventud del Ayuntamiento de Castellón de la Plana por el que se aprueban las bases reguladoras y convocatoria para la concesión de premios de los concursos de Juventud 2026","descripcionLeng":"Decret de 6 de maig de 2026 de la regidora delegada de Joventut de l'Ajuntament de Castelló de la Plana pel qual s'aproven les bases reguladores i convocatòria per a la concessió de premis dels concursos de Joventut 2026","fechaRecepcion":"2026-05-05","nivel1":"LOCAL","nivel2":"CASTELLÓN DE LA PLANA/CASTELLÓ DE LA PLANA","nivel3":"AYUNTAMIENTO DE CASTELLÓN DE LA PLANA/CASTELLÓ DE LA PLANA","codigoInvente":null},{"id":1104946,"mrr":false,"numeroConvocatoria":"903385","descripcion":"ORDEN BSF/…/2026, por la que se hace pública la convocatoria de subvenciones destinadas a fines de interés social en la Comunidad Autónoma de Aragón, con cargo a la asignación tributaria del 0,7% del IRPF y del impuesto de Sociedades, 2026.","descripcionLeng":null,"fechaRecepcion":"2026-05-05","nivel1":"AUTONOMICA","nivel2":"ARAGÓN","nivel3":"SECRETARÍA GENERAL TÉCNICA DEL DEPARTAMENTO DE BIENESTAR SOCIAL Y FAMILIA","codigoInvente":null},{"id":1104944,"mrr":false,"numeroConvocatoria":"903383","descripcion":"Convocatoria de ayudas al estudio del programa «Becas Santander / ayuda económica 2026» para estudiantes matriculados en estudios oficiales en la Universidad de Murcia en el curso académico 2026/2027","descripcionLeng":null,"fechaRecepcion":"2026-05-05","nivel1":"OTROS","nivel2":"UNIVERSIDAD DE MURCIA","nivel3":null,"codigoInvente":"INV00005346"},{"id":1104941,"mrr":false,"numeroConvocatoria":"903380","descripcion":"CONVENIO ECOVALIA CONCURSOS 'ECOTRAMA Y ECORACIMO'","descripcionLeng":null,"fechaRecepcion":"2026-05-05","nivel1":"LOCAL","nivel2":"DIPUTACIÓN PROV. DE CÓRDOBA","nivel3":"DIPUTACIÓN PROVINCIAL DE CÓRDOBA","codigoInvente":null},{"id":1104940,"mrr":false,"numeroConvocatoria":"903379","descripcion":"Convocatoria pública de subvenciones en régimen de concurrencia competitiva, destinadas a las Asociaciones de Comerciantes del Concejo de Siero.","descripcionLeng":null,"fechaRecepcion":"2026-05-05","nivel1":"LOCAL","nivel2":"SIERO","nivel3":"AYUNTAMIENTO DE SIERO","codigoInvente":null},{"id":1104934,"mrr":false,"numeroConvocatoria":"903373","descripcion":"Programa Retención del talento dirigido al alumnado de Formación Profesional del sistema educativo. Curso 2025/26.","descripcionLeng":null,"fechaRecepcion":"2026-05-05","nivel1":"LOCAL","nivel2":"SALAMANCA","nivel3":"AYUNTAMIENTO DE SALAMANCA","codigoInvente":null},{"id":1104933,"mrr":false,"numeroConvocatoria":"903372","descripcion":"Convocatoria de ayudas económicas en el marco del programa Erasmus+ Prácticas para estudiantes que realicen prácticas en la enseñanza de un idioma como lengua extranjera en centros de la Universidad de Murcia durante el curso 2026/2027","descripcionLeng":null,"fechaRecepcion":"2026-05-05","nivel1":"OTROS","nivel2":"UNIVERSIDAD DE MURCIA","nivel3":null,"codigoInvente":"INV00005346"},{"id":1104928,"mrr":false,"numeroConvocatoria":"903367","descripcion":"ORDEN 1740/2026 BECAS EXCELENCIA DEPORTIVA 25-26 (YA MATRICULADOS-EEAAS)","descripcionLeng":null,"fechaRecepcion":"2026-05-05","nivel1":"AUTONOMICA","nivel2":"COMUNIDAD DE MADRID","nivel3":"CONSEJERÍA DE EDUCACIÓN, CIENCIA Y UNIVERSIDADES","codigoInvente":null},{"id":1104926,"mrr":false,"numeroConvocatoria":"903365","descripcion":"ORDEN 1740/2026 BECAS EXC. DEPORTIVA 25-26 (YA MATRICULADOS-UNIVERSIDADES)","descripcionLeng":null,"fechaRecepcion":"2026-05-05","nivel1":"AUTONOMICA","nivel2":"COMUNIDAD DE MADRID","nivel3":"CONSEJERÍA DE EDUCACIÓN, CIENCIA Y UNIVERSIDADES","codigoInvente":null},{"id":1104925,"mrr":false,"numeroConvocatoria":"903364","descripcion":"ORDEN 1740/2026 BECAS EXC DEPORTIVA 25-26 (Inicio - Enseñanzas Artísticas)","descripcionLeng":null,"fechaRecepcion":"2026-05-05","nivel1":"AUTONOMICA","nivel2":"COMUNIDAD DE MADRID","nivel3":"CONSEJERÍA DE EDUCACIÓN, CIENCIA Y UNIVERSIDADES","codigoInvente":null},{"id":1104922,"mrr":false,"numeroConvocatoria":"903361","descripcion":"ORDEN 1740/2026 BECAS DE EXCELENCIA DEPORTIVA 25-26 (INICIO UNIVERSIDADES)","descripcionLeng":null,"fechaRecepcion":"2026-05-05","nivel1":"AUTONOMICA","nivel2":"COMUNIDAD DE MADRID","nivel3":"CONSEJERÍA DE EDUCACIÓN, CIENCIA Y UNIVERSIDADES","codigoInvente":null},{"id":1104914,"mrr":false,"numeroConvocatoria":"903353","descripcion":"Convocatoria de subvención destinada para Ayuda al desplazamiento a competiciones deportivas oficiales de carácter nacional e internacional dentro del periodo comprendido entre el 1 de enero de 2026 al 31 de mayo de 2026","descripcionLeng":null,"fechaRecepcion":"2026-05-05","nivel1":"LOCAL","nivel2":"CABILDO INSULAR DE TENERIFE","nivel3":"CABILDO INSULAR DE TENERIFE","codigoInvente":null},{"id":1104904,"mrr":false,"numeroConvocatoria":"903343","descripcion":"CONVOCATORIA DE SUBVENCIONES A PROYECTOS DE EDUCACIÓN PARA EL DESARROLLO 2026","descripcionLeng":null,"fechaRecepcion":"2026-05-05","nivel1":"LOCAL","nivel2":"CÓRDOBA","nivel3":"AYUNTAMIENTO DE CÓRDOBA","codigoInvente":null},{"id":1104900,"mrr":false,"numeroConvocatoria":"903339","descripcion":"Convocatoria de la subvención a los ayuntamientos de la provincia de menos de 20.000 habitantes que quieran tomar parte en la \"Campaña de Natación para Todos\" durante los meses de julio y agosto de 2026.","descripcionLeng":null,"fechaRecepcion":"2026-05-05","nivel1":"LOCAL","nivel2":"DIPUTACIÓN PROV. DE SALAMANCA","nivel3":"DIPUTACIÓN DE SALAMANCA","codigoInvente":null},{"id":1104897,"mrr":false,"numeroConvocatoria":"903336","descripcion":"Certámenes del Programa Cultural Art Jove 2026, con el objetivo de fomentar la participación libre y eficaz de los jóvenes de las Islas Baleares en el desarrollo de la cultura y potenciar su creatividad artístitica.","descripcionLeng":"Certàmens del Programa Cultural Art jove 2026, amb l'objectiu de fomentar la participació lliure i eficaç dels joves de les Illes Balears en el desenvolupament de la cultura i potenciar la creativitat artística","fechaRecepcion":"2026-05-05","nivel1":"AUTONOMICA","nivel2":"ILLES BALEARS","nivel3":"INSTITUTO BALEAR DE LA JUVENTUD","codigoInvente":"INV00003575"},{"id":1104896,"mrr":false,"numeroConvocatoria":"903335","descripcion":"Acuerdo del 23/04/2026 del Consejo de Gobierno Insular por el que se convoca Subv. para contratación de doctores y doctoras para la realización de proyectos de prueba de alto potencial económico y transferencia de conocimiento, denominada \"Talentum Plus\".","descripcionLeng":null,"fechaRecepcion":"2026-05-05","nivel1":"LOCAL","nivel2":"CABILDO INSULAR DE TENERIFE","nivel3":"CABILDO INSULAR DE TENERIFE","codigoInvente":null}],"pageable":{"sort":{"sorted":true,"unsorted":false,"empty":false},"pageNumber":30,"pageSize":50,"offset":1500,"unpaged":false,"paged":true},"last":false,"totalElements":10000,"totalPages":200,"first":false,"sort":{"sorted":true,"unsorted":false,"empty":false},"numberOfElements":50,"size":50,"number":30,"empty":false,"advertencia":"La reutilización de los datos del Sistema Nacional de Publicidad de Subvenciones y Ayudas Públicas está sujeta a una serie de restricciones y consideraciones legales. Consulte el aviso legal en https://www.infosubvenciones.es/bdnstrans/GE/es/avisolegal.Además, el usuario debe ser consciente que la información presentada es de naturaleza dinámica, y que los datos pueden ser sometidos a correcciones, inserciones, modificaciones y eliminaciones en momentos posteriores a su extracción. Accesos al API del sistema Nacional de Publicidad de Subvenciones y Ayudas Públicas. La Administración Presupuestaria, para salvaguardar la protección del acceso libre e irrestricto de los ciudadanos a este Portal y a su información podrá adoptar medidas restrictivas de acceso al API ante situaciones de manifiesto abuso del servicio, riesgos de seguridad, o uso fraudulento de la información descargada, de acuerdo con las buenas prácticas de gestión de datos abiertos (https://datos.gob.es/es/blog/limitaciones-la-consulta-de-una-api) establecidas por el Ministerio para la Transformación Digital y de la Función Pública."}