{"content":[{"id":1118812,"mrr":false,"numeroConvocatoria":"917251","descripcion":"CONCESIÓN DE SUBVENCIONES A ASOCIACIONES DE VECINOS/AS Y COLECTIVOS SOCIALES, DIRIGIDAS A LA REALIZACIÓN DE PROYECTOS Y ACTUACIONES QUE FOMENTEN LA PROMOCIÓN DEL MOVIMIENTO ASOCIATIVO VECINAL Y LA PARTICIPACIÓN CIUDADANA, EJERCICIO 2026.","descripcionLeng":null,"fechaRecepcion":"2026-07-03","nivel1":"LOCAL","nivel2":"INGENIO","nivel3":"AYUNTAMIENTO DE INGENIO","codigoInvente":null},{"id":1118811,"mrr":false,"numeroConvocatoria":"917250","descripcion":"Convocatoria pública de subvenciones destinadas a entidades sin ánimo de lucro que desarrollen, en la ciudad de Madrid, proyectos dirigidos a la mejora de la empleabilidad e inserción sociolaboral de personas desempleadas mayores de 45 años. Años 2026-202","descripcionLeng":null,"fechaRecepcion":"2026-07-03","nivel1":"LOCAL","nivel2":"MADRID","nivel3":"AGENCIA PARA EL EMPLEO","codigoInvente":"INV00000123"},{"id":1118810,"mrr":false,"numeroConvocatoria":"917249","descripcion":"Convocatoria pública de subvenciones destinadas a entidades sin ánimo de lucro que desarrollen, en la ciudad de Madrid, proyectos dirigidos a la mejora de la empleabilidad e inserción sociolaboral de personas jóvenes menores de 30 años. Años 2026-2027","descripcionLeng":null,"fechaRecepcion":"2026-07-03","nivel1":"LOCAL","nivel2":"MADRID","nivel3":"AGENCIA PARA EL EMPLEO","codigoInvente":"INV00000123"},{"id":1118808,"mrr":false,"numeroConvocatoria":"917247","descripcion":"XIV EDICION DEL FESTIVAL DE CORTOMETRAJES DE DIPUTACION PROVINCIAL DE JAEN  CONTRA LA VIOLENCIA DE GENERO 2026","descripcionLeng":null,"fechaRecepcion":"2026-07-03","nivel1":"LOCAL","nivel2":"DIPUTACIÓN PROV. DE JAÉN","nivel3":"DIPUTACIÓN PROVINCIAL DE JAÉN","codigoInvente":null},{"id":1118804,"mrr":false,"numeroConvocatoria":"917243","descripcion":"Concesión de subvenciones a los ayuntamientos metropolitanos para la redacción de planes de movilidad urbana sostenible o de estudios de movilidad urbana sostenible dentro del ámbito territorial del área metropolitana de Barcelona. (Exp.904300/2026).","descripcionLeng":"Concessió de subvencions als ajuntaments metropolitans per a la redacció de plans de mobilitat urbana sostenible o d’estudis de mobilitat urbana sostenible dins l’àmbit territorial de l’àrea metropolitana de Barcelona. (Exp.904300/2026)","fechaRecepcion":"2026-07-03","nivel1":"LOCAL","nivel2":"AREA METROPOLITANA DE BARCELONA","nivel3":"ÀREA METROPOLITANA DE BARCELONA","codigoInvente":null},{"id":1118798,"mrr":false,"numeroConvocatoria":"917237","descripcion":"CONVOCATORIA DEL AÑO 2026 PARA LA CONCESIÓN DE SUBVENCIONES DE BONO-DESCUENTOS “SOPELAN… PUNTUZ PUNTU!”","descripcionLeng":"\"SOPELAN... PUNTUZ PUNTU!\" DESKONTU-BONUAK EMATEKO 2026. URTEKO DEIALDIA, SOPELAN KONTSUMOA SUSTATZEKO","fechaRecepcion":"2026-07-03","nivel1":"LOCAL","nivel2":"SOPELA","nivel3":"AYUNTAMIENTO DE SOPELA","codigoInvente":null},{"id":1118793,"mrr":false,"numeroConvocatoria":"917232","descripcion":"Realización de las actividades deportivas y actos que tengan un impacto significativo en el conjunto del sistema deportivo en Cataluña o de relevancia social e histórica, ejecutados durante el año 2026","descripcionLeng":"Realització de les activitats esportives i actes que tinguin un impacte significatiu en el conjunt del sistema esportiu a Catalunya o de rellevància social i històrica, executats durant l'any 2026","fechaRecepcion":"2026-07-03","nivel1":"AUTONOMICA","nivel2":"CATALUÑA","nivel3":"CONSELL CATALÀ DE L'ESPORT","codigoInvente":"INV00001303"},{"id":1118791,"mrr":false,"numeroConvocatoria":"917230","descripcion":"CONVOCATORIA PARA EL OTORGAMIENTO DE SUBVENCIONES EN RÉGIMEN DE CONCURRENCIA COMPETITIVA DIRIGIDAS AL FOMENTO DE LA ACTIVIDAD FÍSICA Y EL DEPORTE (EXP. 28822/2026)","descripcionLeng":"CONVOCATÒRIA PER A L'ATORGAMENT DE SUBVENCIONS EN RÈGIM DE CONCURRÈNCIA COMPETITIVA ADREÇADES AL FOMENT DE L'ACTIVITAT FÍSICA I L'ESPORT (EXP. 28822/2026)","fechaRecepcion":"2026-07-03","nivel1":"LOCAL","nivel2":"SANT CUGAT DEL VALLÈS","nivel3":"AYUNTAMIENTO DE SANT CUGAT DEL VALLÈS","codigoInvente":null},{"id":1118789,"mrr":false,"numeroConvocatoria":"917228","descripcion":"Convocatoria de subvenciones para realizar proyectos artísticos y culturales con finalidad educativa que vinculen equipamientos culturales con centros educativos de Cataluña","descripcionLeng":"Convocatòria de subvencions per realitzar projectes artístics i culturals amb finalitat educativa que vinculin equipaments culturals amb centres educatius de Catalunya","fechaRecepcion":"2026-07-03","nivel1":"AUTONOMICA","nivel2":"CATALUÑA","nivel3":"OFICINA DE SUPORT A LA INICIATIVA CULTURAL","codigoInvente":null},{"id":1118787,"mrr":false,"numeroConvocatoria":"917226","descripcion":"Atención educativa domiciliaria del alumnado enfermo o convaleciente escolarizado en los centros concertados de la CF de Navarra para el curso 2026-2027","descripcionLeng":null,"fechaRecepcion":"2026-07-03","nivel1":"AUTONOMICA","nivel2":"COMUNIDAD FORAL DE NAVARRA","nivel3":"DEPARTAMENTO DE EDUCACION","codigoInvente":null},{"id":1118786,"mrr":false,"numeroConvocatoria":"917225","descripcion":"Resolución de 3 de julio de 2026, de FPE convocatoria general 2026, Línea 4: Ofertas de formación profesional de Grados B dirigidas a personas trabajadoras ocupadas, en modalidad virtual","descripcionLeng":null,"fechaRecepcion":"2026-07-03","nivel1":"AUTONOMICA","nivel2":"ANDALUCÍA","nivel3":"CONSEJERÍA DE EMPLEO, EMPRESA Y TRABAJO AUTÓNOMO","codigoInvente":null},{"id":1118783,"mrr":false,"numeroConvocatoria":"917222","descripcion":"Resolución de 3 de julio de 2026, de FPE convocatoria general 2026 Línea 3: Ofertas de formación profesional de Grados B y C para personas trabajadoras desempleadas, en modalidad presencial y virtual","descripcionLeng":null,"fechaRecepcion":"2026-07-03","nivel1":"AUTONOMICA","nivel2":"ANDALUCÍA","nivel3":"CONSEJERÍA DE EMPLEO, EMPRESA Y TRABAJO AUTÓNOMO","codigoInvente":null},{"id":1118782,"mrr":false,"numeroConvocatoria":"917221","descripcion":"Resolución de 3 de julio de 2026, de FPE convocatoria general 2026 Línea 2 Personas ocupadas: Ofertas formativas de formación en el trabajo para personas trabajadoras ocupadas, en modalidad de teleformación","descripcionLeng":null,"fechaRecepcion":"2026-07-03","nivel1":"AUTONOMICA","nivel2":"ANDALUCÍA","nivel3":"CONSEJERÍA DE EMPLEO, EMPRESA Y TRABAJO AUTÓNOMO","codigoInvente":null},{"id":1118781,"mrr":false,"numeroConvocatoria":"917220","descripcion":"CONVOCATORIA DEL 37º PREMIO NACIONAL \"SALAMANCA\" DE FOTOGRAFÍA AGRÍCOLA Y GANADERA.","descripcionLeng":null,"fechaRecepcion":"2026-07-03","nivel1":"LOCAL","nivel2":"DIPUTACIÓN PROV. DE SALAMANCA","nivel3":"DIPUTACIÓN DE SALAMANCA","codigoInvente":null},{"id":1118779,"mrr":false,"numeroConvocatoria":"917218","descripcion":"Resolución de 3 de julio de 2026, de FPE convocatoria general 2026 Línea 2 Personas desempleadas: Ofertas formativas de formación en el trabajo para personas trabajadoras desempleadas, en modalidad de teleformación","descripcionLeng":null,"fechaRecepcion":"2026-07-03","nivel1":"AUTONOMICA","nivel2":"ANDALUCÍA","nivel3":"CONSEJERÍA DE EMPLEO, EMPRESA Y TRABAJO AUTÓNOMO","codigoInvente":null},{"id":1118775,"mrr":false,"numeroConvocatoria":"917214","descripcion":"\"II Premios Nacionales a Experiencias Educativas que fomentan la Competencia Digital del alumnado\"","descripcionLeng":null,"fechaRecepcion":"2026-07-03","nivel1":"ESTADO","nivel2":"MINISTERIO DE EDUCACIÓN, FORMACIÓN PROFESIONAL Y DEPORTES","nivel3":"DIRECCIÓN GENERAL DE EVALUACIÓN Y COOPERACIÓN TERRITORIAL","codigoInvente":null},{"id":1118774,"mrr":false,"numeroConvocatoria":"917213","descripcion":"Resolución de 3 de julio de 2026, de FPE convocatoria general 2026 Línea 1: Ofertas formativas de formación en el trabajo para personas trabajadoras desempleadas, en modalidad presencial","descripcionLeng":null,"fechaRecepcion":"2026-07-03","nivel1":"AUTONOMICA","nivel2":"ANDALUCÍA","nivel3":"CONSEJERÍA DE EMPLEO, EMPRESA Y TRABAJO AUTÓNOMO","codigoInvente":null},{"id":1118769,"mrr":false,"numeroConvocatoria":"917208","descripcion":"CONVOCATORIA DEL CIRCUITO PROVINCIAL DE AJEREZ, “XXX MEMORIAL MIGUEL BOOTELLO” CON OTORGAMIENTO DE PREMIOS","descripcionLeng":null,"fechaRecepcion":"2026-07-03","nivel1":"LOCAL","nivel2":"ÁLORA","nivel3":"AYUNTAMIENTO DE ÁLORA","codigoInvente":null},{"id":1118765,"mrr":false,"numeroConvocatoria":"917204","descripcion":"Convenio de colaboración entre el Consell Insular de Formentera y el Obispado de Eivissa para dotar de personal de vigilancia la iglesia de Sant Francesc Xavier y el Fossar Vell para el año 2026","descripcionLeng":null,"fechaRecepcion":"2026-07-03","nivel1":"LOCAL","nivel2":"FORMENTERA","nivel3":"AYUNTAMIENTO DE FORMENTERA","codigoInvente":null},{"id":1118764,"mrr":false,"numeroConvocatoria":"917203","descripcion":"Orden del 22 de junio de 2026 por la que se establecen las bases reguladoras para la concesión de ayudas para el sector editorial galego, relativas a los gastos a la producción editorial literaria para los ejercicios 2026 y 2027 ","descripcionLeng":null,"fechaRecepcion":"2026-07-03","nivel1":"AUTONOMICA","nivel2":"GALICIA","nivel3":"CONSELLERÍA DE CULTURA, LENGUA Y JUVENTUD","codigoInvente":null},{"id":1118763,"mrr":false,"numeroConvocatoria":"917202","descripcion":"CONVOCATORIA SUBVENCIONES INDUMENTARISTAS Y ORFEBRES","descripcionLeng":null,"fechaRecepcion":"2026-07-03","nivel1":"LOCAL","nivel2":"VALENCIA","nivel3":"AYUNTAMIENTO DE VALENCIA","codigoInvente":null},{"id":1118762,"mrr":false,"numeroConvocatoria":"917201","descripcion":"RESOLUCIÓN DEL INSTITUTO NACIONAL DE ADMINISTRACIÓN PÚBLICA O.A. POR LA QUE SE CONVOCA UNA BECA INAP-FULBRIGHT DE FORMACIÓN Y PERFECCIONAMIENTO PROFESIONAL EN LOS ESTADOS UNIDOS DE AMÉRICA PARA EL CURSO ACADÉMICO 2027-2028.","descripcionLeng":null,"fechaRecepcion":"2026-07-03","nivel1":"ESTADO","nivel2":"MINISTERIO PARA LA TRANSFORMACIÓN DIGITAL Y DE LA FUNCIÓN PÚBLICA","nivel3":"INSTITUTO NACIONAL DE ADMINISTRACIÓN PÚBLICA","codigoInvente":"INV00003728"},{"id":1118760,"mrr":false,"numeroConvocatoria":"917199","descripcion":"AYUDAS MUNICIPALES A LOS MERCADOS DE DISTRITO DEL GRAO Y MOSEN SORELL 2026","descripcionLeng":null,"fechaRecepcion":"2026-07-03","nivel1":"LOCAL","nivel2":"VALENCIA","nivel3":"AYUNTAMIENTO DE VALENCIA","codigoInvente":null},{"id":1118756,"mrr":false,"numeroConvocatoria":"917195","descripcion":"Convocatoria de Ayudas a Proyectos de Cooperación al Desarrollo. Año 2026","descripcionLeng":null,"fechaRecepcion":"2026-07-03","nivel1":"LOCAL","nivel2":"DIPUTACIÓN PROV. DE CIUDAD REAL","nivel3":"DIPUTACIÓN PROVINCIAL DE CIUDAD REAL","codigoInvente":null},{"id":1118753,"mrr":false,"numeroConvocatoria":"917192","descripcion":"CONVOCATORIA PÚBLICA DE SUBVENCIONES PARA EL APOYO AL AUTÓNOMO DE ZARAGOZA EN EL INICIO Y RELEVO DE ACTIVIDAD 2026","descripcionLeng":null,"fechaRecepcion":"2026-07-03","nivel1":"LOCAL","nivel2":"ZARAGOZA","nivel3":"AYUNTAMIENTO DE ZARAGOZA","codigoInvente":null},{"id":1118751,"mrr":false,"numeroConvocatoria":"917190","descripcion":"BASES CARROZAS SEPTIEMBRE 2026","descripcionLeng":null,"fechaRecepcion":"2026-07-03","nivel1":"LOCAL","nivel2":"MOCEJÓN","nivel3":"AYUNTAMIENTO DE MOCEJÓN","codigoInvente":null},{"id":1118744,"mrr":false,"numeroConvocatoria":"917183","descripcion":"RESOLUCIÓN DE LA VICERRECTORA DE INVESTIGACIÓN DE LA UNIVERSIDAD DE OVIEDO PARA LA CONTRATACIÓN DE PERSONAL INVESTIGADOR Y TÉCNICO DE APOYO, SEGÚN ARTÍCULO 23.bis DE LA LEY 14/2011 DE LA CIENCIA, LA TECNOLOGÍA Y LA INNOVACIÓN (MAYO EXTRA1- 2026)","descripcionLeng":null,"fechaRecepcion":"2026-07-03","nivel1":"OTROS","nivel2":"UNIVERSIDAD DE OVIEDO","nivel3":null,"codigoInvente":"INV00005347"},{"id":1118738,"mrr":false,"numeroConvocatoria":"917177","descripcion":"CONVOCATORIA BOLSA DE VIAJE FARCAMA 2026","descripcionLeng":null,"fechaRecepcion":"2026-07-03","nivel1":"LOCAL","nivel2":"DIPUTACIÓN PROV. DE CUENCA","nivel3":"DIPUTACIÓN PROVINCIAL DE CUENCA","codigoInvente":null},{"id":1118737,"mrr":false,"numeroConvocatoria":"917176","descripcion":"Resolución del 3 de julio del 2026 del Rector por la que se convoca el Premio Complutense de Literatura 2026 para estimular y reconocer la creación literaria entre los estudiantes universitarios","descripcionLeng":null,"fechaRecepcion":"2026-07-03","nivel1":"OTROS","nivel2":"UNIVERSIDAD COMPLUTENSE DE MADRID","nivel3":null,"codigoInvente":"INV00005326"},{"id":1118735,"mrr":false,"numeroConvocatoria":"917174","descripcion":"Convocatoria para la concesión de ayudas individuales para comedor escolar, dirigidas al alumnado de primer y segundo ciclo de educación infantil y primaria de los centros educativos, y al alumnado infantil de primer ciclo de la Escuela infantil","descripcionLeng":null,"fechaRecepcion":"2026-07-03","nivel1":"LOCAL","nivel2":"ALCÀSSER","nivel3":"AYUNTAMIENTO DE ALCÀSSER","codigoInvente":null},{"id":1118733,"mrr":false,"numeroConvocatoria":"917172","descripcion":"IX CERTAMEN DE CORTOMETRAJES REYES ABADES","descripcionLeng":null,"fechaRecepcion":"2026-07-03","nivel1":"LOCAL","nivel2":"TORREJÓN DE ARDOZ","nivel3":"AYUNTAMIENTO DE TORREJÓN DE ARDOZ","codigoInvente":null},{"id":1118730,"mrr":false,"numeroConvocatoria":"917169","descripcion":"Convocatoria de Subvenciones de comercios afectados por oobras 2026","descripcionLeng":null,"fechaRecepcion":"2026-07-03","nivel1":"LOCAL","nivel2":"ZARAGOZA","nivel3":"AYUNTAMIENTO DE ZARAGOZA","codigoInvente":null},{"id":1118729,"mrr":false,"numeroConvocatoria":"917168","descripcion":"Convocatoria de subvenciones a Proyectos de Innovación Comercial 2026","descripcionLeng":null,"fechaRecepcion":"2026-07-03","nivel1":"LOCAL","nivel2":"ZARAGOZA","nivel3":"AYUNTAMIENTO DE ZARAGOZA","codigoInvente":null},{"id":1118728,"mrr":false,"numeroConvocatoria":"917167","descripcion":"Convocatoria de Becas de Colaboración propias financiadas por el Consejo Social para la Colaboración de Estudiantes de Grado y Máster con los Departamentos de la Universidad de Cádiz, curso 2026-2027.","descripcionLeng":null,"fechaRecepcion":"2026-07-03","nivel1":"OTROS","nivel2":"UNIVERSIDAD DE CÁDIZ","nivel3":null,"codigoInvente":"INV00005332"},{"id":1118726,"mrr":false,"numeroConvocatoria":"917165","descripcion":"Bases reguladoras Programa adquisición de competencias profesionais en materia de internacionalización empresarial, concorrencia competitiva.","descripcionLeng":null,"fechaRecepcion":"2026-07-03","nivel1":"AUTONOMICA","nivel2":"GALICIA","nivel3":"INSTITUTO GALLEGO DE PROMOCIÓN ECONÓMICA (IGAPE)","codigoInvente":"INV00003714"},{"id":1118721,"mrr":false,"numeroConvocatoria":"917160","descripcion":"Convocatoria de subvenciones para la realización de proyectos y actividades culturales y deportivas con el alumnado por parte de Asociaciones de Madres y Padres de Alumnado de centros docentes de Muskiz en 2026","descripcionLeng":"Muskizko ikastetxeetako Guraso Elkarteek 2026 urtean ikasleekin kultur eta kirol egitasmo zein jarduerak burutzeko diru-laguntza deialdia","fechaRecepcion":"2026-07-03","nivel1":"LOCAL","nivel2":"MUSKIZ","nivel3":"AYUNTAMIENTO DE MUSKIZ","codigoInvente":null},{"id":1118720,"mrr":false,"numeroConvocatoria":"917159","descripcion":"Resolución de fecha 02 de julio de 2026 de Presidencia por la que se convoca la subvención para financiar la adquisición de material  escolar para el alumnado que curse educación primaria obligatoria en el colegio público de Fresno el Viejo.","descripcionLeng":null,"fechaRecepcion":"2026-07-03","nivel1":"LOCAL","nivel2":"FRESNO EL VIEJO","nivel3":"AYUNTAMIENTO DE FRESNO EL VIEJO","codigoInvente":null},{"id":1118716,"mrr":false,"numeroConvocatoria":"917155","descripcion":"Convocatoria subvenciones en régimen de concurrencia competitiva\ndirigida a los Ayuntamientos de la Provincia de Ávila con más de 700 y menos de\n20.000 habitantes, para incentivar las actividades de ocio alternativo diseñadas con\nfinalidad preventiva.","descripcionLeng":null,"fechaRecepcion":"2026-07-03","nivel1":"LOCAL","nivel2":"DIPUTACIÓN PROV. DE AVILA","nivel3":"DIPUTACIÓN PROVINCIAL DE ÁVILA","codigoInvente":null},{"id":1118707,"mrr":false,"numeroConvocatoria":"917146","descripcion":"2023 BASES CONCURSO NARRATIVA CORTA","descripcionLeng":null,"fechaRecepcion":"2026-07-03","nivel1":"LOCAL","nivel2":"PINÓS, EL/PINOSO","nivel3":"AYUNTAMIENTO DE PINÓS, EL/PINOSO","codigoInvente":null},{"id":1118706,"mrr":false,"numeroConvocatoria":"917145","descripcion":"Resolución de alcaldía 2026-0076 por la que se aprueba la convocatoria de ayudas para los estudios musicales durante el curso 2025-2026","descripcionLeng":null,"fechaRecepcion":"2026-07-03","nivel1":"LOCAL","nivel2":"MURUZÁBAL","nivel3":"AYUNTAMIENTO DE MURUZÁBAL","codigoInvente":null},{"id":1118703,"mrr":false,"numeroConvocatoria":"917142","descripcion":"2023 CERTAMEN POESÍA MAXI BANEGAS","descripcionLeng":null,"fechaRecepcion":"2026-07-03","nivel1":"LOCAL","nivel2":"PINÓS, EL/PINOSO","nivel3":"AYUNTAMIENTO DE PINÓS, EL/PINOSO","codigoInvente":null},{"id":1118702,"mrr":false,"numeroConvocatoria":"917141","descripcion":"BASES Y CONVOCATORIA PARA LA CONCESIÓN DE SUBVENCIONES MUNICIPALES A LAS COMUNIDADES DE USUARIOS DE AGUAS DE CONSUMO DEL AYUNTAMIENTO DE PONTEAREAS PARA GASTO CORRIENTE DEL AÑO 2026","descripcionLeng":"BASES E CONVOCATORIA PARA A CONCESIÓN DE SUBVENCIÓNS MUNICIPAIS ÁS COMUNIDADES DE USUARIOS DE AUGAS DE CONSUMO DO CONCELLO DE PONTEAREAS PARA GASTO CORRENTE O ANO 2026","fechaRecepcion":"2026-07-03","nivel1":"LOCAL","nivel2":"PONTEAREAS","nivel3":"AYUNTAMIENTO DE PONTEAREAS","codigoInvente":null},{"id":1118692,"mrr":false,"numeroConvocatoria":"917131","descripcion":"Convocatoria Beca investigación en materia de patrimonio cultural del Consell Insular de Formentera","descripcionLeng":null,"fechaRecepcion":"2026-07-03","nivel1":"LOCAL","nivel2":"FORMENTERA","nivel3":"AYUNTAMIENTO DE FORMENTERA","codigoInvente":null},{"id":1118691,"mrr":false,"numeroConvocatoria":"917130","descripcion":"SUBV. SECCIONES SINDICALES 2026","descripcionLeng":null,"fechaRecepcion":"2026-07-03","nivel1":"LOCAL","nivel2":"SANTA PERPÈTUA DE MOGODA","nivel3":"AYUNTAMIENTO DE SANTA PERPÈTUA DE MOGODA","codigoInvente":null},{"id":1118688,"mrr":false,"numeroConvocatoria":"917127","descripcion":"Ayudas 2026 Premios Extremadura Empresarial según Resolución de 26 de junio de 2026 que las convoca","descripcionLeng":null,"fechaRecepcion":"2026-07-03","nivel1":"AUTONOMICA","nivel2":"EXTREMADURA","nivel3":"DIRECCIÓN GENERAL DE EMPRESA","codigoInvente":null},{"id":1118686,"mrr":false,"numeroConvocatoria":"917125","descripcion":"Convocatoria de subvenciones destinadas a la promoción y fomento del asociacionismo y participación ciudadana en actividades deportivas, correspondientes al ejercicio 2026","descripcionLeng":null,"fechaRecepcion":"2026-07-03","nivel1":"LOCAL","nivel2":"PIÉLAGOS","nivel3":"AYUNTAMIENTO DE PIÉLAGOS","codigoInvente":null},{"id":1118684,"mrr":false,"numeroConvocatoria":"917123","descripcion":"Convocatoria de Ayuda Transporte a Estudiantes que cursen enseñanzas postobligatorias y superiores no universitarias durante el curso 2025/2026","descripcionLeng":null,"fechaRecepcion":"2026-07-03","nivel1":"LOCAL","nivel2":"FUENGIROLA","nivel3":"AYUNTAMIENTO DE FUENGIROLA","codigoInvente":null},{"id":1118683,"mrr":false,"numeroConvocatoria":"917122","descripcion":"Convocatoria de subvenciones para el aprendizaje de euskera por parte de la ciudadanía de Muskiz durante el curso 2025-26","descripcionLeng":"Dirulaguntza deialdia, 2025-26 ikasturtean euskara ikasten aritu diren Muskizko herritarrentzako","fechaRecepcion":"2026-07-03","nivel1":"LOCAL","nivel2":"MUSKIZ","nivel3":"AYUNTAMIENTO DE MUSKIZ","codigoInvente":null},{"id":1118679,"mrr":false,"numeroConvocatoria":"917118","descripcion":"Ayudas destinadas a compensar las dificultades de recogida de la leche en explotaciones de ovino y caprino de alta montaña","descripcionLeng":null,"fechaRecepcion":"2026-07-03","nivel1":"AUTONOMICA","nivel2":"COMUNIDAD FORAL DE NAVARRA","nivel3":"DEPARTAMENTO DE DESARROLLO RURAL Y MEDIO AMBIENTE","codigoInvente":null},{"id":1118673,"mrr":false,"numeroConvocatoria":"917112","descripcion":"Convocatoria de subvenciones destinadas a la conservación y/o recuperación del patrimonio medioambiental, histórico, artístico y religioso correspondiente al ejercicio 2026","descripcionLeng":null,"fechaRecepcion":"2026-07-03","nivel1":"LOCAL","nivel2":"PIÉLAGOS","nivel3":"AYUNTAMIENTO DE PIÉLAGOS","codigoInvente":null}],"pageable":{"sort":{"sorted":true,"unsorted":false,"empty":false},"pageNumber":19,"pageSize":50,"offset":950,"unpaged":false,"paged":true},"last":false,"totalElements":10000,"totalPages":200,"sort":{"sorted":true,"unsorted":false,"empty":false},"first":false,"numberOfElements":50,"size":50,"number":19,"empty":false,"advertencia":"La reutilización de los datos del Sistema Nacional de Publicidad de Subvenciones y Ayudas Públicas está sujeta a una serie de restricciones y consideraciones legales. Consulte el aviso legal en https://www.infosubvenciones.es/bdnstrans/GE/es/avisolegal.Además, el usuario debe ser consciente que la información presentada es de naturaleza dinámica, y que los datos pueden ser sometidos a correcciones, inserciones, modificaciones y eliminaciones en momentos posteriores a su extracción. Accesos al API del sistema Nacional de Publicidad de Subvenciones y Ayudas Públicas. La Administración Presupuestaria, para salvaguardar la protección del acceso libre e irrestricto de los ciudadanos a este Portal y a su información podrá adoptar medidas restrictivas de acceso al API ante situaciones de manifiesto abuso del servicio, riesgos de seguridad, o uso fraudulento de la información descargada, de acuerdo con las buenas prácticas de gestión de datos abiertos (https://datos.gob.es/es/blog/limitaciones-la-consulta-de-una-api) establecidas por el Ministerio para la Transformación Digital y de la Función Pública."}