{"content":[{"id":1117742,"mrr":false,"numeroConvocatoria":"916181","descripcion":"ORDEN Consejera Economía, Competitividad y Empleo, por la que se aprueba para 2026, convocatoria subvenciones para el desarrollo de un Plan Wave Plus destinado a personas trabajadoras prioritariamente ocupadas de Aragón","descripcionLeng":null,"fechaRecepcion":"2026-06-30","nivel1":"AUTONOMICA","nivel2":"ARAGÓN","nivel3":"INSTITUTO ARAGONÉS DE EMPLEO (INAEM)","codigoInvente":"INV00003652"},{"id":1117735,"mrr":false,"numeroConvocatoria":"916174","descripcion":"Convocatoria de subvenciones para la ejecución de obras y para la adquisición y la instalación de equipamientos en los museos de Cataluña","descripcionLeng":"Convocatòria de subvencions per a l'execució d'obres i per a l'adquisició i la installació d'equipaments als museus de Catalunya","fechaRecepcion":"2026-06-30","nivel1":"AUTONOMICA","nivel2":"CATALUÑA","nivel3":"OFICINA DE SUPORT A LA INICIATIVA CULTURAL","codigoInvente":null},{"id":1117733,"mrr":false,"numeroConvocatoria":"916172","descripcion":"Convocatoria de subvenciones bienales para la mejora de las infraestructuras de los equipamientos culturales","descripcionLeng":"Convocatòria de subvencions biennals per a la millora de les infraestructures dels equipaments culturals","fechaRecepcion":"2026-06-30","nivel1":"AUTONOMICA","nivel2":"CATALUÑA","nivel3":"OFICINA DE SUPORT A LA INICIATIVA CULTURAL","codigoInvente":null},{"id":1117731,"mrr":false,"numeroConvocatoria":"916170","descripcion":"Resolución de la Presidencia del Consejo Superior de Deportes, por la que se convocan ayudas en 2026 para el fomento del asociacionismo en el fútbol.","descripcionLeng":null,"fechaRecepcion":"2026-06-30","nivel1":"ESTADO","nivel2":"MINISTERIO DE EDUCACIÓN, FORMACIÓN PROFESIONAL Y DEPORTES","nivel3":"CONSEJO SUPERIOR DE DEPORTES","codigoInvente":"INV00001300"},{"id":1117730,"mrr":false,"numeroConvocatoria":"916169","descripcion":"CONCESION DE AYUDAS AL NACIMIENTO, ADOPCIÓN O ACOGIMIENTO PRODUCIDOS EN ALCOBENDAS ENTRE EL 1 DE SEPTIEMBRE DE 2025 AL 31 DE AGOSTO DE 2026","descripcionLeng":null,"fechaRecepcion":"2026-06-30","nivel1":"LOCAL","nivel2":"ALCOBENDAS","nivel3":"AYUNTAMIENTO DE ALCOBENDAS","codigoInvente":null},{"id":1117728,"mrr":false,"numeroConvocatoria":"916167","descripcion":"Convocatoria de ayudas a personas afectadas por enfermedad celíaca o intolerancia al gluten para el año 2026.","descripcionLeng":null,"fechaRecepcion":"2026-06-30","nivel1":"LOCAL","nivel2":"JACA","nivel3":"AYUNTAMIENTO DE JACA","codigoInvente":null},{"id":1117725,"mrr":false,"numeroConvocatoria":"916164","descripcion":"CONVOCATORIA DE AYUDAS POR RENDIMIENTO DEPORTIVO A ESTUDIANTES DE LA UNIVERSIDAD DE ALICANTE, CURSO 2025/26","descripcionLeng":null,"fechaRecepcion":"2026-06-30","nivel1":"OTROS","nivel2":"UNIVERSIDAD DE ALICANTE","nivel3":null,"codigoInvente":"INV00005329"},{"id":1117724,"mrr":false,"numeroConvocatoria":"916163","descripcion":"Extracto de la Resolución de 17 de junio de 2026, del Director del Instituto de Fomento de la Región de Murcia,  de la convocatoria de tramitación anticipada de ayudas destinadas a fomentar la I+D empresarial en el marco de la Estrategia RIS4 R. de Murcia","descripcionLeng":null,"fechaRecepcion":"2026-06-30","nivel1":"AUTONOMICA","nivel2":"REGIÓN DE MURCIA","nivel3":"INSTITUTO DE FOMENTO DE LA REGIÓN DE MURCIA (INFO)","codigoInvente":"INV00003691"},{"id":1117723,"mrr":false,"numeroConvocatoria":"916162","descripcion":"Ayudas escolares para el curso 2025-2026 para los alumnos empadronados en el municipio de Guils de Cerdanya","descripcionLeng":"Ajuts escolars per al curs 2025-2026 per als alumnes empadronats al municipi de Guils de Cerdanya","fechaRecepcion":"2026-06-30","nivel1":"LOCAL","nivel2":"GUILS DE CERDANYA","nivel3":"AYUNTAMIENTO DE GUILS DE CERDANYA","codigoInvente":null},{"id":1117720,"mrr":false,"numeroConvocatoria":"916159","descripcion":"Premios de Investigación \"Doctora de Alcalá\" a la Excelencia Investigadora 2026","descripcionLeng":null,"fechaRecepcion":"2026-06-30","nivel1":"OTROS","nivel2":"UNIVERSIDAD DE ALCALÁ","nivel3":null,"codigoInvente":"INV00005328"},{"id":1117719,"mrr":false,"numeroConvocatoria":"916158","descripcion":"Ayudas Extremadura Avante a empresas para participación agrupada en la Misión Comercial italia 2026, según el Acuerdo de XX de junio de 2026 que las convoca.","descripcionLeng":null,"fechaRecepcion":"2026-06-30","nivel1":"AUTONOMICA","nivel2":"EXTREMADURA","nivel3":"EXTREMADURA AVANTE SERVICIOS AVANZADOS A PYMES, S.L.U.","codigoInvente":"INV00002179"},{"id":1117716,"mrr":false,"numeroConvocatoria":"916155","descripcion":"Convocatoria para la concesión de ayudas al fomento de la natalidad en el municipio de Sahagún para el segundo semestre del año 2025 y primer semestre del año 2026.","descripcionLeng":null,"fechaRecepcion":"2026-06-30","nivel1":"LOCAL","nivel2":"SAHAGÚN","nivel3":"AYUNTAMIENTO DE SAHAGÚN","codigoInvente":null},{"id":1117708,"mrr":false,"numeroConvocatoria":"916147","descripcion":"BASES REGULADORAS II CONCURSO DE MURALES DEL AYUNTAMIENTO DE O PINO 2026","descripcionLeng":"BASES REGULADORAS II CONCURSO DE MURAIS DO CONCELLO DE O PINO 2026","fechaRecepcion":"2026-06-30","nivel1":"LOCAL","nivel2":"PINO, O","nivel3":"AYUNTAMIENTO DE PINO, O","codigoInvente":null},{"id":1117696,"mrr":false,"numeroConvocatoria":"916135","descripcion":"CONVOCATORIA DE SUBVENCIONES MUNICIPALES A ORGANIZACIONES NO GUBERNAMENTALES QUE REALICEN ACTIVIDADES EN EL CAMPO DE LA COOPERACIÓN INTERNACIONAL PARA EL DESARROLLO EJERCICIO 2026","descripcionLeng":null,"fechaRecepcion":"2026-06-30","nivel1":"LOCAL","nivel2":"LENA","nivel3":"AYUNTAMIENTO DE LENA","codigoInvente":null},{"id":1117693,"mrr":false,"numeroConvocatoria":"916132","descripcion":"Resolución de 1 de julio, de la Subsecretaria de Defensa, por la que se aprueba la convocatoria de becas y ayudas para facilitar la\nobtención de titulaciones del sistema educativo español para el curso 2026-2027","descripcionLeng":null,"fechaRecepcion":"2026-06-30","nivel1":"ESTADO","nivel2":"MINISTERIO DE DEFENSA","nivel3":"D.G. DE RECLUTAMIENTO Y ENSEÑANZA MILITAR","codigoInvente":null},{"id":1117682,"mrr":false,"numeroConvocatoria":"916121","descripcion":"CONVOCATORIA CONCESION DE SUBVENCIONES MUNICIPALES A ENTIDADES QUE REALICEN ACTIVIDADES DE ACCIÓN SOCIAL Y MAYORES EN EL CONCEJO DE LENA. EJERCICIO 2026.","descripcionLeng":null,"fechaRecepcion":"2026-06-30","nivel1":"LOCAL","nivel2":"LENA","nivel3":"AYUNTAMIENTO DE LENA","codigoInvente":null},{"id":1117677,"mrr":false,"numeroConvocatoria":"916116","descripcion":"OF 4595/2026, de 25 de junio, de la DFB, por la que se aprueban las segundas convocatorias de las áreas 1, 2, 3 y 4 del programa de subvenciones Creación de Empresas Innovadoras para el año 2026. Área 4: Aceleración.","descripcionLeng":"BFAren 4595/2026 FA, ekainaren 25ekoa, 2026. urterako Enpresa Berritzaileak Sortzeko dirulaguntzen programako 1, 2, 3 eta 4 arloetako bigarren deialdiak onartzen dituena. 4. arloa: Azelerazioa.","fechaRecepcion":"2026-06-30","nivel1":"LOCAL","nivel2":"DIPUTACIÓN FORAL DE BIZKAIA","nivel3":"DIPUTACIÓN FORAL DE BIZKAIA","codigoInvente":null},{"id":1117676,"mrr":false,"numeroConvocatoria":"916115","descripcion":"OF 4595/2026, de 25 de junio, de la DFB, por la que se aprueban las segundas convocatorias de las áreas 1, 2, 3 y 4 del programa de subvenciones Creación de Empresas Innovadoras para el año 2026. Área 3: Dinamización del ecosistema de emprendimiento.","descripcionLeng":"BFAren 4595/2026 FA, ekainaren 25ekoa, 2026. urterako Enpresa Berritzaileak Sortzeko dirulaguntzen programako 1, 2, 3 eta 4 arloetako bigarren deialdiak onartzen dituena. 3. arloa: Ekintzailetza ekosistema sustatzea.","fechaRecepcion":"2026-06-30","nivel1":"LOCAL","nivel2":"DIPUTACIÓN FORAL DE BIZKAIA","nivel3":"DIPUTACIÓN FORAL DE BIZKAIA","codigoInvente":null},{"id":1117675,"mrr":false,"numeroConvocatoria":"916114","descripcion":"OF 4595/2026, de 25 de junio, de la DFB, por la que se aprueban las segundas convocatorias de las áreas 1, 2, 3 y 4 del programa de subvenciones Creación de Empresas Innovadoras para el año 2026. Área 2: Nuevas empresas innovadoras.","descripcionLeng":"BFAren 4595/2026 FA, ekainaren 25ekoa, 2026. urterako Enpresa Berritzaileak Sortzeko dirulaguntzen programako 1, 2, 3 eta 4 arloetako bigarren deialdiak onartzen dituena. 2. arloa: Enpresa berritzaile berriak.","fechaRecepcion":"2026-06-30","nivel1":"LOCAL","nivel2":"DIPUTACIÓN FORAL DE BIZKAIA","nivel3":"DIPUTACIÓN FORAL DE BIZKAIA","codigoInvente":null},{"id":1117674,"mrr":false,"numeroConvocatoria":"916113","descripcion":"OF 4595/2026, de 25 de junio, de la DFB, por la que se aprueban las segundas convocatorias de las áreas 1, 2, 3 y 4 del programa de subvenciones Creación de Empresas Innovadoras para el año 2026. Área 1: Desarrollo de proyectos empresariales innovadores.","descripcionLeng":"BFAren 4595/2026 FA, ekainaren 25ekoa, 2026. urterako Enpresa Berritzaileak Sortzeko dirulaguntzen programako 1, 2, 3 eta 4 arloetako bigarren deialdiak onartzen dituena. 1. arloa: Enpresa-proiektu berritzaileak garatzea.","fechaRecepcion":"2026-06-30","nivel1":"LOCAL","nivel2":"DIPUTACIÓN FORAL DE BIZKAIA","nivel3":"DIPUTACIÓN FORAL DE BIZKAIA","codigoInvente":null},{"id":1117672,"mrr":false,"numeroConvocatoria":"916111","descripcion":"CONVOCATÒRIA PARA LA CONCESIÓN DE SUBVENCIONES PARA LA PROMOCIÓM DEPORTIVA 2026","descripcionLeng":null,"fechaRecepcion":"2026-06-30","nivel1":"LOCAL","nivel2":"CALAFELL","nivel3":"AYUNTAMIENTO DE CALAFELL","codigoInvente":null},{"id":1117669,"mrr":false,"numeroConvocatoria":"916108","descripcion":"CONVOCATORIA PÚBLICA DE AYUDAS ECONÓMICAS\nPARA LA ESCOLARIZACIÓN Y EL CUIDADO DE NIÑOS Y NIÑAS MENORES DE 3 AÑOS, EMPADRONADOS EN LA CENDEA DE CIZUR, CURSO 2026-2027","descripcionLeng":null,"fechaRecepcion":"2026-06-30","nivel1":"LOCAL","nivel2":"CIZUR","nivel3":"AYUNTAMIENTO DE CIZUR","codigoInvente":null},{"id":1117667,"mrr":false,"numeroConvocatoria":"916106","descripcion":"Convocatoria de subvenciones municipales a entidades que desarrollen actividades dirigidas a la promoción de la mujer en el concejo de Lena ejercicio 2026","descripcionLeng":null,"fechaRecepcion":"2026-06-30","nivel1":"LOCAL","nivel2":"LENA","nivel3":"AYUNTAMIENTO DE LENA","codigoInvente":null},{"id":1117666,"mrr":false,"numeroConvocatoria":"916105","descripcion":"SUBVENCIONS PER A LA CONCILIACIÓ DE LA VIDA LABORAL I FAMILIAR","descripcionLeng":"SUBVENCIONS PER A LA CONCILIACIÓ DE LA VIDA LABORAL I FAMILIAR","fechaRecepcion":"2026-06-30","nivel1":"AUTONOMICA","nivel2":"ILLES BALEARS","nivel3":"DIRECCIÓN GENERAL DE CONCILIACIÓN Y DE IGUALDAD EN EL ÁMBITO LABORAL","codigoInvente":null},{"id":1117665,"mrr":false,"numeroConvocatoria":"916104","descripcion":"Orden de 29 de junio de 2026 de la Consejería de Presidencia, Juventud, Acción Exterior y Emergencias, por la que se aprueba la convocatoria de concesión de ayudas destinadas a jóvenes para la realización de actividades juveniles, durante el año 2026","descripcionLeng":null,"fechaRecepcion":"2026-06-29","nivel1":"AUTONOMICA","nivel2":"REGIÓN DE MURCIA","nivel3":"CONSEJERÍA DE PRESIDENCIA, JUVENTUD, ACCIÓN EXTERIOR Y EMERGENCIAS","codigoInvente":null},{"id":1117652,"mrr":false,"numeroConvocatoria":"916091","descripcion":"V Circuito de Piragüismo en aguas tranquilas Diputación Provincial de A Coruña. (PREM-PG / 2026)","descripcionLeng":"V Circuíto de Piragüismo en augas tranquilas Deputación Provincial da Coruña. (PREM-PG / 2026)","fechaRecepcion":"2026-06-29","nivel1":"LOCAL","nivel2":"DIPUTACIÓN PROV. DE A CORUÑA","nivel3":"DIPUTACIÓN PROVINCIAL DE CORUÑA, A","codigoInvente":null},{"id":1117644,"mrr":false,"numeroConvocatoria":"916083","descripcion":"Convocatoria de subvenciones del departamento de Euskera para el año 2026","descripcionLeng":"Euskara departamentuko dirulaguntzak emateko deialdia 2026 urterako","fechaRecepcion":"2026-06-29","nivel1":"LOCAL","nivel2":"OÑATI","nivel3":"AYUNTAMIENTO DE OÑATI","codigoInvente":null},{"id":1117642,"mrr":false,"numeroConvocatoria":"916081","descripcion":"Ayudas a la contratación Talento 45+ 2026 - Palamós","descripcionLeng":null,"fechaRecepcion":"2026-06-29","nivel1":"OTROS","nivel2":"CÁMARA DE COMERCIO DE PALAMÓS","nivel3":null,"codigoInvente":null},{"id":1117641,"mrr":false,"numeroConvocatoria":"916080","descripcion":"Acuerdo Junta de Gobierno Local aprobación de la convocatoria y bases reguladoras para la concesión de subvenciones en el marco del Programa apoyo al Sector Primario de Llanera,  anualidad 2026.","descripcionLeng":null,"fechaRecepcion":"2026-06-29","nivel1":"LOCAL","nivel2":"LLANERA","nivel3":"AYUNTAMIENTO DE LLANERA","codigoInvente":null},{"id":1117637,"mrr":false,"numeroConvocatoria":"916076","descripcion":"Ayudas a la contratación Talento Joven 2026 - Palamós","descripcionLeng":null,"fechaRecepcion":"2026-06-29","nivel1":"OTROS","nivel2":"CÁMARA DE COMERCIO DE PALAMÓS","nivel3":null,"codigoInvente":null},{"id":1117636,"mrr":false,"numeroConvocatoria":"916075","descripcion":"Convocatoria de subvenciones del departamento de Euskera para el año 2026","descripcionLeng":"Euskara departamentuko dirulaguntzak emateko deialdia 2026 urterako","fechaRecepcion":"2026-06-29","nivel1":"LOCAL","nivel2":"OÑATI","nivel3":"AYUNTAMIENTO DE OÑATI","codigoInvente":null},{"id":1117635,"mrr":false,"numeroConvocatoria":"916074","descripcion":"2026 - SUBVENCIONS CONCURRENCIA COMPETITIVA ENTITATS JUVENILS","descripcionLeng":null,"fechaRecepcion":"2026-06-29","nivel1":"LOCAL","nivel2":"PARETS DEL VALLÈS","nivel3":"AYUNTAMIENTO DE PARETS DEL VALLÈS","codigoInvente":null},{"id":1117634,"mrr":false,"numeroConvocatoria":"916073","descripcion":"2026 - SUBVENCIONS CONCURRENCIA COMPETITIVA ENTITATS ESPORTIVES","descripcionLeng":null,"fechaRecepcion":"2026-06-29","nivel1":"LOCAL","nivel2":"PARETS DEL VALLÈS","nivel3":"AYUNTAMIENTO DE PARETS DEL VALLÈS","codigoInvente":null},{"id":1117633,"mrr":false,"numeroConvocatoria":"916072","descripcion":"2026 - SUBVENCIONS CONCURRENCIA COMPETITIVA ENTITATS CULTURALS","descripcionLeng":null,"fechaRecepcion":"2026-06-29","nivel1":"LOCAL","nivel2":"PARETS DEL VALLÈS","nivel3":"AYUNTAMIENTO DE PARETS DEL VALLÈS","codigoInvente":null},{"id":1117632,"mrr":false,"numeroConvocatoria":"916071","descripcion":"CONVOCATORIA PÚBLICA DE SUBVENCIONES EN MATERIA DE COOPERACIÓN AL DESARROLLO 2026.","descripcionLeng":null,"fechaRecepcion":"2026-06-29","nivel1":"LOCAL","nivel2":"ESCATRÓN","nivel3":"AYUNTAMIENTO DE ESCATRÓN","codigoInvente":null},{"id":1117630,"mrr":false,"numeroConvocatoria":"916069","descripcion":"Convocatoria para la concesión de ayudas individuales para fomentar la utilización de energías renovables","descripcionLeng":"Convocatòria per a la concessió d’ajudes individuals per a fomentar la utilització d’energies renovables","fechaRecepcion":"2026-06-29","nivel1":"LOCAL","nivel2":"GARIDELLS, ELS","nivel3":"AYUNTAMIENTO DE GARIDELLS, ELS","codigoInvente":null},{"id":1117629,"mrr":false,"numeroConvocatoria":"916068","descripcion":"CONVOCATORIA DE AYUDAS ECONÓMICAS POR VACÍA DE FOSAS SÉPTICAS EN EL MUNICIPIO DE PONTILS","descripcionLeng":"CONVOCATÒRIA D'AJUTS ECONÒMICS PER BUIDATGE DE FOSSES SÈPTIQUES AL MUNICIPI DE PONTILS","fechaRecepcion":"2026-06-29","nivel1":"LOCAL","nivel2":"PONTILS","nivel3":"AYUNTAMIENTO DE PONTILS","codigoInvente":null},{"id":1117627,"mrr":false,"numeroConvocatoria":"916066","descripcion":"Convocatoria para la concesión de ayudas individuales para actuaciones de reparación de fachadas en mal estado, fachadas de nueva construcción y cerramiento de parcelas urbanas","descripcionLeng":"Convocatòria per a la concessió d'ajuts individuals per a actuacions de reparació de façanes en mal estat, façanes de nova construcció i tancament de parcel·les urbanes","fechaRecepcion":"2026-06-29","nivel1":"LOCAL","nivel2":"GARIDELLS, ELS","nivel3":"AYUNTAMIENTO DE GARIDELLS, ELS","codigoInvente":null},{"id":1117625,"mrr":false,"numeroConvocatoria":"916064","descripcion":"CONVOCATORIA PYME GLOBAL 2026 PARTICIPACIÓN VISITA FERIA SIAL PARIS 2026 PARA EMPRESAS DE LA DEMARCACIÓN TERRITORIAL DE LA CÁMARA DE COMERCIO,INDUSTRIA, SERVICIOS Y NAVEGACIÓN DE GRANADA","descripcionLeng":null,"fechaRecepcion":"2026-06-29","nivel1":"OTROS","nivel2":"CÁMARA DE COMERCIO DE GRANADA","nivel3":null,"codigoInvente":null},{"id":1117621,"mrr":false,"numeroConvocatoria":"916060","descripcion":"Resolución de Alcaldía nº 2026-1506, de 31 de marzo de 2026, de aprobación de la Convocatoria de Subvenciones a Deportistas Individuales, en régimen de concurrencia competitiva (1 julio 2025-30 junio 2026)","descripcionLeng":null,"fechaRecepcion":"2026-06-29","nivel1":"LOCAL","nivel2":"CAMPELLO, EL","nivel3":"AYUNTAMIENTO DE CAMPELLO, EL","codigoInvente":null},{"id":1117619,"mrr":false,"numeroConvocatoria":"916058","descripcion":"Resolución de 22 de junio de 2026,  del Director del Instituto de Fomento de la Región de Murcia, por delegación, de convocatoria de ayudas a la participación en ferias, eventos y misiones comerciales. Feria Second Home Expo Ghent 2026.","descripcionLeng":null,"fechaRecepcion":"2026-06-29","nivel1":"AUTONOMICA","nivel2":"REGIÓN DE MURCIA","nivel3":"INSTITUTO DE FOMENTO DE LA REGIÓN DE MURCIA (INFO)","codigoInvente":"INV00003691"},{"id":1117614,"mrr":false,"numeroConvocatoria":"916053","descripcion":"Orden de xx de xxxx de 2026 por la que se convocan subvenciones para el fomento de acciones dirigidas a la seguridad del paciente a través de la promoción de la salud. Linea 3","descripcionLeng":null,"fechaRecepcion":"2026-06-29","nivel1":"AUTONOMICA","nivel2":"ANDALUCÍA","nivel3":"CONSEJERÍA DE SALUD Y CONSUMO","codigoInvente":null},{"id":1117612,"mrr":false,"numeroConvocatoria":"916051","descripcion":"Expediente 2881535H: CONVOCATORIA PUBLICA DE LA XXXV EDICION DE LOS PREMIOS PLAYBACKS PICASSENT 2026.","descripcionLeng":null,"fechaRecepcion":"2026-06-29","nivel1":"LOCAL","nivel2":"PICASSENT","nivel3":"AYUNTAMIENTO DE PICASSENT","codigoInvente":null},{"id":1117603,"mrr":false,"numeroConvocatoria":"916042","descripcion":"Becas de residencia de estudiantes de países en desarrollo, curso 2026-27","descripcionLeng":"Beques de residència d'estudiants de països en desenvolupament, curs 2026-27","fechaRecepcion":"2026-06-29","nivel1":"OTROS","nivel2":"UNIVERSITAT DE VALÈNCIA (ESTUDI GENERAL)","nivel3":null,"codigoInvente":"INV00005380"},{"id":1117602,"mrr":false,"numeroConvocatoria":"916041","descripcion":"RESOLUCIÓN UNIVERSIDAD REY JUAN CARLOS POR LA QUE SE APRUEBA Y SE HACE PÚBLICA LA CONVOCATORIA Y SUS CORRESPONDIENTES BASES REGULADORAS PARA LA CONCESIÓN, MEDIANTE PROCEDIMIENTO DE CONCURRENCIA COMPETITIVA, DE AYUDAS A DEPORTISTAS PARA EL CURSO 2025/26","descripcionLeng":null,"fechaRecepcion":"2026-06-29","nivel1":"OTROS","nivel2":"UNIVERSIDAD REY JUAN CARLOS","nivel3":null,"codigoInvente":"INV00005374"},{"id":1117600,"mrr":false,"numeroConvocatoria":"916039","descripcion":"Expediente 2898388P: CONVOCATÒRIA PÚBLICA DE SUBVENCIONS PER AL FOMENT DE LA PARTICIPACIÓ CIUTADANA, LA CULTURA POPULAR I EL DESENVOLUPAMENT DE LES ACTIVITATS DE LES ASSOCIACIONS CULTURALS FALLERES DE PICASSENT","descripcionLeng":null,"fechaRecepcion":"2026-06-29","nivel1":"LOCAL","nivel2":"PICASSENT","nivel3":"AYUNTAMIENTO DE PICASSENT","codigoInvente":null},{"id":1117597,"mrr":false,"numeroConvocatoria":"916036","descripcion":"RESOLUCIÓN DE LA VICERRECTORA DE INVESTIGACIÓN DE LA UNIVERSIDAD DE OVIEDO PARA LA CONTRATACIÓN DE PERSONAL INVESTIGADOR Y PERSONAL TÉCNICO DE APOYO, SEGÚN ARTÍCULO 23.bis DE LA LEY 14/2011 DE LA CIENCIA, LA TECNOLOGÍA Y LA INNOVACIÓN (Junio Extra 1-2026)","descripcionLeng":"\n","fechaRecepcion":"2026-06-29","nivel1":"OTROS","nivel2":"UNIVERSIDAD DE OVIEDO","nivel3":null,"codigoInvente":"INV00005347"},{"id":1117589,"mrr":false,"numeroConvocatoria":"916028","descripcion":"CONVOCATORIA DE SUBVENCIONES A ASOCIACIONES SIN ÁNIMO DE LUCRO PARA LA REALIZACIÓN DE ACTIVIDADES DE PROMOCIÓN Y DIFUSIÓN CULTURAL, DURANTE EL PERIODO DE NOVIEMBRE DE 2025 A OCTUBRE DE 2026.","descripcionLeng":null,"fechaRecepcion":"2026-06-29","nivel1":"LOCAL","nivel2":"SEGORBE","nivel3":"AYUNTAMIENTO DE SEGORBE","codigoInvente":null},{"id":1117585,"mrr":false,"numeroConvocatoria":"916024","descripcion":"BASES REGULADORAS Y CONVOCATORIA DEL PROCESO DE SELECCIÓN PARA LA PARTICIPACIÓN EN EL VIAJE INSTITUCIONAL A BRUSELAS PARA JÓVENES DE CUBELLES","descripcionLeng":"BASES REGULADORES I CONVOCATÒRIA DEL PROCÉS DE SELECCIÓ PER A LA PARTICIPACIÓ EN EL VIATGE INSTITUCIONAL A BRUSSEL·LES PER A JOVES DE CUBELLES","fechaRecepcion":"2026-06-29","nivel1":"LOCAL","nivel2":"CUBELLES","nivel3":"AYUNTAMIENTO DE CUBELLES","codigoInvente":null},{"id":1117583,"mrr":false,"numeroConvocatoria":"916022","descripcion":"Convocatoria concesión de subvenciones para la realización de actuaciones de carácter festero 2026","descripcionLeng":null,"fechaRecepcion":"2026-06-29","nivel1":"LOCAL","nivel2":"SAN VICENTE DEL RASPEIG/SANT VICENT DEL RASPEIG","nivel3":"AYUNTAMIENTO DE SAN VICENTE DEL RASPEIG/SANT VICENT DEL RASPEIG","codigoInvente":null}],"pageable":{"sort":{"sorted":true,"unsorted":false,"empty":false},"pageNumber":16,"pageSize":50,"offset":800,"paged":true,"unpaged":false},"last":false,"totalPages":200,"totalElements":10000,"sort":{"sorted":true,"unsorted":false,"empty":false},"first":false,"numberOfElements":50,"size":50,"number":16,"empty":false,"advertencia":"La reutilización de los datos del Sistema Nacional de Publicidad de Subvenciones y Ayudas Públicas está sujeta a una serie de restricciones y consideraciones legales. Consulte el aviso legal en https://www.infosubvenciones.es/bdnstrans/GE/es/avisolegal.Además, el usuario debe ser consciente que la información presentada es de naturaleza dinámica, y que los datos pueden ser sometidos a correcciones, inserciones, modificaciones y eliminaciones en momentos posteriores a su extracción. Accesos al API del sistema Nacional de Publicidad de Subvenciones y Ayudas Públicas. La Administración Presupuestaria, para salvaguardar la protección del acceso libre e irrestricto de los ciudadanos a este Portal y a su información podrá adoptar medidas restrictivas de acceso al API ante situaciones de manifiesto abuso del servicio, riesgos de seguridad, o uso fraudulento de la información descargada, de acuerdo con las buenas prácticas de gestión de datos abiertos (https://datos.gob.es/es/blog/limitaciones-la-consulta-de-una-api) establecidas por el Ministerio para la Transformación Digital y de la Función Pública."}