{"content":[{"id":1120384,"mrr":false,"numeroConvocatoria":"918823","descripcion":"CONVOCATORIA DE AYUDAS PARA CENTROS DE EDUCACIÓN DE PRIMARIA PÚBLICOS UBICADOS EN LA ISLA DE IBIZA CON ALUMNOS EMPADRONADOS AL MUNICIPIO DE SANTA EULÀRIA DES RIU INSCRITOS EN EL PROGRAMA DE FINANCIACIÓN DE LIBROS DE TEXTO Y MATERIAL DIDÁCTICO DURANTE EL C","descripcionLeng":"CONVOCATÒRIA D’AJUDES PER A CENTRES D’EDUCACIÓ DE PRIMÀRIA PÚBLICS UBICATS A L’ILLA D’EIVISSA AMB ALUMNES EMPADRONATS AL MUNICIPI DE SANTA EULÀRIA DES RIU INSCRITS EN EL PROGRAMA DE FINANÇAMENT DE LLIBRES DE TEXT I MATERIAL DIDÀCTIC DURANT EL CURS 2025/20","fechaRecepcion":"2026-07-13","nivel1":"LOCAL","nivel2":"SANTA EULÀRIA DES RIU","nivel3":"AYUNTAMIENTO DE SANTA EULÀRIA DES RIU","codigoInvente":null},{"id":1120375,"mrr":false,"numeroConvocatoria":"918814","descripcion":"CONVOCATORIA PARA LA CONCESIÓN DE SUBVENCIONES EN MATERIA DE CONCURSO ANUNCIADOR CARTEL DE FERIA Y FIESTAS PATRONALES .\nAÑO 2026","descripcionLeng":null,"fechaRecepcion":"2026-07-13","nivel1":"LOCAL","nivel2":"VILLAVERDE DEL RÍO","nivel3":"AYUNTAMIENTO DE VILLAVERDE DEL RÍO","codigoInvente":null},{"id":1120372,"mrr":false,"numeroConvocatoria":"918811","descripcion":"CONVOCATORIA DE AYUDAS PARA CENTROS EDUCATIVOS PÚBLICOS Y ASOCIACIONES DE FAMILIAS DE ALUMNOS (AFA) DEL MUNICIPIO DE SANTA EULÀRIA DES RIU PARA LA REALIZACIÓN DE ACTIVIDADES CULTURALES, DEPORTIVAS Y/O MEDIOAMBIENTALES DURANTE EL CURSO 2025/2026","descripcionLeng":"CONVOCATÒRIA D’AJUDES PER A CENTRES EDUCATIUS PÚBLICS I ASSOCIACIONS DE FAMÍLIES D’ALUMNES (AFA) DEL MUNICIPI DE SANTA EULÀRIA DES RIU PER A LA REALITZACIÓ D’ACTIVITATS CULTURALS, ESPORTIVES I/O MEDIAMBIENTALS DURANT EL CURS 2025/2026","fechaRecepcion":"2026-07-13","nivel1":"LOCAL","nivel2":"SANTA EULÀRIA DES RIU","nivel3":"AYUNTAMIENTO DE SANTA EULÀRIA DES RIU","codigoInvente":null},{"id":1120370,"mrr":false,"numeroConvocatoria":"918809","descripcion":"Bases XV Certamen-Concurso de fotografía \"Memorial Navidad Cereza\" correspondiente al año 2026","descripcionLeng":null,"fechaRecepcion":"2026-07-13","nivel1":"LOCAL","nivel2":"MONTANUY","nivel3":"AYUNTAMIENTO DE MONTANUY","codigoInvente":null},{"id":1120369,"mrr":false,"numeroConvocatoria":"918808","descripcion":"RESOLUCIÓN DEL DIRECTOR GENERAL DEL INSTITUTO DE LAS INDUSTRIAS CULTURALES Y LAS ARTES DE LA REGIÓN DE MURCIA, POR LA QUE SE CONVOCAN AYUDAS ECONÓMICAS PARA MOVILIDAD NACIONAL E INTERNACIONAL DE PROFESIONALES DE LAS INDUSTRIAS CULTURALES Y CREATIVAS.","descripcionLeng":null,"fechaRecepcion":"2026-07-13","nivel1":"AUTONOMICA","nivel2":"REGIÓN DE MURCIA","nivel3":"INSTITUTO DE INDUSTRIAS CULTURALES Y DE LAS ARTES DE LA REGIÓN DE MURCIA ( ICA )","codigoInvente":"INV00003700"},{"id":1120368,"mrr":false,"numeroConvocatoria":"918807","descripcion":"PREMIOS A TRABAJOS FIN DE GRADO Y FIN DE MÁSTER DE LA CÁTEDRA GERMÁN BERNÁCER DE LA UNIVERSIDAD DE ALICANTE","descripcionLeng":null,"fechaRecepcion":"2026-07-13","nivel1":"OTROS","nivel2":"UNIVERSIDAD DE ALICANTE","nivel3":null,"codigoInvente":"INV00005329"},{"id":1120367,"mrr":false,"numeroConvocatoria":"918806","descripcion":"CONVOCATORIA DE AYUDAS A ESTUDIOS DE GRADO UNIVERSITARIO Y ENSEÑANZAS ARTÍSTICAS SUPERIORES PARA EL CURSO 2026/2027","descripcionLeng":null,"fechaRecepcion":"2026-07-13","nivel1":"LOCAL","nivel2":"LANGREO","nivel3":"AYUNTAMIENTO DE LANGREO","codigoInvente":null},{"id":1120364,"mrr":false,"numeroConvocatoria":"918803","descripcion":"BASES REGULADORAS Y CONVOCATORIA DE LAS AYUDAS DIRECTAS EN ESPECIE PARA EL FOMENTO Y EL APOYO A LA NATALIDAD 2026","descripcionLeng":"BASES REGULADORAS E CONVOCATORIA DAS AXUDAS DIRECTAS EN ESPECIE PARA O FOMENTO E O APOIO Á NATALIDADE 2026","fechaRecepcion":"2026-07-13","nivel1":"LOCAL","nivel2":"LALÍN","nivel3":"AYUNTAMIENTO DE LALÍN","codigoInvente":null},{"id":1120362,"mrr":false,"numeroConvocatoria":"918801","descripcion":"CONCURSO DE FOTOGRAFÍA Y DIBUJO SAN ALBERTO MAGNO 2026","descripcionLeng":null,"fechaRecepcion":"2026-07-13","nivel1":"OTROS","nivel2":"UNIVERSIDAD DE ALICANTE","nivel3":null,"codigoInvente":"INV00005329"},{"id":1120355,"mrr":false,"numeroConvocatoria":"918794","descripcion":"Resolución de 13/07/2026 del SEPE en Melilla por la que se aprueba la convocatoria, en rég. de concurrencia competitiva, para la concesión de sub. a las Corporaciones Locales para la gestión del prog. de inserción laboral. Melilla. 2026.","descripcionLeng":null,"fechaRecepcion":"2026-07-13","nivel1":"ESTADO","nivel2":"MINISTERIO DE TRABAJO Y ECONOMÍA SOCIAL","nivel3":"DIRECCIÓN PROVINCIAL DEL SEPE DE MELILLA","codigoInvente":null},{"id":1120354,"mrr":false,"numeroConvocatoria":"918793","descripcion":"RESOLUCIÓN DEL DIRECTOR GENERAL DEL INSTITUTO DE LAS INDUSTRIAS CULTURALES Y LAS ARTES DE LA REGIÓN DE MURCIA, POR LA QUE SE CONVOCAN AYUDAS ECONÓMICAS, EN RÉGIMEN DE CONCURRENCIA COMPETITIVA, DESTINADAS AL DESARROLLO DE PROYECTOS DE ARTE Y EDUCACIÓN","descripcionLeng":null,"fechaRecepcion":"2026-07-13","nivel1":"AUTONOMICA","nivel2":"REGIÓN DE MURCIA","nivel3":"INSTITUTO DE INDUSTRIAS CULTURALES Y DE LAS ARTES DE LA REGIÓN DE MURCIA ( ICA )","codigoInvente":"INV00003700"},{"id":1120349,"mrr":false,"numeroConvocatoria":"918788","descripcion":"Acuerdo plenario, de fecha 30 de agosto de 2024, del Ayuntamiento de La Palma del Condado, por el que se convocan ayudas de fomento a la natalidad y adopción (ejercicio 2026)","descripcionLeng":null,"fechaRecepcion":"2026-07-13","nivel1":"LOCAL","nivel2":"PALMA DEL CONDADO, LA","nivel3":"AYUNTAMIENTO DE PALMA DEL CONDADO, LA","codigoInvente":null},{"id":1120345,"mrr":false,"numeroConvocatoria":"918784","descripcion":"Convocatoria de ayudas adicionales para el fomento de la movilidad internacional del estudiantado de la Escuela Técnica Superior de Ingeniería de Caminos, Canales y Puertos de Ciudad Real de la Universidad de Castilla-La Mancha para el curso 2026/2027","descripcionLeng":null,"fechaRecepcion":"2026-07-13","nivel1":"OTROS","nivel2":"UNIVERSIDAD DE CASTILLA-LA MANCHA","nivel3":null,"codigoInvente":"INV00005334"},{"id":1120340,"mrr":false,"numeroConvocatoria":"918779","descripcion":"Resolución de la Alcaldía, de 2 de julio de 2026, de la Alcaldía del Ayuntamiento de Brión, por la que se aprueban las bases reguladoras de la convocatoria de ayudas municipales de apoyo a la escolarización para el curso 2026/2027.","descripcionLeng":"Resolución da Alcaldía, de 2 de xullo de 2026, da Alcaldía do Concello de Brión, pola que se aproban as bases reguladoras da convocatoria de axudas municipais de apoio á escolarización para o curso 2026/2027.","fechaRecepcion":"2026-07-13","nivel1":"LOCAL","nivel2":"BRIÓN","nivel3":"AYUNTAMIENTO DE BRIÓN","codigoInvente":null},{"id":1120337,"mrr":false,"numeroConvocatoria":"918776","descripcion":"PREMIOS A TRABAJOS FIN DE GRADO Y FIN DE MÁSTER (TFG/TFM) DE LA CÁTEDRA CARMENCITA DE ESTUDIOS DEL SABOR GASTRONÓMICO DE DE LA UNIVERSIDAD DE ALICANTE","descripcionLeng":null,"fechaRecepcion":"2026-07-13","nivel1":"OTROS","nivel2":"UNIVERSIDAD DE ALICANTE","nivel3":null,"codigoInvente":"INV00005329"},{"id":1120336,"mrr":false,"numeroConvocatoria":"918775","descripcion":"bases reguladoras de la convocatoria de subvenciones, en régimen de concurrencia competitiva destinadas a Grupos de Trabajo que constituyen el Consejo Municipal de la Mujer para el desarrollo de programas de promoción de la mujer, ejercicio 2026","descripcionLeng":null,"fechaRecepcion":"2026-07-13","nivel1":"LOCAL","nivel2":"ARANDA DE DUERO","nivel3":"AYUNTAMIENTO DE ARANDA DE DUERO","codigoInvente":null},{"id":1120331,"mrr":false,"numeroConvocatoria":"918770","descripcion":"RESOLUCIÓN de la Vicerrectora de Extensión Universitaria, Patrimonio y Relaciones Institucionales de 7/7/2026, por la que se publican bases reguladoras y se convoca el Programa de Ayudas a la Formación de la Orquesta de la Universidad de Granada 2026.","descripcionLeng":null,"fechaRecepcion":"2026-07-13","nivel1":"OTROS","nivel2":"UNIVERSIDAD DE GRANADA","nivel3":null,"codigoInvente":"INV00005337"},{"id":1120324,"mrr":false,"numeroConvocatoria":"918763","descripcion":"CONVOCATORIA DE AYUDAS PARA LIBROS DE TEXTO PARA EL CURSO 2026-2027 - CRA AMIGOS DE LA PAZ DE PEZUELA DE LAS TORRES","descripcionLeng":null,"fechaRecepcion":"2026-07-13","nivel1":"LOCAL","nivel2":"PEZUELA DE LAS TORRES","nivel3":"AYUNTAMIENTO DE PEZUELA DE LAS TORRES","codigoInvente":null},{"id":1120322,"mrr":false,"numeroConvocatoria":"918761","descripcion":"RESOLUCIÓN DEL DIRECTOR GENERAL DEL INSTITUTO DE LAS INDUSTRIAS CULTURALES Y LAS ARTES DE LA REGIÓN DE MURCIA, POR LA QUE SE CONVOCAN AYUDAS ECONÓMICAS, EN RÉGIMEN DE CONCURRENCIA COMPETITIVA, DESTINADAS AL FOMENTO DE LA ACTIVIDAD CULTURAL EN ÁREAS RURALE","descripcionLeng":null,"fechaRecepcion":"2026-07-13","nivel1":"AUTONOMICA","nivel2":"REGIÓN DE MURCIA","nivel3":"INSTITUTO DE INDUSTRIAS CULTURALES Y DE LAS ARTES DE LA REGIÓN DE MURCIA ( ICA )","codigoInvente":"INV00003700"},{"id":1120321,"mrr":false,"numeroConvocatoria":"918760","descripcion":"I PREMIO DE INVESTIGACIÓN JURÍDICA EN MERCADOS FINANCIEROS","descripcionLeng":null,"fechaRecepcion":"2026-07-13","nivel1":"OTROS","nivel2":"UNIVERSIDAD COMPLUTENSE DE MADRID","nivel3":null,"codigoInvente":"INV00005326"},{"id":1120315,"mrr":false,"numeroConvocatoria":"918754","descripcion":"Resolución del 10/07/2026 del SEPE, por la que se aprueba la convocatoria, en reg. de concurrencia competitiva, para la concesión de sub. púb., destinadas a financiar en el ej. 2026, la contratación de jóvenes desempleados menores de 30 años en Melilla.","descripcionLeng":null,"fechaRecepcion":"2026-07-13","nivel1":"ESTADO","nivel2":"MINISTERIO DE TRABAJO Y ECONOMÍA SOCIAL","nivel3":"DIRECCIÓN PROVINCIAL DEL SEPE DE MELILLA","codigoInvente":null},{"id":1120311,"mrr":false,"numeroConvocatoria":"918750","descripcion":"Convocatoria Ayudas Pyme Global MCD a Tokio 2026. Cámara Bahía de Algeciras","descripcionLeng":null,"fechaRecepcion":"2026-07-13","nivel1":"OTROS","nivel2":"CÁMARA OFICIAL DE COMERCIO, INDUSTRIA, SERVICIOS Y NAVEGACIÓN DE LA BAHÍA DE ALGECIRAS","nivel3":null,"codigoInvente":null},{"id":1120304,"mrr":false,"numeroConvocatoria":"918743","descripcion":"Resolución 2026/2113 de 10 de julio de 2026 del Área de Educación del Ayuntamiento de Durango por la que se convocan las subvenciones para sufragar los gastos de guardería. Curso 2025/2026","descripcionLeng":"2026/2113 Ebazpena, 2026ko uztailaren 10ekoa, Durangoko Udaleko Hezkuntza Arloarena, haurtzaindegiko gastuak ordaintzeko dirulaguntzetarako deialdia egiten duena. 2025/2026 ikasturtea","fechaRecepcion":"2026-07-13","nivel1":"LOCAL","nivel2":"DURANGO","nivel3":"AYUNTAMIENTO DE DURANGO","codigoInvente":null},{"id":1120302,"mrr":false,"numeroConvocatoria":"918741","descripcion":"Resolución de 11 de julio de 2026 del Rector de la Universidad de Burgos, por la que se convocan  prácticas académicas extracurriculares para apoyo técnico de los másteres que se imparten en la Facultad de Ciencias Económicas y Empresariales","descripcionLeng":null,"fechaRecepcion":"2026-07-13","nivel1":"OTROS","nivel2":"UNIVERSIDAD DE BURGOS","nivel3":null,"codigoInvente":"INV00005331"},{"id":1120301,"mrr":false,"numeroConvocatoria":"918740","descripcion":"Convocatoria de concesión de prestaciones económicas para libros y/o material didáctico correspondiente a 2º ciclo de educación infantil en centros escolares para el curso escolar 2026-2027","descripcionLeng":null,"fechaRecepcion":"2026-07-13","nivel1":"LOCAL","nivel2":"TUDELA","nivel3":"AYUNTAMIENTO DE TUDELA","codigoInvente":null},{"id":1120296,"mrr":false,"numeroConvocatoria":"918735","descripcion":"Subvención para cursos para obtener los títulos de monitor/a y de director/a de tiempo libre","descripcionLeng":"Aisialdiko begirale eta zuzendari tituluak euskaraz ateratzeko ikastaroetarako dirulaguntzak","fechaRecepcion":"2026-07-13","nivel1":"LOCAL","nivel2":"LASARTE-ORIA","nivel3":"AYUNTAMIENTO DE LASARTE-ORIA","codigoInvente":null},{"id":1120295,"mrr":false,"numeroConvocatoria":"918734","descripcion":"AYUDAS ESCOLARES CURSO 2026/2027","descripcionLeng":null,"fechaRecepcion":"2026-07-13","nivel1":"LOCAL","nivel2":"VILLA DE OTURA","nivel3":"AYUNTAMIENTO DE VILLA DE OTURA","codigoInvente":null},{"id":1120294,"mrr":false,"numeroConvocatoria":"918733","descripcion":"CONVOCATORIA CERTAMEN TORRELLANO TALENTOS 2026.","descripcionLeng":"CONVOCATÒRIA CERTAMEN TORRELLANO TALENTS 2026.","fechaRecepcion":"2026-07-13","nivel1":"LOCAL","nivel2":"ELCHE/ELX","nivel3":"AYUNTAMIENTO DE ELCHE/ELX","codigoInvente":null},{"id":1120275,"mrr":false,"numeroConvocatoria":"918714","descripcion":"SUBVENCION ENTIDADES SIN ANIMO DE LUCRO MEMORIA DEMOCRATICA","descripcionLeng":null,"fechaRecepcion":"2026-07-10","nivel1":"AUTONOMICA","nivel2":"PRINCIPADO DE ASTURIAS","nivel3":"CONSEJERÍA ORDENACIÓN DE TERRITORIO, URBANISMO, VIVIENDA Y DERECHOS CIUDADANOS","codigoInvente":null},{"id":1120258,"mrr":false,"numeroConvocatoria":"918697","descripcion":"SUBVENCIONES DESTINADAS AL DESARROLLO DE LARGOMETRAJES, SERIES DE TELEVISIÓN, Y PRODUCCIÓN DE CORTOMETRAJES","descripcionLeng":null,"fechaRecepcion":"2026-07-10","nivel1":"AUTONOMICA","nivel2":"CANARIAS","nivel3":"CONSEJERÍA DE UNIVERSIDADES, CIENCIA E INNOVACIÓN Y CULTURA","codigoInvente":null},{"id":1120255,"mrr":false,"numeroConvocatoria":"918694","descripcion":"L0199. Resolución por la que se abre la convocatoria del año 2026 para la concesión de subvenciones en especie, en régimen de concurrencia no competitiva, para llevar a cabo residencias internacionales en los centros con los que el Consorci Institut Ramon","descripcionLeng":"L0199. Resolució per la qual s’obre la convocatòria de l’any 2026 per a la concessió de subvencions en espècie, en règim de concurrència no competitiva, per dur a terme residències internacionals als centres amb els quals el Consorci Institut Ramon Llull","fechaRecepcion":"2026-07-10","nivel1":"AUTONOMICA","nivel2":"CATALUÑA","nivel3":"INSTITUT RAMON LLULL","codigoInvente":null},{"id":1120254,"mrr":false,"numeroConvocatoria":"918693","descripcion":"Bases reguladoras y Covocatoria y Preasignación de subvenciones directas para la financiación de gastos derivados de la Limpieza y Mantenimiento de los CEIP y C.R.A. ubicados en las ÉE.LL. de la provincia de Toledo durante el Curso Escolar 2026-2027","descripcionLeng":null,"fechaRecepcion":"2026-07-10","nivel1":"LOCAL","nivel2":"DIPUTACIÓN PROV. DE TOLEDO","nivel3":"DIPUTACIÓN PROVINCIAL DE TOLEDO","codigoInvente":null},{"id":1120252,"mrr":false,"numeroConvocatoria":"918691","descripcion":"Bases reguladoras y Convocatoria de la Undécima Edición del Programa Educativo de Talleres Didácticos en Centros Escolares de la provincia de Toledo durante el Curso Escolar 2026-2027","descripcionLeng":null,"fechaRecepcion":"2026-07-10","nivel1":"LOCAL","nivel2":"DIPUTACIÓN PROV. DE TOLEDO","nivel3":"DIPUTACIÓN PROVINCIAL DE TOLEDO","codigoInvente":null},{"id":1120251,"mrr":false,"numeroConvocatoria":"918690","descripcion":"Bases reguladoras y Convocatoria de subvenciones para la realización de actividades en materia de bienestar social por las Entidades Locales de la provincia de Toledo menores de 5.000 habitantes en el ámbito del Programa Tu Salud en Danza 2026-2027","descripcionLeng":null,"fechaRecepcion":"2026-07-10","nivel1":"LOCAL","nivel2":"DIPUTACIÓN PROV. DE TOLEDO","nivel3":"DIPUTACIÓN PROVINCIAL DE TOLEDO","codigoInvente":null},{"id":1120250,"mrr":false,"numeroConvocatoria":"918689","descripcion":"Segona convocatòria per a la presentació de sol·licituds per a la concessió de subvencions, en règim de concurrència competitiva, per a l’organització, participació i desenvolupament de l’organització d’activitats culturals, any 2026","descripcionLeng":"Segunda convocatoria para la presentación de solicitudes para la concesión de subvenciones, en régimen de concurrencia competitiva, para la organización, participación y desarrollo de la organización de actividades culturales, año 2026","fechaRecepcion":"2026-07-10","nivel1":"LOCAL","nivel2":"OLOT","nivel3":"AYUNTAMIENTO DE OLOT","codigoInvente":null},{"id":1120248,"mrr":false,"numeroConvocatoria":"918687","descripcion":"BASES CONCURSO CARTEL DE FERIA REAL CASTRO DEL RÍO 2026","descripcionLeng":null,"fechaRecepcion":"2026-07-10","nivel1":"LOCAL","nivel2":"CASTRO DEL RÍO","nivel3":"AYUNTAMIENTO DE CASTRO DEL RÍO","codigoInvente":null},{"id":1120246,"mrr":false,"numeroConvocatoria":"918685","descripcion":"Ayudas Extremadura Avante a empresas para participación agrupada en la Misión Comercial Canadá 2026, según el Acuerdo de 9 de julio de 2026 que las convoca.","descripcionLeng":null,"fechaRecepcion":"2026-07-10","nivel1":"AUTONOMICA","nivel2":"EXTREMADURA","nivel3":"EXTREMADURA AVANTE SERVICIOS AVANZADOS A PYMES, S.L.U.","codigoInvente":"INV00002179"},{"id":1120235,"mrr":false,"numeroConvocatoria":"918674","descripcion":"Resolución de 10/07/2026 del SEPE, por la que se aprueba la convocatoria para la concesión de sub. púb. destinadas a financiar, en el 2026, la contratación de personas desempleadas menores de 30 años en el marco Proyectos investigo en Melilla.","descripcionLeng":null,"fechaRecepcion":"2026-07-10","nivel1":"ESTADO","nivel2":"MINISTERIO DE TRABAJO Y ECONOMÍA SOCIAL","nivel3":"DIRECCIÓN PROVINCIAL DEL SEPE DE MELILLA","codigoInvente":null},{"id":1120222,"mrr":false,"numeroConvocatoria":"918661","descripcion":"Becas UJI Santander¦Ayuda Económica 2026","descripcionLeng":"Beques UJI Santander¦Ajuda Econòmica 2026","fechaRecepcion":"2026-07-10","nivel1":"OTROS","nivel2":"UNIVERSIDAD JAUME I DE CASTELLÓN","nivel3":null,"codigoInvente":"INV00005381"},{"id":1120219,"mrr":false,"numeroConvocatoria":"918658","descripcion":"RESOLUCIÓN de 10 de julio de 2026, de la Dirección General de LABORA Servicio Valenciano de Empleo y Formación, por la que se convocan para el ejercicio 2026 las subvenciones destinadas a la contratación de personas desempleadas por entidades locales de l","descripcionLeng":"RESOLUCIÓ de 10 de juliol de 2026, de la Direcció General de LABORA Servici Valencià d'Ocupació i Formació, per la qual es convoquen per a l'exercici 2026 les subvencions destinades a la contractació de persones desocupades per entitats locals de la Comun","fechaRecepcion":"2026-07-10","nivel1":"AUTONOMICA","nivel2":"COMUNITAT VALENCIANA","nivel3":"DIRECCIÓN GENERAL DE EMPLEO Y FORMACIÓN","codigoInvente":null},{"id":1120217,"mrr":false,"numeroConvocatoria":"918656","descripcion":"CONVOCATORIA DE SUBVENCIONES A LAS ENTIDADES DE MOLINS DE REI PARA LA CONTRATACIÓN DE CUIDADORES/AS PARA LA INCLUSIÓN DE ALUMNADO CON DISCAPACIDAD A LAS ACTIVIDADES DE VERANO DURANTE PERIODOS NO LECTIVOS 2026","descripcionLeng":"CONVOCATÒRIA DE SUBVENCIONS A LES ENTITATS DE MOLINS DE REI PER\nA LA CONTRACTACIÓ DE VETLLADORS/ES PER A LA INCLUSIÓ D’ALUMNAT\nAMB DISCAPACITAT A LES ACTIVITATS D’ESTIU DURANT PERÍODES NO\nLECTIUS 2026","fechaRecepcion":"2026-07-10","nivel1":"LOCAL","nivel2":"MOLINS DE REI","nivel3":"AYUNTAMIENTO DE MOLINS DE REI","codigoInvente":null},{"id":1120216,"mrr":false,"numeroConvocatoria":"918655","descripcion":"VIII CAMPAÑA REPARTO BONOS PARA REFORZAR EL CANAL DE VENTA DE PROXIMIDAD","descripcionLeng":"HURBILEKO SALMENTA-SAREA INDARTZEKO BONOAK BANATZEKO VIII. KANPAINA","fechaRecepcion":"2026-07-10","nivel1":"LOCAL","nivel2":"ERRENTERIA","nivel3":"AYUNTAMIENTO DE ERRENTERIA","codigoInvente":null},{"id":1120213,"mrr":false,"numeroConvocatoria":"918652","descripcion":"Acuerdo de 18/06/2026 del C.R. del ILC, por el que se convoca la I PREMIO DE NARRATIVA ELENA SANTIAGO 2026","descripcionLeng":null,"fechaRecepcion":"2026-07-10","nivel1":"LOCAL","nivel2":"DIPUTACIÓN PROV. DE LEÓN","nivel3":"INSTITUTO LEONES DE CULTURA","codigoInvente":"INV00003509"},{"id":1120212,"mrr":false,"numeroConvocatoria":"918651","descripcion":"Acuerdo de 18/06/2026 del C.R. del ILC, por el que se convoca la XXVI BIENAL DE POESÍA PROVINCIA DE LEÓN 2026","descripcionLeng":null,"fechaRecepcion":"2026-07-10","nivel1":"LOCAL","nivel2":"DIPUTACIÓN PROV. DE LEÓN","nivel3":"INSTITUTO LEONES DE CULTURA","codigoInvente":"INV00003509"},{"id":1120211,"mrr":false,"numeroConvocatoria":"918650","descripcion":"Orden de la Consejería de Presidencia, Juventud, Acción Exterior y Emergencias por la que se convoca una subvención, en régimen de concurrencia competitiva, para la concesión de dos becas de formación y prácticas en asuntos europeos, para el año 2026/2027","descripcionLeng":null,"fechaRecepcion":"2026-07-10","nivel1":"AUTONOMICA","nivel2":"REGIÓN DE MURCIA","nivel3":"CONSEJERÍA DE PRESIDENCIA, JUVENTUD, ACCIÓN EXTERIOR Y EMERGENCIAS","codigoInvente":null},{"id":1120207,"mrr":false,"numeroConvocatoria":"918646","descripcion":"Orden de 10 de julio de 2026 de la Consejería de Agricultura, Ganadería, Medio Rural y Política Ambiental por la que se convocan, para el año 2026, las ayudas para la reposición de reses como consecuencia de su sacrificio.","descripcionLeng":null,"fechaRecepcion":"2026-07-10","nivel1":"AUTONOMICA","nivel2":"CASTILLA Y LEÓN","nivel3":"CONSEJERÍA DE AGRICULTURA, GANADERÍA, MEDIO RURAL Y POLÍTICA AMBIENTAL","codigoInvente":null},{"id":1120204,"mrr":false,"numeroConvocatoria":"918643","descripcion":"Convocatoria de ayudas a la movilidad de corta duración para estudiantes de la ULE con el fin de asistir a Programas Intensivos Combinados Erasmus+. Curso 2026-2027","descripcionLeng":null,"fechaRecepcion":"2026-07-10","nivel1":"OTROS","nivel2":"UNIVERSIDAD DE LEÓN","nivel3":null,"codigoInvente":"INV00005344"},{"id":1120201,"mrr":false,"numeroConvocatoria":"918640","descripcion":"Orden de 10 de julio de 2026 de la Consejería de Agricultura, Ganadería, Medio Rural y Política Ambiental por la que se convocan, para el año 2026, las ayudas destinadas al fomento de las razas autóctonas españolas.","descripcionLeng":null,"fechaRecepcion":"2026-07-10","nivel1":"AUTONOMICA","nivel2":"CASTILLA Y LEÓN","nivel3":"CONSEJERÍA DE AGRICULTURA, GANADERÍA, MEDIO RURAL Y POLÍTICA AMBIENTAL","codigoInvente":null},{"id":1120197,"mrr":false,"numeroConvocatoria":"918636","descripcion":"Concurso Gran Gymkana de Peñas para la fiestas de agosto 2026","descripcionLeng":null,"fechaRecepcion":"2026-07-10","nivel1":"LOCAL","nivel2":"MANZANARES EL REAL","nivel3":"AYUNTAMIENTO DE MANZANARES EL REAL","codigoInvente":null},{"id":1120196,"mrr":false,"numeroConvocatoria":"918635","descripcion":"CONVOCATORIA PARA CURSO 2026/2027, SUBVENCIONES CON DESTINO AL TRANSPORTE Y A LA COMPRA DE LIBROS DE TEXTO Y/ O MATERIAL ALUMNOS ESO, BACHILLERATO Y CICLO GRADO MEDIO","descripcionLeng":null,"fechaRecepcion":"2026-07-10","nivel1":"LOCAL","nivel2":"GRANADILLA DE ABONA","nivel3":"AYUNTAMIENTO DE GRANADILLA DE ABONA","codigoInvente":null}],"pageable":{"sort":{"sorted":true,"unsorted":false,"empty":false},"pageNumber":9,"pageSize":50,"offset":450,"unpaged":false,"paged":true},"last":false,"totalElements":10000,"totalPages":200,"first":false,"sort":{"sorted":true,"unsorted":false,"empty":false},"numberOfElements":50,"size":50,"number":9,"empty":false,"advertencia":"La reutilización de los datos del Sistema Nacional de Publicidad de Subvenciones y Ayudas Públicas está sujeta a una serie de restricciones y consideraciones legales. Consulte el aviso legal en https://www.infosubvenciones.es/bdnstrans/GE/es/avisolegal.Además, el usuario debe ser consciente que la información presentada es de naturaleza dinámica, y que los datos pueden ser sometidos a correcciones, inserciones, modificaciones y eliminaciones en momentos posteriores a su extracción. Accesos al API del sistema Nacional de Publicidad de Subvenciones y Ayudas Públicas. La Administración Presupuestaria, para salvaguardar la protección del acceso libre e irrestricto de los ciudadanos a este Portal y a su información podrá adoptar medidas restrictivas de acceso al API ante situaciones de manifiesto abuso del servicio, riesgos de seguridad, o uso fraudulento de la información descargada, de acuerdo con las buenas prácticas de gestión de datos abiertos (https://datos.gob.es/es/blog/limitaciones-la-consulta-de-una-api) establecidas por el Ministerio para la Transformación Digital y de la Función Pública."}