{"content":[{"id":1106426,"mrr":false,"numeroConvocatoria":"904865","descripcion":"CONVOCATORIA SUBVENCIONES POR TRATAMIENTOS TERAPEUTICOS 2026","descripcionLeng":"CONVOCATORIA SUBVENCIONS PER TRACTAMENTS TERAPEUTICS 2026","fechaRecepcion":"2026-05-11","nivel1":"LOCAL","nivel2":"TAVÈRNOLES","nivel3":"AYUNTAMIENTO DE TAVÈRNOLES","codigoInvente":null},{"id":1106425,"mrr":false,"numeroConvocatoria":"904864","descripcion":"CONVOCATORIA SUBVENCIONES A LAS FAMILIAS CON PERSONAS CON DEPENDENCIA 2026","descripcionLeng":"CONVOCATORIA SUBVENCIONS A LES FAMILIAS AMB PERSONES AMB DEPENDENCIA 2026","fechaRecepcion":"2026-05-11","nivel1":"LOCAL","nivel2":"TAVÈRNOLES","nivel3":"AYUNTAMIENTO DE TAVÈRNOLES","codigoInvente":null},{"id":1106424,"mrr":false,"numeroConvocatoria":"904863","descripcion":"CONVOCATORIA SUBVENCIONES FOMENTEN LA MOVILIDAD DE JOVENS DE TAVÈRNOLAES EN AMBITO FORMATIVO 2026","descripcionLeng":"CONVOCATORIA SUBVENCIONS FOMENTIN LA MOBILITAT DELS JOVES DE TAVÈRNOLES EN L'AMBIT FORMATIU 2026","fechaRecepcion":"2026-05-11","nivel1":"LOCAL","nivel2":"TAVÈRNOLES","nivel3":"AYUNTAMIENTO DE TAVÈRNOLES","codigoInvente":null},{"id":1106423,"mrr":false,"numeroConvocatoria":"904862","descripcion":"CONVOCATORIA SUBVENCIONES PARA EL OTORGAMIENTO DE SUBVENCIONES PARA LA ADQUISICIÓN DE LIBROS DE TEXTO, MATERIAL ESCOLAR, CUOTAS DEL AMPA, DE GUARDERIA AÑO 2026","descripcionLeng":"CONVOCATORIA SUBVENCIONS PER LA L'ADQUISICIÓ DE LLIBRES DE TEXT, MATERIAL ESCOLAR, QUOTES DE L'AFA, SORTIDES O COLÒNIES I QUOTES DE LLAR D'INFANTS ANY 2026","fechaRecepcion":"2026-05-11","nivel1":"LOCAL","nivel2":"TAVÈRNOLES","nivel3":"AYUNTAMIENTO DE TAVÈRNOLES","codigoInvente":null},{"id":1106422,"mrr":false,"numeroConvocatoria":"904861","descripcion":"Acuerdo de la Junta de Gobierno Local de fecha 24 de abril de 2026 por el que se aprueba la convocatoria para la concesión de subvenciones por procedimiento de concurrencia competitiva para la mejora de accesibilidad a las viviendas unifamiliares.","descripcionLeng":null,"fechaRecepcion":"2026-05-11","nivel1":"LOCAL","nivel2":"MERUELO","nivel3":"AYUNTAMIENTO DE MERUELO","codigoInvente":null},{"id":1106421,"mrr":false,"numeroConvocatoria":"904860","descripcion":"Convocatoria para la concesión de subvenciones en diversas áreas para el año 2026","descripcionLeng":"Convocatòria entara concession de subvencions en diuèrsi airaus entar an 2026","fechaRecepcion":"2026-05-11","nivel1":"LOCAL","nivel2":"CONSELL COMARCAL DE VAL D'ARAN","nivel3":"CONSELL COMARCAL DE VAL D'ARAN","codigoInvente":null},{"id":1106420,"mrr":false,"numeroConvocatoria":"904859","descripcion":"Convocatoria para la concesión de subvenciones en el área de cultura y lengua para el año 2026","descripcionLeng":"Convocatòria entara concession de subvencions en airau de cultura e lengua entar an 2026","fechaRecepcion":"2026-05-11","nivel1":"LOCAL","nivel2":"CONSELL COMARCAL DE VAL D'ARAN","nivel3":"CONSELL COMARCAL DE VAL D'ARAN","codigoInvente":null},{"id":1106419,"mrr":false,"numeroConvocatoria":"904858","descripcion":"Beca d 'iniciació a la investigació (Projecte «STEREOLITHOGRAPHY 3D PRINTED DENTURE BASE PHOTOPOLYMERS FUNCTIONALIZED WITH LASER GENERATED ANTIMICROBIAL NANOPARTICLES» – Codi 24I476 – Dirigit per: Carlos Doñate Buendía, Institut Universitar","descripcionLeng":"Beca d 'iniciació a la investigació (Projecte «STEREOLITHOGRAPHY 3D PRINTED DENTURE BASE PHOTOPOLYMERS FUNCTIONALIZED WITH LASER GENERATED ANTIMICROBIAL NANOPARTICLES» – Codi 24I476 – Dirigit per: Carlos Doñate Buendía, Institut Universitar","fechaRecepcion":"2026-05-11","nivel1":"OTROS","nivel2":"UNIVERSIDAD JAUME I DE CASTELLÓN","nivel3":null,"codigoInvente":"INV00005381"},{"id":1106418,"mrr":false,"numeroConvocatoria":"904857","descripcion":"Convocatoria para la concesión de subvenciones en el área de deportes para el año 2026","descripcionLeng":"Convocatòria entara concession de subvencions en airau d'espòrts entar an 2026","fechaRecepcion":"2026-05-11","nivel1":"LOCAL","nivel2":"CONSELL COMARCAL DE VAL D'ARAN","nivel3":"CONSELL COMARCAL DE VAL D'ARAN","codigoInvente":null},{"id":1106417,"mrr":false,"numeroConvocatoria":"904856","descripcion":"Convocatoria y bases de ayudas de matrícula para estudiantado del grado en Maestro o Maestra que supere las pruebas de acreditación de CIEACOVA de nivel C1 de catalán,","descripcionLeng":null,"fechaRecepcion":"2026-05-11","nivel1":"OTROS","nivel2":"UNIVERSIDAD JAUME I DE CASTELLÓN","nivel3":null,"codigoInvente":"INV00005381"},{"id":1106403,"mrr":false,"numeroConvocatoria":"904842","descripcion":"Decreto de CONVOCATORIA DE AYUDAS PARA LIBROS Y/O MATERIAL ESCOLAR, EJERCICIO 2026.","descripcionLeng":null,"fechaRecepcion":"2026-05-11","nivel1":"LOCAL","nivel2":"LUCENA","nivel3":"AYUNTAMIENTO DE LUCENA","codigoInvente":null},{"id":1106402,"mrr":false,"numeroConvocatoria":"904841","descripcion":"Subvenciones del ámbito de cultura dirigidas a Asociaciones y Casas Regionales","descripcionLeng":null,"fechaRecepcion":"2026-05-11","nivel1":"LOCAL","nivel2":"ALCOBENDAS","nivel3":"AYUNTAMIENTO DE ALCOBENDAS","codigoInvente":null},{"id":1106401,"mrr":false,"numeroConvocatoria":"904840","descripcion":"Beca d 'iniciació a la investigació (Projecte «MODALITAT A: AJUDES COMPLEMENTÀRIES ALS PROJECTES D’INVESTIGACIÓ CAPTATS PEL PERSONAL INVESTIGADOR DE LA UNIVERSITAT JAUME I DINS DEL PEICTI I DEL PROGRAMA R+D+I DE LA GENERALITAT VALENCIANA» –","descripcionLeng":null,"fechaRecepcion":"2026-05-11","nivel1":"OTROS","nivel2":"UNIVERSIDAD JAUME I DE CASTELLÓN","nivel3":null,"codigoInvente":"INV00005381"},{"id":1106400,"mrr":false,"numeroConvocatoria":"904839","descripcion":"Beca d 'iniciació a la investigació (Projecte «EL AUTOCUIDADO EN LA POBLACIÓN ADULTA MAYOR AFECTADA DE OSTEOPOROSIS: UN ESTUDIO OBSERVACIONAL» – Codi 24I473 – Dirigit per: Vicente Bernalte Martí, Unitat Predepartamental d'Infermeria)","descripcionLeng":"Beca d 'iniciació a la investigació (Projecte «EL AUTOCUIDADO EN LA POBLACIÓN ADULTA MAYOR AFECTADA DE OSTEOPOROSIS: UN ESTUDIO OBSERVACIONAL» – Codi 24I473 – Dirigit per: Vicente Bernalte Martí, Unitat Predepartamental d'Infermeria)","fechaRecepcion":"2026-05-11","nivel1":"OTROS","nivel2":"UNIVERSIDAD JAUME I DE CASTELLÓN","nivel3":null,"codigoInvente":"INV00005381"},{"id":1106399,"mrr":false,"numeroConvocatoria":"904838","descripcion":"Becas de matrícula para estudiantes del Máster Oficial en Derecho y Violencia de Género de la Universitat de València, curso 2025-26","descripcionLeng":"Beques de matrícula per estudiants del Màster Oficial en Dret i Violència de Gènere de la Universitat de València, curs 2025-26","fechaRecepcion":"2026-05-11","nivel1":"OTROS","nivel2":"UNIVERSITAT DE VALÈNCIA (ESTUDI GENERAL)","nivel3":null,"codigoInvente":"INV00005380"},{"id":1106397,"mrr":false,"numeroConvocatoria":"904836","descripcion":"Resolución, de 7 de mayo de 2026, de la Dirección de la AECID por la que se aprueba convocatoria de concesión de subvenciones para la realización de convenios de cooperación para el desarrollo sostenible y la solidaridad global para el periodo 2026-2029.","descripcionLeng":null,"fechaRecepcion":"2026-05-11","nivel1":"ESTADO","nivel2":"MINISTERIO DE ASUNTOS EXTERIORES, UNIÓN EUROPEA Y COOPERACIÓN","nivel3":"AGENCIA ESTATAL AGENCIA ESPAÑOLA DE COOPERACIÓN INTERNACIONAL PARA EL DESARROLLO","codigoInvente":"INV00000095"},{"id":1106396,"mrr":false,"numeroConvocatoria":"904835","descripcion":"Becas de matrícula para el estudiantado del Máster Oficial en Género y Políticas de Igualdad de la UV, curso 2025-26","descripcionLeng":"Beques de matrícula per a l'estudiantat del Màster Oficial en Gènere i Polítiques d´Igualtat de la Universitat de València, curs 2025-26","fechaRecepcion":"2026-05-11","nivel1":"OTROS","nivel2":"UNIVERSITAT DE VALÈNCIA (ESTUDI GENERAL)","nivel3":null,"codigoInvente":"INV00005380"},{"id":1106395,"mrr":false,"numeroConvocatoria":"904834","descripcion":"RES. DEL RECTORADO  UNIV. DE VALLADOLID, DE 11/05/2026 , POR LA QUE SE ESTABLECEN REQUISITOS CONCESIÓN \nAYUDAS “BECAS SANTANDER | AYUDA ECONÓMICA 2026”,\n PARA ESTUDIANTES MATRICULADOS EN ENSEÑANZAS GRADO Y MÁSTER, CENTROS PROPIOS, CURSO 26/27","descripcionLeng":null,"fechaRecepcion":"2026-05-11","nivel1":"OTROS","nivel2":"UNIVERSIDAD DE VALLADOLID","nivel3":null,"codigoInvente":"INV00005351"},{"id":1106393,"mrr":false,"numeroConvocatoria":"904832","descripcion":"GC CONVOCATORIA DE SUBVENCIONES A LOS AYUNTAMIENTOS DE GRAN CANARIA PARA LA REALIZACIÓN DE ACTUACIONES MUNICIPALES PARA LA MEJORA DEL SECTOR PRIMARIO DE GRAN CANARIA 2026.","descripcionLeng":null,"fechaRecepcion":"2026-05-11","nivel1":"LOCAL","nivel2":"CABILDO INSULAR DE GRAN CANARIA","nivel3":"CABILDO INSULAR DE GRAN CANARIA","codigoInvente":null},{"id":1106390,"mrr":false,"numeroConvocatoria":"904829","descripcion":"Convocatoria pública de subvenciones en materia de turismo en régimen de concurrencia competitiva para las entidades locales del Principado de Asturias en el año 2026.","descripcionLeng":null,"fechaRecepcion":"2026-05-11","nivel1":"AUTONOMICA","nivel2":"PRINCIPADO DE ASTURIAS","nivel3":"CONSEJERÍA DE PRESIDENCIA, RETO DEMOGRÁFICO, IGUALDAD Y TURISMO","codigoInvente":null},{"id":1106389,"mrr":false,"numeroConvocatoria":"904828","descripcion":"Convocatoria pública de subvenciones en materia de turismo en régimen de concurrencia competitiva para las entidades locales del Principado de Asturias en el año 2026.","descripcionLeng":null,"fechaRecepcion":"2026-05-11","nivel1":"AUTONOMICA","nivel2":"PRINCIPADO DE ASTURIAS","nivel3":"CONSEJERÍA DE PRESIDENCIA, RETO DEMOGRÁFICO, IGUALDAD Y TURISMO","codigoInvente":null},{"id":1106388,"mrr":false,"numeroConvocatoria":"904827","descripcion":"Convocatoria pública de subvenciones en materia de turismo en régimen de concurrencia competitiva para las entidades locales del Principado de Asturias en el año 2026. LINEA 7","descripcionLeng":null,"fechaRecepcion":"2026-05-11","nivel1":"AUTONOMICA","nivel2":"PRINCIPADO DE ASTURIAS","nivel3":"CONSEJERÍA DE PRESIDENCIA, RETO DEMOGRÁFICO, IGUALDAD Y TURISMO","codigoInvente":null},{"id":1106387,"mrr":false,"numeroConvocatoria":"904826","descripcion":"Convocatoria pública de subvenciones en materia de turismo en régimen de concurrencia competitiva para las entidades locales del Principado de Asturias en el año 2026","descripcionLeng":null,"fechaRecepcion":"2026-05-11","nivel1":"AUTONOMICA","nivel2":"PRINCIPADO DE ASTURIAS","nivel3":"CONSEJERÍA DE PRESIDENCIA, RETO DEMOGRÁFICO, IGUALDAD Y TURISMO","codigoInvente":null},{"id":1106369,"mrr":false,"numeroConvocatoria":"904808","descripcion":"Convocatoria de ayudas económicas destinadas al fomento del empleo. Ayudas a la contratación. Anualidad 2026. PROGRAMA TALENTO 45+","descripcionLeng":null,"fechaRecepcion":"2026-05-11","nivel1":"OTROS","nivel2":"CÁMARA DE COMERCIO DE ANDÚJAR","nivel3":null,"codigoInvente":null},{"id":1106368,"mrr":false,"numeroConvocatoria":"904807","descripcion":"GC Convocatoria de subvenciones para la adquisición de fondos bibliográficos y documentales con destino a las bibliotecas y puntos de servicio bibliotecario de carácter público en los municipios de Gran Canaria. Anualidad 2026.","descripcionLeng":null,"fechaRecepcion":"2026-05-11","nivel1":"LOCAL","nivel2":"CABILDO INSULAR DE GRAN CANARIA","nivel3":"CABILDO INSULAR DE GRAN CANARIA","codigoInvente":null},{"id":1106367,"mrr":false,"numeroConvocatoria":"904806","descripcion":"Convocatoria becas de matrícula para estudiantado del Máster Universitario en Economía Social (cooperativas y entidades no lucrativas), curso 2025/26","descripcionLeng":"Convocatòria beques de matrícula per a estudiantat del Màster Universitari en Economia Social (cooperatives i entitats no lucratives), curs 2025/26","fechaRecepcion":"2026-05-11","nivel1":"OTROS","nivel2":"UNIVERSITAT DE VALÈNCIA (ESTUDI GENERAL)","nivel3":null,"codigoInvente":"INV00005380"},{"id":1106366,"mrr":false,"numeroConvocatoria":"904805","descripcion":"CONVOCATORIA CONCESIÓN SUBVENCIONES A DEPORTISTAS PARA LA REALIZACIÓN DE ACTUACIONES FEDERADAS TEMPORADA 2025/2026","descripcionLeng":null,"fechaRecepcion":"2026-05-11","nivel1":"LOCAL","nivel2":"SAN VICENTE DEL RASPEIG/SANT VICENT DEL RASPEIG","nivel3":"AYUNTAMIENTO DE SAN VICENTE DEL RASPEIG/SANT VICENT DEL RASPEIG","codigoInvente":null},{"id":1106365,"mrr":false,"numeroConvocatoria":"904804","descripcion":"PREMIOS NACIONALES A LA PROTECCIÓN ANIMAL.","descripcionLeng":null,"fechaRecepcion":"2026-05-11","nivel1":"ESTADO","nivel2":"MINISTERIO DE DERECHOS SOCIALES, CONSUMO Y AGENDA 2030","nivel3":"DIRECCIÓN GENERAL DE DERECHOS DE LOS ANIMALES","codigoInvente":null},{"id":1106364,"mrr":false,"numeroConvocatoria":"904803","descripcion":"Convocatoria de ayudas económicas destinadas al fomento del empleo Ayudas a la contratación. Anualidad 2026. PROGRAMA TALENTO JOVEN","descripcionLeng":null,"fechaRecepcion":"2026-05-11","nivel1":"OTROS","nivel2":"CÁMARA DE COMERCIO DE ANDÚJAR","nivel3":null,"codigoInvente":null},{"id":1106361,"mrr":false,"numeroConvocatoria":"904800","descripcion":"CONVOCATORIA CONCESIÓN SUBVENCIONES A CLUBES DE DEPORTES INDIVIDUALES O COLECTIVOS PARA LA REALIZACIÓN DE ACTUACIONES FEDERADAS EN LA TEMPORADA 2025/2026","descripcionLeng":null,"fechaRecepcion":"2026-05-11","nivel1":"LOCAL","nivel2":"SAN VICENTE DEL RASPEIG/SANT VICENT DEL RASPEIG","nivel3":"AYUNTAMIENTO DE SAN VICENTE DEL RASPEIG/SANT VICENT DEL RASPEIG","codigoInvente":null},{"id":1106359,"mrr":false,"numeroConvocatoria":"904798","descripcion":"Orden de la Consejería de Agua, Agricultura, Ganadería y Pesca, por la que se convocan ayudas públicas para la paralización temporal de la flota pesquera de la Región de Murcia, a efectos de 2026, del Fondo Europeo Marítimo, de Pesca y de Acuicultura","descripcionLeng":null,"fechaRecepcion":"2026-05-11","nivel1":"AUTONOMICA","nivel2":"REGIÓN DE MURCIA","nivel3":"CONSEJERÍA DE AGUA, AGRICULTURA, GANADERÍA Y PESCA","codigoInvente":null},{"id":1106355,"mrr":false,"numeroConvocatoria":"904794","descripcion":"CONVOCATORIA SUBVENCIONES 2025 IMPULSO ACTIVIDAD ECONÓMICA EN EL MUNICIPIO (II)","descripcionLeng":null,"fechaRecepcion":"2026-05-11","nivel1":"LOCAL","nivel2":"MARTORELL","nivel3":"AYUNTAMIENTO DE MARTORELL","codigoInvente":null},{"id":1106353,"mrr":false,"numeroConvocatoria":"904792","descripcion":"Convocatoria de becas Erasmus para Personal Docente e Investigador con el fin de realizar estancias de corta duración del BIP en “International Coimbra Group Summer School on European Multilingualism”, en la Università di Pavia, curso 2025/2026.","descripcionLeng":null,"fechaRecepcion":"2026-05-11","nivel1":"OTROS","nivel2":"UNIVERSIDAD DE SALAMANCA","nivel3":null,"codigoInvente":"INV00005348"},{"id":1106352,"mrr":false,"numeroConvocatoria":"904791","descripcion":"Orden conjunta de 5 de mayo de 2026, para la rehabilitación de viviendas destinadas a vivienda habitual de personas trabajadoras en la Comunidad Autónoma de Galicia (TR358E y TR358F). (Minimis general)","descripcionLeng":"Orde conjunta do 5 de maio de 2026, para a rehabilitación de vivendas destinadas a vivenda habitual de persoas traballadoras na Comunidade Autónoma de Galicia (TR358E e TR358F). (Minimis xeral) ","fechaRecepcion":"2026-05-11","nivel1":"AUTONOMICA","nivel2":"GALICIA","nivel3":"CONSELLERÍA DE EMPLEO, COMERCIO Y EMIGRACIÓN","codigoInvente":null},{"id":1106350,"mrr":false,"numeroConvocatoria":"904789","descripcion":"Orden conjunta de 5 de mayo de 2026, para la rehabilitación de viviendas destinadas a vivienda habitual de personas trabajadoras en la Comunidad Autónoma de Galicia (TR358E y TR358F). (Medida no sujeta)","descripcionLeng":"Orde conjunta do 5 de maio de 2026, para a rehabilitación de vivendas destinadas a vivenda habitual de persoas traballadoras na Comunidade Autónoma de Galicia (TR358E e TR358F). (Medida non suxeita) ","fechaRecepcion":"2026-05-11","nivel1":"AUTONOMICA","nivel2":"GALICIA","nivel3":"CONSELLERÍA DE EMPLEO, COMERCIO Y EMIGRACIÓN","codigoInvente":null},{"id":1106349,"mrr":false,"numeroConvocatoria":"904788","descripcion":"CONVOCATORIA DE SUBVENCIONES PARA OBRAS DE REPARACIÓN DE PRIMERA NECESIDAD EN VIVIENDAS DE PERSONAS EN SITUACIÓN DE VULNERABILIDAD, 2026.","descripcionLeng":null,"fechaRecepcion":"2026-05-11","nivel1":"LOCAL","nivel2":"CABILDO INSULAR DE GRAN CANARIA","nivel3":"CONSORCIO DE VIVIENDAS DE GRAN CANARIA","codigoInvente":"INV00000981"},{"id":1106347,"mrr":false,"numeroConvocatoria":"904786","descripcion":"CONVOCATORIA CONCESION DE PREMIOS DEL SEPTIMO CERTAMEN DE PINTURA AL AIRE LIBRE CIUDAD DE ILLESCAS 2026","descripcionLeng":null,"fechaRecepcion":"2026-05-11","nivel1":"LOCAL","nivel2":"ILLESCAS","nivel3":"AYUNTAMIENTO DE ILLESCAS","codigoInvente":null},{"id":1106346,"mrr":false,"numeroConvocatoria":"904785","descripcion":"Orden de 08/05/2026, Consejería de Turismo, Cultura, Juventud y Deportes, de convocatoria para la concesión de ayudas destinadas a jóvenes de la Región de Murcia que realicen prácticas laborales en el extranjero en el marco del programa Eurodisea en 2026","descripcionLeng":null,"fechaRecepcion":"2026-05-11","nivel1":"AUTONOMICA","nivel2":"REGIÓN DE MURCIA","nivel3":"CONSEJERÍA DE TURISMO, CULTURA, JUVENTUD Y DEPORTES","codigoInvente":null},{"id":1106342,"mrr":false,"numeroConvocatoria":"904781","descripcion":"Convocatoria de subvenciones para la conservación-restauración de bienes muebles y de los elementos arqueológicos y artísticos integrados en el patrimonio inmueble","descripcionLeng":"Convocatòria de subvencions per a la conservació-restauració de béns mobles i dels elements arqueològics i artístics integrats en el patrimoni immoble","fechaRecepcion":"2026-05-11","nivel1":"AUTONOMICA","nivel2":"CATALUÑA","nivel3":"OFICINA DE SUPORT A LA INICIATIVA CULTURAL","codigoInvente":null},{"id":1106341,"mrr":false,"numeroConvocatoria":"904780","descripcion":"PROGRAMA DE FOMENTO DE EMPLEO AGRARIO 2026. PROYECTOS GENERADORES DE EMPLEO ESTABLE","descripcionLeng":null,"fechaRecepcion":"2026-05-11","nivel1":"ESTADO","nivel2":"MINISTERIO DE TRABAJO Y ECONOMÍA SOCIAL","nivel3":"DIRECCIÓN PROVINCIAL DEL SEPE DE MÁLAGA","codigoInvente":null},{"id":1106339,"mrr":false,"numeroConvocatoria":"904778","descripcion":"PROGRAMA DE FOMENTO DE EMPLEO AGRARIO 2026. PROYECTOS GARANTÍA DE RENTAS","descripcionLeng":null,"fechaRecepcion":"2026-05-11","nivel1":"ESTADO","nivel2":"MINISTERIO DE TRABAJO Y ECONOMÍA SOCIAL","nivel3":"DIRECCIÓN PROVINCIAL DEL SEPE DE MÁLAGA","codigoInvente":null},{"id":1106338,"mrr":false,"numeroConvocatoria":"904777","descripcion":"Convocatoria de subvenciones para concesión de becas escolares en concepto de adquisición de libros y/o material escolar para alumnado de 2º ciclo de Educación Infantil y becas de comedor escolar para Educación Primaria e Infantil: curso 2026-2027.","descripcionLeng":null,"fechaRecepcion":"2026-05-11","nivel1":"LOCAL","nivel2":"SIERO","nivel3":"AYUNTAMIENTO DE SIERO","codigoInvente":null},{"id":1106334,"mrr":false,"numeroConvocatoria":"904773","descripcion":"Segunda edición de las ayudas para la promoción del asociacionismo y la participación entre la comunidad universitaria para el curso 2025/2026","descripcionLeng":null,"fechaRecepcion":"2026-05-11","nivel1":"OTROS","nivel2":"UNIVERSIDAD JAUME I DE CASTELLÓN","nivel3":null,"codigoInvente":"INV00005381"},{"id":1106332,"mrr":false,"numeroConvocatoria":"904771","descripcion":"RESOLUCIÓN de la Vicerrectora de Internacionalización, por la que se publican las BBRR y se convocan ayudas para la realización de cursos preparatorios de idioma para estudiantes de grado para realizar una estancia de movilidad internacional curso 26-27","descripcionLeng":null,"fechaRecepcion":"2026-05-11","nivel1":"OTROS","nivel2":"UNIVERSIDAD DE GRANADA","nivel3":null,"codigoInvente":"INV00005337"},{"id":1106331,"mrr":false,"numeroConvocatoria":"904770","descripcion":"CONVOCATORIA SUBVENCIONES A LAS PERSONAS AUTÓNOMAS, AUTÓNOMOS AGRARIOS, ENTIDADES DE ECONOMÍA SOCIAL, MICROPYMES Y PEQUEÑAS EMPRESAS PARA EL APOYO A LA RECUPERACIÓN DEL TEJIDO PRODUCTIVO TRAS LA ERUPCIÓN VOLCÁNICA.","descripcionLeng":null,"fechaRecepcion":"2026-05-11","nivel1":"LOCAL","nivel2":"CABILDO INSULAR DE LA PALMA","nivel3":"EXCMO. CABILDO INSULAR DE LA PALMA","codigoInvente":null},{"id":1106330,"mrr":false,"numeroConvocatoria":"904769","descripcion":"BASES REGULADORAS DE LA CONVOCATORIA DEL xxvii PREMIO DE INVESTIGACIÓN \"JOSEP RICARD I GIRALT\"","descripcionLeng":null,"fechaRecepcion":"2026-05-11","nivel1":"LOCAL","nivel2":"DIPUTACIÓN PROV. DE BARCELONA","nivel3":"CONSORCIO DE LAS REALES ATARAZANAS Y MUSEO MARITIMO DE BARCELONA","codigoInvente":null},{"id":1106329,"mrr":false,"numeroConvocatoria":"904768","descripcion":"CONVOCATORIA DE SUBVENCIONES PARA PROYECTOS DE COOPERACIÓN INTERNACIONAL AL DESARROLLO. 2026.","descripcionLeng":"CONVOCATÒRIA DE SUBVENCIONS PER A PROJECTES DE COOPERACIÓ INTERNACIONAL AL DESENRROTLLAMENT. 2026.","fechaRecepcion":"2026-05-11","nivel1":"LOCAL","nivel2":"ELCHE/ELX","nivel3":"AYUNTAMIENTO DE ELCHE/ELX","codigoInvente":null},{"id":1106328,"mrr":false,"numeroConvocatoria":"904767","descripcion":"Resolución de 6 de mayo de 2026 de la Secretaría de Estado de Educación por la que se convocan ayudas para la adquisición de libros de texto y material didáctico e informático para alumnos matriculados en centros docentes españoles en el exterior.","descripcionLeng":null,"fechaRecepcion":"2026-05-11","nivel1":"ESTADO","nivel2":"MINISTERIO DE EDUCACIÓN, FORMACIÓN PROFESIONAL Y DEPORTES","nivel3":"DIRECCIÓN GENERAL DE PLANIFICACIÓN Y GESTIÓN EDUCATIVA","codigoInvente":null},{"id":1106326,"mrr":false,"numeroConvocatoria":"904765","descripcion":"SUBVENCIONES A ENTIDADES DE ACCION SOCIAL","descripcionLeng":null,"fechaRecepcion":"2026-05-11","nivel1":"LOCAL","nivel2":"VINARÒS","nivel3":"AYUNTAMIENTO DE VINARÒS","codigoInvente":null},{"id":1106324,"mrr":false,"numeroConvocatoria":"904763","descripcion":"CONVOCATORIA SUBVENCIONES CONCURRENCIA COMPETITIVA PARA PROYECTOS DE COOPERACION AÑO 2026","descripcionLeng":null,"fechaRecepcion":"2026-05-11","nivel1":"LOCAL","nivel2":"GARRIGA, LA","nivel3":"AYUNTAMIENTO DE GARRIGA, LA","codigoInvente":null}],"pageable":{"sort":{"sorted":true,"unsorted":false,"empty":false},"pageNumber":3,"pageSize":50,"offset":150,"unpaged":false,"paged":true},"last":false,"totalPages":200,"totalElements":10000,"first":false,"sort":{"sorted":true,"unsorted":false,"empty":false},"numberOfElements":50,"size":50,"number":3,"empty":false,"advertencia":"La reutilización de los datos del Sistema Nacional de Publicidad de Subvenciones y Ayudas Públicas está sujeta a una serie de restricciones y consideraciones legales. Consulte el aviso legal en https://www.infosubvenciones.es/bdnstrans/GE/es/avisolegal.Además, el usuario debe ser consciente que la información presentada es de naturaleza dinámica, y que los datos pueden ser sometidos a correcciones, inserciones, modificaciones y eliminaciones en momentos posteriores a su extracción. Accesos al API del sistema Nacional de Publicidad de Subvenciones y Ayudas Públicas. La Administración Presupuestaria, para salvaguardar la protección del acceso libre e irrestricto de los ciudadanos a este Portal y a su información podrá adoptar medidas restrictivas de acceso al API ante situaciones de manifiesto abuso del servicio, riesgos de seguridad, o uso fraudulento de la información descargada, de acuerdo con las buenas prácticas de gestión de datos abiertos (https://datos.gob.es/es/blog/limitaciones-la-consulta-de-una-api) establecidas por el Ministerio para la Transformación Digital y de la Función Pública."}