{"content":[{"id":1110019,"mrr":false,"numeroConvocatoria":"908458","descripcion":"CONVENI ASSOCIACIÓ ESPAI MUSICAL DE MOIÀ SCCL","descripcionLeng":null,"fechaRecepcion":"2026-05-27","nivel1":"LOCAL","nivel2":"MOIÀ","nivel3":"AYUNTAMIENTO DE MOIÀ","codigoInvente":null},{"id":1110017,"mrr":false,"numeroConvocatoria":"908456","descripcion":"CONVOCATORIA DE SUBVENCIONES PARA ACTIVIDADES DE LA ENTIDADES SIN ÁNIMO DE LUCRO DE LA COMARCA DEL BAJO CINCA/ BAIX CINCA PARA EL EJERCICIO 2026","descripcionLeng":null,"fechaRecepcion":"2026-05-27","nivel1":"LOCAL","nivel2":"COMARCA DE BAJO CINCA/BAIX CINCA","nivel3":"COMARCA DE BAJO CINCA/BAIX CINCA","codigoInvente":null},{"id":1110008,"mrr":false,"numeroConvocatoria":"908447","descripcion":"BASES REGULADORAS ESPECIFICAS PARA LA CONVOCATORIA EL PROGRAMA DE REACTIVACIÓN DEL PEQUEÑO COMERCIO LOCAL Y LOS INCENTIVOS AL CONSUMO EN LOS ESTABLECIMIENTOS DEL SECTOR COMERCIAL Y DE SERVICIOS DEL AYUNTAMIENTO DE GETXO. «BONO GETXO 2026»","descripcionLeng":"GETXOKO UDALAREN MERKATARITZA- ETA ZERBITZU-SEKTOREKO ESTABLEZIMENDUETAN TOKIKO MERKATARITZA TXIKIA SUSPERTZEKO PROGRAMAREN ETA KONTSUMORAKO PIZGARRIEN DEIALDIRAKO OINARRI ARAUTZAILE ESPEZIFIKOAK. «GETXO 2026 BONUA».","fechaRecepcion":"2026-05-27","nivel1":"LOCAL","nivel2":"GETXO","nivel3":"AYUNTAMIENTO DE GETXO","codigoInvente":null},{"id":1110006,"mrr":false,"numeroConvocatoria":"908445","descripcion":"CONVOCATORIA DE SUBVENCIONES PARA ACTIVIDADES QUE REALICEN LAS ASOCIACIONES Y ENTIDADES SIN ÁNIMO DE LUCRO EN PUIG-REIG DURANTE EL AÑO 2026","descripcionLeng":"CONVOCATÒRIA DE SUBVENCIONS PER A ACTIVITATS QUE REALITZIJ LES ASSOCIACIONS I ENTITATS SENSE ÀNIM DE LUCRE A PUIG-REIG DURANT L`ANY 2026.","fechaRecepcion":"2026-05-27","nivel1":"LOCAL","nivel2":"PUIG-REIG","nivel3":"AYUNTAMIENTO DE PUIG-REIG","codigoInvente":null},{"id":1110005,"mrr":false,"numeroConvocatoria":"908444","descripcion":"CONVOCATORIA PÚBLICA PARA LA CONCESIÓN DE AYUDAS ESCOLARES DE EMERGENCIA SOCIAL, COMPLEMENTARIAS A LA ESCOLARIZACIÓN OBLIGATORIA CURSO 2026/2027","descripcionLeng":null,"fechaRecepcion":"2026-05-27","nivel1":"LOCAL","nivel2":"TACORONTE","nivel3":"AYUNTAMIENTO DE TACORONTE","codigoInvente":null},{"id":1109997,"mrr":false,"numeroConvocatoria":"908436","descripcion":"convocatoria de subvenciones del casal de verano 2026 de los niños de Sant Martí Vell","descripcionLeng":"convocatòria de subvencions del casal d'estiu 2026 dels nens de Sant Martí Vell","fechaRecepcion":"2026-05-27","nivel1":"LOCAL","nivel2":"SANT MARTÍ VELL","nivel3":"AYUNTAMIENTO DE SANT MARTÍ VELL","codigoInvente":null},{"id":1109996,"mrr":false,"numeroConvocatoria":"908435","descripcion":"AjutMenj2425_24_PIA","descripcionLeng":null,"fechaRecepcion":"2026-05-27","nivel1":"LOCAL","nivel2":"CONSELL COMARCAL  DEL MOIANÈS","nivel3":"CONSELL COMARCAL  DEL MOIANÈS","codigoInvente":null},{"id":1109995,"mrr":false,"numeroConvocatoria":"908434","descripcion":"AjutMenj2425_24_sOLO","descripcionLeng":null,"fechaRecepcion":"2026-05-27","nivel1":"LOCAL","nivel2":"CONSELL COMARCAL  DEL MOIANÈS","nivel3":"CONSELL COMARCAL  DEL MOIANÈS","codigoInvente":null},{"id":1109994,"mrr":false,"numeroConvocatoria":"908433","descripcion":"AjutMenj2425_24_eMONISTROL","descripcionLeng":null,"fechaRecepcion":"2026-05-27","nivel1":"LOCAL","nivel2":"CONSELL COMARCAL  DEL MOIANÈS","nivel3":"CONSELL COMARCAL  DEL MOIANÈS","codigoInvente":null},{"id":1109993,"mrr":false,"numeroConvocatoria":"908432","descripcion":"AjutMenj2425_24_pCASTELLCIR","descripcionLeng":null,"fechaRecepcion":"2026-05-27","nivel1":"LOCAL","nivel2":"CONSELL COMARCAL  DEL MOIANÈS","nivel3":"CONSELL COMARCAL  DEL MOIANÈS","codigoInvente":null},{"id":1109992,"mrr":false,"numeroConvocatoria":"908431","descripcion":"AjutMenj2425_24_vCOLLSUSPINA","descripcionLeng":null,"fechaRecepcion":"2026-05-27","nivel1":"LOCAL","nivel2":"CONSELL COMARCAL  DEL MOIANÈS","nivel3":"CONSELL COMARCAL  DEL MOIANÈS","codigoInvente":null},{"id":1109991,"mrr":false,"numeroConvocatoria":"908430","descripcion":"AjutMenj2425_24_SQS","descripcionLeng":null,"fechaRecepcion":"2026-05-27","nivel1":"LOCAL","nivel2":"CONSELL COMARCAL  DEL MOIANÈS","nivel3":"CONSELL COMARCAL  DEL MOIANÈS","codigoInvente":null},{"id":1109990,"mrr":false,"numeroConvocatoria":"908429","descripcion":"AjutMenj2425_24_LESTANY","descripcionLeng":null,"fechaRecepcion":"2026-05-27","nivel1":"LOCAL","nivel2":"CONSELL COMARCAL  DEL MOIANÈS","nivel3":"CONSELL COMARCAL  DEL MOIANÈS","codigoInvente":null},{"id":1109989,"mrr":false,"numeroConvocatoria":"908428","descripcion":"AjutMenj2425_24_abpCALDERS","descripcionLeng":null,"fechaRecepcion":"2026-05-27","nivel1":"LOCAL","nivel2":"CONSELL COMARCAL  DEL MOIANÈS","nivel3":"CONSELL COMARCAL  DEL MOIANÈS","codigoInvente":null},{"id":1109988,"mrr":false,"numeroConvocatoria":"908427","descripcion":"AjutMenj2425_24_IEC","descripcionLeng":null,"fechaRecepcion":"2026-05-27","nivel1":"LOCAL","nivel2":"CONSELL COMARCAL  DEL MOIANÈS","nivel3":"CONSELL COMARCAL  DEL MOIANÈS","codigoInvente":null},{"id":1109987,"mrr":false,"numeroConvocatoria":"908426","descripcion":"AjutMenj2425_24_JOR","descripcionLeng":null,"fechaRecepcion":"2026-05-27","nivel1":"LOCAL","nivel2":"CONSELL COMARCAL  DEL MOIANÈS","nivel3":"CONSELL COMARCAL  DEL MOIANÈS","codigoInvente":null},{"id":1109986,"mrr":false,"numeroConvocatoria":"908425","descripcion":"CONVOCATORIA DE SUBVENCIONES DEL SERVICIO DE PRESIDENCIA DESTINADA  AYUNTAMIENTOS Y ENTIDADES LOCALES MENORES DE ALBACETE PARA LA CONTRATACIÓN DE PERSONAL Y EMPRESAS DE SERVICIOS PARA EL MANTENIMIENTO DE INFRAESTRUCTURAS Y ESPACIOS MUNICIPALES 2026","descripcionLeng":null,"fechaRecepcion":"2026-05-27","nivel1":"LOCAL","nivel2":"DIPUTACIÓN PROV. DE ALBACETE","nivel3":"DIPUTACIÓN PROVINCIAL DE ALBACETE","codigoInvente":null},{"id":1109980,"mrr":false,"numeroConvocatoria":"908419","descripcion":"CONVOCATORIA DE SUBVENCIONES PARA LA FINANCIACIÓN DE PROYECTOS NO PRODUCTIVOS (AYUNTAMIENTOS) EN EL MARCO DE LA INTERVENCIÓN 7119.2 LEADER DEL PLAN ESTRATÉGICO NACIONAL PEPAC 2023-2027, EN BASE A LA ESTRATEGIA DE DESARROLLO DEL GAL ADISAC - LA VOZ","descripcionLeng":null,"fechaRecepcion":"2026-05-27","nivel1":"OTROS","nivel2":"ADISAC LA VOZ - ASOCIACIÓN PARA EL DESARROLLO INTEGRADO DE SANABRIA Y CARBALLEDA - LA VOZ","nivel3":null,"codigoInvente":null},{"id":1109978,"mrr":false,"numeroConvocatoria":"908417","descripcion":"BASES AYUDAS ADQUISICIÓN MATERIAL ESCOLAR DEL AYUNTAMIENTO DE SOUTOMAIOR, CURSO ESCOLAR 2026-2027","descripcionLeng":"BASES AYUDAS ADQUISICIÓN MATERIAL ESCOLAR DEL AYUNTAMIENTO DE SOUTOMAIOR, CURSO ESCOLAR 2026-2027","fechaRecepcion":"2026-05-27","nivel1":"LOCAL","nivel2":"SOUTOMAIOR","nivel3":"AYUNTAMIENTO DE SOUTOMAIOR","codigoInvente":null},{"id":1109976,"mrr":false,"numeroConvocatoria":"908415","descripcion":"SUBVENCION DESTINADA A LA GANADERÍA DEL MUNICIPIO DE INGENIO, PARA ATENUAR EL IMPACTO ECONÓMICO DEL INCREMENTO DEL COSTO DE LAS PRODUCCIONES GANADERAS, ANUALIDAD 2026.","descripcionLeng":null,"fechaRecepcion":"2026-05-27","nivel1":"LOCAL","nivel2":"INGENIO","nivel3":"AYUNTAMIENTO DE INGENIO","codigoInvente":null},{"id":1109971,"mrr":false,"numeroConvocatoria":"908410","descripcion":"Convenio de colaboración entre el Ayuntamiento de Ferrol y la entidad Banco de Alimento provincia de A Coruña","descripcionLeng":null,"fechaRecepcion":"2026-05-27","nivel1":"LOCAL","nivel2":"FERROL","nivel3":"AYUNTAMIENTO DE FERROL","codigoInvente":null},{"id":1109969,"mrr":false,"numeroConvocatoria":"908408","descripcion":"Convenio de colaboración entre el Ayuntamiento de Ferrol y la entidad Acción Familiar Ferrol","descripcionLeng":"Convenio de colaboración entre o Concello de Ferrol e a entidade Acción Familiar Ferrol","fechaRecepcion":"2026-05-27","nivel1":"LOCAL","nivel2":"FERROL","nivel3":"AYUNTAMIENTO DE FERROL","codigoInvente":null},{"id":1109968,"mrr":false,"numeroConvocatoria":"908407","descripcion":"CONVOCATORIA DE SUBVENCIONES, EN RÉGIMEN DE CONCURRENCIA COMPETITIVA, DESTINADAS A LA PUESTA EN MARCHA DE PROYECTOS EN EL ÁMBITO DE LAS PRESTACIONES BÁSICAS DE SERVICIOS SOCIALES, EJERCICIO 2026.","descripcionLeng":null,"fechaRecepcion":"2026-05-27","nivel1":"LOCAL","nivel2":"REALEJOS, LOS","nivel3":"AYUNTAMIENTO DE REALEJOS, LOS","codigoInvente":null},{"id":1109965,"mrr":false,"numeroConvocatoria":"908404","descripcion":"Convenio de colaboración entre el Ayuntamiento de Ferrol y la entidad Asociación Parkinson Ferrol","descripcionLeng":"Convenio de colaboración entre o concello de Ferrol e a entidade  Asociación Parkinson Ferrol","fechaRecepcion":"2026-05-27","nivel1":"LOCAL","nivel2":"FERROL","nivel3":"AYUNTAMIENTO DE FERROL","codigoInvente":null},{"id":1109962,"mrr":false,"numeroConvocatoria":"908401","descripcion":"Bases y Convocatoria de ayudas al fomento de la rehabilitación de viviendas de titularidad privada. Programa para combatir la despoblación en el medio rural del Plan de Vivienda de Canarias 2020-2025. Convocatoria 2025","descripcionLeng":null,"fechaRecepcion":"2026-05-27","nivel1":"LOCAL","nivel2":"ALAJERÓ","nivel3":"AYUNTAMIENTO DE ALAJERÓ","codigoInvente":null},{"id":1109960,"mrr":false,"numeroConvocatoria":"908399","descripcion":"Subvenciones de concurrencia competitiva para el fomento del programa del deporte escolar para las Ampas de Centros Educativos de Aranda de Duero","descripcionLeng":null,"fechaRecepcion":"2026-05-27","nivel1":"LOCAL","nivel2":"ARANDA DE DUERO","nivel3":"AYUNTAMIENTO DE ARANDA DE DUERO","codigoInvente":null},{"id":1109959,"mrr":false,"numeroConvocatoria":"908398","descripcion":"PREMIO IRUN EKINTZAN A LA INNOVACIÓN EN LA EMPRESA 2026","descripcionLeng":"IRUN EKINTZAN SARIA ENPRESAKO BERRIKUNTZARI 2025","fechaRecepcion":"2026-05-27","nivel1":"LOCAL","nivel2":"IRUN","nivel3":"AYUNTAMIENTO DE IRUN","codigoInvente":null},{"id":1109955,"mrr":false,"numeroConvocatoria":"908394","descripcion":" Subvención a entidades promotoras de la enseñanza de euskera a personas adultas 2026-2027","descripcionLeng":"Helduen euskalduntzea sustatzen duten entitateendako dirulaguntza 2026-2027","fechaRecepcion":"2026-05-27","nivel1":"AUTONOMICA","nivel2":"COMUNIDAD FORAL DE NAVARRA","nivel3":"EUSKARABIDEA / INSTITUTO NAVARRO DEL EUSKERA","codigoInvente":"INV00002165"},{"id":1109954,"mrr":false,"numeroConvocatoria":"908393","descripcion":"CONVOCATORIA DE SUBVENCIÓN DEL AYUNTAMIENTO DE LOS REALEJOS, EN RÉGIMEN DE CONCURRENCIA COMPETITIVA, DESTINADA A ENTIDADES DEPORTIVAS Y DEPORTISTAS INDIVIDUALES PARA EL AÑO 2026.","descripcionLeng":null,"fechaRecepcion":"2026-05-27","nivel1":"LOCAL","nivel2":"REALEJOS, LOS","nivel3":"AYUNTAMIENTO DE REALEJOS, LOS","codigoInvente":null},{"id":1109953,"mrr":false,"numeroConvocatoria":"908392","descripcion":"CONVOCATORIA DE SUBVENCIONES EN MATERIA DE ACCIÓN SOCIAL PARA ENTIDADES SIN ÁNIMO DE LUCRO DE LA COMARCA COMUNIDAD DE TERUEL DURANTE EL EJERCICIO 2026","descripcionLeng":null,"fechaRecepcion":"2026-05-27","nivel1":"LOCAL","nivel2":"COMARCA COMUNIDAD DE TERUEL","nivel3":"COMARCA DE COMUNIDAD DE TERUEL","codigoInvente":null},{"id":1109950,"mrr":false,"numeroConvocatoria":"908389","descripcion":"SEGUNDA CONVOCATORIA PARA LA SELECCIÓN DE PARTICIPANTES Y CONCESIÓN DE BECAS DE FORMACIÓN EN LOS ITINERARIOS DE INSERCIÓN LABORAL DEL PROYECTO “VÉLEZ-MÁLAGA INTEGRA+”, FINANCIADO POR EL PROGRAMA DE EMPLEO, EDUCACIÓN, FORMACIÓN Y ECONOMÍA SOCIAL, DEL FSE+","descripcionLeng":null,"fechaRecepcion":"2026-05-27","nivel1":"LOCAL","nivel2":"VÉLEZ-MÁLAGA","nivel3":"AYUNTAMIENTO DE VÉLEZ-MÁLAGA","codigoInvente":null},{"id":1109948,"mrr":false,"numeroConvocatoria":"908387","descripcion":"Convocatoria correspondiente a 2026 de las ayudas establecidas para el apoyo a Agrupaciones Empresariales Innovadoras con objeto de mejorar la competitividad de las pequeñas y medianas empresas.","descripcionLeng":null,"fechaRecepcion":"2026-05-27","nivel1":"ESTADO","nivel2":"MINISTERIO DE INDUSTRIA Y TURISMO","nivel3":"DIRECCIÓN GENERAL DE ESTRATEGIA INDUSTRIAL Y DE LA PEQUEÑA Y MEDIANA EMPRESA","codigoInvente":null},{"id":1109945,"mrr":false,"numeroConvocatoria":"908384","descripcion":"CONVOCATORIA PARA LA CONCESIÓN DE SUBVENCIONES DESTINADAS A LA FINANCIACIÓN DE PROYECTOS DE COOPERACIÓN PARA EL DESARROLLO Y SENSIBILIZACIÓN 2026.","descripcionLeng":null,"fechaRecepcion":"2026-05-27","nivel1":"LOCAL","nivel2":"COMARCA COMUNIDAD DE TERUEL","nivel3":"COMARCA DE COMUNIDAD DE TERUEL","codigoInvente":null},{"id":1109943,"mrr":false,"numeroConvocatoria":"908382","descripcion":"Becas para la realización de prácticas en países extracomunitarios 2026-2027","descripcionLeng":null,"fechaRecepcion":"2026-05-27","nivel1":"AUTONOMICA","nivel2":"COMUNIDAD FORAL DE NAVARRA","nivel3":"DEPARTAMENTO DE INDUSTRIA Y DE TRANSICION ECOLOGICA Y DIGITAL EMPRESARIAL","codigoInvente":null},{"id":1109938,"mrr":false,"numeroConvocatoria":"908377","descripcion":"Ayudas a la contratación Talento Joven. Anualidad 2026. Cámara de Comercio de Ciudad Real","descripcionLeng":null,"fechaRecepcion":"2026-05-27","nivel1":"OTROS","nivel2":"CÁMARA DE COMERCIO DE CIUDAD REAL","nivel3":null,"codigoInvente":null},{"id":1109937,"mrr":false,"numeroConvocatoria":"908376","descripcion":"CONVOCATORIA PARA LA CONCESIÓN DE SUBVENCIONES EN MATERIA DE LAS FIESTAS PATRONALES DE LOS BARRIOS. AÑO 2026.","descripcionLeng":null,"fechaRecepcion":"2026-05-27","nivel1":"LOCAL","nivel2":"TERUEL","nivel3":"AYUNTAMIENTO DE TERUEL","codigoInvente":null},{"id":1109935,"mrr":false,"numeroConvocatoria":"908374","descripcion":"Convocatoria para la concesión de subvenciones destinadas al fomento de la rehabilitación edificatoria y la renovación urbana de Mallén","descripcionLeng":null,"fechaRecepcion":"2026-05-27","nivel1":"LOCAL","nivel2":"MALLÉN","nivel3":"AYUNTAMIENTO DE MALLÉN","codigoInvente":null},{"id":1109932,"mrr":false,"numeroConvocatoria":"908371","descripcion":"Resolución 12 de marzo  de 2026, de la Secretaría de Estado de Sanidad, por la que se convoca concesión de ayudas económicas a entidades privadas sin fines de lucro y de ámbito estatal, para la realización de programas supracomunitarios sobre adicciones","descripcionLeng":null,"fechaRecepcion":"2026-05-27","nivel1":"ESTADO","nivel2":"MINISTERIO DE SANIDAD","nivel3":"DELEGACIÓN DEL GOBIERNO PARA EL PLAN NACIONAL SOBRE DROGAS","codigoInvente":null},{"id":1109930,"mrr":false,"numeroConvocatoria":"908369","descripcion":"Resolución de 22/05/2026 subvenciones provisión de estancias de personas jóvenes proyectos Cooperación 2026","descripcionLeng":null,"fechaRecepcion":"2026-05-27","nivel1":"AUTONOMICA","nivel2":"CASTILLA-LA MANCHA","nivel3":"VICECONSEJERÍA DE SERVICIOS Y PRESTACIONES SOCIALES","codigoInvente":null},{"id":1109926,"mrr":false,"numeroConvocatoria":"908365","descripcion":"Ayudas a la contratación Talento 45+. Anualidad 2026.Cámara de Comercio de Ciudad Real","descripcionLeng":"Ayudas a la contratación Talento 45+ .Anualidad 2026. Cámara de Comercio de Ciudad Real","fechaRecepcion":"2026-05-27","nivel1":"OTROS","nivel2":"CÁMARA DE COMERCIO DE CIUDAD REAL","nivel3":null,"codigoInvente":null},{"id":1109912,"mrr":false,"numeroConvocatoria":"908351","descripcion":"Resolución de la Vicerrectora de Investigación de la Universidad de Oviedo para la contratación de personal investigador y técnico de apoyo, según artículo 23.bis de la Ley 14/2011 de la Ciencia, la Tecnología y la Innovación (Marzo extra 1- 2026)","descripcionLeng":null,"fechaRecepcion":"2026-05-27","nivel1":"OTROS","nivel2":"UNIVERSIDAD DE OVIEDO","nivel3":null,"codigoInvente":"INV00005347"},{"id":1109909,"mrr":false,"numeroConvocatoria":"908348","descripcion":"COVVOCATORIA AYUDAS PLAN DE ATENCIÓN INMEDIATA EJERCICIO 2026","descripcionLeng":null,"fechaRecepcion":"2026-05-27","nivel1":"LOCAL","nivel2":"MARBELLA","nivel3":"AYUNTAMIENTO DE MARBELLA","codigoInvente":null},{"id":1109908,"mrr":false,"numeroConvocatoria":"908347","descripcion":"SELECCIÓN DE PARTICIPANTES PARA PROGRAMAS INTENSIVOS COMBINADOS (BLENDED INTENSIVE PROGRAMMES / BIPS) EN OTRAS INSTITUCIONES SOCIAS DURANTE 2026 A TRAVÉS DEL PROGRAMA DE MOVILIDAD ERASMUS+ KA131 DE LA UNIVERSIDAD DE ALICANTE, 2ª EDICIÓN","descripcionLeng":null,"fechaRecepcion":"2026-05-27","nivel1":"OTROS","nivel2":"UNIVERSIDAD DE ALICANTE","nivel3":null,"codigoInvente":"INV00005329"},{"id":1109904,"mrr":false,"numeroConvocatoria":"908343","descripcion":"AYUDAS TRANSPORTE ESCOLAR NO OBLIGATORIO CURSO 2025-2026 Y MATRICULACIÓN Y LIBROS DE TEXTO CURSO ESCOLAR 2026-2027","descripcionLeng":"AJUDES TRANSPORT ESCOLAR NO OBLIGATORI CURS ESCOLAR 2025-2026 I MATRICULACIÓ I LLIBRES DE TEXT CURS ESCOLAR 2026-2027","fechaRecepcion":"2026-05-27","nivel1":"LOCAL","nivel2":"SANT MATEU DE BAGES","nivel3":"AYUNTAMIENTO DE SANT MATEU DE BAGES","codigoInvente":null},{"id":1109903,"mrr":false,"numeroConvocatoria":"908342","descripcion":"CONVOCATORIA PÚBLICA 2026 PARA LA CONCESIÓN DE SUBVENCIONES PARA EL FOMENTO DEL DEPORTE BASE Y CATEGORÍAS SUPERIORES, CON LA PARTICIPACIÓN EN ACTIVIDADES DEPORTIVAS DE TEMPORADA, CESIÓN DE MATERIAL MUNICIPAL EN LA DISCIPLINA DE PIRAGUISMO Y EXPLOTACIÓ...","descripcionLeng":null,"fechaRecepcion":"2026-05-27","nivel1":"LOCAL","nivel2":"TUDELA","nivel3":"AYUNTAMIENTO DE TUDELA","codigoInvente":null},{"id":1109902,"mrr":false,"numeroConvocatoria":"908341","descripcion":"SUBVENCIONES IGUALES SUMAMOS + 2026","descripcionLeng":null,"fechaRecepcion":"2026-05-27","nivel1":"LOCAL","nivel2":"DIPUTACIÓN PROV. DE CUENCA","nivel3":"DIPUTACIÓN PROVINCIAL DE CUENCA","codigoInvente":null},{"id":1109899,"mrr":false,"numeroConvocatoria":"908338","descripcion":"Convocatoria de becas internacionales de renovación para continuar estudios de Grado en la Universidad de Salamanca, curso académico 2026/2027, destinadas a estudiantes latinoamericanos.","descripcionLeng":null,"fechaRecepcion":"2026-05-27","nivel1":"OTROS","nivel2":"UNIVERSIDAD DE SALAMANCA","nivel3":null,"codigoInvente":"INV00005348"},{"id":1109896,"mrr":false,"numeroConvocatoria":"908335","descripcion":"AYUDAS DE EMERGENCIA SOCIAL 2026","descripcionLeng":"GIZARTE-LARRIALDIETARAKO LAGUNTZAK 2026\n","fechaRecepcion":"2026-05-27","nivel1":"LOCAL","nivel2":"ORTUELLA","nivel3":"AYUNTAMIENTO DE ORTUELLA","codigoInvente":null},{"id":1109895,"mrr":false,"numeroConvocatoria":"908334","descripcion":"CONVOCATORIA DE SUBVENCIONES PARA LA ORGANIZACIÓN DE CONGRESOS, SIMPOSIOS Y RECREACIONES HISTÓRICAS EN LA PROVINCIA 2026","descripcionLeng":null,"fechaRecepcion":"2026-05-27","nivel1":"LOCAL","nivel2":"DIPUTACIÓN PROV. DE TERUEL","nivel3":"DIPUTACIÓN PROVINCIAL DE TERUEL","codigoInvente":null},{"id":1109891,"mrr":false,"numeroConvocatoria":"908330","descripcion":"Resolución de la vicerrectora de Estudiantado y Vida Saludable por la cual se convocan los Premios del Aula Porcelanosa de Talento y Excelencia y de la Cátedra Altadia del Conocimiento Cerámico a los mejores trabajos sobre Tecnología Cerámi","descripcionLeng":"Resolució de la vicerectora d’Estudiantat i Vida Saludable per la qual es convoquen els Premis de l’Aula Porcelanosa de Talent i Excel·lència i de la Càtedra Altadia del Coneixement Ceràmic als millors treballs sobre Tecnologia Ceràmica","fechaRecepcion":"2026-05-27","nivel1":"OTROS","nivel2":"UNIVERSIDAD JAUME I DE CASTELLÓN","nivel3":null,"codigoInvente":"INV00005381"}],"pageable":{"sort":{"sorted":true,"unsorted":false,"empty":false},"pageNumber":18,"pageSize":50,"offset":900,"unpaged":false,"paged":true},"last":false,"totalElements":10000,"totalPages":200,"first":false,"sort":{"sorted":true,"unsorted":false,"empty":false},"numberOfElements":50,"size":50,"number":18,"empty":false,"advertencia":"La reutilización de los datos del Sistema Nacional de Publicidad de Subvenciones y Ayudas Públicas está sujeta a una serie de restricciones y consideraciones legales. Consulte el aviso legal en https://www.infosubvenciones.es/bdnstrans/GE/es/avisolegal.Además, el usuario debe ser consciente que la información presentada es de naturaleza dinámica, y que los datos pueden ser sometidos a correcciones, inserciones, modificaciones y eliminaciones en momentos posteriores a su extracción. Accesos al API del sistema Nacional de Publicidad de Subvenciones y Ayudas Públicas. La Administración Presupuestaria, para salvaguardar la protección del acceso libre e irrestricto de los ciudadanos a este Portal y a su información podrá adoptar medidas restrictivas de acceso al API ante situaciones de manifiesto abuso del servicio, riesgos de seguridad, o uso fraudulento de la información descargada, de acuerdo con las buenas prácticas de gestión de datos abiertos (https://datos.gob.es/es/blog/limitaciones-la-consulta-de-una-api) establecidas por el Ministerio para la Transformación Digital y de la Función Pública."}