{"content":[{"id":1108446,"mrr":false,"numeroConvocatoria":"906885","descripcion":"SUBVENCIONES PARTICIPACIÓN CIUDADANA 2026- LÍNEA 2.- PROYECTOS Y ACTIVIDADES DE ENTIDADES VECINALES EN MATERIA DE SOLEDAD NO DESEADA EN PERSONAS MAYORES","descripcionLeng":null,"fechaRecepcion":"2026-05-20","nivel1":"LOCAL","nivel2":"AVILÉS","nivel3":"AYUNTAMIENTO DE AVILÉS","codigoInvente":null},{"id":1108445,"mrr":false,"numeroConvocatoria":"906884","descripcion":"Convocatoria de subvenciones para la realización de actividades e iniciativas culturales i festivas en Cambrils 2026","descripcionLeng":"Convocatòria de subvencions per a la realització d'activitats i iniciatives culturals i festives a Cambrils 2026","fechaRecepcion":"2026-05-20","nivel1":"LOCAL","nivel2":"CAMBRILS","nivel3":"AYUNTAMIENTO DE CAMBRILS","codigoInvente":null},{"id":1108444,"mrr":false,"numeroConvocatoria":"906883","descripcion":"SUBVENCIONES PARTICIPACIÓN CIUDADANA 2026- LÍNEA 1.- MANTENIMIENTO DE ENTIDADES VECINALES","descripcionLeng":null,"fechaRecepcion":"2026-05-20","nivel1":"LOCAL","nivel2":"AVILÉS","nivel3":"AYUNTAMIENTO DE AVILÉS","codigoInvente":null},{"id":1108443,"mrr":false,"numeroConvocatoria":"906882","descripcion":"SUBVENCIONES PARTICIPACIÓN CIUDADANA 2026 - LINEA 0 - PROYECTOS DE COHESIÓN SOCIAL","descripcionLeng":null,"fechaRecepcion":"2026-05-20","nivel1":"LOCAL","nivel2":"AVILÉS","nivel3":"AYUNTAMIENTO DE AVILÉS","codigoInvente":null},{"id":1108438,"mrr":false,"numeroConvocatoria":"906877","descripcion":"BASES CONVOCATORIA DE LA XXXVIII BIENAL DE LOS PREMIOS LITERARIOS CIUTAT DE XÀTIVA 2026","descripcionLeng":"BASES CONVOCATÒRIA DE LA XXXVIII BIENNAL DELS PREMIS LITERARIS CIUTAT DE XÀTIVA 2026","fechaRecepcion":"2026-05-20","nivel1":"LOCAL","nivel2":"XÀTIVA","nivel3":"AYUNTAMIENTO DE XÀTIVA","codigoInvente":null},{"id":1108437,"mrr":false,"numeroConvocatoria":"906876","descripcion":"Acciones de difusión de productos agroalimentarios i artesanos de calidad","descripcionLeng":"Accions de difusió de productes agroalimentaris","fechaRecepcion":"2026-05-20","nivel1":"LOCAL","nivel2":"DIPUTACIÓN PROV. DE TARRAGONA","nivel3":"ORGANISME AUTÒNOM PATRONAT DE TURISME","codigoInvente":"INV00004480"},{"id":1108436,"mrr":false,"numeroConvocatoria":"906875","descripcion":"Convocatoria de las becas Càtedra Endavant Villarreal CF del deporte de la UJI","descripcionLeng":null,"fechaRecepcion":"2026-05-20","nivel1":"OTROS","nivel2":"UNIVERSIDAD JAUME I DE CASTELLÓN","nivel3":null,"codigoInvente":"INV00005381"},{"id":1108434,"mrr":false,"numeroConvocatoria":"906873","descripcion":"RESOL. Nº 887 de fecha 24 de abril de 2026. CONVOCATORIA DEL II PREMIO “ANA AMALIA GONZÁLEZ A LA ACCIÓN\nEN SALUD DE LAS MUJERES”.","descripcionLeng":null,"fechaRecepcion":"2026-05-20","nivel1":"LOCAL","nivel2":"DIPUTACIÓN PROV. DE ALMERÍA","nivel3":"DIPUTACIÓN PROVINCIAL DE ALMERÍA","codigoInvente":null},{"id":1108430,"mrr":false,"numeroConvocatoria":"906869","descripcion":"CONVOCATORIA PARA EL CONCURSO DE PROYECTOS JUVENILES DE AYUNTAMIENTO DE ALBACETE DE 2026","descripcionLeng":null,"fechaRecepcion":"2026-05-20","nivel1":"LOCAL","nivel2":"ALBACETE","nivel3":"AYUNTAMIENTO DE ALBACETE","codigoInvente":null},{"id":1108429,"mrr":false,"numeroConvocatoria":"906868","descripcion":"SUBVENCIONES COOPERACIÓN INTERNACIONAL 2026","descripcionLeng":null,"fechaRecepcion":"2026-05-20","nivel1":"LOCAL","nivel2":"DIPUTACIÓN PROV. DE CUENCA","nivel3":"DIPUTACIÓN PROVINCIAL DE CUENCA","codigoInvente":null},{"id":1108427,"mrr":false,"numeroConvocatoria":"906866","descripcion":"CONVOCATORIA 2026 DE SUBVENCIONES PARA LA REALIZACIÓN DE PROYECTOS Y/O ACTIVIDADES DEL ÁMBITO DE LA JUVENTUD","descripcionLeng":"CONVOCATÒRIA 2026 DE SUBVENCIONS PER A LA REALITZACIÓ DE PROJECTES I/O ACTIVITATS DE L’ÀMBIT DE LA JOVENTUT","fechaRecepcion":"2026-05-20","nivel1":"LOCAL","nivel2":"CUBELLES","nivel3":"AYUNTAMIENTO DE CUBELLES","codigoInvente":null},{"id":1108425,"mrr":false,"numeroConvocatoria":"906864","descripcion":"AYUDAS ECONOMICASA A LA ACTIVIDAD  COMERCIAL EN VALENCIANO 2026","descripcionLeng":"AJUDES ECONÒMIQUES A L'ACTIVITAT COMERCIAL EN VALENCIÀ 2026","fechaRecepcion":"2026-05-20","nivel1":"LOCAL","nivel2":"MONCADA","nivel3":"AYUNTAMIENTO DE MONCADA","codigoInvente":null},{"id":1108422,"mrr":false,"numeroConvocatoria":"906861","descripcion":"Becas de matrícula para el Máster Universitario Erasmus Mundus en Tecnología Geoespacial","descripcionLeng":"Beques de matrícula per al Màster Universitari Erasmus Mundus en Tecnologia Geoespacial","fechaRecepcion":"2026-05-20","nivel1":"OTROS","nivel2":"UNIVERSIDAD JAUME I DE CASTELLÓN","nivel3":null,"codigoInvente":"INV00005381"},{"id":1108420,"mrr":false,"numeroConvocatoria":"906859","descripcion":"CONVOCATORIA DE AYUDAS DE PAGO ÚNICO POR NACIMIENTO O ADOPCIÓN DE HIJO/A EN PEÑARANDA DE BRACAMONTE DURANTE EL AÑO 2026.","descripcionLeng":null,"fechaRecepcion":"2026-05-20","nivel1":"LOCAL","nivel2":"PEÑARANDA DE BRACAMONTE","nivel3":"AYUNTAMIENTO DE PEÑARANDA DE BRACAMONTE","codigoInvente":null},{"id":1108418,"mrr":false,"numeroConvocatoria":"906857","descripcion":"Decreto Alcaldía por el que se aprueba la convocatoria y bases específicas de subvenciones a asociaciones para realización actividades fiestas locales mayo y julio","descripcionLeng":null,"fechaRecepcion":"2026-05-20","nivel1":"LOCAL","nivel2":"CABANILLAS DEL CAMPO","nivel3":"AYUNTAMIENTO DE CABANILLAS DEL CAMPO","codigoInvente":null},{"id":1108416,"mrr":false,"numeroConvocatoria":"906855","descripcion":"BASES CONCURSO \"EXORNO DE ALTARES DEL CORPUS CHRISTI 2026\"","descripcionLeng":null,"fechaRecepcion":"2026-05-20","nivel1":"LOCAL","nivel2":"CANTILLANA","nivel3":"AYUNTAMIENTO DE CANTILLANA","codigoInvente":null},{"id":1108413,"mrr":false,"numeroConvocatoria":"906852","descripcion":"Convocatoria Pyme Cibersegura 2026 - Cámara Valencia","descripcionLeng":null,"fechaRecepcion":"2026-05-20","nivel1":"OTROS","nivel2":"CÁMARA DE COMERCIO DE VALENCIA","nivel3":null,"codigoInvente":null},{"id":1108412,"mrr":false,"numeroConvocatoria":"906851","descripcion":"Aprobación inicial de las bases reguladoras de las ayudas municipales para actividades de ocio de verano dirigidas a niños y jóvenes con diversidad funcional","descripcionLeng":"Aprovació inicial de les bases reguladores dels ajuts municipals per a activitats de lleure d’estiu adreçades a infants i joves amb diversitat funcional","fechaRecepcion":"2026-05-20","nivel1":"LOCAL","nivel2":"SANT JULIÀ DE RAMIS","nivel3":"AYUNTAMIENTO DE SANT JULIÀ DE RAMIS","codigoInvente":null},{"id":1108410,"mrr":false,"numeroConvocatoria":"906849","descripcion":"SUBVENCIONES PARA EL ARREGLO Y PINTADO DE FACHADAS EN EDIFICIOS ANTIGUOS DE PEÑARANDA DE BRACAMONTE. EJERCICIO 2026.","descripcionLeng":null,"fechaRecepcion":"2026-05-20","nivel1":"LOCAL","nivel2":"PEÑARANDA DE BRACAMONTE","nivel3":"AYUNTAMIENTO DE PEÑARANDA DE BRACAMONTE","codigoInvente":null},{"id":1108408,"mrr":false,"numeroConvocatoria":"906847","descripcion":"SUBVENCION ASOCIACIONES 2026","descripcionLeng":null,"fechaRecepcion":"2026-05-20","nivel1":"LOCAL","nivel2":"SANTA ELENA","nivel3":"AYUNTAMIENTO DE SANTA ELENA","codigoInvente":null},{"id":1108405,"mrr":false,"numeroConvocatoria":"906844","descripcion":"CONVOCATORIA DE LA AYUDA ECONÓMICA A LA VIVIENDA 2026 (EXP. 16804/2026)","descripcionLeng":"CONVOCATÒRIA DE L'AJUT ECONÒMIC A L'HABITATGE 2026 (EXP. 16804/2026)","fechaRecepcion":"2026-05-20","nivel1":"LOCAL","nivel2":"SANT CUGAT DEL VALLÈS","nivel3":"AYUNTAMIENTO DE SANT CUGAT DEL VALLÈS","codigoInvente":null},{"id":1108400,"mrr":false,"numeroConvocatoria":"906839","descripcion":"DGBCE/26 PREMIOS EXTRAORDINARIOS ESO 25-26","descripcionLeng":null,"fechaRecepcion":"2026-05-20","nivel1":"AUTONOMICA","nivel2":"COMUNIDAD DE MADRID","nivel3":"CONSEJERÍA DE EDUCACIÓN, CIENCIA Y UNIVERSIDADES","codigoInvente":null},{"id":1108399,"mrr":false,"numeroConvocatoria":"906838","descripcion":"Premios Olimpiadas Academicas y Promoción de Grado 2025-2026","descripcionLeng":null,"fechaRecepcion":"2026-05-20","nivel1":"OTROS","nivel2":"UNIVERSIDAD JAUME I DE CASTELLÓN","nivel3":null,"codigoInvente":"INV00005381"},{"id":1108395,"mrr":false,"numeroConvocatoria":"906834","descripcion":"CONVOCATORIA PARA EL OTORGAMIENTO DE SUBVENCIONES AYUNTAMIENTO DE VIELHA E MIJARAN","descripcionLeng":null,"fechaRecepcion":"2026-05-20","nivel1":"LOCAL","nivel2":"VIELHA E MIJARAN","nivel3":"AYUNTAMIENTO DE VIELHA E MIJARAN","codigoInvente":null},{"id":1108392,"mrr":false,"numeroConvocatoria":"906831","descripcion":"Actividades de márqueting y gestió de los destinos","descripcionLeng":"Activitats màrqueting i gestió de les destinacions","fechaRecepcion":"2026-05-20","nivel1":"LOCAL","nivel2":"DIPUTACIÓN PROV. DE TARRAGONA","nivel3":"ORGANISME AUTÒNOM PATRONAT DE TURISME","codigoInvente":"INV00004480"},{"id":1108391,"mrr":false,"numeroConvocatoria":"906830","descripcion":"Convocatoria del Concurso del Cartel Anunciador de Fiestas 2026","descripcionLeng":null,"fechaRecepcion":"2026-05-20","nivel1":"LOCAL","nivel2":"BARBASTRO","nivel3":"AYUNTAMIENTO DE BARBASTRO","codigoInvente":null},{"id":1108387,"mrr":false,"numeroConvocatoria":"906826","descripcion":"CONVOCATORIA PARA LA CONCESIÓN DE SUBVENCIONES “SEGOVIA SÍ INNOVA 2026” EN RÉGIMEN DE CONCURRENCIA COMPETITIVA, A ENTIDADES PRIVADAS PARA EL DESARROLLO DE PROYECTOS EN MATERIA DE INNOVACIÓN TECNOLÓGICA PARA EL AÑO 2026","descripcionLeng":null,"fechaRecepcion":"2026-05-20","nivel1":"LOCAL","nivel2":"SEGOVIA","nivel3":"AYUNTAMIENTO DE SEGOVIA","codigoInvente":null},{"id":1108386,"mrr":false,"numeroConvocatoria":"906825","descripcion":"Convocatoria visita feria SIAL Paris        \n","descripcionLeng":null,"fechaRecepcion":"2026-05-20","nivel1":"AUTONOMICA","nivel2":"CASTILLA-LA MANCHA","nivel3":"INSTITUTO DE PROMOCIÓN EXTERIOR DE CASTILLA-LA MANCHA","codigoInvente":null},{"id":1108385,"mrr":false,"numeroConvocatoria":"906824","descripcion":"2026-AJUST PRACTICA ESPORTIVA 2026-27","descripcionLeng":null,"fechaRecepcion":"2026-05-20","nivel1":"LOCAL","nivel2":"PARETS DEL VALLÈS","nivel3":"AYUNTAMIENTO DE PARETS DEL VALLÈS","codigoInvente":null},{"id":1108381,"mrr":false,"numeroConvocatoria":"906820","descripcion":"BASES QUE REGULAN LA CONVOCATORIA PARA LA CONCESIÓN DE LOS PREMIOS “PROYECTO 50/50 DE AHORRO DE ENERGÍA Y AGUA EN COLEGIOS PÚBLICOS EN RIVAS VACIAMADRID” CORRESPONDIENTE AL EJERCICIO PRESUPUESTARIO 2026.","descripcionLeng":null,"fechaRecepcion":"2026-05-20","nivel1":"LOCAL","nivel2":"RIVAS-VACIAMADRID","nivel3":"AYUNTAMIENTO DE RIVAS-VACIAMADRID","codigoInvente":null},{"id":1108379,"mrr":false,"numeroConvocatoria":"906818","descripcion":"CONVOCATORIA DE LAS SUBVENCIONES, A FAVOR DE ASOCIACIONES DE COMERCIANTES Y CENTROS COMERCIALES DEL MUNICIPIO DE LAS ROZAS PARA LA REALIZACIÓN DE PROYECTOS DE DINAMIZACION COMERCIAL Y ACTIVIDADES DE CARÁCTER COMERCIAL.","descripcionLeng":null,"fechaRecepcion":"2026-05-20","nivel1":"LOCAL","nivel2":"ROZAS DE MADRID, LAS","nivel3":"AYUNTAMIENTO DE ROZAS DE MADRID, LAS","codigoInvente":null},{"id":1108377,"mrr":false,"numeroConvocatoria":"906816","descripcion":"ORDEN del 11 de mayo 2026, por la que se aprueban las bases reguladoras de la concesión de subvenciones, en régimen de concurrencia competitiva, para la ejecución de programas de educación transformadora y de innovación y comunicación social a ejecutar po","descripcionLeng":"ORDE do 11 de maio 2026, pola que se aproban as bases reguladoras da concesión de subvencións, en réxime de concorrencia competitiva, para a execución de programas de educación transformadora e de innovación e comunicación social a executar polas organiza","fechaRecepcion":"2026-05-20","nivel1":"AUTONOMICA","nivel2":"GALICIA","nivel3":"CONSELLERÍA DE PRESIDENCIA, JUSTICIA Y DEPORTES","codigoInvente":null},{"id":1108375,"mrr":false,"numeroConvocatoria":"906814","descripcion":"APROBACIÓN DE LAS BASES y CONVOCATORIA PARA REGULAR LA CONCESIÓN DE LOS PREMIOS MERCÈ SABÍ DE MASQUEFA 2026","descripcionLeng":"APROVACIÓ DE LES BASES i CONVOCATÒRIA PER REGULAR LA CONCESSIÓ DELS PREMIS MERCÈ SABÍ DE MASQUEFA 2026 ","fechaRecepcion":"2026-05-20","nivel1":"LOCAL","nivel2":"MASQUEFA","nivel3":"AYUNTAMIENTO DE MASQUEFA","codigoInvente":null},{"id":1108374,"mrr":false,"numeroConvocatoria":"906813","descripcion":"CONVOCATORIA SUBVENCIONES CONCURRENCIA COMPETITIVA DEPORTISTAS DE ÉLITE 2025/2026","descripcionLeng":"CONVOCATORIA SUBVENCIONES CONCURRENCIA COMPETITIVA DEPORTISTAS DE ÉLITE 2025/2026","fechaRecepcion":"2026-05-20","nivel1":"LOCAL","nivel2":"ELDA","nivel3":"AYUNTAMIENTO DE ELDA","codigoInvente":null},{"id":1108373,"mrr":false,"numeroConvocatoria":"906812","descripcion":"CONVOCATORIA SUBVENCIÓN CONCURRENCIA COPETITIVA CLUBES Y ENTIDADES DEPORTIVAS 2025/2026","descripcionLeng":"CONVOCATORIA SUBVENCIÓN CONCURRENCIA COPETITIVA CLUBES Y ENTIDADES DEPORTIVAS 2025/2026","fechaRecepcion":"2026-05-20","nivel1":"LOCAL","nivel2":"ELDA","nivel3":"AYUNTAMIENTO DE ELDA","codigoInvente":null},{"id":1108370,"mrr":false,"numeroConvocatoria":"906809","descripcion":"Junta de Gobierno Local, de 18 de mayo de 2026, por la que se aprueba la convocatoria y bases para la concesión de becas formativas para jóvenes estudiantes dentro del programa \"UN ESTIU AMB L'AJUNTAMENT -FORMA'T I APREN 2026\" del Ayuntamiento de Oliva","descripcionLeng":null,"fechaRecepcion":"2026-05-20","nivel1":"LOCAL","nivel2":"OLIVA","nivel3":"AYUNTAMIENTO DE OLIVA","codigoInvente":null},{"id":1108367,"mrr":false,"numeroConvocatoria":"906806","descripcion":"CONVOCATORIA I PREMIOS LOCALES A LA EXCELENCIA EDUCATIVA PARA ALUMNADO DE 4º ESO DEL MUNICIPIO DE ALBACETE, CURSO 2025-2026.","descripcionLeng":null,"fechaRecepcion":"2026-05-20","nivel1":"LOCAL","nivel2":"ALBACETE","nivel3":"AYUNTAMIENTO DE ALBACETE","codigoInvente":null},{"id":1108364,"mrr":false,"numeroConvocatoria":"906803","descripcion":"Convocatoria de subvenciones para proyectos de entidades privadas sin ánimo de lucro para el fomento de la lengua catalana en Cataluña para el año 2026","descripcionLeng":"Convocatòria de subvencions per a projectes d'entitats privades sense ànim de lucre per al foment de la llengua catalana a Catalunya per a l'any 2026","fechaRecepcion":"2026-05-20","nivel1":"AUTONOMICA","nivel2":"CATALUÑA","nivel3":"OFICINA DE SUPORT A LA INICIATIVA CULTURAL","codigoInvente":null},{"id":1108363,"mrr":false,"numeroConvocatoria":"906802","descripcion":"Convocatòria 2026_AJUTS TGN COMERÇ EN MARXA","descripcionLeng":"Convocatoria 2026_AYUDAS TGN COMERCIO EN MARCHA","fechaRecepcion":"2026-05-20","nivel1":"LOCAL","nivel2":"TARRAGONA","nivel3":"AYUNTAMIENTO DE TARRAGONA","codigoInvente":null},{"id":1108362,"mrr":false,"numeroConvocatoria":"906801","descripcion":"Convocatoria de subvenciones a actividades de fomento de la ganadería 2026","descripcionLeng":null,"fechaRecepcion":"2026-05-20","nivel1":"LOCAL","nivel2":"VILLAVICIOSA","nivel3":"AYUNTAMIENTO DE VILLAVICIOSA","codigoInvente":null},{"id":1108361,"mrr":false,"numeroConvocatoria":"906800","descripcion":"Aprobación convocatoria para la concesión de subvenciones con destino a asociaciones de tercera edad del municipio de Granadilla de Abona que desarrollen actividades de ámbito cultural, recreativas y de ocio y tiempo libre","descripcionLeng":null,"fechaRecepcion":"2026-05-20","nivel1":"LOCAL","nivel2":"GRANADILLA DE ABONA","nivel3":"AYUNTAMIENTO DE GRANADILLA DE ABONA","codigoInvente":null},{"id":1108360,"mrr":false,"numeroConvocatoria":"906799","descripcion":"Convocatoria de subvenciones para la elaboración y la mejora de instrumentos de descripción, para la digitalización de fondos y documentos y para la restauración de documentos del patrimonio documental de Cataluña","descripcionLeng":"Convocatòria de subvencions per a l'elaboració i la millora d'instruments de descripció, per a la digitalització de fons i documents i per a la restauració de documents del patrimoni documental de Catalunya","fechaRecepcion":"2026-05-20","nivel1":"AUTONOMICA","nivel2":"CATALUÑA","nivel3":"OFICINA DE SUPORT A LA INICIATIVA CULTURAL","codigoInvente":null},{"id":1108359,"mrr":false,"numeroConvocatoria":"906798","descripcion":"POCTEFA 2021-2027 Convocatoria 09 AFLE2 AdE  REG (UE) 651/2014 de exención de notificación","descripcionLeng":null,"fechaRecepcion":"2026-05-20","nivel1":"ESTADO","nivel2":"MINISTERIO DE HACIENDA","nivel3":"DIRECCIÓN GENERAL DE FONDOS EUROPEOS","codigoInvente":null},{"id":1108358,"mrr":false,"numeroConvocatoria":"906797","descripcion":"POCTEFA 2021-2027 Convocatoria 09 AFLE2 AdE  REG (UE) 2023/2831 de minimis, General","descripcionLeng":null,"fechaRecepcion":"2026-05-20","nivel1":"ESTADO","nivel2":"MINISTERIO DE HACIENDA","nivel3":"DIRECCIÓN GENERAL DE FONDOS EUROPEOS","codigoInvente":null},{"id":1108357,"mrr":false,"numeroConvocatoria":"906796","descripcion":"POCTEFA 2021-2027 Convocatoria 08 ESCAT2 AdE REG (UE) 651/2014 de exención de notificación","descripcionLeng":null,"fechaRecepcion":"2026-05-20","nivel1":"ESTADO","nivel2":"MINISTERIO DE HACIENDA","nivel3":"DIRECCIÓN GENERAL DE FONDOS EUROPEOS","codigoInvente":null},{"id":1108355,"mrr":false,"numeroConvocatoria":"906794","descripcion":"POCTEFA 2021-2027 Convocatoria 08 AAP-ESCAT-ES AdE REG (UE) 2023/2831 de minimis, General","descripcionLeng":null,"fechaRecepcion":"2026-05-20","nivel1":"ESTADO","nivel2":"MINISTERIO DE HACIENDA","nivel3":"DIRECCIÓN GENERAL DE FONDOS EUROPEOS","codigoInvente":null},{"id":1108354,"mrr":false,"numeroConvocatoria":"906793","descripcion":"PROMOCIÓN TURÍSTICA 2026","descripcionLeng":null,"fechaRecepcion":"2026-05-20","nivel1":"LOCAL","nivel2":"COMARCA DE BAJO CINCA/BAIX CINCA","nivel3":"COMARCA DE BAJO CINCA/BAIX CINCA","codigoInvente":null},{"id":1108353,"mrr":false,"numeroConvocatoria":"906792","descripcion":"POCTEFA 2021-2027 Convocatoria 07 APP AdE REG (UE) 651/2014 de exención de notificación","descripcionLeng":null,"fechaRecepcion":"2026-05-20","nivel1":"ESTADO","nivel2":"MINISTERIO DE HACIENDA","nivel3":"DIRECCIÓN GENERAL DE FONDOS EUROPEOS","codigoInvente":null},{"id":1108350,"mrr":false,"numeroConvocatoria":"906789","descripcion":"POCTEFA 2021-2027 Convocatoria 07 APP AdE REG (UE) 2023/2831 de minimis, General","descripcionLeng":null,"fechaRecepcion":"2026-05-20","nivel1":"ESTADO","nivel2":"MINISTERIO DE HACIENDA","nivel3":"DIRECCIÓN GENERAL DE FONDOS EUROPEOS","codigoInvente":null},{"id":1108346,"mrr":false,"numeroConvocatoria":"906785","descripcion":"Convocatoria de subvenciones 2026. Subvenciones para asociaciones con fines dentro del área de servicios sociales, mediante el procedimiento de concurrencia competitiva.","descripcionLeng":"Dirulaguntzen 2026ko deialdia. Gizarte-zerbitzuen arloan diharduten elkarteei dirulaguntzak norgehiagoka-prozeduraren bidez. ","fechaRecepcion":"2026-05-20","nivel1":"LOCAL","nivel2":"OÑATI","nivel3":"AYUNTAMIENTO DE OÑATI","codigoInvente":null}],"pageable":{"sort":{"sorted":true,"unsorted":false,"empty":false},"pageNumber":41,"pageSize":50,"offset":2050,"unpaged":false,"paged":true},"last":false,"totalPages":200,"totalElements":10000,"first":false,"sort":{"sorted":true,"unsorted":false,"empty":false},"numberOfElements":50,"size":50,"number":41,"empty":false,"advertencia":"La reutilización de los datos del Sistema Nacional de Publicidad de Subvenciones y Ayudas Públicas está sujeta a una serie de restricciones y consideraciones legales. Consulte el aviso legal en https://www.infosubvenciones.es/bdnstrans/GE/es/avisolegal.Además, el usuario debe ser consciente que la información presentada es de naturaleza dinámica, y que los datos pueden ser sometidos a correcciones, inserciones, modificaciones y eliminaciones en momentos posteriores a su extracción. Accesos al API del sistema Nacional de Publicidad de Subvenciones y Ayudas Públicas. La Administración Presupuestaria, para salvaguardar la protección del acceso libre e irrestricto de los ciudadanos a este Portal y a su información podrá adoptar medidas restrictivas de acceso al API ante situaciones de manifiesto abuso del servicio, riesgos de seguridad, o uso fraudulento de la información descargada, de acuerdo con las buenas prácticas de gestión de datos abiertos (https://datos.gob.es/es/blog/limitaciones-la-consulta-de-una-api) establecidas por el Ministerio para la Transformación Digital y de la Función Pública."}