{"content":[{"id":1120991,"mrr":false,"numeroConvocatoria":"919430","descripcion":"Convocatoria Misión comercial directa Contract 2 semestre","descripcionLeng":null,"fechaRecepcion":"2026-07-15","nivel1":"AUTONOMICA","nivel2":"CASTILLA-LA MANCHA","nivel3":"INSTITUTO DE PROMOCIÓN EXTERIOR DE CASTILLA-LA MANCHA","codigoInvente":null},{"id":1120989,"mrr":false,"numeroConvocatoria":"919428","descripcion":"CONVOCATORIA DE LOS CERTÁMENES ARTÍSTICOS CIUDAD DE GETAFE 2026: “XXIII CERTAMEN NACIONAL DE PINTURA RÁPIDA. CIUDAD DE GETAFE”, EL “II CERTAMEN NACIONAL DE PINTURA SECA. CIUDAD DE GETAFE” Y EL “II CERTAMEN NACIONAL DE ESCULTURA. CIUDAD DE GETAFE”","descripcionLeng":null,"fechaRecepcion":"2026-07-15","nivel1":"LOCAL","nivel2":"GETAFE","nivel3":"AYUNTAMIENTO DE GETAFE","codigoInvente":null},{"id":1120984,"mrr":false,"numeroConvocatoria":"919423","descripcion":"SUBVENCIÓN ESCUELAS MUNICIPALES DE INICIACIÓN DEPORTIVA CURSO 2026-2027","descripcionLeng":"SUBVENCIÓ EMIE 2026-2027","fechaRecepcion":"2026-07-15","nivel1":"LOCAL","nivel2":"ALGEMESÍ","nivel3":"AYUNTAMIENTO DE ALGEMESÍ","codigoInvente":null},{"id":1120979,"mrr":false,"numeroConvocatoria":"919418","descripcion":" Convocatoria de 2026 de ayudas para la realización de proyectos de I+D+i_ID_FEDER","descripcionLeng":null,"fechaRecepcion":"2026-07-15","nivel1":"AUTONOMICA","nivel2":"COMUNIDAD FORAL DE NAVARRA","nivel3":"DEPARTAMENTO DE INDUSTRIA Y DE TRANSICION ECOLOGICA Y DIGITAL EMPRESARIAL","codigoInvente":null},{"id":1120976,"mrr":false,"numeroConvocatoria":"919415","descripcion":"Ayudas al fomento de la rehabilitación de viviendas de titularidad privada, dentro del programa para combatir la despoblación en el medio rural del Plan de Vivienda de Canarias 2020-2025, anualidad de 2025","descripcionLeng":null,"fechaRecepcion":"2026-07-15","nivel1":"LOCAL","nivel2":"HERMIGUA","nivel3":"AYUNTAMIENTO DE HERMIGUA","codigoInvente":null},{"id":1120968,"mrr":false,"numeroConvocatoria":"919407","descripcion":"RESOLUCIÓN DE LA VICERRECTORA DE INVESTIGACIÓN DE LA UNIVERSIDAD PARA LA CONTRATACIÓN DE PERSONAL INVESTIGADOR Y PERSONAL TÉCNICO DE APOYO, SEGÚN ARTÍCULO 23.bis de la Ley 14/2011 de la Ciencia, la Tecnología y la Innovación (JUNIO EXTRA2)","descripcionLeng":null,"fechaRecepcion":"2026-07-15","nivel1":"OTROS","nivel2":"UNIVERSIDAD DE OVIEDO","nivel3":null,"codigoInvente":"INV00005347"},{"id":1120962,"mrr":false,"numeroConvocatoria":"919401","descripcion":"Subvención extraordinaria a comercios y servicios de Sant Joan Despí por COVID-19\nPlan Reiniciamos Sant Joan Despí","descripcionLeng":null,"fechaRecepcion":"2026-07-15","nivel1":"LOCAL","nivel2":"SANT JOAN DESPÍ","nivel3":"AYUNTAMIENTO DE SANT JOAN DESPÍ","codigoInvente":null},{"id":1120959,"mrr":false,"numeroConvocatoria":"919398","descripcion":"CONVOCATORIA DE LAS AYUDAS PARA GASTOS DE MATRICULACIÓN DE LOS CASALES DE VERANO 2025","descripcionLeng":" CONVOCATÒRIA DELS AJUTS PER A DESPESES DE MATRICULACIÓ DELS CASALS D'ESTIU 2025","fechaRecepcion":"2026-07-15","nivel1":"LOCAL","nivel2":"TORROELLA DE FLUVIÀ","nivel3":"AYUNTAMIENTO DE TORROELLA DE FLUVIÀ","codigoInvente":null},{"id":1120958,"mrr":false,"numeroConvocatoria":"919397","descripcion":"RESOLUCIÓN por la que se abre el procedimiento de convocatoria pública para la concesión de subvenciones en centros educativos, para el desarrollo de programas de formación e inserción para el curso 2026-2027","descripcionLeng":"RESOLUCIÓ per la qual s'aprova la convocatòria derivada de les bases reguladoresque han de regir la concessió de subvencions a centres educatius, per al desenvolupament deprogrames de formació i inserció, durant el curs 2026-2027","fechaRecepcion":"2026-07-15","nivel1":"AUTONOMICA","nivel2":"CATALUÑA","nivel3":"DEPARTAMENT D'EDUCACIÓ I FORMACIÓ PROFESSIONAL","codigoInvente":null},{"id":1120956,"mrr":false,"numeroConvocatoria":"919395","descripcion":"BASES DE LA CONVOCATORIA ESPECÍFICA DE 2026 PARA LA CONCESIÓN DE SUBVENCIONES, EN RÉGIMEN DE CONCURRENCIA COMPETITIVA DESTINADAS A LA ORGANIZACIÓN Y DESARROLLO DE PROGRAMAS Y ACTUACIONES DEPORTIVAS EN EL MUNICIPIO DE ALCANTARILLA PARA LA TEMPORADA 25-26","descripcionLeng":null,"fechaRecepcion":"2026-07-15","nivel1":"LOCAL","nivel2":"ALCANTARILLA","nivel3":"AYUNTAMIENTO DE ALCANTARILLA","codigoInvente":null},{"id":1120954,"mrr":false,"numeroConvocatoria":"919393","descripcion":"APROBACIÓN DE LA CONVOCATORIA EN CONCURRENCIA COMPETITIVA DE SUBVENCIONES PARA PROYECTOS Y ACTIVIDADES DEL ÁMBITO DE MEDIO AMBIENTE 2026","descripcionLeng":"APROVACIÓ DE LA CONVOCATÒRIA EN RÈGIM DE CONCURRÈNCIA COMPETITIVA DE SUBVENCIONS PER A PROJECTES I ACTIVITATS DE L’ÀMBIT DE MEDI AMBIENT 2026","fechaRecepcion":"2026-07-15","nivel1":"LOCAL","nivel2":"CARDEDEU","nivel3":"AYUNTAMIENTO DE CARDEDEU","codigoInvente":null},{"id":1120949,"mrr":false,"numeroConvocatoria":"919388","descripcion":"Subvención destinadas  a los comercios y servicios de Sant Joan Despí para la contratación laboral de persones en paro . COVID-19\nPlan Reiniciamos Sant Joan Despí","descripcionLeng":null,"fechaRecepcion":"2026-07-15","nivel1":"LOCAL","nivel2":"SANT JOAN DESPÍ","nivel3":"AYUNTAMIENTO DE SANT JOAN DESPÍ","codigoInvente":null},{"id":1120948,"mrr":false,"numeroConvocatoria":"919387","descripcion":"Subvención a famílias de Sant Joan Despí escolarizadas en centros públicos y concertados de educación obligatoria de la ciudad y centros de educación especial de fuera del municipio.\nPlan Reiniciamos Sant Joan Despí","descripcionLeng":null,"fechaRecepcion":"2026-07-15","nivel1":"LOCAL","nivel2":"SANT JOAN DESPÍ","nivel3":"AYUNTAMIENTO DE SANT JOAN DESPÍ","codigoInvente":null},{"id":1120947,"mrr":false,"numeroConvocatoria":"919386","descripcion":"CONVENIS ANUALS I/O SUBVENCIONS PUNTUALS DEL DEPARTAMENT DE PROMOCIÓ ASSOCIATIVA (annex 1.1). BASES ESPECÍFIQUES I CONVOCATÒRIA PER A L'ANY 2019 APROVADES PER JG DE 2 DE DESEMBRE DE 2019","descripcionLeng":null,"fechaRecepcion":"2026-07-15","nivel1":"LOCAL","nivel2":"SANT JOAN DESPÍ","nivel3":"AYUNTAMIENTO DE SANT JOAN DESPÍ","codigoInvente":null},{"id":1120945,"mrr":false,"numeroConvocatoria":"919384","descripcion":"Subvenció per potenciar la participació d’infants i joves a les activitats de casals d’estiu que organitzen a la ciutat les entitats\nd’esplai del municipi,2020","descripcionLeng":null,"fechaRecepcion":"2026-07-15","nivel1":"LOCAL","nivel2":"SANT JOAN DESPÍ","nivel3":"AYUNTAMIENTO DE SANT JOAN DESPÍ","codigoInvente":null},{"id":1120943,"mrr":false,"numeroConvocatoria":"919382","descripcion":"Subvencio a la participació a la rua de carnaval 2020","descripcionLeng":null,"fechaRecepcion":"2026-07-15","nivel1":"LOCAL","nivel2":"SANT JOAN DESPÍ","nivel3":"AYUNTAMIENTO DE SANT JOAN DESPÍ","codigoInvente":null},{"id":1120942,"mrr":false,"numeroConvocatoria":"919381","descripcion":"CONVENIS ANUALS: PROJECTE ANUAL DE  FUNCIONAMENT  DE L´ENTITAT  ( Annex. 2.1)Bases específiques i convocatoria per a l´any 2020","descripcionLeng":null,"fechaRecepcion":"2026-07-15","nivel1":"LOCAL","nivel2":"SANT JOAN DESPÍ","nivel3":"AYUNTAMIENTO DE SANT JOAN DESPÍ","codigoInvente":null},{"id":1120941,"mrr":false,"numeroConvocatoria":"919380","descripcion":"Subvencions puntuals per activitats extraordinàries,competicions no previstes inicialment o accions formatives dels tècnics/ques en actiu a l'entitat, 2020","descripcionLeng":null,"fechaRecepcion":"2026-07-15","nivel1":"LOCAL","nivel2":"SANT JOAN DESPÍ","nivel3":"AYUNTAMIENTO DE SANT JOAN DESPÍ","codigoInvente":null},{"id":1120940,"mrr":false,"numeroConvocatoria":"919379","descripcion":"Subvenciones a ayuntamientos de la provincia de Palencia para obras de reparación, conservación y mejora de colegios de educación infantil y primaria del medio rural de la provincia de Palencia 26/27","descripcionLeng":null,"fechaRecepcion":"2026-07-15","nivel1":"LOCAL","nivel2":"DIPUTACIÓN PROV. DE PALENCIA","nivel3":"DIPUTACIÓN PROVINCIAL DE PALENCIA","codigoInvente":null},{"id":1120939,"mrr":false,"numeroConvocatoria":"919378","descripcion":"Projectes i/o activitats d'utilitat pública o interès social que promoguin la igualtat d'oportunitats entre dones, la inclusió i cohesió social, amb especial atenció als col•lectius més vulnerables de la societat.","descripcionLeng":null,"fechaRecepcion":"2026-07-15","nivel1":"LOCAL","nivel2":"SANT JOAN DESPÍ","nivel3":"AYUNTAMIENTO DE SANT JOAN DESPÍ","codigoInvente":null},{"id":1120938,"mrr":false,"numeroConvocatoria":"919377","descripcion":"Suport a ONG o entitats que fomentin la solidaritat en la ciutadania santjoanenca i/o afavoreixin el desenvolupament\neconòmic i social de països en via de desenvolu","descripcionLeng":null,"fechaRecepcion":"2026-07-15","nivel1":"LOCAL","nivel2":"SANT JOAN DESPÍ","nivel3":"AYUNTAMIENTO DE SANT JOAN DESPÍ","codigoInvente":null},{"id":1120937,"mrr":false,"numeroConvocatoria":"919376","descripcion":"Convocatoria de Ayudas para la adquisición de libros y/o material didáctico complementario para el curso académico 2026-2027.","descripcionLeng":null,"fechaRecepcion":"2026-07-15","nivel1":"LOCAL","nivel2":"TALAVERA DE LA REINA","nivel3":"AYUNTAMIENTO DE TALAVERA DE LA REINA","codigoInvente":null},{"id":1120936,"mrr":false,"numeroConvocatoria":"919375","descripcion":"CONVENIS ANUALS DEL DEPARTAMENT DE GENT GRAN  ( Annex 8) Bases específiques i convocatories per a l´any 2020","descripcionLeng":null,"fechaRecepcion":"2026-07-15","nivel1":"LOCAL","nivel2":"SANT JOAN DESPÍ","nivel3":"AYUNTAMIENTO DE SANT JOAN DESPÍ","codigoInvente":null},{"id":1120934,"mrr":false,"numeroConvocatoria":"919373","descripcion":"Projectes i/o activitats d'utilitat pública o interès social que promoguin la igualtat d'oportunitats entre dones, la inclusió i cohesió social","descripcionLeng":null,"fechaRecepcion":"2026-07-15","nivel1":"LOCAL","nivel2":"SANT JOAN DESPÍ","nivel3":"AYUNTAMIENTO DE SANT JOAN DESPÍ","codigoInvente":null},{"id":1120933,"mrr":false,"numeroConvocatoria":"919372","descripcion":"CONVENIS ESCOLES ESPORTIVES: Promoció a la pràctica esportiva en edat esportiva (Annex 2.2) Bases específiques i convocatoria per a l´any 2020","descripcionLeng":null,"fechaRecepcion":"2026-07-15","nivel1":"LOCAL","nivel2":"SANT JOAN DESPÍ","nivel3":"AYUNTAMIENTO DE SANT JOAN DESPÍ","codigoInvente":null},{"id":1120931,"mrr":false,"numeroConvocatoria":"919370","descripcion":" Programa de foment de la producció integrada.","descripcionLeng":null,"fechaRecepcion":"2026-07-15","nivel1":"LOCAL","nivel2":"SANT JOAN DESPÍ","nivel3":"AYUNTAMIENTO DE SANT JOAN DESPÍ","codigoInvente":null},{"id":1120930,"mrr":false,"numeroConvocatoria":"919369","descripcion":" Programa de foment de la producció integrada.","descripcionLeng":null,"fechaRecepcion":"2026-07-15","nivel1":"LOCAL","nivel2":"SANT JOAN DESPÍ","nivel3":"AYUNTAMIENTO DE SANT JOAN DESPÍ","codigoInvente":null},{"id":1120928,"mrr":false,"numeroConvocatoria":"919367","descripcion":"Subvención para los desplazamientos en transporte público y a la movilidad sostenible para jovenes (hasta 25 años) que esten cursando estudios superiores en el curso 2020-2021\nPlan Reiniciamos Sant Joan Despí","descripcionLeng":null,"fechaRecepcion":"2026-07-15","nivel1":"LOCAL","nivel2":"SANT JOAN DESPÍ","nivel3":"AYUNTAMIENTO DE SANT JOAN DESPÍ","codigoInvente":null},{"id":1120925,"mrr":false,"numeroConvocatoria":"919364","descripcion":"BASES REGULADORES DEL SORTEIG DE LA CAMPANYA DE DINAMITZACIÓ COMERCIAL CASTANYADA 2020-PROGRAMA REINICIEM","descripcionLeng":null,"fechaRecepcion":"2026-07-15","nivel1":"LOCAL","nivel2":"SANT JOAN DESPÍ","nivel3":"AYUNTAMIENTO DE SANT JOAN DESPÍ","codigoInvente":null},{"id":1120924,"mrr":false,"numeroConvocatoria":"919363","descripcion":"BASES REGULADORES CAMPANYA-SUBVENCIÓ \"TARGETA MONEDER-PROGRAMA REINICIEM. Fes una bona compra, ara més que mai, comerç de Sant Joan Despí\"","descripcionLeng":null,"fechaRecepcion":"2026-07-15","nivel1":"LOCAL","nivel2":"SANT JOAN DESPÍ","nivel3":"AYUNTAMIENTO DE SANT JOAN DESPÍ","codigoInvente":null},{"id":1120921,"mrr":false,"numeroConvocatoria":"919360","descripcion":"CONVOCATORIA 2026 DE SUBVENCIONES PARA EL FOMENTO Y PROMOCIÓN DE ACTIVIDADES Y EVENTOS DEPORTIVOS","descripcionLeng":null,"fechaRecepcion":"2026-07-15","nivel1":"LOCAL","nivel2":"PETRER","nivel3":"AYUNTAMIENTO DE PETRER","codigoInvente":null},{"id":1120898,"mrr":false,"numeroConvocatoria":"919337","descripcion":"Subvención any 2021destinadas  a los comercios y servicios de Sant Joan Despí para la contratación laboral de persones en paro . COVID-19\nPlan Reiniciamos Sant Joan Despí","descripcionLeng":null,"fechaRecepcion":"2026-07-15","nivel1":"LOCAL","nivel2":"SANT JOAN DESPÍ","nivel3":"AYUNTAMIENTO DE SANT JOAN DESPÍ","codigoInvente":null},{"id":1120893,"mrr":false,"numeroConvocatoria":"919332","descripcion":"Ayudas para deportistas de la Universitat de València matriculados/as en esta universidad en el curso 2026/27","descripcionLeng":"Ajudes per a esportistes de la Universitat de València matriculats/matriculades en aquesta universitat el curs 2026/27","fechaRecepcion":"2026-07-15","nivel1":"OTROS","nivel2":"UNIVERSITAT DE VALÈNCIA (ESTUDI GENERAL)","nivel3":null,"codigoInvente":"INV00005380"},{"id":1120882,"mrr":false,"numeroConvocatoria":"919321","descripcion":"Convocatoria subvenciones a Ayuntamientos para gastos de mantenimiento en colegios de educación infantil y primaria 2026/27","descripcionLeng":null,"fechaRecepcion":"2026-07-15","nivel1":"LOCAL","nivel2":"DIPUTACIÓN PROV. DE PALENCIA","nivel3":"DIPUTACIÓN PROVINCIAL DE PALENCIA","codigoInvente":null},{"id":1120873,"mrr":false,"numeroConvocatoria":"919312","descripcion":"AYUDAS A COMUNIDADES DE REGANTES Y COMUNIDADES GENERALES DE REGANTES PARA LA EJECUCIÓN DE INVERSIONES EN INFRAESTRUCTURAS DE REGADÍOS CON OBJETIVOS AMBIENTALES, PREVISTAS EN EL PLAN ESTRATÉGICO DE LA POLÍTICA AGRÍCOLA COMÚN 2023-2027. INTERVENCIÓN 6843.1.","descripcionLeng":null,"fechaRecepcion":"2026-07-15","nivel1":"AUTONOMICA","nivel2":"REGIÓN DE MURCIA","nivel3":"CONSEJERÍA DE AGUA, AGRICULTURA, GANADERÍA Y PESCA","codigoInvente":null},{"id":1120868,"mrr":false,"numeroConvocatoria":"919307","descripcion":"Ayudas de compensaciones complementarias y ayudas para la reposición de los animales en explotaciones de determinadas especies ganaderas como consecuencia de la ejecución de programas oficiales de lucha, control y erradicación de enfermedades animales","descripcionLeng":"Ajudes de compensacions complementàries i ajudes per a la reposició dels animals en explotacions de determinades espècies ramaderes a conseqüència de l’execució de programes oficials de lluita, control i erradicació de malalties animals.","fechaRecepcion":"2026-07-15","nivel1":"AUTONOMICA","nivel2":"COMUNITAT VALENCIANA","nivel3":"SECRETARÍA AUTONÓMICA DE AGRICULTURA, GANADERÍA Y PESCA","codigoInvente":null},{"id":1120864,"mrr":false,"numeroConvocatoria":"919303","descripcion":"Ayudas de minimis a la adquisición de maquinaria y equipos para reducir el uso de herbicidas en el control de las malas hierbas para el año 2026","descripcionLeng":"Ajuts de minimis a l'adquisició de maquinària i equips per reduir l'ús d'herbicides en el control de les males herbes per a l'any 2026","fechaRecepcion":"2026-07-15","nivel1":"AUTONOMICA","nivel2":"CATALUÑA","nivel3":"DEPARTAMENT D'AGRICULTURA, RAMADERIA, PESCA I ALIMENTACIÓ","codigoInvente":null},{"id":1120863,"mrr":false,"numeroConvocatoria":"919302","descripcion":"Subvencions a l’associacionisme en la participació d’activitats de lleure: Colònies i campaments 2021","descripcionLeng":null,"fechaRecepcion":"2026-07-15","nivel1":"LOCAL","nivel2":"SANT JOAN DESPÍ","nivel3":"AYUNTAMIENTO DE SANT JOAN DESPÍ","codigoInvente":null},{"id":1120861,"mrr":false,"numeroConvocatoria":"919300","descripcion":"CONVENIS ANUALS DEL DEPARTAMENT DE JOVENTUT  ( Annex 6) Bases específiques i convocatòries per a l’any 2021.","descripcionLeng":null,"fechaRecepcion":"2026-07-15","nivel1":"LOCAL","nivel2":"SANT JOAN DESPÍ","nivel3":"AYUNTAMIENTO DE SANT JOAN DESPÍ","codigoInvente":null},{"id":1120859,"mrr":false,"numeroConvocatoria":"919298","descripcion":"Suport  a  entitats  del  municipi  per  al  desenvolupament  de  programes,  activitats  o  serveis  \nrelacionats amb la millora de la salut de la població,  informar la població en temes de salut pública, desenvolupar \nprogrames d’int","descripcionLeng":null,"fechaRecepcion":"2026-07-15","nivel1":"LOCAL","nivel2":"SANT JOAN DESPÍ","nivel3":"AYUNTAMIENTO DE SANT JOAN DESPÍ","codigoInvente":null},{"id":1120858,"mrr":false,"numeroConvocatoria":"919297","descripcion":"Projectes de cooperació internacional 2021","descripcionLeng":null,"fechaRecepcion":"2026-07-15","nivel1":"LOCAL","nivel2":"SANT JOAN DESPÍ","nivel3":"AYUNTAMIENTO DE SANT JOAN DESPÍ","codigoInvente":null},{"id":1120857,"mrr":false,"numeroConvocatoria":"919296","descripcion":"PROJECTES EDUCATIUS DELS CENTRES, 2021","descripcionLeng":null,"fechaRecepcion":"2026-07-15","nivel1":"LOCAL","nivel2":"SANT JOAN DESPÍ","nivel3":"AYUNTAMIENTO DE SANT JOAN DESPÍ","codigoInvente":null},{"id":1120856,"mrr":false,"numeroConvocatoria":"919295","descripcion":"SS SUBVENCIONES A ASOCIACIONES DE PERSONAS MAYORES Y A FEDERACIÓN DE CENTROS DE PERSONAS MAYORES DEL MUNICIPIO DE CARTAGENA DESTINADOS A LA FINANCIACIÓN DE EQUIPAMIENTO DE LOCALES.","descripcionLeng":null,"fechaRecepcion":"2026-07-15","nivel1":"LOCAL","nivel2":"CARTAGENA","nivel3":"AYUNTAMIENTO DE CARTAGENA","codigoInvente":null},{"id":1120851,"mrr":false,"numeroConvocatoria":"919290","descripcion":"PREMIOS A TRABAJOS FIN DE GRADO Y TRABAJOS FIN DE MÁSTER QUE ABORDEN RETOS PLANTEADOS EN EL ODS 2 (HAMBRE CERO) DE LA AGENDA 2030","descripcionLeng":null,"fechaRecepcion":"2026-07-15","nivel1":"OTROS","nivel2":"UNIVERSIDAD DE ALICANTE","nivel3":null,"codigoInvente":"INV00005329"},{"id":1120845,"mrr":false,"numeroConvocatoria":"919284","descripcion":"Ayudas en régimen de exención a la adquisición de maquinaria y equipos para reducir el uso de herbicidas en el control de las malas hierbas para el año 2026","descripcionLeng":"Ajuts en règim d'exempció a l'adquisició de maquinària i equips per reduir l'ús d'herbicides en el control de les males herbes per a l'any 2026","fechaRecepcion":"2026-07-15","nivel1":"AUTONOMICA","nivel2":"CATALUÑA","nivel3":"DEPARTAMENT D'AGRICULTURA, RAMADERIA, PESCA I ALIMENTACIÓ","codigoInvente":null},{"id":1120844,"mrr":false,"numeroConvocatoria":"919283","descripcion":"Subvención para los desplazamientos en transporte público  para jovenes (hasta 25 años) que esten cursando estudios superiores en el curso 2021-2022\nPlan Reiniciamos Sant Joan Despí 2021","descripcionLeng":null,"fechaRecepcion":"2026-07-15","nivel1":"LOCAL","nivel2":"SANT JOAN DESPÍ","nivel3":"AYUNTAMIENTO DE SANT JOAN DESPÍ","codigoInvente":null},{"id":1120843,"mrr":false,"numeroConvocatoria":"919282","descripcion":"CONVENIS ANUALS I/O SUBVENCIONS PUNTUALS DEL DEPARTAMENT DE PROMOCIÓ ASSOCIATIVA (annex 1.1). BASES ESPECÍFIQUES I CONVOCATÒRIA PER A L'ANY 2021 APROVADES PER JG DE 14 DE DESEMBRE DE 2020","descripcionLeng":null,"fechaRecepcion":"2026-07-15","nivel1":"LOCAL","nivel2":"SANT JOAN DESPÍ","nivel3":"AYUNTAMIENTO DE SANT JOAN DESPÍ","codigoInvente":null},{"id":1120842,"mrr":false,"numeroConvocatoria":"919281","descripcion":"Projectes i/o activitats d'utilitat pública o interès social que promoguin la igualtat d'oportunitats entre dones, la inclusió i cohesió social, amb especial atenció als col•lectius més vulnerables de la societat.","descripcionLeng":null,"fechaRecepcion":"2026-07-15","nivel1":"LOCAL","nivel2":"SANT JOAN DESPÍ","nivel3":"AYUNTAMIENTO DE SANT JOAN DESPÍ","codigoInvente":null},{"id":1120840,"mrr":false,"numeroConvocatoria":"919279","descripcion":"Projectes i/o activitats d'utilitat pública o interès social que promoguin la igualtat d'oportunitats entre dones, la inclusió i cohesió social","descripcionLeng":null,"fechaRecepcion":"2026-07-15","nivel1":"LOCAL","nivel2":"SANT JOAN DESPÍ","nivel3":"AYUNTAMIENTO DE SANT JOAN DESPÍ","codigoInvente":null},{"id":1120838,"mrr":false,"numeroConvocatoria":"919277","descripcion":"CONVENIS ANUALS DEL DEPARTAMENT DE GENT GRAN  ( Annex 8) Bases específiques i convocatories per a l´any 2021","descripcionLeng":null,"fechaRecepcion":"2026-07-15","nivel1":"LOCAL","nivel2":"SANT JOAN DESPÍ","nivel3":"AYUNTAMIENTO DE SANT JOAN DESPÍ","codigoInvente":null}],"pageable":{"sort":{"sorted":true,"unsorted":false,"empty":false},"pageNumber":4,"pageSize":50,"offset":200,"paged":true,"unpaged":false},"last":false,"totalPages":200,"totalElements":10000,"sort":{"sorted":true,"unsorted":false,"empty":false},"first":false,"numberOfElements":50,"size":50,"number":4,"empty":false,"advertencia":"La reutilización de los datos del Sistema Nacional de Publicidad de Subvenciones y Ayudas Públicas está sujeta a una serie de restricciones y consideraciones legales. Consulte el aviso legal en https://www.infosubvenciones.es/bdnstrans/GE/es/avisolegal.Además, el usuario debe ser consciente que la información presentada es de naturaleza dinámica, y que los datos pueden ser sometidos a correcciones, inserciones, modificaciones y eliminaciones en momentos posteriores a su extracción. Accesos al API del sistema Nacional de Publicidad de Subvenciones y Ayudas Públicas. La Administración Presupuestaria, para salvaguardar la protección del acceso libre e irrestricto de los ciudadanos a este Portal y a su información podrá adoptar medidas restrictivas de acceso al API ante situaciones de manifiesto abuso del servicio, riesgos de seguridad, o uso fraudulento de la información descargada, de acuerdo con las buenas prácticas de gestión de datos abiertos (https://datos.gob.es/es/blog/limitaciones-la-consulta-de-una-api) establecidas por el Ministerio para la Transformación Digital y de la Función Pública."}